0	;	0	;	120
0	;	100	;	328.685
0	;	200	;	363.64
0	;	300	;	363.64
0	;	400	;	363.64
0	;	500	;	363.64
0	;	600	;	363.64
0	;	700	;	363.64
0	;	800	;	363.64
0	;	900	;	363.64
0	;	1000	;	363.64
0	;	1100	;	363.64
0	;	1200	;	363.64
0	;	1300	;	363.64
0	;	1400	;	363.64
0	;	1500	;	363.64
0	;	1600	;	363.64
0	;	1700	;	363.64
0	;	1800	;	363.64
0	;	1900	;	363.64
0	;	2000	;	363.64
0	;	2100	;	363.64
0	;	2200	;	363.64
0	;	2300	;	363.64
0	;	2400	;	363.64
0	;	2500	;	363.64
0	;	2600	;	363.64
0	;	2700	;	363.64
0	;	2800	;	363.64
0	;	2900	;	363.64
0	;	3000	;	363.64
0	;	3100	;	363.64
0	;	3200	;	363.64
0	;	3300	;	363.64
0	;	3400	;	363.64
0	;	3500	;	363.64
0	;	3600	;	363.64
0	;	3700	;	363.64
0	;	3800	;	363.64
0	;	3900	;	363.64
0	;	4000	;	363.64
100	;	0	;	-88.685
100	;	100	;	120
100	;	200	;	154.955
100	;	300	;	154.955
100	;	400	;	154.955
100	;	500	;	154.955
100	;	600	;	154.955
100	;	700	;	154.955
100	;	800	;	154.955
100	;	900	;	154.955
100	;	1000	;	154.955
100	;	1100	;	154.955
100	;	1200	;	154.955
100	;	1300	;	154.955
100	;	1400	;	154.955
100	;	1500	;	154.955
100	;	1600	;	154.955
100	;	1700	;	154.955
100	;	1800	;	154.955
100	;	1900	;	154.955
100	;	2000	;	154.955
100	;	2100	;	154.955
100	;	2200	;	154.955
100	;	2300	;	154.955
100	;	2400	;	154.955
100	;	2500	;	154.955
100	;	2600	;	154.955
100	;	2700	;	154.955
100	;	2800	;	154.955
100	;	2900	;	154.955
100	;	3000	;	154.955
100	;	3100	;	154.955
100	;	3200	;	154.955
100	;	3300	;	154.955
100	;	3400	;	154.955
100	;	3500	;	154.955
100	;	3600	;	154.955
100	;	3700	;	154.955
100	;	3800	;	154.955
100	;	3900	;	154.955
100	;	4000	;	154.955
200	;	0	;	180.71279
200	;	100	;	128.71048
200	;	200	;	120
200	;	300	;	95
200	;	400	;	95
200	;	500	;	95
200	;	600	;	95
200	;	700	;	95
200	;	800	;	95
200	;	900	;	95
200	;	1000	;	95
200	;	1100	;	95
200	;	1200	;	95
200	;	1300	;	95
200	;	1400	;	95
200	;	1500	;	95
200	;	1600	;	95
200	;	1700	;	95
200	;	1800	;	95
200	;	1900	;	95
200	;	2000	;	95
200	;	2100	;	95
200	;	2200	;	95
200	;	2300	;	95
200	;	2400	;	95
200	;	2500	;	95
200	;	2600	;	95
200	;	2700	;	95
200	;	2800	;	95
200	;	2900	;	95
200	;	3000	;	95
200	;	3100	;	95
200	;	3200	;	95
200	;	3300	;	95
200	;	3400	;	95
200	;	3500	;	95
200	;	3600	;	95
200	;	3700	;	95
200	;	3800	;	95
200	;	3900	;	95
200	;	4000	;	95
300	;	0	;	115.08691
300	;	100	;	115.08691
300	;	200	;	115.08691
300	;	300	;	120
300	;	400	;	95
300	;	500	;	95
300	;	600	;	95
300	;	700	;	95
300	;	800	;	95
300	;	900	;	95
300	;	1000	;	95
300	;	1100	;	95
300	;	1200	;	95
300	;	1300	;	95
300	;	1400	;	95
300	;	1500	;	95
300	;	1600	;	95
300	;	1700	;	95
300	;	1800	;	95
300	;	1900	;	95
300	;	2000	;	95
300	;	2100	;	95
300	;	2200	;	95
300	;	2300	;	95
300	;	2400	;	95
300	;	2500	;	95
300	;	2600	;	95
300	;	2700	;	95
300	;	2800	;	95
300	;	2900	;	95
300	;	3000	;	95
300	;	3100	;	95
300	;	3200	;	95
300	;	3300	;	95
300	;	3400	;	95
300	;	3500	;	95
300	;	3600	;	95
300	;	3700	;	95
300	;	3800	;	95
300	;	3900	;	95
300	;	4000	;	95
400	;	0	;	114.99817
400	;	100	;	114.99817
400	;	200	;	114.99817
400	;	300	;	114.99817
400	;	400	;	120
400	;	500	;	95
400	;	600	;	95
400	;	700	;	95
400	;	800	;	95
400	;	900	;	95
400	;	1000	;	95
400	;	1100	;	95
400	;	1200	;	95
400	;	1300	;	95
400	;	1400	;	95
400	;	1500	;	95
400	;	1600	;	95
400	;	1700	;	95
400	;	1800	;	95
400	;	1900	;	95
400	;	2000	;	95
400	;	2100	;	95
400	;	2200	;	95
400	;	2300	;	95
400	;	2400	;	95
400	;	2500	;	95
400	;	2600	;	95
400	;	2700	;	95
400	;	2800	;	95
400	;	2900	;	95
400	;	3000	;	95
400	;	3100	;	95
400	;	3200	;	95
400	;	3300	;	95
400	;	3400	;	95
400	;	3500	;	95
400	;	3600	;	95
400	;	3700	;	95
400	;	3800	;	95
400	;	3900	;	95
400	;	4000	;	95
500	;	0	;	120
500	;	100	;	120
500	;	200	;	120
500	;	300	;	120
500	;	400	;	120
500	;	500	;	120
500	;	600	;	99.02554
500	;	700	;	95
500	;	800	;	95
500	;	900	;	95
500	;	1000	;	95
500	;	1100	;	95
500	;	1200	;	95
500	;	1300	;	95
500	;	1400	;	95
500	;	1500	;	95
500	;	1600	;	95
500	;	1700	;	95
500	;	1800	;	95
500	;	1900	;	95
500	;	2000	;	95
500	;	2100	;	95
500	;	2200	;	95
500	;	2300	;	95
500	;	2400	;	95
500	;	2500	;	95
500	;	2600	;	95
500	;	2700	;	95
500	;	2800	;	95
500	;	2900	;	95
500	;	3000	;	95
500	;	3100	;	95
500	;	3200	;	95
500	;	3300	;	95
500	;	3400	;	95
500	;	3500	;	95
500	;	3600	;	95
500	;	3700	;	95
500	;	3800	;	95
500	;	3900	;	95
500	;	4000	;	95
600	;	0	;	120
600	;	100	;	120
600	;	200	;	120
600	;	300	;	120
600	;	400	;	120
600	;	500	;	120
600	;	600	;	120
600	;	700	;	101.98119
600	;	800	;	95
600	;	900	;	95
600	;	1000	;	95
600	;	1100	;	95
600	;	1200	;	95
600	;	1300	;	95
600	;	1400	;	95
600	;	1500	;	95
600	;	1600	;	95
600	;	1700	;	95
600	;	1800	;	95
600	;	1900	;	95
600	;	2000	;	95
600	;	2100	;	95
600	;	2200	;	95
600	;	2300	;	95
600	;	2400	;	95
600	;	2500	;	95
600	;	2600	;	95
600	;	2700	;	95
600	;	2800	;	95
600	;	2900	;	95
600	;	3000	;	95
600	;	3100	;	95
600	;	3200	;	95
600	;	3300	;	95
600	;	3400	;	95
600	;	3500	;	95
600	;	3600	;	95
600	;	3700	;	95
600	;	3800	;	95
600	;	3900	;	95
600	;	4000	;	95
700	;	0	;	120
700	;	100	;	120
700	;	200	;	120
700	;	300	;	120
700	;	400	;	120
700	;	500	;	120
700	;	600	;	120
700	;	700	;	120
700	;	800	;	107.30216
700	;	900	;	98.98682
700	;	1000	;	95
700	;	1100	;	95
700	;	1200	;	95
700	;	1300	;	95
700	;	1400	;	95
700	;	1500	;	95
700	;	1600	;	95
700	;	1700	;	95
700	;	1800	;	95
700	;	1900	;	95
700	;	2000	;	95
700	;	2100	;	95
700	;	2200	;	95
700	;	2300	;	95
700	;	2400	;	95
700	;	2500	;	95
700	;	2600	;	95
700	;	2700	;	95
700	;	2800	;	95
700	;	2900	;	95
700	;	3000	;	95
700	;	3100	;	95
700	;	3200	;	95
700	;	3300	;	95
700	;	3400	;	95
700	;	3500	;	95
700	;	3600	;	95
700	;	3700	;	95
700	;	3800	;	95
700	;	3900	;	95
700	;	4000	;	95
800	;	0	;	120
800	;	100	;	120
800	;	200	;	120
800	;	300	;	120
800	;	400	;	120
800	;	500	;	120
800	;	600	;	120
800	;	700	;	120
800	;	800	;	120
800	;	900	;	109.6599
800	;	1000	;	103.65312
800	;	1100	;	98.52631
800	;	1200	;	95
800	;	1300	;	95
800	;	1400	;	95
800	;	1500	;	95
800	;	1600	;	95
800	;	1700	;	95
800	;	1800	;	95
800	;	1900	;	95
800	;	2000	;	95
800	;	2100	;	95
800	;	2200	;	95
800	;	2300	;	95
800	;	2400	;	95
800	;	2500	;	95
800	;	2600	;	95
800	;	2700	;	95
800	;	2800	;	95
800	;	2900	;	95
800	;	3000	;	95
800	;	3100	;	95
800	;	3200	;	95
800	;	3300	;	95
800	;	3400	;	95
800	;	3500	;	95
800	;	3600	;	95
800	;	3700	;	95
800	;	3800	;	95
800	;	3900	;	95
800	;	4000	;	95
900	;	0	;	120
900	;	100	;	120
900	;	200	;	120
900	;	300	;	120
900	;	400	;	120
900	;	500	;	120
900	;	600	;	120
900	;	700	;	120
900	;	800	;	120
900	;	900	;	120
900	;	1000	;	110.82031
900	;	1100	;	105.59302
900	;	1200	;	101.45842
900	;	1300	;	97.82193
900	;	1400	;	95
900	;	1500	;	95
900	;	1600	;	95
900	;	1700	;	95
900	;	1800	;	95
900	;	1900	;	95
900	;	2000	;	95
900	;	2100	;	95
900	;	2200	;	95
900	;	2300	;	95
900	;	2400	;	95
900	;	2500	;	95
900	;	2600	;	95
900	;	2700	;	95
900	;	2800	;	95
900	;	2900	;	95
900	;	3000	;	95
900	;	3100	;	95
900	;	3200	;	95
900	;	3300	;	95
900	;	3400	;	95
900	;	3500	;	95
900	;	3600	;	95
900	;	3700	;	95
900	;	3800	;	95
900	;	3900	;	95
900	;	4000	;	95
1000	;	0	;	120
1000	;	100	;	120
1000	;	200	;	120
1000	;	300	;	120
1000	;	400	;	120
1000	;	500	;	120
1000	;	600	;	120
1000	;	700	;	120
1000	;	800	;	120
1000	;	900	;	120
1000	;	1000	;	120
1000	;	1100	;	111.25423
1000	;	1200	;	106.59766
1000	;	1300	;	102.88086
1000	;	1400	;	99.75614
1000	;	1500	;	97.05581
1000	;	1600	;	95
1000	;	1700	;	95
1000	;	1800	;	95
1000	;	1900	;	95
1000	;	2000	;	95
1000	;	2100	;	95
1000	;	2200	;	95
1000	;	2300	;	95
1000	;	2400	;	95
1000	;	2500	;	95
1000	;	2600	;	95
1000	;	2700	;	95
1000	;	2800	;	95
1000	;	2900	;	95
1000	;	3000	;	95
1000	;	3100	;	95
1000	;	3200	;	95
1000	;	3300	;	95
1000	;	3400	;	95
1000	;	3500	;	95
1000	;	3600	;	95
1000	;	3700	;	95
1000	;	3800	;	95
1000	;	3900	;	95
1000	;	4000	;	95
1100	;	0	;	120
1100	;	100	;	120
1100	;	200	;	120
1100	;	300	;	120
1100	;	400	;	120
1100	;	500	;	120
1100	;	600	;	120
1100	;	700	;	120
1100	;	800	;	120
1100	;	900	;	120
1100	;	1000	;	120
1100	;	1100	;	120
1100	;	1200	;	111.65529
1100	;	1300	;	107.61911
1100	;	1400	;	104.06413
1100	;	1500	;	101.23983
1100	;	1600	;	98.82404
1100	;	1700	;	96.705
1100	;	1800	;	95
1100	;	1900	;	95
1100	;	2000	;	95
1100	;	2100	;	95
1100	;	2200	;	95
1100	;	2300	;	95
1100	;	2400	;	95
1100	;	2500	;	95
1100	;	2600	;	95
1100	;	2700	;	95
1100	;	2800	;	95
1100	;	2900	;	95
1100	;	3000	;	95
1100	;	3100	;	95
1100	;	3200	;	95
1100	;	3300	;	95
1100	;	3400	;	95
1100	;	3500	;	95
1100	;	3600	;	95
1100	;	3700	;	95
1100	;	3800	;	95
1100	;	3900	;	95
1100	;	4000	;	95
1200	;	0	;	120
1200	;	100	;	120
1200	;	200	;	120
1200	;	300	;	120
1200	;	400	;	120
1200	;	500	;	120
1200	;	600	;	120
1200	;	700	;	120
1200	;	800	;	120
1200	;	900	;	120
1200	;	1000	;	120
1200	;	1100	;	120
1200	;	1200	;	120
1200	;	1300	;	111.35423
1200	;	1400	;	107.81633
1200	;	1500	;	104.7034
1200	;	1600	;	102.29171
1200	;	1700	;	99.9324
1200	;	1800	;	98.25767
1200	;	1900	;	96.58295
1200	;	2000	;	95
1200	;	2100	;	95
1200	;	2200	;	95
1200	;	2300	;	95
1200	;	2400	;	95
1200	;	2500	;	95
1200	;	2600	;	95
1200	;	2700	;	95
1200	;	2800	;	95
1200	;	2900	;	95
1200	;	3000	;	95
1200	;	3100	;	95
1200	;	3200	;	95
1200	;	3300	;	95
1200	;	3400	;	95
1200	;	3500	;	95
1200	;	3600	;	95
1200	;	3700	;	95
1200	;	3800	;	95
1200	;	3900	;	95
1200	;	4000	;	95
1300	;	0	;	120
1300	;	100	;	120
1300	;	200	;	120
1300	;	300	;	120
1300	;	400	;	120
1300	;	500	;	120
1300	;	600	;	120
1300	;	700	;	120
1300	;	800	;	120
1300	;	900	;	120
1300	;	1000	;	120
1300	;	1100	;	120
1300	;	1200	;	120
1300	;	1300	;	120
1300	;	1400	;	111.73881
1300	;	1500	;	108.72174
1300	;	1600	;	106.13215
1300	;	1700	;	103.84647
1300	;	1800	;	101.85402
1300	;	1900	;	99.90864
1300	;	2000	;	98.29243
1300	;	2100	;	96.67623
1300	;	2200	;	95.06002
1300	;	2300	;	95
1300	;	2400	;	95
1300	;	2500	;	95
1300	;	2600	;	95
1300	;	2700	;	95
1300	;	2800	;	95
1300	;	2900	;	95
1300	;	3000	;	95
1300	;	3100	;	95
1300	;	3200	;	95
1300	;	3300	;	95
1300	;	3400	;	95
1300	;	3500	;	95
1300	;	3600	;	95
1300	;	3700	;	95
1300	;	3800	;	95
1300	;	3900	;	95
1300	;	4000	;	95
1400	;	0	;	120
1400	;	100	;	120
1400	;	200	;	120
1400	;	300	;	120
1400	;	400	;	120
1400	;	500	;	120
1400	;	600	;	120
1400	;	700	;	120
1400	;	800	;	120
1400	;	900	;	120
1400	;	1000	;	120
1400	;	1100	;	120
1400	;	1200	;	120
1400	;	1300	;	120
1400	;	1400	;	120
1400	;	1500	;	112.18836
1400	;	1600	;	109.12685
1400	;	1700	;	106.62797
1400	;	1800	;	104.35195
1400	;	1900	;	102.61447
1400	;	2000	;	100.87698
1400	;	2100	;	99.33092
1400	;	2200	;	98.04667
1400	;	2300	;	96.76241
1400	;	2400	;	95.47816
1400	;	2500	;	95
1400	;	2600	;	95
1400	;	2700	;	95
1400	;	2800	;	95
1400	;	2900	;	95
1400	;	3000	;	95
1400	;	3100	;	95
1400	;	3200	;	95
1400	;	3300	;	95
1400	;	3400	;	95
1400	;	3500	;	95
1400	;	3600	;	95
1400	;	3700	;	95
1400	;	3800	;	95
1400	;	3900	;	95
1400	;	4000	;	95
1500	;	0	;	120
1500	;	100	;	120
1500	;	200	;	120
1500	;	300	;	120
1500	;	400	;	120
1500	;	500	;	120
1500	;	600	;	120
1500	;	700	;	120
1500	;	800	;	120
1500	;	900	;	120
1500	;	1000	;	120
1500	;	1100	;	120
1500	;	1200	;	120
1500	;	1300	;	120
1500	;	1400	;	120
1500	;	1500	;	120
1500	;	1600	;	112.19549
1500	;	1700	;	109.38415
1500	;	1800	;	107.24849
1500	;	1900	;	105.11283
1500	;	2000	;	103.52342
1500	;	2100	;	102.0072
1500	;	2200	;	100.49097
1500	;	2300	;	99.18209
1500	;	2400	;	97.97488
1500	;	2500	;	96.76767
1500	;	2600	;	95.56047
1500	;	2700	;	95
1500	;	2800	;	95
1500	;	2900	;	95
1500	;	3000	;	95
1500	;	3100	;	95
1500	;	3200	;	95
1500	;	3300	;	95
1500	;	3400	;	95
1500	;	3500	;	95
1500	;	3600	;	95
1500	;	3700	;	95
1500	;	3800	;	95
1500	;	3900	;	95
1500	;	4000	;	95
1600	;	0	;	120
1600	;	100	;	120
1600	;	200	;	120
1600	;	300	;	120
1600	;	400	;	120
1600	;	500	;	120
1600	;	600	;	120
1600	;	700	;	120
1600	;	800	;	120
1600	;	900	;	120
1600	;	1000	;	120
1600	;	1100	;	120
1600	;	1200	;	120
1600	;	1300	;	120
1600	;	1400	;	120
1600	;	1500	;	120
1600	;	1600	;	120
1600	;	1700	;	112.46496
1600	;	1800	;	109.86349
1600	;	1900	;	107.78167
1600	;	2000	;	105.69984
1600	;	2100	;	103.93945
1600	;	2200	;	102.42323
1600	;	2300	;	100.907
1600	;	2400	;	99.53004
1600	;	2500	;	98.40346
1600	;	2600	;	97.27688
1600	;	2700	;	96.1503
1600	;	2800	;	95.02373
1600	;	2900	;	95
1600	;	3000	;	95
1600	;	3100	;	95
1600	;	3200	;	95
1600	;	3300	;	95
1600	;	3400	;	95
1600	;	3500	;	95
1600	;	3600	;	95
1600	;	3700	;	95
1600	;	3800	;	95
1600	;	3900	;	95
1600	;	4000	;	95
1700	;	0	;	120
1700	;	100	;	120
1700	;	200	;	120
1700	;	300	;	120
1700	;	400	;	120
1700	;	500	;	120
1700	;	600	;	120
1700	;	700	;	120
1700	;	800	;	120
1700	;	900	;	120
1700	;	1000	;	120
1700	;	1100	;	120
1700	;	1200	;	120
1700	;	1300	;	120
1700	;	1400	;	120
1700	;	1500	;	120
1700	;	1600	;	120
1700	;	1700	;	120
1700	;	1800	;	112.70144
1700	;	1900	;	110.19967
1700	;	2000	;	108.21731
1700	;	2100	;	106.27374
1700	;	2200	;	104.4776
1700	;	2300	;	103.01993
1700	;	2400	;	101.70929
1700	;	2500	;	100.51796
1700	;	2600	;	99.41322
1700	;	2700	;	98.39209
1700	;	2800	;	97.39334
1700	;	2900	;	96.55143
1700	;	3000	;	95.70952
1700	;	3100	;	95
1700	;	3200	;	95
1700	;	3300	;	95
1700	;	3400	;	95
1700	;	3500	;	95
1700	;	3600	;	95
1700	;	3700	;	95
1700	;	3800	;	95
1700	;	3900	;	95
1700	;	4000	;	95
1800	;	0	;	120
1800	;	100	;	120
1800	;	200	;	120
1800	;	300	;	120
1800	;	400	;	120
1800	;	500	;	120
1800	;	600	;	120
1800	;	700	;	120
1800	;	800	;	120
1800	;	900	;	120
1800	;	1000	;	120
1800	;	1100	;	120
1800	;	1200	;	120
1800	;	1300	;	120
1800	;	1400	;	120
1800	;	1500	;	120
1800	;	1600	;	120
1800	;	1700	;	120
1800	;	1800	;	120
1800	;	1900	;	112.90166
1800	;	2000	;	110.43185
1800	;	2100	;	108.29036
1800	;	2200	;	106.52999
1800	;	2300	;	105.02246
1800	;	2400	;	103.7433
1800	;	2500	;	102.49164
1800	;	2600	;	101.29871
1800	;	2700	;	100.10607
1800	;	2800	;	99.16419
1800	;	2900	;	98.26497
1800	;	3000	;	97.3752
1800	;	3100	;	96.59182
1800	;	3200	;	95.80844
1800	;	3300	;	95.02506
1800	;	3400	;	95
1800	;	3500	;	95
1800	;	3600	;	95
1800	;	3700	;	95
1800	;	3800	;	95
1800	;	3900	;	95
1800	;	4000	;	95
1900	;	0	;	120
1900	;	100	;	120
1900	;	200	;	120
1900	;	300	;	120
1900	;	400	;	120
1900	;	500	;	120
1900	;	600	;	120
1900	;	700	;	120
1900	;	800	;	120
1900	;	900	;	120
1900	;	1000	;	120
1900	;	1100	;	120
1900	;	1200	;	120
1900	;	1300	;	120
1900	;	1400	;	120
1900	;	1500	;	120
1900	;	1600	;	120
1900	;	1700	;	120
1900	;	1800	;	120
1900	;	1900	;	120
1900	;	2000	;	112.86802
1900	;	2100	;	110.56286
1900	;	2200	;	108.69106
1900	;	2300	;	106.97053
1900	;	2400	;	105.24999
1900	;	2500	;	103.96943
1900	;	2600	;	102.81761
1900	;	2700	;	101.6658
1900	;	2800	;	100.51398
1900	;	2900	;	99.47944
1900	;	3000	;	98.5919
1900	;	3100	;	97.70435
1900	;	3200	;	96.88217
1900	;	3300	;	96.07972
1900	;	3400	;	95.27727
1900	;	3500	;	95
1900	;	3600	;	95
1900	;	3700	;	95
1900	;	3800	;	95
1900	;	3900	;	95
1900	;	4000	;	95
2000	;	0	;	120
2000	;	100	;	120
2000	;	200	;	120
2000	;	300	;	120
2000	;	400	;	120
2000	;	500	;	120
2000	;	600	;	120
2000	;	700	;	120
2000	;	800	;	120
2000	;	900	;	120
2000	;	1000	;	120
2000	;	1100	;	120
2000	;	1200	;	120
2000	;	1300	;	120
2000	;	1400	;	120
2000	;	1500	;	120
2000	;	1600	;	120
2000	;	1700	;	120
2000	;	1800	;	120
2000	;	1900	;	120
2000	;	2000	;	120
2000	;	2100	;	120
2000	;	2200	;	112.91532
2000	;	2300	;	110.90529
2000	;	2400	;	109.16296
2000	;	2500	;	107.68476
2000	;	2600	;	106.20655
2000	;	2700	;	104.74524
2000	;	2800	;	103.61
2000	;	2900	;	102.47477
2000	;	3000	;	101.47845
2000	;	3100	;	100.48834
2000	;	3200	;	99.54888
2000	;	3300	;	98.69247
2000	;	3400	;	97.83607
2000	;	3500	;	97.06028
2000	;	3600	;	96.33695
2000	;	3700	;	95.61361
2000	;	3800	;	95
2000	;	3900	;	95
2000	;	4000	;	95
2100	;	0	;	120
2100	;	100	;	120
2100	;	200	;	120
2100	;	300	;	120
2100	;	400	;	120
2100	;	500	;	120
2100	;	600	;	120
2100	;	700	;	120
2100	;	800	;	120
2100	;	900	;	120
2100	;	1000	;	120
2100	;	1100	;	120
2100	;	1200	;	120
2100	;	1300	;	120
2100	;	1400	;	120
2100	;	1500	;	120
2100	;	1600	;	120
2100	;	1700	;	120
2100	;	1800	;	120
2100	;	1900	;	120
2100	;	2000	;	120
2100	;	2100	;	120
2100	;	2200	;	112.91532
2100	;	2300	;	110.90529
2100	;	2400	;	109.16296
2100	;	2500	;	107.68476
2100	;	2600	;	106.20655
2100	;	2700	;	104.74524
2100	;	2800	;	103.61
2100	;	2900	;	102.47477
2100	;	3000	;	101.47845
2100	;	3100	;	100.48834
2100	;	3200	;	99.54888
2100	;	3300	;	98.69247
2100	;	3400	;	97.83607
2100	;	3500	;	97.06028
2100	;	3600	;	96.33695
2100	;	3700	;	95.61361
2100	;	3800	;	95
2100	;	3900	;	95
2100	;	4000	;	95
2200	;	0	;	120
2200	;	100	;	120
2200	;	200	;	120
2200	;	300	;	120
2200	;	400	;	120
2200	;	500	;	120
2200	;	600	;	120
2200	;	700	;	120
2200	;	800	;	120
2200	;	900	;	120
2200	;	1000	;	120
2200	;	1100	;	120
2200	;	1200	;	120
2200	;	1300	;	120
2200	;	1400	;	120
2200	;	1500	;	120
2200	;	1600	;	120
2200	;	1700	;	120
2200	;	1800	;	120
2200	;	1900	;	120
2200	;	2000	;	120
2200	;	2100	;	120
2200	;	2200	;	120
2200	;	2300	;	113.16428
2200	;	2400	;	111.20707
2200	;	2500	;	109.41531
2200	;	2600	;	107.95086
2200	;	2700	;	106.48641
2200	;	2800	;	105.02196
2200	;	2900	;	103.9295
2200	;	3000	;	102.86492
2200	;	3100	;	101.88917
2200	;	3200	;	100.96259
2200	;	3300	;	100.03725
2200	;	3400	;	99.18492
2200	;	3500	;	98.33259
2200	;	3600	;	97.48026
2200	;	3700	;	96.81128
2200	;	3800	;	96.15159
2200	;	3900	;	95.4919
2200	;	4000	;	95
2300	;	0	;	120
2300	;	100	;	120
2300	;	200	;	120
2300	;	300	;	120
2300	;	400	;	120
2300	;	500	;	120
2300	;	600	;	120
2300	;	700	;	120
2300	;	800	;	120
2300	;	900	;	120
2300	;	1000	;	120
2300	;	1100	;	120
2300	;	1200	;	120
2300	;	1300	;	120
2300	;	1400	;	120
2300	;	1500	;	120
2300	;	1600	;	120
2300	;	1700	;	120
2300	;	1800	;	120
2300	;	1900	;	120
2300	;	2000	;	120
2300	;	2100	;	120
2300	;	2200	;	120
2300	;	2300	;	120
2300	;	2400	;	113.26085
2300	;	2500	;	111.4624
2300	;	2600	;	109.73655
2300	;	2700	;	108.36973
2300	;	2800	;	107.0029
2300	;	2900	;	105.63608
2300	;	3000	;	104.4769
2300	;	3100	;	103.5098
2300	;	3200	;	102.54271
2300	;	3300	;	101.64351
2300	;	3400	;	100.74856
2300	;	3500	;	99.85582
2300	;	3600	;	99.06073
2300	;	3700	;	98.26563
2300	;	3800	;	97.47054
2300	;	3900	;	96.24572
2300	;	4000	;	95
2400	;	0	;	120
2400	;	100	;	120
2400	;	200	;	120
2400	;	300	;	120
2400	;	400	;	120
2400	;	500	;	120
2400	;	600	;	120
2400	;	700	;	120
2400	;	800	;	120
2400	;	900	;	120
2400	;	1000	;	120
2400	;	1100	;	120
2400	;	1200	;	120
2400	;	1300	;	120
2400	;	1400	;	120
2400	;	1500	;	120
2400	;	1600	;	120
2400	;	1700	;	120
2400	;	1800	;	120
2400	;	1900	;	120
2400	;	2000	;	120
2400	;	2100	;	120
2400	;	2200	;	120
2400	;	2300	;	120
2400	;	2400	;	120
2400	;	2500	;	113.39595
2400	;	2600	;	111.60747
2400	;	2700	;	109.83282
2400	;	2800	;	108.3253
2400	;	2900	;	106.91947
2400	;	3000	;	105.66933
2400	;	3100	;	104.54877
2400	;	3200	;	103.62219
2400	;	3300	;	102.69561
2400	;	3400	;	101.7859
2400	;	3500	;	100.88114
2400	;	3600	;	99.97637
2400	;	3700	;	98.67948
2400	;	3800	;	97.3627
2400	;	3900	;	96.04592
2400	;	4000	;	95
2500	;	0	;	120
2500	;	100	;	120
2500	;	200	;	120
2500	;	300	;	120
2500	;	400	;	120
2500	;	500	;	120
2500	;	600	;	120
2500	;	700	;	120
2500	;	800	;	120
2500	;	900	;	120
2500	;	1000	;	120
2500	;	1100	;	120
2500	;	1200	;	120
2500	;	1300	;	120
2500	;	1400	;	120
2500	;	1500	;	120
2500	;	1600	;	120
2500	;	1700	;	120
2500	;	1800	;	120
2500	;	1900	;	120
2500	;	2000	;	120
2500	;	2100	;	120
2500	;	2200	;	120
2500	;	2300	;	120
2500	;	2400	;	120
2500	;	2500	;	120
2500	;	2600	;	113.28056
2500	;	2700	;	111.51312
2500	;	2800	;	109.80228
2500	;	2900	;	108.48803
2500	;	3000	;	107.18836
2500	;	3100	;	105.93822
2500	;	3200	;	104.74471
2500	;	3300	;	103.7377
2500	;	3400	;	102.73069
2500	;	3500	;	101.88352
2500	;	3600	;	101.10561
2500	;	3700	;	100.3277
2500	;	3800	;	98.87081
2500	;	3900	;	96.71353
2500	;	4000	;	95
2600	;	0	;	120
2600	;	100	;	120
2600	;	200	;	120
2600	;	300	;	120
2600	;	400	;	120
2600	;	500	;	120
2600	;	600	;	120
2600	;	700	;	120
2600	;	800	;	120
2600	;	900	;	120
2600	;	1000	;	120
2600	;	1100	;	120
2600	;	1200	;	120
2600	;	1300	;	120
2600	;	1400	;	120
2600	;	1500	;	120
2600	;	1600	;	120
2600	;	1700	;	120
2600	;	1800	;	120
2600	;	1900	;	120
2600	;	2000	;	120
2600	;	2100	;	120
2600	;	2200	;	120
2600	;	2300	;	120
2600	;	2400	;	120
2600	;	2500	;	120
2600	;	2600	;	120
2600	;	2700	;	113.40481
2600	;	2800	;	111.63737
2600	;	2900	;	109.88869
2600	;	3000	;	108.46491
2600	;	3100	;	107.11925
2600	;	3200	;	105.95311
2600	;	3300	;	104.81805
2600	;	3400	;	103.92456
2600	;	3500	;	103.03107
2600	;	3600	;	102.16871
2600	;	3700	;	101.35512
2600	;	3800	;	100.54154
2600	;	3900	;	98.65959
2600	;	4000	;	95
2700	;	0	;	120
2700	;	100	;	120
2700	;	200	;	120
2700	;	300	;	120
2700	;	400	;	120
2700	;	500	;	120
2700	;	600	;	120
2700	;	700	;	120
2700	;	800	;	120
2700	;	900	;	120
2700	;	1000	;	120
2700	;	1100	;	120
2700	;	1200	;	120
2700	;	1300	;	120
2700	;	1400	;	120
2700	;	1500	;	120
2700	;	1600	;	120
2700	;	1700	;	120
2700	;	1800	;	120
2700	;	1900	;	120
2700	;	2000	;	120
2700	;	2100	;	120
2700	;	2200	;	120
2700	;	2300	;	120
2700	;	2400	;	120
2700	;	2500	;	120
2700	;	2600	;	120
2700	;	2700	;	120
2700	;	2800	;	120
2700	;	2900	;	113.36416
2700	;	3000	;	111.78969
2700	;	3100	;	110.36592
2700	;	3200	;	109.147
2700	;	3300	;	108.00798
2700	;	3400	;	106.9067
2700	;	3500	;	105.83888
2700	;	3600	;	104.82422
2700	;	3700	;	104.02913
2700	;	3800	;	103.23403
2700	;	3900	;	102.43894
2700	;	4000	;	95
2800	;	0	;	120
2800	;	100	;	120
2800	;	200	;	120
2800	;	300	;	120
2800	;	400	;	120
2800	;	500	;	120
2800	;	600	;	120
2800	;	700	;	120
2800	;	800	;	120
2800	;	900	;	120
2800	;	1000	;	120
2800	;	1100	;	120
2800	;	1200	;	120
2800	;	1300	;	120
2800	;	1400	;	120
2800	;	1500	;	120
2800	;	1600	;	120
2800	;	1700	;	120
2800	;	1800	;	120
2800	;	1900	;	120
2800	;	2000	;	120
2800	;	2100	;	120
2800	;	2200	;	120
2800	;	2300	;	120
2800	;	2400	;	120
2800	;	2500	;	120
2800	;	2600	;	120
2800	;	2700	;	120
2800	;	2800	;	120
2800	;	2900	;	113.36416
2800	;	3000	;	111.78969
2800	;	3100	;	110.36592
2800	;	3200	;	109.147
2800	;	3300	;	108.00798
2800	;	3400	;	106.9067
2800	;	3500	;	105.83888
2800	;	3600	;	104.82422
2800	;	3700	;	104.02913
2800	;	3800	;	103.23403
2800	;	3900	;	102.43894
2800	;	4000	;	95
2900	;	0	;	120
2900	;	100	;	120
2900	;	200	;	120
2900	;	300	;	120
2900	;	400	;	120
2900	;	500	;	120
2900	;	600	;	120
2900	;	700	;	120
2900	;	800	;	120
2900	;	900	;	120
2900	;	1000	;	120
2900	;	1100	;	120
2900	;	1200	;	120
2900	;	1300	;	120
2900	;	1400	;	120
2900	;	1500	;	120
2900	;	1600	;	120
2900	;	1700	;	120
2900	;	1800	;	120
2900	;	1900	;	120
2900	;	2000	;	120
2900	;	2100	;	120
2900	;	2200	;	120
2900	;	2300	;	120
2900	;	2400	;	120
2900	;	2500	;	120
2900	;	2600	;	120
2900	;	2700	;	120
2900	;	2800	;	120
2900	;	2900	;	120
2900	;	3000	;	113.53498
2900	;	3100	;	112.05309
2900	;	3200	;	110.57121
2900	;	3300	;	109.27954
2900	;	3400	;	108.14237
2900	;	3500	;	107.10943
2900	;	3600	;	106.22571
2900	;	3700	;	105.34199
2900	;	3800	;	102.60812
2900	;	3900	;	98.58607
2900	;	4000	;	95
3000	;	0	;	120
3000	;	100	;	120
3000	;	200	;	120
3000	;	300	;	120
3000	;	400	;	120
3000	;	500	;	120
3000	;	600	;	120
3000	;	700	;	120
3000	;	800	;	120
3000	;	900	;	120
3000	;	1000	;	120
3000	;	1100	;	120
3000	;	1200	;	120
3000	;	1300	;	120
3000	;	1400	;	120
3000	;	1500	;	120
3000	;	1600	;	120
3000	;	1700	;	120
3000	;	1800	;	120
3000	;	1900	;	120
3000	;	2000	;	120
3000	;	2100	;	120
3000	;	2200	;	120
3000	;	2300	;	120
3000	;	2400	;	120
3000	;	2500	;	120
3000	;	2600	;	120
3000	;	2700	;	120
3000	;	2800	;	120
3000	;	2900	;	120
3000	;	3000	;	120
3000	;	3100	;	113.57136
3000	;	3200	;	112.16709
3000	;	3300	;	110.76283
3000	;	3400	;	109.47418
3000	;	3500	;	108.337
3000	;	3600	;	107.25874
3000	;	3700	;	106.32312
3000	;	3800	;	105.38749
3000	;	3900	;	101.90866
3000	;	4000	;	95
3100	;	0	;	120
3100	;	100	;	120
3100	;	200	;	120
3100	;	300	;	120
3100	;	400	;	120
3100	;	500	;	120
3100	;	600	;	120
3100	;	700	;	120
3100	;	800	;	120
3100	;	900	;	120
3100	;	1000	;	120
3100	;	1100	;	120
3100	;	1200	;	120
3100	;	1300	;	120
3100	;	1400	;	120
3100	;	1500	;	120
3100	;	1600	;	120
3100	;	1700	;	120
3100	;	1800	;	120
3100	;	1900	;	120
3100	;	2000	;	120
3100	;	2100	;	120
3100	;	2200	;	120
3100	;	2300	;	120
3100	;	2400	;	120
3100	;	2500	;	120
3100	;	2600	;	120
3100	;	2700	;	120
3100	;	2800	;	120
3100	;	2900	;	120
3100	;	3000	;	120
3100	;	3100	;	120
3100	;	3200	;	114.90387
3100	;	3300	;	113.60626
3100	;	3400	;	112.30864
3100	;	3500	;	111.01103
3100	;	3600	;	109.77046
3100	;	3700	;	108.76545
3100	;	3800	;	107.76043
3100	;	3900	;	102.09007
3100	;	4000	;	95
3200	;	0	;	120
3200	;	100	;	120
3200	;	200	;	120
3200	;	300	;	120
3200	;	400	;	120
3200	;	500	;	120
3200	;	600	;	120
3200	;	700	;	120
3200	;	800	;	120
3200	;	900	;	120
3200	;	1000	;	120
3200	;	1100	;	120
3200	;	1200	;	120
3200	;	1300	;	120
3200	;	1400	;	120
3200	;	1500	;	120
3200	;	1600	;	120
3200	;	1700	;	120
3200	;	1800	;	120
3200	;	1900	;	120
3200	;	2000	;	120
3200	;	2100	;	120
3200	;	2200	;	120
3200	;	2300	;	120
3200	;	2400	;	120
3200	;	2500	;	120
3200	;	2600	;	120
3200	;	2700	;	120
3200	;	2800	;	120
3200	;	2900	;	120
3200	;	3000	;	120
3200	;	3100	;	120
3200	;	3200	;	120
3200	;	3300	;	114.98933
3200	;	3400	;	113.57105
3200	;	3500	;	112.22568
3200	;	3600	;	111.14398
3200	;	3700	;	110.06721
3200	;	3800	;	109.05022
3200	;	3900	;	108.03324
3200	;	4000	;	95
3300	;	0	;	120
3300	;	100	;	120
3300	;	200	;	120
3300	;	300	;	120
3300	;	400	;	120
3300	;	500	;	120
3300	;	600	;	120
3300	;	700	;	120
3300	;	800	;	120
3300	;	900	;	120
3300	;	1000	;	120
3300	;	1100	;	120
3300	;	1200	;	120
3300	;	1300	;	120
3300	;	1400	;	120
3300	;	1500	;	120
3300	;	1600	;	120
3300	;	1700	;	120
3300	;	1800	;	120
3300	;	1900	;	120
3300	;	2000	;	120
3300	;	2100	;	120
3300	;	2200	;	120
3300	;	2300	;	120
3300	;	2400	;	120
3300	;	2500	;	120
3300	;	2600	;	120
3300	;	2700	;	120
3300	;	2800	;	120
3300	;	2900	;	120
3300	;	3000	;	120
3300	;	3100	;	120
3300	;	3200	;	120
3300	;	3300	;	120
3300	;	3400	;	120
3300	;	3500	;	113.67412
3300	;	3600	;	112.35783
3300	;	3700	;	111.31179
3300	;	3800	;	110.26575
3300	;	3900	;	103.3118
3300	;	4000	;	95
3400	;	0	;	120
3400	;	100	;	120
3400	;	200	;	120
3400	;	300	;	120
3400	;	400	;	120
3400	;	500	;	120
3400	;	600	;	120
3400	;	700	;	120
3400	;	800	;	120
3400	;	900	;	120
3400	;	1000	;	120
3400	;	1100	;	120
3400	;	1200	;	120
3400	;	1300	;	120
3400	;	1400	;	120
3400	;	1500	;	120
3400	;	1600	;	120
3400	;	1700	;	120
3400	;	1800	;	120
3400	;	1900	;	120
3400	;	2000	;	120
3400	;	2100	;	120
3400	;	2200	;	120
3400	;	2300	;	120
3400	;	2400	;	120
3400	;	2500	;	120
3400	;	2600	;	120
3400	;	2700	;	120
3400	;	2800	;	120
3400	;	2900	;	120
3400	;	3000	;	120
3400	;	3100	;	120
3400	;	3200	;	120
3400	;	3300	;	120
3400	;	3400	;	120
3400	;	3500	;	113.67412
3400	;	3600	;	112.35783
3400	;	3700	;	111.31179
3400	;	3800	;	110.26575
3400	;	3900	;	103.3118
3400	;	4000	;	95
3500	;	0	;	120
3500	;	100	;	120
3500	;	200	;	120
3500	;	300	;	120
3500	;	400	;	120
3500	;	500	;	120
3500	;	600	;	120
3500	;	700	;	120
3500	;	800	;	120
3500	;	900	;	120
3500	;	1000	;	120
3500	;	1100	;	120
3500	;	1200	;	120
3500	;	1300	;	120
3500	;	1400	;	120
3500	;	1500	;	120
3500	;	1600	;	120
3500	;	1700	;	120
3500	;	1800	;	120
3500	;	1900	;	120
3500	;	2000	;	120
3500	;	2100	;	120
3500	;	2200	;	120
3500	;	2300	;	120
3500	;	2400	;	120
3500	;	2500	;	120
3500	;	2600	;	120
3500	;	2700	;	120
3500	;	2800	;	120
3500	;	2900	;	120
3500	;	3000	;	120
3500	;	3100	;	120
3500	;	3200	;	120
3500	;	3300	;	120
3500	;	3400	;	120
3500	;	3500	;	120
3500	;	3600	;	114.84232
3500	;	3700	;	113.70331
3500	;	3800	;	112.56429
3500	;	3900	;	104.10024
3500	;	4000	;	95
3600	;	0	;	120
3600	;	100	;	120
3600	;	200	;	120
3600	;	300	;	120
3600	;	400	;	120
3600	;	500	;	120
3600	;	600	;	120
3600	;	700	;	120
3600	;	800	;	120
3600	;	900	;	120
3600	;	1000	;	120
3600	;	1100	;	120
3600	;	1200	;	120
3600	;	1300	;	120
3600	;	1400	;	120
3600	;	1500	;	120
3600	;	1600	;	120
3600	;	1700	;	120
3600	;	1800	;	120
3600	;	1900	;	120
3600	;	2000	;	120
3600	;	2100	;	120
3600	;	2200	;	120
3600	;	2300	;	120
3600	;	2400	;	120
3600	;	2500	;	120
3600	;	2600	;	120
3600	;	2700	;	120
3600	;	2800	;	120
3600	;	2900	;	120
3600	;	3000	;	120
3600	;	3100	;	120
3600	;	3200	;	120
3600	;	3300	;	120
3600	;	3400	;	120
3600	;	3500	;	120
3600	;	3600	;	120
3600	;	3700	;	114.92096
3600	;	3800	;	113.72964
3600	;	3900	;	112.53832
3600	;	4000	;	95.64397
3700	;	0	;	120
3700	;	100	;	120
3700	;	200	;	120
3700	;	300	;	120
3700	;	400	;	120
3700	;	500	;	120
3700	;	600	;	120
3700	;	700	;	120
3700	;	800	;	120
3700	;	900	;	120
3700	;	1000	;	120
3700	;	1100	;	120
3700	;	1200	;	120
3700	;	1300	;	120
3700	;	1400	;	120
3700	;	1500	;	120
3700	;	1600	;	120
3700	;	1700	;	120
3700	;	1800	;	120
3700	;	1900	;	120
3700	;	2000	;	120
3700	;	2100	;	120
3700	;	2200	;	120
3700	;	2300	;	120
3700	;	2400	;	120
3700	;	2500	;	120
3700	;	2600	;	120
3700	;	2700	;	120
3700	;	2800	;	120
3700	;	2900	;	120
3700	;	3000	;	120
3700	;	3100	;	120
3700	;	3200	;	120
3700	;	3300	;	120
3700	;	3400	;	120
3700	;	3500	;	120
3700	;	3600	;	120
3700	;	3700	;	120
3700	;	3800	;	114.42247
3700	;	3900	;	104.65705
3700	;	4000	;	95
3800	;	0	;	120
3800	;	100	;	120
3800	;	200	;	120
3800	;	300	;	120
3800	;	400	;	120
3800	;	500	;	120
3800	;	600	;	120
3800	;	700	;	120
3800	;	800	;	120
3800	;	900	;	120
3800	;	1000	;	120
3800	;	1100	;	120
3800	;	1200	;	120
3800	;	1300	;	120
3800	;	1400	;	120
3800	;	1500	;	120
3800	;	1600	;	120
3800	;	1700	;	120
3800	;	1800	;	120
3800	;	1900	;	120
3800	;	2000	;	120
3800	;	2100	;	120
3800	;	2200	;	120
3800	;	2300	;	120
3800	;	2400	;	120
3800	;	2500	;	120
3800	;	2600	;	120
3800	;	2700	;	120
3800	;	2800	;	120
3800	;	2900	;	120
3800	;	3000	;	120
3800	;	3100	;	120
3800	;	3200	;	120
3800	;	3300	;	120
3800	;	3400	;	120
3800	;	3500	;	120
3800	;	3600	;	120
3800	;	3700	;	120
3800	;	3800	;	120
3800	;	3900	;	114.28562
3800	;	4000	;	95.69802
3900	;	0	;	125.714
3900	;	100	;	125.714
3900	;	200	;	125.714
3900	;	300	;	125.714
3900	;	400	;	125.714
3900	;	500	;	125.714
3900	;	600	;	125.714
3900	;	700	;	125.714
3900	;	800	;	125.714
3900	;	900	;	125.714
3900	;	1000	;	125.714
3900	;	1100	;	125.714
3900	;	1200	;	125.714
3900	;	1300	;	125.714
3900	;	1400	;	125.714
3900	;	1500	;	125.714
3900	;	1600	;	125.714
3900	;	1700	;	125.714
3900	;	1800	;	125.714
3900	;	1900	;	125.714
3900	;	2000	;	125.714
3900	;	2100	;	125.714
3900	;	2200	;	125.714
3900	;	2300	;	125.714
3900	;	2400	;	125.714
3900	;	2500	;	125.714
3900	;	2600	;	125.714
3900	;	2700	;	125.714
3900	;	2800	;	125.714
3900	;	2900	;	125.714
3900	;	3000	;	125.714
3900	;	3100	;	125.714
3900	;	3200	;	125.714
3900	;	3300	;	125.714
3900	;	3400	;	125.714
3900	;	3500	;	125.714
3900	;	3600	;	125.714
3900	;	3700	;	125.714
3900	;	3800	;	125.714
3900	;	3900	;	120
3900	;	4000	;	101.412
4000	;	0	;	144.302
4000	;	100	;	144.302
4000	;	200	;	144.302
4000	;	300	;	144.302
4000	;	400	;	144.302
4000	;	500	;	144.302
4000	;	600	;	144.302
4000	;	700	;	144.302
4000	;	800	;	144.302
4000	;	900	;	144.302
4000	;	1000	;	144.302
4000	;	1100	;	144.302
4000	;	1200	;	144.302
4000	;	1300	;	144.302
4000	;	1400	;	144.302
4000	;	1500	;	144.302
4000	;	1600	;	144.302
4000	;	1700	;	144.302
4000	;	1800	;	144.302
4000	;	1900	;	144.302
4000	;	2000	;	144.302
4000	;	2100	;	144.302
4000	;	2200	;	144.302
4000	;	2300	;	144.302
4000	;	2400	;	144.302
4000	;	2500	;	144.302
4000	;	2600	;	144.302
4000	;	2700	;	144.302
4000	;	2800	;	144.302
4000	;	2900	;	144.302
4000	;	3000	;	144.302
4000	;	3100	;	144.302
4000	;	3200	;	144.302
4000	;	3300	;	144.302
4000	;	3400	;	144.302
4000	;	3500	;	144.302
4000	;	3600	;	144.302
4000	;	3700	;	144.302
4000	;	3800	;	144.302
4000	;	3900	;	138.588
4000	;	4000	;	120
