-15	;	0	;	-0.24
-15	;	0.5	;	0.26
-15	;	1	;	0.75959
-15	;	1.5	;	1.12532
-15	;	2	;	1.49105
-15	;	2.5	;	1.87085
-15	;	3	;	2.25064
-15	;	3.5	;	2.6445
-15	;	4	;	3.03836
-15	;	4.5	;	3.41816
-15	;	5	;	3.79795
-15	;	5.5	;	4.19182
-15	;	6	;	4.58568
-15	;	6.5	;	4.97954
-15	;	7	;	5.3734
-15	;	7.5	;	5.7532
-15	;	8	;	6.13299
-15	;	8.5	;	6.54092
-15	;	9	;	6.94885
-15	;	9.5	;	7.25831
-15	;	10	;	7.56777
-15	;	10.5	;	7.96164
-15	;	11	;	8.3555
-15	;	11.5	;	8.70716
-15	;	12	;	9.05882
-15	;	12.5	;	9.42455
-15	;	13	;	9.79028
-15	;	13.5	;	10.18415
-15	;	14	;	10.57801
-15	;	14.5	;	10.94374
-15	;	15	;	11.30946
-15	;	15.5	;	11.71739
-15	;	16	;	12.12532
-15	;	16.5	;	12.39259
-15	;	17	;	12.65985
-15	;	17.5	;	13.12405
-15	;	18	;	13.58824
-15	;	18.5	;	13.9821
-15	;	19	;	14.37596
-15	;	19.5	;	14.876
-15	;	20	;	15.376
-15	;	20.5	;	15.876
-15	;	21	;	16.376
-15	;	21.5	;	16.876
-15	;	22	;	17.376
-14	;	0	;	-0.224
-14	;	0.5	;	0.276
-14	;	1	;	0.77562
-14	;	1.5	;	1.1503
-14	;	2	;	1.52498
-14	;	2.5	;	1.91279
-14	;	3	;	2.3006
-14	;	3.5	;	2.70154
-14	;	4	;	3.10247
-14	;	4.5	;	3.49028
-14	;	5	;	3.87809
-14	;	5.5	;	4.27903
-14	;	6	;	4.67997
-14	;	6.5	;	5.08091
-14	;	7	;	5.48184
-14	;	7.5	;	5.86965
-14	;	8	;	6.25746
-14	;	8.5	;	6.67153
-14	;	9	;	7.08559
-14	;	9.5	;	7.40776
-14	;	10	;	7.72992
-14	;	10.5	;	8.13086
-14	;	11	;	8.5318
-14	;	11.5	;	8.89335
-14	;	12	;	9.2549
-14	;	12.5	;	9.62958
-14	;	13	;	10.00426
-14	;	13.5	;	10.4052
-14	;	14	;	10.80614
-14	;	14.5	;	11.18082
-14	;	15	;	11.5555
-14	;	15.5	;	11.96957
-14	;	16	;	12.38363
-14	;	16.5	;	12.66641
-14	;	17	;	12.94919
-14	;	17.5	;	13.41578
-14	;	18	;	13.88236
-14	;	18.5	;	14.2833
-14	;	19	;	14.68423
-14	;	19.5	;	15.184
-14	;	20	;	15.684
-14	;	20.5	;	16.184
-14	;	21	;	16.684
-14	;	21.5	;	17.184
-14	;	22	;	17.684
-13	;	0	;	-0.208
-13	;	0.5	;	0.292
-13	;	1	;	0.79164
-13	;	1.5	;	1.17528
-13	;	2	;	1.55891
-13	;	2.5	;	1.95473
-13	;	3	;	2.35055
-13	;	3.5	;	2.75857
-13	;	4	;	3.16658
-13	;	4.5	;	3.5624
-13	;	5	;	3.95822
-13	;	5.5	;	4.36624
-13	;	6	;	4.77426
-13	;	6.5	;	5.18227
-13	;	7	;	5.59028
-13	;	7.5	;	5.9861
-13	;	8	;	6.38192
-13	;	8.5	;	6.80213
-13	;	9	;	7.22234
-13	;	9.5	;	7.55721
-13	;	10	;	7.89207
-13	;	10.5	;	8.30009
-13	;	11	;	8.7081
-13	;	11.5	;	9.07954
-13	;	12	;	9.45098
-13	;	12.5	;	9.83461
-13	;	13	;	10.21824
-13	;	13.5	;	10.62626
-13	;	14	;	11.03428
-13	;	14.5	;	11.41791
-13	;	15	;	11.80153
-13	;	15.5	;	12.22174
-13	;	16	;	12.64194
-13	;	16.5	;	12.94024
-13	;	17	;	13.23854
-13	;	17.5	;	13.70751
-13	;	18	;	14.17647
-13	;	18.5	;	14.58449
-13	;	19	;	14.9925
-13	;	19.5	;	15.493
-13	;	20	;	15.993
-13	;	20.5	;	16.493
-13	;	21	;	16.993
-13	;	21.5	;	17.493
-13	;	22	;	17.993
-12	;	0	;	-0.192
-12	;	0.5	;	0.308
-12	;	1	;	0.80767
-12	;	1.5	;	1.20026
-12	;	2	;	1.59284
-12	;	2.5	;	1.99668
-12	;	3	;	2.40051
-12	;	3.5	;	2.8156
-12	;	4	;	3.23069
-12	;	4.5	;	3.63453
-12	;	5	;	4.03836
-12	;	5.5	;	4.45345
-12	;	6	;	4.86854
-12	;	6.5	;	5.28363
-12	;	7	;	5.69872
-12	;	7.5	;	6.10256
-12	;	8	;	6.50639
-12	;	8.5	;	6.93274
-12	;	9	;	7.35908
-12	;	9.5	;	7.70665
-12	;	10	;	8.05422
-12	;	10.5	;	8.46931
-12	;	11	;	8.8844
-12	;	11.5	;	9.26573
-12	;	12	;	9.64706
-12	;	12.5	;	10.03964
-12	;	13	;	10.43222
-12	;	13.5	;	10.84732
-12	;	14	;	11.26241
-12	;	14.5	;	11.65499
-12	;	15	;	12.04757
-12	;	15.5	;	12.47392
-12	;	16	;	12.90026
-12	;	16.5	;	13.21407
-12	;	17	;	13.52788
-12	;	17.5	;	13.99924
-12	;	18	;	14.47059
-12	;	18.5	;	14.88568
-12	;	19	;	15.30077
-12	;	19.5	;	15.801
-12	;	20	;	16.301
-12	;	20.5	;	16.801
-12	;	21	;	17.301
-12	;	21.5	;	17.801
-12	;	22	;	18.301
-11	;	0	;	-0.176
-11	;	0.5	;	0.324
-11	;	1	;	0.8237
-11	;	1.5	;	1.22524
-11	;	2	;	1.62677
-11	;	2.5	;	2.03862
-11	;	3	;	2.45047
-11	;	3.5	;	2.87264
-11	;	4	;	3.2948
-11	;	4.5	;	3.70665
-11	;	5	;	4.1185
-11	;	5.5	;	4.54067
-11	;	6	;	4.96283
-11	;	6.5	;	5.385
-11	;	7	;	5.80716
-11	;	7.5	;	6.21901
-11	;	8	;	6.63086
-11	;	8.5	;	7.06334
-11	;	9	;	7.49582
-11	;	9.5	;	7.85609
-11	;	10	;	8.21636
-11	;	10.5	;	8.63853
-11	;	11	;	9.0607
-11	;	11.5	;	9.45192
-11	;	12	;	9.84313
-11	;	12.5	;	10.24467
-11	;	13	;	10.64621
-11	;	13.5	;	11.06838
-11	;	14	;	11.49054
-11	;	14.5	;	11.89207
-11	;	15	;	12.2936
-11	;	15.5	;	12.72609
-11	;	16	;	13.15857
-11	;	16.5	;	13.4879
-11	;	17	;	13.81722
-11	;	17.5	;	14.29097
-11	;	18	;	14.76471
-11	;	18.5	;	15.18688
-11	;	19	;	15.60904
-11	;	19.5	;	16.109
-11	;	20	;	16.609
-11	;	20.5	;	17.109
-11	;	21	;	17.609
-11	;	21.5	;	18.109
-11	;	22	;	18.609
-10	;	0	;	-0.16
-10	;	0.5	;	0.34
-10	;	1	;	0.83973
-10	;	1.5	;	1.25022
-10	;	2	;	1.6607
-10	;	2.5	;	2.08057
-10	;	3	;	2.50043
-10	;	3.5	;	2.92967
-10	;	4	;	3.35891
-10	;	4.5	;	3.77877
-10	;	5	;	4.19863
-10	;	5.5	;	4.62788
-10	;	6	;	5.05712
-10	;	6.5	;	5.48636
-10	;	7	;	5.9156
-10	;	7.5	;	6.33547
-10	;	8	;	6.75533
-10	;	8.5	;	7.19395
-10	;	9	;	7.63257
-10	;	9.5	;	8.00554
-10	;	10	;	8.37851
-10	;	10.5	;	8.80776
-10	;	11	;	9.237
-10	;	11.5	;	9.63811
-10	;	12	;	10.03921
-10	;	12.5	;	10.4497
-10	;	13	;	10.86019
-10	;	13.5	;	11.28943
-10	;	14	;	11.71867
-10	;	14.5	;	12.12916
-10	;	15	;	12.53964
-10	;	15.5	;	12.97826
-10	;	16	;	13.41688
-10	;	16.5	;	13.76173
-10	;	17	;	14.10657
-10	;	17.5	;	14.5827
-10	;	18	;	15.05883
-10	;	18.5	;	15.48807
-10	;	19	;	15.91731
-10	;	19.5	;	16.417
-10	;	20	;	16.917
-10	;	20.5	;	17.417
-10	;	21	;	17.917
-10	;	21.5	;	18.417
-10	;	22	;	18.917
-9	;	0	;	-0.144
-9	;	0.5	;	0.356
-9	;	1	;	0.85575
-9	;	1.5	;	1.27519
-9	;	2	;	1.69463
-9	;	2.5	;	2.12251
-9	;	3	;	2.55038
-9	;	3.5	;	2.9867
-9	;	4	;	3.42302
-9	;	4.5	;	3.8509
-9	;	5	;	4.27877
-9	;	5.5	;	4.71509
-9	;	6	;	5.15141
-9	;	6.5	;	5.58773
-9	;	7	;	6.02404
-9	;	7.5	;	6.45192
-9	;	8	;	6.87979
-9	;	8.5	;	7.32455
-9	;	9	;	7.76931
-9	;	9.5	;	8.15499
-9	;	10	;	8.54066
-9	;	10.5	;	8.97698
-9	;	11	;	9.4133
-9	;	11.5	;	9.8243
-9	;	12	;	10.23529
-9	;	12.5	;	10.65473
-9	;	13	;	11.07417
-9	;	13.5	;	11.51049
-9	;	14	;	11.94681
-9	;	14.5	;	12.36625
-9	;	15	;	12.78568
-9	;	15.5	;	13.23044
-9	;	16	;	13.67519
-9	;	16.5	;	14.03555
-9	;	17	;	14.39591
-9	;	17.5	;	14.87443
-9	;	18	;	15.35294
-9	;	18.5	;	15.78926
-9	;	19	;	16.22558
-9	;	19.5	;	16.726
-9	;	20	;	17.226
-9	;	20.5	;	17.726
-9	;	21	;	18.226
-9	;	21.5	;	18.726
-9	;	22	;	19.226
-8	;	0	;	-0.128
-8	;	0.5	;	0.372
-8	;	1	;	0.87178
-8	;	1.5	;	1.30017
-8	;	2	;	1.72856
-8	;	2.5	;	2.16445
-8	;	3	;	2.60034
-8	;	3.5	;	3.04374
-8	;	4	;	3.48713
-8	;	4.5	;	3.92302
-8	;	5	;	4.35891
-8	;	5.5	;	4.80231
-8	;	6	;	5.2457
-8	;	6.5	;	5.68909
-8	;	7	;	6.13248
-8	;	7.5	;	6.56837
-8	;	8	;	7.00426
-8	;	8.5	;	7.45516
-8	;	9	;	7.90605
-8	;	9.5	;	8.30443
-8	;	10	;	8.70281
-8	;	10.5	;	9.14621
-8	;	11	;	9.5896
-8	;	11.5	;	10.01049
-8	;	12	;	10.43137
-8	;	12.5	;	10.85976
-8	;	13	;	11.28815
-8	;	13.5	;	11.73155
-8	;	14	;	12.17494
-8	;	14.5	;	12.60333
-8	;	15	;	13.03171
-8	;	15.5	;	13.48261
-8	;	16	;	13.9335
-8	;	16.5	;	14.30938
-8	;	17	;	14.68525
-8	;	17.5	;	15.16616
-8	;	18	;	15.64706
-8	;	18.5	;	16.09046
-8	;	19	;	16.53385
-8	;	19.5	;	17.034
-8	;	20	;	17.534
-8	;	20.5	;	18.034
-8	;	21	;	18.534
-8	;	21.5	;	19.034
-8	;	22	;	19.534
-7	;	0	;	-0.112
-7	;	0.5	;	0.388
-7	;	1	;	0.88781
-7	;	1.5	;	1.32515
-7	;	2	;	1.76249
-7	;	2.5	;	2.2064
-7	;	3	;	2.6503
-7	;	3.5	;	3.10077
-7	;	4	;	3.55123
-7	;	4.5	;	3.99514
-7	;	5	;	4.43904
-7	;	5.5	;	4.88951
-7	;	6	;	5.33998
-7	;	6.5	;	5.79045
-7	;	7	;	6.24092
-7	;	7.5	;	6.68483
-7	;	8	;	7.12873
-7	;	8.5	;	7.58577
-7	;	9	;	8.0428
-7	;	9.5	;	8.45388
-7	;	10	;	8.86496
-7	;	10.5	;	9.31543
-7	;	11	;	9.7659
-7	;	11.5	;	10.19668
-7	;	12	;	10.62745
-7	;	12.5	;	11.06479
-7	;	13	;	11.50213
-7	;	13.5	;	11.9526
-7	;	14	;	12.40307
-7	;	14.5	;	12.84041
-7	;	15	;	13.27775
-7	;	15.5	;	13.73479
-7	;	16	;	14.19182
-7	;	16.5	;	14.58321
-7	;	17	;	14.9746
-7	;	17.5	;	15.45789
-7	;	18	;	15.94118
-7	;	18.5	;	16.39165
-7	;	19	;	16.84211
-7	;	19.5	;	17.342
-7	;	20	;	17.842
-7	;	20.5	;	18.342
-7	;	21	;	18.842
-7	;	21.5	;	19.342
-7	;	22	;	19.842
-6	;	0	;	-0.096
-6	;	0.5	;	0.404
-6	;	1	;	0.90384
-6	;	1.5	;	1.35013
-6	;	2	;	1.79642
-6	;	2.5	;	2.24834
-6	;	3	;	2.70026
-6	;	3.5	;	3.1578
-6	;	4	;	3.61534
-6	;	4.5	;	4.06726
-6	;	5	;	4.51918
-6	;	5.5	;	4.97673
-6	;	6	;	5.43427
-6	;	6.5	;	5.89182
-6	;	7	;	6.34936
-6	;	7.5	;	6.80128
-6	;	8	;	7.2532
-6	;	8.5	;	7.71637
-6	;	9	;	8.17954
-6	;	9.5	;	8.60333
-6	;	10	;	9.02711
-6	;	10.5	;	9.48466
-6	;	11	;	9.9422
-6	;	11.5	;	10.38287
-6	;	12	;	10.82353
-6	;	12.5	;	11.26982
-6	;	13	;	11.71611
-6	;	13.5	;	12.17366
-6	;	14	;	12.6312
-6	;	14.5	;	13.07749
-6	;	15	;	13.52378
-6	;	15.5	;	13.98696
-6	;	16	;	14.45013
-6	;	16.5	;	14.85704
-6	;	17	;	15.26394
-6	;	17.5	;	15.74962
-6	;	18	;	16.2353
-6	;	18.5	;	16.69284
-6	;	19	;	17.15038
-6	;	19.5	;	17.65
-6	;	20	;	18.15
-6	;	20.5	;	18.65
-6	;	21	;	19.15
-6	;	21.5	;	19.65
-6	;	22	;	20.15
-5	;	0	;	-0.08
-5	;	0.5	;	0.42
-5	;	1	;	0.91986
-5	;	1.5	;	1.37511
-5	;	2	;	1.83035
-5	;	2.5	;	2.29028
-5	;	3	;	2.75021
-5	;	3.5	;	3.21483
-5	;	4	;	3.67945
-5	;	4.5	;	4.13939
-5	;	5	;	4.59932
-5	;	5.5	;	5.06394
-5	;	6	;	5.52856
-5	;	6.5	;	5.99318
-5	;	7	;	6.4578
-5	;	7.5	;	6.91773
-5	;	8	;	7.37766
-5	;	8.5	;	7.84697
-5	;	9	;	8.31628
-5	;	9.5	;	8.75277
-5	;	10	;	9.18926
-5	;	10.5	;	9.65388
-5	;	11	;	10.1185
-5	;	11.5	;	10.56906
-5	;	12	;	11.01961
-5	;	12.5	;	11.47485
-5	;	13	;	11.93009
-5	;	13.5	;	12.39472
-5	;	14	;	12.85934
-5	;	14.5	;	13.31458
-5	;	15	;	13.76982
-5	;	15.5	;	14.23913
-5	;	16	;	14.70844
-5	;	16.5	;	15.13086
-5	;	17	;	15.55328
-5	;	17.5	;	16.04135
-5	;	18	;	16.52941
-5	;	18.5	;	16.99403
-5	;	19	;	17.45865
-5	;	19.5	;	17.959
-5	;	20	;	18.459
-5	;	20.5	;	18.959
-5	;	21	;	19.459
-5	;	21.5	;	19.959
-5	;	22	;	20.459
-4	;	0	;	-0.064
-4	;	0.5	;	0.436
-4	;	1	;	0.93589
-4	;	1.5	;	1.40009
-4	;	2	;	1.86428
-4	;	2.5	;	2.33223
-4	;	3	;	2.80017
-4	;	3.5	;	3.27187
-4	;	4	;	3.74356
-4	;	4.5	;	4.21151
-4	;	5	;	4.67945
-4	;	5.5	;	5.15115
-4	;	6	;	5.62285
-4	;	6.5	;	6.09455
-4	;	7	;	6.56624
-4	;	7.5	;	7.03419
-4	;	8	;	7.50213
-4	;	8.5	;	7.97758
-4	;	9	;	8.45303
-4	;	9.5	;	8.90222
-4	;	10	;	9.35141
-4	;	10.5	;	9.82311
-4	;	11	;	10.2948
-4	;	11.5	;	10.75525
-4	;	12	;	11.21569
-4	;	12.5	;	11.67988
-4	;	13	;	12.14407
-4	;	13.5	;	12.61577
-4	;	14	;	13.08747
-4	;	14.5	;	13.55167
-4	;	15	;	14.01586
-4	;	15.5	;	14.49131
-4	;	16	;	14.96675
-4	;	16.5	;	15.40469
-4	;	17	;	15.84263
-4	;	17.5	;	16.33308
-4	;	18	;	16.82353
-4	;	18.5	;	17.29523
-4	;	19	;	17.76692
-4	;	19.5	;	18.267
-4	;	20	;	18.767
-4	;	20.5	;	19.267
-4	;	21	;	19.767
-4	;	21.5	;	20.267
-4	;	22	;	20.767
-3	;	0	;	-0.048
-3	;	0.5	;	0.452
-3	;	1	;	0.95192
-3	;	1.5	;	1.42507
-3	;	2	;	1.89821
-3	;	2.5	;	2.37417
-3	;	3	;	2.85013
-3	;	3.5	;	3.3289
-3	;	4	;	3.80767
-3	;	4.5	;	4.28363
-3	;	5	;	4.75959
-3	;	5.5	;	5.23837
-3	;	6	;	5.71714
-3	;	6.5	;	6.19591
-3	;	7	;	6.67468
-3	;	7.5	;	7.15064
-3	;	8	;	7.6266
-3	;	8.5	;	8.10819
-3	;	9	;	8.58977
-3	;	9.5	;	9.05166
-3	;	10	;	9.51355
-3	;	10.5	;	9.99233
-3	;	11	;	10.4711
-3	;	11.5	;	10.94143
-3	;	12	;	11.41176
-3	;	12.5	;	11.88491
-3	;	13	;	12.35806
-3	;	13.5	;	12.83683
-3	;	14	;	13.3156
-3	;	14.5	;	13.78875
-3	;	15	;	14.26189
-3	;	15.5	;	14.74348
-3	;	16	;	15.22506
-3	;	16.5	;	15.67852
-3	;	17	;	16.13197
-3	;	17.5	;	16.62481
-3	;	18	;	17.11765
-3	;	18.5	;	17.59642
-3	;	19	;	18.07519
-3	;	19.5	;	18.575
-3	;	20	;	19.075
-3	;	20.5	;	19.575
-3	;	21	;	20.075
-3	;	21.5	;	20.575
-3	;	22	;	21.075
-2	;	0	;	-0.032
-2	;	0.5	;	0.468
-2	;	1	;	0.96795
-2	;	1.5	;	1.45005
-2	;	2	;	1.93214
-2	;	2.5	;	2.41612
-2	;	3	;	2.90009
-2	;	3.5	;	3.38594
-2	;	4	;	3.87178
-2	;	4.5	;	4.35576
-2	;	5	;	4.83973
-2	;	5.5	;	5.32558
-2	;	6	;	5.81142
-2	;	6.5	;	6.29727
-2	;	7	;	6.78312
-2	;	7.5	;	7.2671
-2	;	8	;	7.75107
-2	;	8.5	;	8.23879
-2	;	9	;	8.72651
-2	;	9.5	;	9.20111
-2	;	10	;	9.6757
-2	;	10.5	;	10.16155
-2	;	11	;	10.6474
-2	;	11.5	;	11.12762
-2	;	12	;	11.60784
-2	;	12.5	;	12.08994
-2	;	13	;	12.57204
-2	;	13.5	;	13.05789
-2	;	14	;	13.54373
-2	;	14.5	;	14.02583
-2	;	15	;	14.50793
-2	;	15.5	;	14.99566
-2	;	16	;	15.48338
-2	;	16.5	;	15.95235
-2	;	17	;	16.42131
-2	;	17.5	;	16.91654
-2	;	18	;	17.41177
-2	;	18.5	;	17.89762
-2	;	19	;	18.38346
-2	;	19.5	;	18.883
-2	;	20	;	19.383
-2	;	20.5	;	19.883
-2	;	21	;	20.383
-2	;	21.5	;	20.883
-2	;	22	;	21.383
-1	;	0	;	-0.016
-1	;	0.5	;	0.484
-1	;	1	;	0.98397
-1	;	1.5	;	1.47502
-1	;	2	;	1.96607
-1	;	2.5	;	2.45806
-1	;	3	;	2.95004
-1	;	3.5	;	3.44297
-1	;	4	;	3.93589
-1	;	4.5	;	4.42788
-1	;	5	;	4.91986
-1	;	5.5	;	5.41279
-1	;	6	;	5.90571
-1	;	6.5	;	6.39864
-1	;	7	;	6.89156
-1	;	7.5	;	7.38355
-1	;	8	;	7.87553
-1	;	8.5	;	8.3694
-1	;	9	;	8.86326
-1	;	9.5	;	9.35056
-1	;	10	;	9.83785
-1	;	10.5	;	10.33078
-1	;	11	;	10.8237
-1	;	11.5	;	11.31381
-1	;	12	;	11.80392
-1	;	12.5	;	12.29497
-1	;	13	;	12.78602
-1	;	13.5	;	13.27895
-1	;	14	;	13.77187
-1	;	14.5	;	14.26292
-1	;	15	;	14.75396
-1	;	15.5	;	15.24783
-1	;	16	;	15.74169
-1	;	16.5	;	16.22618
-1	;	17	;	16.71066
-1	;	17.5	;	17.20827
-1	;	18	;	17.70588
-1	;	18.5	;	18.19881
-1	;	19	;	18.69173
-1	;	19.5	;	19.192
-1	;	20	;	19.692
-1	;	20.5	;	20.192
-1	;	21	;	20.692
-1	;	21.5	;	21.192
-1	;	22	;	21.692
0	;	0	;	0
0	;	0.5	;	0.5
0	;	1	;	1
0	;	1.5	;	1.5
0	;	2	;	2
0	;	2.5	;	2.5
0	;	3	;	3
0	;	3.5	;	3.5
0	;	4	;	4
0	;	4.5	;	4.5
0	;	5	;	5
0	;	5.5	;	5.5
0	;	6	;	6
0	;	6.5	;	6.5
0	;	7	;	7
0	;	7.5	;	7.5
0	;	8	;	8
0	;	8.5	;	8.5
0	;	9	;	9
0	;	9.5	;	9.5
0	;	10	;	10
0	;	10.5	;	10.5
0	;	11	;	11
0	;	11.5	;	11.5
0	;	12	;	12
0	;	12.5	;	12.5
0	;	13	;	13
0	;	13.5	;	13.5
0	;	14	;	14
0	;	14.5	;	14.5
0	;	15	;	15
0	;	15.5	;	15.5
0	;	16	;	16
0	;	16.5	;	16.5
0	;	17	;	17
0	;	17.5	;	17.5
0	;	18	;	18
0	;	18.5	;	18.5
0	;	19	;	19
0	;	19.5	;	19.5
0	;	20	;	20
0	;	20.5	;	20.5
0	;	21	;	21
0	;	21.5	;	21.5
0	;	22	;	22
1	;	0	;	0.007
1	;	0.5	;	0.507
1	;	1	;	1.00699
1	;	1.5	;	1.51189
1	;	2	;	2.01679
1	;	2.5	;	2.51982
1	;	3	;	3.02285
1	;	3.5	;	3.52588
1	;	4	;	4.0289
1	;	4.5	;	4.53334
1	;	5	;	5.03777
1	;	5.5	;	5.54173
1	;	6	;	6.04569
1	;	6.5	;	6.54966
1	;	7	;	7.05362
1	;	7.5	;	7.55665
1	;	8	;	8.05968
1	;	8.5	;	8.56364
1	;	9	;	9.0676
1	;	9.5	;	9.5711
1	;	10	;	10.0746
1	;	10.5	;	10.5781
1	;	11	;	11.08159
1	;	11.5	;	11.58509
1	;	12	;	12.08858
1	;	12.5	;	12.59254
1	;	13	;	13.0965
1	;	13.5	;	13.6
1	;	14	;	14.1035
1	;	14.5	;	14.60606
1	;	15	;	15.10861
1	;	15.5	;	15.61351
1	;	16	;	16.11841
1	;	16.5	;	16.62191
1	;	17	;	17.12541
1	;	17.5	;	17.63022
1	;	18	;	18.13502
1	;	18.5	;	18.63769
1	;	19	;	19.14035
1	;	19.5	;	19.64
1	;	20	;	20.14
1	;	20.5	;	20.64
1	;	21	;	21.14
1	;	21.5	;	21.64
1	;	22	;	22.14
2	;	0	;	0.014
2	;	0.5	;	0.514
2	;	1	;	1.01398
2	;	1.5	;	1.52379
2	;	2	;	2.03359
2	;	2.5	;	2.53964
2	;	3	;	3.04569
2	;	3.5	;	3.55175
2	;	4	;	4.0578
2	;	4.5	;	4.56667
2	;	5	;	5.07553
2	;	5.5	;	5.58346
2	;	6	;	6.09139
2	;	6.5	;	6.59932
2	;	7	;	7.10725
2	;	7.5	;	7.6133
2	;	8	;	8.11935
2	;	8.5	;	8.62728
2	;	9	;	9.13521
2	;	9.5	;	9.6422
2	;	10	;	10.14919
2	;	10.5	;	10.65618
2	;	11	;	11.16317
2	;	11.5	;	11.67016
2	;	12	;	12.17715
2	;	12.5	;	12.68508
2	;	13	;	13.19301
2	;	13.5	;	13.7
2	;	14	;	14.20699
2	;	14.5	;	14.71211
2	;	15	;	15.21722
2	;	15.5	;	15.72703
2	;	16	;	16.23683
2	;	16.5	;	16.74382
2	;	17	;	17.25081
2	;	17.5	;	17.76043
2	;	18	;	18.27004
2	;	18.5	;	18.77537
2	;	19	;	19.2807
2	;	19.5	;	19.781
2	;	20	;	20.281
2	;	20.5	;	20.781
2	;	21	;	21.281
2	;	21.5	;	21.781
2	;	22	;	22.281
3	;	0	;	0.021
3	;	0.5	;	0.521
3	;	1	;	1.02097
3	;	1.5	;	1.53568
3	;	2	;	2.05038
3	;	2.5	;	2.55946
3	;	3	;	3.06854
3	;	3.5	;	3.57762
3	;	4	;	4.0867
3	;	4.5	;	4.6
3	;	5	;	5.1133
3	;	5.5	;	5.62519
3	;	6	;	6.13708
3	;	6.5	;	6.64898
3	;	7	;	7.16087
3	;	7.5	;	7.66995
3	;	8	;	8.17903
3	;	8.5	;	8.69092
3	;	9	;	9.20281
3	;	9.5	;	9.7133
3	;	10	;	10.22379
3	;	10.5	;	10.73428
3	;	11	;	11.24476
3	;	11.5	;	11.75525
3	;	12	;	12.26573
3	;	12.5	;	12.77762
3	;	13	;	13.28951
3	;	13.5	;	13.8
3	;	14	;	14.31049
3	;	14.5	;	14.81816
3	;	15	;	15.32583
3	;	15.5	;	15.84054
3	;	16	;	16.35524
3	;	16.5	;	16.86573
3	;	17	;	17.37622
3	;	17.5	;	17.89064
3	;	18	;	18.40506
3	;	18.5	;	18.91306
3	;	19	;	19.42105
3	;	19.5	;	19.921
3	;	20	;	20.421
3	;	20.5	;	20.921
3	;	21	;	21.421
3	;	21.5	;	21.921
3	;	22	;	22.421
4	;	0	;	0.028
4	;	0.5	;	0.528
4	;	1	;	1.02796
4	;	1.5	;	1.54757
4	;	2	;	2.06718
4	;	2.5	;	2.57929
4	;	3	;	3.09139
4	;	3.5	;	3.6035
4	;	4	;	4.1156
4	;	4.5	;	4.63334
4	;	5	;	5.15107
4	;	5.5	;	5.66693
4	;	6	;	6.18278
4	;	6.5	;	6.69864
4	;	7	;	7.21449
4	;	7.5	;	7.7266
4	;	8	;	8.2387
4	;	8.5	;	8.75456
4	;	9	;	9.27042
4	;	9.5	;	9.7844
4	;	10	;	10.29838
4	;	10.5	;	10.81236
4	;	11	;	11.32634
4	;	11.5	;	11.84033
4	;	12	;	12.35431
4	;	12.5	;	12.87017
4	;	13	;	13.38602
4	;	13.5	;	13.9
4	;	14	;	14.41398
4	;	14.5	;	14.92421
4	;	15	;	15.43444
4	;	15.5	;	15.95405
4	;	16	;	16.47366
4	;	16.5	;	16.98764
4	;	17	;	17.50162
4	;	17.5	;	18.02085
4	;	18	;	18.54008
4	;	18.5	;	19.05074
4	;	19	;	19.5614
4	;	19.5	;	20.061
4	;	20	;	20.561
4	;	20.5	;	21.061
4	;	21	;	21.561
4	;	21.5	;	22.061
4	;	22	;	22.561
5	;	0	;	0.035
5	;	0.5	;	0.535
5	;	1	;	1.03495
5	;	1.5	;	1.55946
5	;	2	;	2.08397
5	;	2.5	;	2.59911
5	;	3	;	3.11424
5	;	3.5	;	3.62937
5	;	4	;	4.1445
5	;	4.5	;	4.66667
5	;	5	;	5.18883
5	;	5.5	;	5.70865
5	;	6	;	6.22847
5	;	6.5	;	6.7483
5	;	7	;	7.26812
5	;	7.5	;	7.78325
5	;	8	;	8.29838
5	;	8.5	;	8.8182
5	;	9	;	9.33802
5	;	9.5	;	9.8555
5	;	10	;	10.37298
5	;	10.5	;	10.89046
5	;	11	;	11.40793
5	;	11.5	;	11.92541
5	;	12	;	12.44288
5	;	12.5	;	12.9627
5	;	13	;	13.48252
5	;	13.5	;	14
5	;	14	;	14.51748
5	;	14.5	;	15.03027
5	;	15	;	15.54305
5	;	15.5	;	16.06756
5	;	16	;	16.59207
5	;	16.5	;	17.10955
5	;	17	;	17.62703
5	;	17.5	;	18.15107
5	;	18	;	18.67511
5	;	18.5	;	19.18843
5	;	19	;	19.70175
5	;	19.5	;	20.202
5	;	20	;	20.702
5	;	20.5	;	21.202
5	;	21	;	21.702
5	;	21.5	;	22.202
5	;	22	;	22.702
6	;	0	;	0.042
6	;	0.5	;	0.542
6	;	1	;	1.04194
6	;	1.5	;	1.57136
6	;	2	;	2.10077
6	;	2.5	;	2.61893
6	;	3	;	3.13708
6	;	3.5	;	3.65524
6	;	4	;	4.1734
6	;	4.5	;	4.7
6	;	5	;	5.2266
6	;	5.5	;	5.75039
6	;	6	;	6.27417
6	;	6.5	;	6.79796
6	;	7	;	7.32174
6	;	7.5	;	7.8399
6	;	8	;	8.35806
6	;	8.5	;	8.88185
6	;	9	;	9.40563
6	;	9.5	;	9.9266
6	;	10	;	10.44757
6	;	10.5	;	10.96854
6	;	11	;	11.48951
6	;	11.5	;	12.01049
6	;	12	;	12.53146
6	;	12.5	;	13.05525
6	;	13	;	13.57903
6	;	13.5	;	14.1
6	;	14	;	14.62097
6	;	14.5	;	15.13632
6	;	15	;	15.65166
6	;	15.5	;	16.18108
6	;	16	;	16.71049
6	;	16.5	;	17.23146
6	;	17	;	17.75243
6	;	17.5	;	18.28128
6	;	18	;	18.81013
6	;	18.5	;	19.32612
6	;	19	;	19.84211
6	;	19.5	;	20.342
6	;	20	;	20.842
6	;	20.5	;	21.342
6	;	21	;	21.842
6	;	21.5	;	22.342
6	;	22	;	22.842
7	;	0	;	0.049
7	;	0.5	;	0.549
7	;	1	;	1.04893
7	;	1.5	;	1.58325
7	;	2	;	2.11756
7	;	2.5	;	2.63875
7	;	3	;	3.15993
7	;	3.5	;	3.68112
7	;	4	;	4.2023
7	;	4.5	;	4.73333
7	;	5	;	5.26436
7	;	5.5	;	5.79211
7	;	6	;	6.31986
7	;	6.5	;	6.84761
7	;	7	;	7.37536
7	;	7.5	;	7.89655
7	;	8	;	8.41773
7	;	8.5	;	8.94548
7	;	9	;	9.47323
7	;	9.5	;	9.9977
7	;	10	;	10.52217
7	;	10.5	;	11.04664
7	;	11	;	11.5711
7	;	11.5	;	12.09557
7	;	12	;	12.62003
7	;	12.5	;	13.14778
7	;	13	;	13.67553
7	;	13.5	;	14.2
7	;	14	;	14.72447
7	;	14.5	;	15.24237
7	;	15	;	15.76027
7	;	15.5	;	16.29459
7	;	16	;	16.8289
7	;	16.5	;	17.35337
7	;	17	;	17.87784
7	;	17.5	;	18.4115
7	;	18	;	18.94515
7	;	18.5	;	19.46381
7	;	19	;	19.98246
7	;	19.5	;	20.482
7	;	20	;	20.982
7	;	20.5	;	21.482
7	;	21	;	21.982
7	;	21.5	;	22.482
7	;	22	;	22.982
8	;	0	;	0.056
8	;	0.5	;	0.556
8	;	1	;	1.05593
8	;	1.5	;	1.59515
8	;	2	;	2.13436
8	;	2.5	;	2.65857
8	;	3	;	3.18278
8	;	3.5	;	3.70699
8	;	4	;	4.2312
8	;	4.5	;	4.76667
8	;	5	;	5.30213
8	;	5.5	;	5.83385
8	;	6	;	6.36556
8	;	6.5	;	6.89728
8	;	7	;	7.42899
8	;	7.5	;	7.9532
8	;	8	;	8.47741
8	;	8.5	;	9.00912
8	;	9	;	9.54083
8	;	9.5	;	10.0688
8	;	10	;	10.59676
8	;	10.5	;	11.12473
8	;	11	;	11.65269
8	;	11.5	;	12.18065
8	;	12	;	12.70861
8	;	12.5	;	13.24033
8	;	13	;	13.77204
8	;	13.5	;	14.3
8	;	14	;	14.82796
8	;	14.5	;	15.34842
8	;	15	;	15.86888
8	;	15.5	;	16.4081
8	;	16	;	16.94731
8	;	16.5	;	17.47528
8	;	17	;	18.00324
8	;	17.5	;	18.54171
8	;	18	;	19.08017
8	;	18.5	;	19.60149
8	;	19	;	20.12281
8	;	19.5	;	20.623
8	;	20	;	21.123
8	;	20.5	;	21.623
8	;	21	;	22.123
8	;	21.5	;	22.623
8	;	22	;	23.123
9	;	0	;	0.063
9	;	0.5	;	0.563
9	;	1	;	1.06292
9	;	1.5	;	1.60704
9	;	2	;	2.15115
9	;	2.5	;	2.67839
9	;	3	;	3.20563
9	;	3.5	;	3.73287
9	;	4	;	4.2601
9	;	4.5	;	4.8
9	;	5	;	5.3399
9	;	5.5	;	5.87558
9	;	6	;	6.41125
9	;	6.5	;	6.94693
9	;	7	;	7.48261
9	;	7.5	;	8.00985
9	;	8	;	8.53708
9	;	8.5	;	9.07276
9	;	9	;	9.60844
9	;	9.5	;	10.1399
9	;	10	;	10.67136
9	;	10.5	;	11.20282
9	;	11	;	11.73427
9	;	11.5	;	12.26573
9	;	12	;	12.79719
9	;	12.5	;	13.33287
9	;	13	;	13.86854
9	;	13.5	;	14.4
9	;	14	;	14.93146
9	;	14.5	;	15.45448
9	;	15	;	15.97749
9	;	15.5	;	16.52161
9	;	16	;	17.06573
9	;	16.5	;	17.59719
9	;	17	;	18.12865
9	;	17.5	;	18.67192
9	;	18	;	19.21519
9	;	18.5	;	19.73918
9	;	19	;	20.26316
9	;	19.5	;	20.763
9	;	20	;	21.263
9	;	20.5	;	21.763
9	;	21	;	22.263
9	;	21.5	;	22.763
9	;	22	;	23.263
10	;	0	;	0.07
10	;	0.5	;	0.57
10	;	1	;	1.06991
10	;	1.5	;	1.61893
10	;	2	;	2.16795
10	;	2.5	;	2.69821
10	;	3	;	3.22847
10	;	3.5	;	3.75874
10	;	4	;	4.289
10	;	4.5	;	4.83333
10	;	5	;	5.37766
10	;	5.5	;	5.91731
10	;	6	;	6.45695
10	;	6.5	;	6.99659
10	;	7	;	7.53623
10	;	7.5	;	8.0665
10	;	8	;	8.59676
10	;	8.5	;	9.1364
10	;	9	;	9.67604
10	;	9.5	;	10.211
10	;	10	;	10.74595
10	;	10.5	;	11.28091
10	;	11	;	11.81586
10	;	11.5	;	12.35081
10	;	12	;	12.88576
10	;	12.5	;	13.42541
10	;	13	;	13.96505
10	;	13.5	;	14.5
10	;	14	;	15.03495
10	;	14.5	;	15.56053
10	;	15	;	16.0861
10	;	15.5	;	16.63512
10	;	16	;	17.18414
10	;	16.5	;	17.7191
10	;	17	;	18.25405
10	;	17.5	;	18.80213
10	;	18	;	19.35021
10	;	18.5	;	19.87686
10	;	19	;	20.40351
10	;	19.5	;	20.904
10	;	20	;	21.404
10	;	20.5	;	21.904
10	;	21	;	22.404
10	;	21.5	;	22.904
10	;	22	;	23.404
11	;	0	;	0.077
11	;	0.5	;	0.577
11	;	1	;	1.0769
11	;	1.5	;	1.63082
11	;	2	;	2.18474
11	;	2.5	;	2.71803
11	;	3	;	3.25132
11	;	3.5	;	3.78461
11	;	4	;	4.3179
11	;	4.5	;	4.86667
11	;	5	;	5.41543
11	;	5.5	;	5.95904
11	;	6	;	6.50264
11	;	6.5	;	7.04625
11	;	7	;	7.58986
11	;	7.5	;	8.12315
11	;	8	;	8.65644
11	;	8.5	;	9.20005
11	;	9	;	9.74365
11	;	9.5	;	10.2821
11	;	10	;	10.82055
11	;	10.5	;	11.359
11	;	11	;	11.89744
11	;	11.5	;	12.43589
11	;	12	;	12.97434
11	;	12.5	;	13.51795
11	;	13	;	14.06155
11	;	13.5	;	14.6
11	;	14	;	15.13845
11	;	14.5	;	15.66658
11	;	15	;	16.19471
11	;	15.5	;	16.74864
11	;	16	;	17.30256
11	;	16.5	;	17.84101
11	;	17	;	18.37946
11	;	17.5	;	18.93235
11	;	18	;	19.48523
11	;	18.5	;	20.01455
11	;	19	;	20.54386
11	;	19.5	;	21.044
11	;	20	;	21.544
11	;	20.5	;	22.044
11	;	21	;	22.544
11	;	21.5	;	23.044
11	;	22	;	23.544
12	;	0	;	0.084
12	;	0.5	;	0.584
12	;	1	;	1.08389
12	;	1.5	;	1.64272
12	;	2	;	2.20154
12	;	2.5	;	2.73786
12	;	3	;	3.27417
12	;	3.5	;	3.81049
12	;	4	;	4.3468
12	;	4.5	;	4.9
12	;	5	;	5.4532
12	;	5.5	;	6.00077
12	;	6	;	6.54834
12	;	6.5	;	7.09591
12	;	7	;	7.64348
12	;	7.5	;	8.1798
12	;	8	;	8.71611
12	;	8.5	;	9.26368
12	;	9	;	9.81125
12	;	9.5	;	10.3532
12	;	10	;	10.89514
12	;	10.5	;	11.43709
12	;	11	;	11.97903
12	;	11.5	;	12.52098
12	;	12	;	13.06292
12	;	12.5	;	13.61049
12	;	13	;	14.15806
12	;	13.5	;	14.7
12	;	14	;	15.24194
12	;	14.5	;	15.77263
12	;	15	;	16.30332
12	;	15.5	;	16.86215
12	;	16	;	17.42097
12	;	16.5	;	17.96292
12	;	17	;	18.50486
12	;	17.5	;	19.06256
12	;	18	;	19.62025
12	;	18.5	;	20.15223
12	;	19	;	20.68421
12	;	19.5	;	21.184
12	;	20	;	21.684
12	;	20.5	;	22.184
12	;	21	;	22.684
12	;	21.5	;	23.184
12	;	22	;	23.684
13	;	0	;	0.091
13	;	0.5	;	0.591
13	;	1	;	1.09088
13	;	1.5	;	1.65461
13	;	2	;	2.21833
13	;	2.5	;	2.75768
13	;	3	;	3.29702
13	;	3.5	;	3.83636
13	;	4	;	4.3757
13	;	4.5	;	4.93333
13	;	5	;	5.49096
13	;	5.5	;	6.0425
13	;	6	;	6.59403
13	;	6.5	;	7.14557
13	;	7	;	7.6971
13	;	7.5	;	8.23645
13	;	8	;	8.77579
13	;	8.5	;	9.32733
13	;	9	;	9.87886
13	;	9.5	;	10.4243
13	;	10	;	10.96974
13	;	10.5	;	11.51518
13	;	11	;	12.06061
13	;	11.5	;	12.60605
13	;	12	;	13.15149
13	;	12.5	;	13.70303
13	;	13	;	14.25456
13	;	13.5	;	14.8
13	;	14	;	15.34544
13	;	14.5	;	15.87869
13	;	15	;	16.41193
13	;	15.5	;	16.97566
13	;	16	;	17.53939
13	;	16.5	;	18.08483
13	;	17	;	18.63027
13	;	17.5	;	19.19277
13	;	18	;	19.75527
13	;	18.5	;	20.28992
13	;	19	;	20.82456
13	;	19.5	;	21.325
13	;	20	;	21.825
13	;	20.5	;	22.325
13	;	21	;	22.825
13	;	21.5	;	23.325
13	;	22	;	23.825
14	;	0	;	0.098
14	;	0.5	;	0.598
14	;	1	;	1.09787
14	;	1.5	;	1.6665
14	;	2	;	2.23513
14	;	2.5	;	2.7775
14	;	3	;	3.31986
14	;	3.5	;	3.86223
14	;	4	;	4.4046
14	;	4.5	;	4.96667
14	;	5	;	5.52873
14	;	5.5	;	6.08423
14	;	6	;	6.63973
14	;	6.5	;	7.19523
14	;	7	;	7.75073
14	;	7.5	;	8.2931
14	;	8	;	8.83546
14	;	8.5	;	9.39096
14	;	9	;	9.94646
14	;	9.5	;	10.4954
14	;	10	;	11.04433
14	;	10.5	;	11.59327
14	;	11	;	12.1422
14	;	11.5	;	12.69114
14	;	12	;	13.24007
14	;	12.5	;	13.79557
14	;	13	;	14.35107
14	;	13.5	;	14.9
14	;	14	;	15.44893
14	;	14.5	;	15.98474
14	;	15	;	16.52054
14	;	15.5	;	17.08917
14	;	16	;	17.6578
14	;	16.5	;	18.20674
14	;	17	;	18.75567
14	;	17.5	;	19.32299
14	;	18	;	19.8903
14	;	18.5	;	20.42761
14	;	19	;	20.96491
14	;	19.5	;	21.465
14	;	20	;	21.965
14	;	20.5	;	22.465
14	;	21	;	22.965
14	;	21.5	;	23.465
14	;	22	;	23.965
15	;	0	;	0.105
15	;	0.5	;	0.605
15	;	1	;	1.10486
15	;	1.5	;	1.67839
15	;	2	;	2.25192
15	;	2.5	;	2.79732
15	;	3	;	3.34271
15	;	3.5	;	3.88811
15	;	4	;	4.43351
15	;	4.5	;	5.00001
15	;	5	;	5.5665
15	;	5.5	;	6.12596
15	;	6	;	6.68542
15	;	6.5	;	7.24489
15	;	7	;	7.80435
15	;	7.5	;	8.34975
15	;	8	;	8.89514
15	;	8.5	;	9.45461
15	;	9	;	10.01407
15	;	9.5	;	10.5665
15	;	10	;	11.11893
15	;	10.5	;	11.67136
15	;	11	;	12.22379
15	;	11.5	;	12.77622
15	;	12	;	13.32865
15	;	12.5	;	13.88811
15	;	13	;	14.44757
15	;	13.5	;	15
15	;	14	;	15.55243
15	;	14.5	;	16.0908
15	;	15	;	16.62916
15	;	15.5	;	17.20269
15	;	16	;	17.77622
15	;	16.5	;	18.32865
15	;	17	;	18.88108
15	;	17.5	;	19.4532
15	;	18	;	20.02532
15	;	18.5	;	20.56529
15	;	19	;	21.10526
15	;	19.5	;	21.605
15	;	20	;	22.105
15	;	20.5	;	22.605
15	;	21	;	23.105
15	;	21.5	;	23.605
15	;	22	;	24.105
16	;	0	;	0.112
16	;	0.5	;	0.612
16	;	1	;	1.11185
16	;	1.5	;	1.69028
16	;	2	;	2.26871
16	;	2.5	;	2.81714
16	;	3	;	3.36556
16	;	3.5	;	3.91399
16	;	4	;	4.46241
16	;	4.5	;	5.03334
16	;	5	;	5.60426
16	;	5.5	;	6.16769
16	;	6	;	6.73111
16	;	6.5	;	7.29454
16	;	7	;	7.85797
16	;	7.5	;	8.4064
16	;	8	;	8.95482
16	;	8.5	;	9.51825
16	;	9	;	10.08167
16	;	9.5	;	10.6376
16	;	10	;	11.19352
16	;	10.5	;	11.74945
16	;	11	;	12.30537
16	;	11.5	;	12.8613
16	;	12	;	13.41722
16	;	12.5	;	13.98065
16	;	13	;	14.54407
16	;	13.5	;	15.1
16	;	14	;	15.65593
16	;	14.5	;	16.19685
16	;	15	;	16.73777
16	;	15.5	;	17.3162
16	;	16	;	17.89463
16	;	16.5	;	18.45056
16	;	17	;	19.00648
16	;	17.5	;	19.58341
16	;	18	;	20.16034
16	;	18.5	;	20.70298
16	;	19	;	21.24561
16	;	19.5	;	21.746
16	;	20	;	22.246
16	;	20.5	;	22.746
16	;	21	;	23.246
16	;	21.5	;	23.746
16	;	22	;	24.246
17	;	0	;	0.119
17	;	0.5	;	0.619
17	;	1	;	1.11884
17	;	1.5	;	1.70218
17	;	2	;	2.28551
17	;	2.5	;	2.83696
17	;	3	;	3.3884
17	;	3.5	;	3.93986
17	;	4	;	4.49131
17	;	4.5	;	5.06667
17	;	5	;	5.64203
17	;	5.5	;	6.20942
17	;	6	;	6.77681
17	;	6.5	;	7.34421
17	;	7	;	7.9116
17	;	7.5	;	8.46305
17	;	8	;	9.01449
17	;	8.5	;	9.58188
17	;	9	;	10.14927
17	;	9.5	;	10.7087
17	;	10	;	11.26812
17	;	10.5	;	11.82754
17	;	11	;	12.38696
17	;	11.5	;	12.94638
17	;	12	;	13.5058
17	;	12.5	;	14.07319
17	;	13	;	14.64058
17	;	13.5	;	15.2
17	;	14	;	15.75942
17	;	14.5	;	16.3029
17	;	15	;	16.84638
17	;	15.5	;	17.42971
17	;	16	;	18.01304
17	;	16.5	;	18.57247
17	;	17	;	19.13189
17	;	17.5	;	19.71363
17	;	18	;	20.29536
17	;	18.5	;	20.84066
17	;	19	;	21.38596
17	;	19.5	;	21.886
17	;	20	;	22.386
17	;	20.5	;	22.886
17	;	21	;	23.386
17	;	21.5	;	23.886
17	;	22	;	24.386
18	;	0	;	0.126
18	;	0.5	;	0.626
18	;	1	;	1.12583
18	;	1.5	;	1.71407
18	;	2	;	2.3023
18	;	2.5	;	2.85678
18	;	3	;	3.41125
18	;	3.5	;	3.96573
18	;	4	;	4.52021
18	;	4.5	;	5.1
18	;	5	;	5.67979
18	;	5.5	;	6.25115
18	;	6	;	6.8225
18	;	6.5	;	7.39386
18	;	7	;	7.96522
18	;	7.5	;	8.5197
18	;	8	;	9.07417
18	;	8.5	;	9.64553
18	;	9	;	10.21688
18	;	9.5	;	10.7798
18	;	10	;	11.34271
18	;	10.5	;	11.90563
18	;	11	;	12.46854
18	;	11.5	;	13.03146
18	;	12	;	13.59437
18	;	12.5	;	14.16573
18	;	13	;	14.73708
18	;	13.5	;	15.3
18	;	14	;	15.86292
18	;	14.5	;	16.40896
18	;	15	;	16.95499
18	;	15.5	;	17.54323
18	;	16	;	18.13146
18	;	16.5	;	18.69438
18	;	17	;	19.25729
18	;	17.5	;	19.84384
18	;	18	;	20.43038
18	;	18.5	;	20.97835
18	;	19	;	21.52632
18	;	19.5	;	22.026
18	;	20	;	22.526
18	;	20.5	;	23.026
18	;	21	;	23.526
18	;	21.5	;	24.026
18	;	22	;	24.526
19	;	0	;	0.133
19	;	0.5	;	0.633
19	;	1	;	1.13282
19	;	1.5	;	1.72596
19	;	2	;	2.3191
19	;	2.5	;	2.8766
19	;	3	;	3.4341
19	;	3.5	;	3.99161
19	;	4	;	4.54911
19	;	4.5	;	5.13334
19	;	5	;	5.71756
19	;	5.5	;	6.29288
19	;	6	;	6.8682
19	;	6.5	;	7.44352
19	;	7	;	8.01884
19	;	7.5	;	8.57634
19	;	8	;	9.13384
19	;	8.5	;	9.70916
19	;	9	;	10.28448
19	;	9.5	;	10.8509
19	;	10	;	11.41731
19	;	10.5	;	11.98372
19	;	11	;	12.55013
19	;	11.5	;	13.11654
19	;	12	;	13.68295
19	;	12.5	;	14.25827
19	;	13	;	14.83359
19	;	13.5	;	15.4
19	;	14	;	15.96641
19	;	14.5	;	16.51501
19	;	15	;	17.0636
19	;	15.5	;	17.65674
19	;	16	;	18.24987
19	;	16.5	;	18.81629
19	;	17	;	19.3827
19	;	17.5	;	19.97405
19	;	18	;	20.5654
19	;	18.5	;	21.11604
19	;	19	;	21.66667
19	;	19.5	;	22.167
19	;	20	;	22.667
19	;	20.5	;	23.167
19	;	21	;	23.667
19	;	21.5	;	24.167
19	;	22	;	24.667
20	;	0	;	0.14
20	;	0.5	;	0.64
20	;	1	;	1.13981
20	;	1.5	;	1.73785
20	;	2	;	2.33589
20	;	2.5	;	2.89642
20	;	3	;	3.45695
20	;	3.5	;	4.01748
20	;	4	;	4.57801
20	;	4.5	;	5.16667
20	;	5	;	5.75533
20	;	5.5	;	6.33461
20	;	6	;	6.91389
20	;	6.5	;	7.49318
20	;	7	;	8.07247
20	;	7.5	;	8.633
20	;	8	;	9.19352
20	;	8.5	;	9.77281
20	;	9	;	10.35209
20	;	9.5	;	10.922
20	;	10	;	11.4919
20	;	10.5	;	12.06181
20	;	11	;	12.63171
20	;	11.5	;	13.20162
20	;	12	;	13.77153
20	;	12.5	;	14.35081
20	;	13	;	14.93009
20	;	13.5	;	15.5
20	;	14	;	16.06991
20	;	14.5	;	16.62106
20	;	15	;	17.17221
20	;	15.5	;	17.77025
20	;	16	;	18.36829
20	;	16.5	;	18.9382
20	;	17	;	19.5081
20	;	17.5	;	20.10426
20	;	18	;	20.70042
20	;	18.5	;	21.25372
20	;	19	;	21.80702
20	;	19.5	;	22.307
20	;	20	;	22.807
20	;	20.5	;	23.307
20	;	21	;	23.807
20	;	21.5	;	24.307
20	;	22	;	24.807
21	;	0	;	0.147
21	;	0.5	;	0.647
21	;	1	;	1.1468
21	;	1.5	;	1.74975
21	;	2	;	2.35269
21	;	2.5	;	2.91624
21	;	3	;	3.47979
21	;	3.5	;	4.04335
21	;	4	;	4.60691
21	;	4.5	;	5.2
21	;	5	;	5.79309
21	;	5.5	;	6.37634
21	;	6	;	6.95959
21	;	6.5	;	7.54284
21	;	7	;	8.12609
21	;	7.5	;	8.68965
21	;	8	;	9.2532
21	;	8.5	;	9.83645
21	;	9	;	10.41969
21	;	9.5	;	10.9931
21	;	10	;	11.5665
21	;	10.5	;	12.1399
21	;	11	;	12.7133
21	;	11.5	;	13.2867
21	;	12	;	13.8601
21	;	12.5	;	14.44335
21	;	13	;	15.0266
21	;	13.5	;	15.6
21	;	14	;	16.1734
21	;	14.5	;	16.72711
21	;	15	;	17.28082
21	;	15.5	;	17.88376
21	;	16	;	18.4867
21	;	16.5	;	19.06011
21	;	17	;	19.63351
21	;	17.5	;	20.23448
21	;	18	;	20.83544
21	;	18.5	;	21.39141
21	;	19	;	21.94737
21	;	19.5	;	22.447
21	;	20	;	22.947
21	;	20.5	;	23.447
21	;	21	;	23.947
21	;	21.5	;	24.447
21	;	22	;	24.947
22	;	0	;	0.154
22	;	0.5	;	0.654
22	;	1	;	1.15379
22	;	1.5	;	1.76164
22	;	2	;	2.36948
22	;	2.5	;	2.93606
22	;	3	;	3.50264
22	;	3.5	;	4.06923
22	;	4	;	4.63581
22	;	4.5	;	5.23334
22	;	5	;	5.83086
22	;	5.5	;	6.41807
22	;	6	;	7.00528
22	;	6.5	;	7.5925
22	;	7	;	8.17971
22	;	7.5	;	8.74629
22	;	8	;	9.31287
22	;	8.5	;	9.90009
22	;	9	;	10.4873
22	;	9.5	;	11.0642
22	;	10	;	11.64109
22	;	10.5	;	12.21799
22	;	11	;	12.79488
22	;	11.5	;	13.37178
22	;	12	;	13.94868
22	;	12.5	;	14.53589
22	;	13	;	15.1231
22	;	13.5	;	15.7
22	;	14	;	16.2769
22	;	14.5	;	16.83317
22	;	15	;	17.38943
22	;	15.5	;	17.99728
22	;	16	;	18.60512
22	;	16.5	;	19.18202
22	;	17	;	19.75891
22	;	17.5	;	20.36469
22	;	18	;	20.97046
22	;	18.5	;	21.52909
22	;	19	;	22.08772
22	;	19.5	;	22.588
22	;	20	;	23.088
22	;	20.5	;	23.588
22	;	21	;	24.088
22	;	21.5	;	24.588
22	;	22	;	25.088
23	;	0	;	0.161
23	;	0.5	;	0.661
23	;	1	;	1.16079
23	;	1.5	;	1.77354
23	;	2	;	2.38628
23	;	2.5	;	2.95589
23	;	3	;	3.52549
23	;	3.5	;	4.0951
23	;	4	;	4.66471
23	;	4.5	;	5.26667
23	;	5	;	5.86863
23	;	5.5	;	6.45981
23	;	6	;	7.05098
23	;	6.5	;	7.64216
23	;	7	;	8.23334
23	;	7.5	;	8.80295
23	;	8	;	9.37255
23	;	8.5	;	9.96373
23	;	9	;	10.5549
23	;	9.5	;	11.1353
23	;	10	;	11.71569
23	;	10.5	;	12.29608
23	;	11	;	12.87647
23	;	11.5	;	13.45687
23	;	12	;	14.03726
23	;	12.5	;	14.62844
23	;	13	;	15.21961
23	;	13.5	;	15.8
23	;	14	;	16.38039
23	;	14.5	;	16.93922
23	;	15	;	17.49804
23	;	15.5	;	18.11079
23	;	16	;	18.72353
23	;	16.5	;	19.30393
23	;	17	;	19.88432
23	;	17.5	;	20.49491
23	;	18	;	21.10549
23	;	18.5	;	21.66678
23	;	19	;	22.22807
23	;	19.5	;	22.728
23	;	20	;	23.228
23	;	20.5	;	23.728
23	;	21	;	24.228
23	;	21.5	;	24.728
23	;	22	;	25.228
24	;	0	;	0.168
24	;	0.5	;	0.668
24	;	1	;	1.16778
24	;	1.5	;	1.78543
24	;	2	;	2.40307
24	;	2.5	;	2.97571
24	;	3	;	3.54834
24	;	3.5	;	4.12098
24	;	4	;	4.69361
24	;	4.5	;	5.3
24	;	5	;	5.90639
24	;	5.5	;	6.50153
24	;	6	;	7.09667
24	;	6.5	;	7.69182
24	;	7	;	8.28696
24	;	7.5	;	8.85959
24	;	8	;	9.43222
24	;	8.5	;	10.02736
24	;	9	;	10.6225
24	;	9.5	;	11.20639
24	;	10	;	11.79028
24	;	10.5	;	12.37417
24	;	11	;	12.95806
24	;	11.5	;	13.54195
24	;	12	;	14.12583
24	;	12.5	;	14.72097
24	;	13	;	15.31611
24	;	13.5	;	15.9
24	;	14	;	16.48389
24	;	14.5	;	17.04527
24	;	15	;	17.60665
24	;	15.5	;	18.2243
24	;	16	;	18.84194
24	;	16.5	;	19.42583
24	;	17	;	20.00972
24	;	17.5	;	20.62512
24	;	18	;	21.24051
24	;	18.5	;	21.80447
24	;	19	;	22.36842
24	;	19.5	;	22.868
24	;	20	;	23.368
24	;	20.5	;	23.868
24	;	21	;	24.368
24	;	21.5	;	24.868
24	;	22	;	25.368
25	;	0	;	0.175
25	;	0.5	;	0.675
25	;	1	;	1.17477
25	;	1.5	;	1.79732
25	;	2	;	2.41987
25	;	2.5	;	2.99553
25	;	3	;	3.57118
25	;	3.5	;	4.14685
25	;	4	;	4.72251
25	;	4.5	;	5.33334
25	;	5	;	5.94416
25	;	5.5	;	6.54327
25	;	6	;	7.14237
25	;	6.5	;	7.74148
25	;	7	;	8.34058
25	;	7.5	;	8.91624
25	;	8	;	9.4919
25	;	8.5	;	10.09101
25	;	9	;	10.69011
25	;	9.5	;	11.2775
25	;	10	;	11.86488
25	;	10.5	;	12.45226
25	;	11	;	13.03964
25	;	11.5	;	13.62703
25	;	12	;	14.21441
25	;	12.5	;	14.81352
25	;	13	;	15.41262
25	;	13.5	;	16
25	;	14	;	16.58738
25	;	14.5	;	17.15132
25	;	15	;	17.71526
25	;	15.5	;	18.33781
25	;	16	;	18.96036
25	;	16.5	;	19.54775
25	;	17	;	20.13513
25	;	17.5	;	20.75533
25	;	18	;	21.37553
25	;	18.5	;	21.94215
25	;	19	;	22.50877
25	;	19.5	;	23.009
25	;	20	;	23.509
25	;	20.5	;	24.009
25	;	21	;	24.509
25	;	21.5	;	25.009
25	;	22	;	25.509
26	;	0	;	0.182
26	;	0.5	;	0.682
26	;	1	;	1.18176
26	;	1.5	;	1.80921
26	;	2	;	2.43666
26	;	2.5	;	3.01535
26	;	3	;	3.59403
26	;	3.5	;	4.17272
26	;	4	;	4.75141
26	;	4.5	;	5.36667
26	;	5	;	5.98192
26	;	5.5	;	6.58499
26	;	6	;	7.18806
26	;	6.5	;	7.79114
26	;	7	;	8.39421
26	;	7.5	;	8.9729
26	;	8	;	9.55158
26	;	8.5	;	10.15465
26	;	9	;	10.75771
26	;	9.5	;	11.34859
26	;	10	;	11.93947
26	;	10.5	;	12.53035
26	;	11	;	13.12123
26	;	11.5	;	13.71211
26	;	12	;	14.30298
26	;	12.5	;	14.90605
26	;	13	;	15.50912
26	;	13.5	;	16.1
26	;	14	;	16.69088
26	;	14.5	;	17.25738
26	;	15	;	17.82387
26	;	15.5	;	18.45132
26	;	16	;	19.07877
26	;	16.5	;	19.66965
26	;	17	;	20.26053
26	;	17.5	;	20.88554
26	;	18	;	21.51055
26	;	18.5	;	22.07984
26	;	19	;	22.64912
26	;	19.5	;	23.149
26	;	20	;	23.649
26	;	20.5	;	24.149
26	;	21	;	24.649
26	;	21.5	;	25.149
26	;	22	;	25.649
27	;	0	;	0.189
27	;	0.5	;	0.689
27	;	1	;	1.18875
27	;	1.5	;	1.82111
27	;	2	;	2.45346
27	;	2.5	;	3.03517
27	;	3	;	3.61688
27	;	3.5	;	4.1986
27	;	4	;	4.78031
27	;	4.5	;	5.4
27	;	5	;	6.01969
27	;	5.5	;	6.62673
27	;	6	;	7.23376
27	;	6.5	;	7.8408
27	;	7	;	8.44783
27	;	7.5	;	9.02954
27	;	8	;	9.61125
27	;	8.5	;	10.21829
27	;	9	;	10.82532
27	;	9.5	;	11.4197
27	;	10	;	12.01407
27	;	10.5	;	12.60844
27	;	11	;	13.20281
27	;	11.5	;	13.79719
27	;	12	;	14.39156
27	;	12.5	;	14.9986
27	;	13	;	15.60563
27	;	13.5	;	16.2
27	;	14	;	16.79437
27	;	14.5	;	17.36343
27	;	15	;	17.93248
27	;	15.5	;	18.56484
27	;	16	;	19.19719
27	;	16.5	;	19.79157
27	;	17	;	20.38594
27	;	17.5	;	21.01576
27	;	18	;	21.64557
27	;	18.5	;	22.21752
27	;	19	;	22.78947
27	;	19.5	;	23.289
27	;	20	;	23.789
27	;	20.5	;	24.289
27	;	21	;	24.789
27	;	21.5	;	25.289
27	;	22	;	25.789
28	;	0	;	0.196
28	;	0.5	;	0.696
28	;	1	;	1.19574
28	;	1.5	;	1.833
28	;	2	;	2.47025
28	;	2.5	;	3.05499
28	;	3	;	3.63973
28	;	3.5	;	4.22447
28	;	4	;	4.80921
28	;	4.5	;	5.43334
28	;	5	;	6.05746
28	;	5.5	;	6.66846
28	;	6	;	7.27945
28	;	6.5	;	7.89045
28	;	7	;	8.50145
28	;	7.5	;	9.08619
28	;	8	;	9.67093
28	;	8.5	;	10.28193
28	;	9	;	10.89292
28	;	9.5	;	11.49079
28	;	10	;	12.08866
28	;	10.5	;	12.68653
28	;	11	;	13.2844
28	;	11.5	;	13.88227
28	;	12	;	14.48014
28	;	12.5	;	15.09114
28	;	13	;	15.70213
28	;	13.5	;	16.3
28	;	14	;	16.89787
28	;	14.5	;	17.46948
28	;	15	;	18.04109
28	;	15.5	;	18.67835
28	;	16	;	19.3156
28	;	16.5	;	19.91347
28	;	17	;	20.51134
28	;	17.5	;	21.14597
28	;	18	;	21.78059
28	;	18.5	;	22.35521
28	;	19	;	22.92982
28	;	19.5	;	23.43
28	;	20	;	23.93
28	;	20.5	;	24.43
28	;	21	;	24.93
28	;	21.5	;	25.43
28	;	22	;	25.93
29	;	0	;	0.203
29	;	0.5	;	0.703
29	;	1	;	1.20273
29	;	1.5	;	1.84489
29	;	2	;	2.48705
29	;	2.5	;	3.07481
29	;	3	;	3.66257
29	;	3.5	;	4.25034
29	;	4	;	4.83811
29	;	4.5	;	5.46667
29	;	5	;	6.09522
29	;	5.5	;	6.71019
29	;	6	;	7.32515
29	;	6.5	;	7.94012
29	;	7	;	8.55508
29	;	7.5	;	9.14284
29	;	8	;	9.7306
29	;	8.5	;	10.34557
29	;	9	;	10.96053
29	;	9.5	;	11.5619
29	;	10	;	12.16326
29	;	10.5	;	12.76462
29	;	11	;	13.36598
29	;	11.5	;	13.96735
29	;	12	;	14.56871
29	;	12.5	;	15.18368
29	;	13	;	15.79864
29	;	13.5	;	16.4
29	;	14	;	17.00136
29	;	14.5	;	17.57553
29	;	15	;	18.1497
29	;	15.5	;	18.79186
29	;	16	;	19.43402
29	;	16.5	;	20.03539
29	;	17	;	20.63675
29	;	17.5	;	21.27618
29	;	18	;	21.91561
29	;	18.5	;	22.4929
29	;	19	;	23.07018
29	;	19.5	;	23.57
29	;	20	;	24.07
29	;	20.5	;	24.57
29	;	21	;	25.07
29	;	21.5	;	25.57
29	;	22	;	26.07
30	;	0	;	0.21
30	;	0.5	;	0.71
30	;	1	;	1.20972
30	;	1.5	;	1.85678
30	;	2	;	2.50384
30	;	2.5	;	3.09463
30	;	3	;	3.68542
30	;	3.5	;	4.27622
30	;	4	;	4.86701
30	;	4.5	;	5.5
30	;	5	;	6.13299
30	;	5.5	;	6.75192
30	;	6	;	7.37084
30	;	6.5	;	7.98977
30	;	7	;	8.6087
30	;	7.5	;	9.19949
30	;	8	;	9.79028
30	;	8.5	;	10.40921
30	;	9	;	11.02813
30	;	9.5	;	11.63299
30	;	10	;	12.23785
30	;	10.5	;	12.84271
30	;	11	;	13.44757
30	;	11.5	;	14.05243
30	;	12	;	14.65729
30	;	12.5	;	15.27622
30	;	13	;	15.89514
30	;	13.5	;	16.5
30	;	14	;	17.10486
30	;	14.5	;	17.68159
30	;	15	;	18.25831
30	;	15.5	;	18.90537
30	;	16	;	19.55243
30	;	16.5	;	20.15729
30	;	17	;	20.76215
30	;	17.5	;	21.40639
30	;	18	;	22.05063
30	;	18.5	;	22.63058
30	;	19	;	23.21053
30	;	19.5	;	23.711
30	;	20	;	24.211
30	;	20.5	;	24.711
30	;	21	;	25.211
30	;	21.5	;	25.711
30	;	22	;	26.211
