95	;	0	;	-3.357
95	;	0.5	;	-2.857
95	;	1	;	-2.35672
95	;	1.5	;	-2.28086
95	;	2	;	-2.205
95	;	2.5	;	-1.58487
95	;	3	;	-0.96473
95	;	3.5	;	-0.52262
95	;	4	;	-0.0805
95	;	4.5	;	0.37975
95	;	5	;	0.84
95	;	5.5	;	1.176
95	;	6	;	1.512
95	;	6.5	;	1.876
95	;	7	;	2.24
95	;	7.5	;	2.59
95	;	8	;	2.94
95	;	8.5	;	3.276
95	;	9	;	3.612
95	;	9.5	;	3.864
95	;	10	;	4.116
95	;	10.5	;	4.536
95	;	11	;	4.956
95	;	11.5	;	5.264
95	;	12	;	5.572
95	;	12.5	;	5.894
95	;	13	;	6.216
95	;	13.5	;	6.524
95	;	14	;	6.832
95	;	14.5	;	7.084
95	;	15	;	7.336
95	;	15.5	;	7.7
95	;	16	;	8.064
95	;	16.5	;	8.428
95	;	17	;	8.792
95	;	17.5	;	9.198
95	;	18	;	9.604
95	;	18.5	;	9.87
95	;	19	;	10.136
95	;	19.5	;	10.57
95	;	20	;	11.004
95	;	20.5	;	11.368
95	;	21	;	11.732
95	;	21.5	;	12.232
95	;	22	;	12.732
96	;	0	;	-3.189
96	;	0.5	;	-2.689
96	;	1	;	-2.18888
96	;	1.5	;	-2.08991
96	;	2	;	-1.99094
96	;	2.5	;	-1.38584
96	;	3	;	-0.78074
96	;	3.5	;	-0.35603
96	;	4	;	0.06869
96	;	4.5	;	0.52663
96	;	5	;	0.98456
96	;	5.5	;	1.32612
96	;	6	;	1.66768
96	;	6.5	;	2.03724
96	;	7	;	2.4068
96	;	7.5	;	2.75958
96	;	8	;	3.11236
96	;	8.5	;	3.45444
96	;	9	;	3.79651
96	;	9.5	;	4.06572
96	;	10	;	4.33492
96	;	10.5	;	4.7511
96	;	11	;	5.16728
96	;	11.5	;	5.48238
96	;	12	;	5.79747
96	;	12.5	;	6.13021
96	;	13	;	6.46294
96	;	13.5	;	6.78369
96	;	14	;	7.10444
96	;	14.5	;	7.37034
96	;	15	;	7.63624
96	;	15.5	;	8.01117
96	;	16	;	8.3861
96	;	16.5	;	8.74205
96	;	17	;	9.09799
96	;	17.5	;	9.51923
96	;	18	;	9.94047
96	;	18.5	;	10.22344
96	;	19	;	10.50641
96	;	19.5	;	10.93683
96	;	20	;	11.36725
96	;	20.5	;	11.73385
96	;	21	;	12.10044
96	;	21.5	;	12.6
96	;	22	;	13.1
97	;	0	;	-3.021
97	;	0.5	;	-2.521
97	;	1	;	-2.02105
97	;	1.5	;	-1.89897
97	;	2	;	-1.77688
97	;	2.5	;	-1.18682
97	;	3	;	-0.59676
97	;	3.5	;	-0.18944
97	;	4	;	0.21789
97	;	4.5	;	0.67351
97	;	5	;	1.12912
97	;	5.5	;	1.47624
97	;	6	;	1.82336
97	;	6.5	;	2.19848
97	;	7	;	2.5736
97	;	7.5	;	2.92916
97	;	8	;	3.28472
97	;	8.5	;	3.63287
97	;	9	;	3.98102
97	;	9.5	;	4.26744
97	;	10	;	4.55385
97	;	10.5	;	4.96621
97	;	11	;	5.37856
97	;	11.5	;	5.70075
97	;	12	;	6.02293
97	;	12.5	;	6.36641
97	;	13	;	6.70988
97	;	13.5	;	7.04338
97	;	14	;	7.37688
97	;	14.5	;	7.65668
97	;	15	;	7.93648
97	;	15.5	;	8.32234
97	;	16	;	8.70819
97	;	16.5	;	9.05609
97	;	17	;	9.40398
97	;	17.5	;	9.84046
97	;	18	;	10.27694
97	;	18.5	;	10.57688
97	;	19	;	10.87682
97	;	19.5	;	11.30367
97	;	20	;	11.73051
97	;	20.5	;	12.0997
97	;	21	;	12.46889
97	;	21.5	;	12.969
97	;	22	;	13.469
98	;	0	;	-2.853
98	;	0.5	;	-2.353
98	;	1	;	-1.85321
98	;	1.5	;	-1.70802
98	;	2	;	-1.56282
98	;	2.5	;	-0.9878
98	;	3	;	-0.41277
98	;	3.5	;	-0.02285
98	;	4	;	0.36708
98	;	4.5	;	0.82038
98	;	5	;	1.27368
98	;	5.5	;	1.62636
98	;	6	;	1.97904
98	;	6.5	;	2.35972
98	;	7	;	2.7404
98	;	7.5	;	3.09874
98	;	8	;	3.45708
98	;	8.5	;	3.81131
98	;	9	;	4.16553
98	;	9.5	;	4.46915
98	;	10	;	4.77277
98	;	10.5	;	5.18131
98	;	11	;	5.58984
98	;	11.5	;	5.91912
98	;	12	;	6.2484
98	;	12.5	;	6.60261
98	;	13	;	6.95682
98	;	13.5	;	7.30307
98	;	14	;	7.64932
98	;	14.5	;	7.94302
98	;	15	;	8.23672
98	;	15.5	;	8.63351
98	;	16	;	9.03029
98	;	16.5	;	9.37013
98	;	17	;	9.70997
98	;	17.5	;	10.16169
98	;	18	;	10.61341
98	;	18.5	;	10.93032
98	;	19	;	11.24723
98	;	19.5	;	11.6705
98	;	20	;	12.09376
98	;	20.5	;	12.46555
98	;	21	;	12.83733
98	;	21.5	;	13.337
98	;	22	;	13.837
99	;	0	;	-2.685
99	;	0.5	;	-2.185
99	;	1	;	-1.68537
99	;	1.5	;	-1.51707
99	;	2	;	-1.34876
99	;	2.5	;	-0.78877
99	;	3	;	-0.22878
99	;	3.5	;	0.14375
99	;	4	;	0.51627
99	;	4.5	;	0.96726
99	;	5	;	1.41824
99	;	5.5	;	1.77648
99	;	6	;	2.13472
99	;	6.5	;	2.52096
99	;	7	;	2.9072
99	;	7.5	;	3.26832
99	;	8	;	3.62944
99	;	8.5	;	3.98974
99	;	9	;	4.35004
99	;	9.5	;	4.67087
99	;	10	;	4.9917
99	;	10.5	;	5.39641
99	;	11	;	5.80112
99	;	11.5	;	6.1375
99	;	12	;	6.47387
99	;	12.5	;	6.83882
99	;	13	;	7.20376
99	;	13.5	;	7.56276
99	;	14	;	7.92176
99	;	14.5	;	8.22936
99	;	15	;	8.53696
99	;	15.5	;	8.94468
99	;	16	;	9.35239
99	;	16.5	;	9.68418
99	;	17	;	10.01597
99	;	17.5	;	10.48293
99	;	18	;	10.94988
99	;	18.5	;	11.28376
99	;	19	;	11.61764
99	;	19.5	;	12.03733
99	;	20	;	12.45701
99	;	20.5	;	12.83139
99	;	21	;	13.20577
99	;	21.5	;	13.706
99	;	22	;	14.206
100	;	0	;	-2.518
100	;	0.5	;	-2.018
100	;	1	;	-1.51754
100	;	1.5	;	-1.32612
100	;	2	;	-1.1347
100	;	2.5	;	-0.58975
100	;	3	;	-0.0448
100	;	3.5	;	0.31306
100	;	4	;	0.67091
100	;	4.5	;	1.11686
100	;	5	;	1.5628
100	;	5.5	;	1.9266
100	;	6	;	2.2904
100	;	6.5	;	2.6822
100	;	7	;	3.074
100	;	7.5	;	3.4379
100	;	8	;	3.8018
100	;	8.5	;	4.17433
100	;	9	;	4.54686
100	;	9.5	;	4.87874
100	;	10	;	5.21062
100	;	10.5	;	5.61151
100	;	11	;	6.0124
100	;	11.5	;	6.35587
100	;	12	;	6.69934
100	;	12.5	;	7.07502
100	;	13	;	7.4507
100	;	13.5	;	7.82245
100	;	14	;	8.1942
100	;	14.5	;	8.5157
100	;	15	;	8.8372
100	;	15.5	;	9.25584
100	;	16	;	9.67448
100	;	16.5	;	9.99822
100	;	17	;	10.32196
100	;	17.5	;	10.80416
100	;	18	;	11.28635
100	;	18.5	;	11.6372
100	;	19	;	11.98805
100	;	19.5	;	12.40416
100	;	20	;	12.82027
100	;	20.5	;	13.19724
100	;	21	;	13.57421
100	;	21.5	;	14.074
100	;	22	;	14.574
101	;	0	;	-2.35
101	;	0.5	;	-1.85
101	;	1	;	-1.3497
101	;	1.5	;	-1.13517
101	;	2	;	-0.92064
101	;	2.5	;	-0.39073
101	;	3	;	0.13919
101	;	3.5	;	0.49856
101	;	4	;	0.85793
101	;	4.5	;	1.31024
101	;	5	;	1.76255
101	;	5.5	;	2.13042
101	;	6	;	2.49828
101	;	6.5	;	2.89545
101	;	7	;	3.29261
101	;	7.5	;	3.67134
101	;	8	;	4.05006
101	;	8.5	;	4.43349
101	;	9	;	4.81691
101	;	9.5	;	5.12819
101	;	10	;	5.43947
101	;	10.5	;	5.87704
101	;	11	;	6.3146
101	;	11.5	;	6.65338
101	;	12	;	6.99216
101	;	12.5	;	7.37743
101	;	13	;	7.76269
101	;	13.5	;	8.14515
101	;	14	;	8.52761
101	;	14.5	;	8.86826
101	;	15	;	9.20891
101	;	15.5	;	9.62524
101	;	16	;	10.04157
101	;	16.5	;	10.37004
101	;	17	;	10.69851
101	;	17.5	;	11.17516
101	;	18	;	11.65181
101	;	18.5	;	12.03431
101	;	19	;	12.4168
101	;	19.5	;	12.82429
101	;	20	;	13.23177
101	;	20.5	;	13.61889
101	;	21	;	14.006
101	;	21.5	;	14.506
101	;	22	;	15.006
102	;	0	;	-2.182
102	;	0.5	;	-1.682
102	;	1	;	-1.18187
102	;	1.5	;	-0.94423
102	;	2	;	-0.70658
102	;	2.5	;	-0.19171
102	;	3	;	0.32317
102	;	3.5	;	0.68406
102	;	4	;	1.04494
102	;	4.5	;	1.50465
102	;	5	;	1.96436
102	;	5.5	;	2.33624
102	;	6	;	2.70811
102	;	6.5	;	3.11064
102	;	7	;	3.51316
102	;	7.5	;	3.90716
102	;	8	;	4.30116
102	;	8.5	;	4.69407
102	;	9	;	5.08697
102	;	9.5	;	5.39295
102	;	10	;	5.69893
102	;	10.5	;	6.15957
102	;	11	;	6.6202
102	;	11.5	;	6.96186
102	;	12	;	7.30352
102	;	12.5	;	7.69806
102	;	13	;	8.09259
102	;	13.5	;	8.47794
102	;	14	;	8.86329
102	;	14.5	;	9.22329
102	;	15	;	9.58328
102	;	15.5	;	10.00216
102	;	16	;	10.42104
102	;	16.5	;	10.75776
102	;	17	;	11.09448
102	;	17.5	;	11.57553
102	;	18	;	12.05658
102	;	18.5	;	12.45909
102	;	19	;	12.8616
102	;	19.5	;	13.26823
102	;	20	;	13.67486
102	;	20.5	;	14.07707
102	;	21	;	14.47927
102	;	21.5	;	14.979
102	;	22	;	15.479
103	;	0	;	-2.014
103	;	0.5	;	-1.514
103	;	1	;	-1.01403
103	;	1.5	;	-0.75328
103	;	2	;	-0.49252
103	;	2.5	;	0.00732
103	;	3	;	0.50716
103	;	3.5	;	0.86956
103	;	4	;	1.23196
103	;	4.5	;	1.69906
103	;	5	;	2.16616
103	;	5.5	;	2.54205
103	;	6	;	2.91794
103	;	6.5	;	3.32583
103	;	7	;	3.73371
103	;	7.5	;	4.14299
103	;	8	;	4.55226
103	;	8.5	;	4.95465
103	;	9	;	5.35703
103	;	9.5	;	5.65772
103	;	10	;	5.9584
103	;	10.5	;	6.4421
103	;	11	;	6.92579
103	;	11.5	;	7.27034
103	;	12	;	7.61488
103	;	12.5	;	8.01868
103	;	13	;	8.42248
103	;	13.5	;	8.81073
103	;	14	;	9.19898
103	;	14.5	;	9.57832
103	;	15	;	9.95765
103	;	15.5	;	10.37908
103	;	16	;	10.80051
103	;	16.5	;	11.14548
103	;	17	;	11.49044
103	;	17.5	;	11.97589
103	;	18	;	12.46134
103	;	18.5	;	12.88387
103	;	19	;	13.3064
103	;	19.5	;	13.71218
103	;	20	;	14.11795
103	;	20.5	;	14.53525
103	;	21	;	14.95254
103	;	21.5	;	15.453
103	;	22	;	15.953
104	;	0	;	-1.846
104	;	0.5	;	-1.346
104	;	1	;	-0.8462
104	;	1.5	;	-0.56233
104	;	2	;	-0.27846
104	;	2.5	;	0.20634
104	;	3	;	0.69114
104	;	3.5	;	1.05506
104	;	4	;	1.41898
104	;	4.5	;	1.89348
104	;	5	;	2.36797
104	;	5.5	;	2.74787
104	;	6	;	3.12777
104	;	6.5	;	3.54101
104	;	7	;	3.95425
104	;	7.5	;	4.37881
104	;	8	;	4.80336
104	;	8.5	;	5.21523
104	;	9	;	5.62709
104	;	9.5	;	5.92248
104	;	10	;	6.21787
104	;	10.5	;	6.72463
104	;	11	;	7.23138
104	;	11.5	;	7.57881
104	;	12	;	7.92624
104	;	12.5	;	8.33931
104	;	13	;	8.75237
104	;	13.5	;	9.14352
104	;	14	;	9.53466
104	;	14.5	;	9.93335
104	;	15	;	10.33203
104	;	15.5	;	10.75601
104	;	16	;	11.17998
104	;	16.5	;	11.5332
104	;	17	;	11.88641
104	;	17.5	;	12.37626
104	;	18	;	12.86611
104	;	18.5	;	13.30866
104	;	19	;	13.7512
104	;	19.5	;	14.15612
104	;	20	;	14.56104
104	;	20.5	;	14.99343
104	;	21	;	15.42581
104	;	21.5	;	15.926
104	;	22	;	16.426
105	;	0	;	-1.678
105	;	0.5	;	-1.178
105	;	1	;	-0.67836
105	;	1.5	;	-0.37138
105	;	2	;	-0.0644
105	;	2.5	;	0.40537
105	;	3	;	0.87513
105	;	3.5	;	1.24057
105	;	4	;	1.606
105	;	4.5	;	2.09086
105	;	5	;	2.57572
105	;	5.5	;	2.98412
105	;	6	;	3.39252
105	;	6.5	;	3.80251
105	;	7	;	4.21249
105	;	7.5	;	4.63347
105	;	8	;	5.05445
105	;	8.5	;	5.4758
105	;	9	;	5.89714
105	;	9.5	;	6.18724
105	;	10	;	6.47733
105	;	10.5	;	7.00716
105	;	11	;	7.53698
105	;	11.5	;	7.88729
105	;	12	;	8.2376
105	;	12.5	;	8.65994
105	;	13	;	9.08227
105	;	13.5	;	9.47631
105	;	14	;	9.87035
105	;	14.5	;	10.28838
105	;	15	;	10.7064
105	;	15.5	;	11.13293
105	;	16	;	11.55945
105	;	16.5	;	11.92092
105	;	17	;	12.28238
105	;	17.5	;	12.77663
105	;	18	;	13.27088
105	;	18.5	;	13.73344
105	;	19	;	14.196
105	;	19.5	;	14.60006
105	;	20	;	15.00412
105	;	20.5	;	15.4516
105	;	21	;	15.89907
105	;	21.5	;	16.399
105	;	22	;	16.899
106	;	0	;	-1.511
106	;	0.5	;	-1.011
106	;	1	;	-0.51052
106	;	1.5	;	-0.18043
106	;	2	;	0.14966
106	;	2.5	;	0.60439
106	;	3	;	1.05911
106	;	3.5	;	1.45226
106	;	4	;	1.8454
106	;	4.5	;	2.339
106	;	5	;	2.83259
106	;	5.5	;	3.25066
106	;	6	;	3.66872
106	;	6.5	;	4.07998
106	;	7	;	4.49124
106	;	7.5	;	4.90739
106	;	8	;	5.32353
106	;	8.5	;	5.74537
106	;	9	;	6.1672
106	;	9.5	;	6.49113
106	;	10	;	6.81506
106	;	10.5	;	7.32882
106	;	11	;	7.84257
106	;	11.5	;	8.19577
106	;	12	;	8.54896
106	;	12.5	;	8.98056
106	;	13	;	9.41216
106	;	13.5	;	9.81328
106	;	14	;	10.2144
106	;	14.5	;	10.64759
106	;	15	;	11.08077
106	;	15.5	;	11.50985
106	;	16	;	11.93892
106	;	16.5	;	12.30864
106	;	17	;	12.67835
106	;	17.5	;	13.177
106	;	18	;	13.67565
106	;	18.5	;	14.15823
106	;	19	;	14.6408
106	;	19.5	;	15.04401
106	;	20	;	15.44721
106	;	20.5	;	15.90978
106	;	21	;	16.37234
106	;	21.5	;	16.872
106	;	22	;	17.372
107	;	0	;	-1.343
107	;	0.5	;	-0.843
107	;	1	;	-0.34269
107	;	1.5	;	0.01052
107	;	2	;	0.36372
107	;	2.5	;	0.80341
107	;	3	;	1.2431
107	;	3.5	;	1.66395
107	;	4	;	2.0848
107	;	4.5	;	2.58713
107	;	5	;	3.08946
107	;	5.5	;	3.5172
107	;	6	;	3.94493
107	;	6.5	;	4.35746
107	;	7	;	4.76999
107	;	7.5	;	5.19546
107	;	8	;	5.62092
107	;	8.5	;	6.02909
107	;	9	;	6.43726
107	;	9.5	;	6.79806
107	;	10	;	7.15885
107	;	10.5	;	7.65351
107	;	11	;	8.14817
107	;	11.5	;	8.50425
107	;	12	;	8.86032
107	;	12.5	;	9.30119
107	;	13	;	9.74205
107	;	13.5	;	10.16612
107	;	14	;	10.59018
107	;	14.5	;	11.02267
107	;	15	;	11.45515
107	;	15.5	;	11.88677
107	;	16	;	12.31839
107	;	16.5	;	12.69636
107	;	17	;	13.07432
107	;	17.5	;	13.57737
107	;	18	;	14.08042
107	;	18.5	;	14.58301
107	;	19	;	15.0856
107	;	19.5	;	15.48795
107	;	20	;	15.8903
107	;	20.5	;	16.36796
107	;	21	;	16.84561
107	;	21.5	;	17.346
107	;	22	;	17.846
108	;	0	;	-1.175
108	;	0.5	;	-0.675
108	;	1	;	-0.17485
108	;	1.5	;	0.20147
108	;	2	;	0.57778
108	;	2.5	;	1.00243
108	;	3	;	1.42708
108	;	3.5	;	1.87564
108	;	4	;	2.3242
108	;	4.5	;	2.83527
108	;	5	;	3.34634
108	;	5.5	;	3.78374
108	;	6	;	4.22114
108	;	6.5	;	4.63494
108	;	7	;	5.04874
108	;	7.5	;	5.48352
108	;	8	;	5.9183
108	;	8.5	;	6.31281
108	;	9	;	6.70732
108	;	9.5	;	7.10499
108	;	10	;	7.50265
108	;	10.5	;	7.97821
108	;	11	;	8.45376
108	;	11.5	;	8.81272
108	;	12	;	9.17168
108	;	12.5	;	9.63167
108	;	13	;	10.09165
108	;	13.5	;	10.52881
108	;	14	;	10.96596
108	;	14.5	;	11.41296
108	;	15	;	11.85995
108	;	15.5	;	12.27891
108	;	16	;	12.69786
108	;	16.5	;	13.08408
108	;	17	;	13.47029
108	;	17.5	;	13.98859
108	;	18	;	14.50688
108	;	18.5	;	15.01864
108	;	19	;	15.5304
108	;	19.5	;	15.95386
108	;	20	;	16.37731
108	;	20.5	;	16.84809
108	;	21	;	17.31887
108	;	21.5	;	17.819
108	;	22	;	18.319
109	;	0	;	-1.007
109	;	0.5	;	-0.507
109	;	1	;	-0.00702
109	;	1.5	;	0.39241
109	;	2	;	0.79184
109	;	2.5	;	1.21617
109	;	3	;	1.64049
109	;	3.5	;	2.10205
109	;	4	;	2.5636
109	;	4.5	;	3.07774
109	;	5	;	3.59188
109	;	5.5	;	4.04461
109	;	6	;	4.49734
109	;	6.5	;	4.91242
109	;	7	;	5.32749
109	;	7.5	;	5.77159
109	;	8	;	6.21569
109	;	8.5	;	6.60705
109	;	9	;	6.9984
109	;	9.5	;	7.42242
109	;	10	;	7.84644
109	;	10.5	;	8.3029
109	;	11	;	8.75935
109	;	11.5	;	9.15468
109	;	12	;	9.55001
109	;	12.5	;	10.02857
109	;	13	;	10.50713
109	;	13.5	;	10.92444
109	;	14	;	11.34174
109	;	14.5	;	11.82514
109	;	15	;	12.30853
109	;	15.5	;	12.70086
109	;	16	;	13.09319
109	;	16.5	;	13.50946
109	;	17	;	13.92572
109	;	17.5	;	14.46581
109	;	18	;	15.0059
109	;	18.5	;	15.49055
109	;	19	;	15.9752
109	;	19.5	;	16.43502
109	;	20	;	16.89483
109	;	20.5	;	17.34349
109	;	21	;	17.79214
109	;	21.5	;	18.292
109	;	22	;	18.792
110	;	0	;	-0.839
110	;	0.5	;	-0.339
110	;	1	;	0.16082
110	;	1.5	;	0.58154
110	;	2	;	1.00225
110	;	2.5	;	1.43467
110	;	3	;	1.86708
110	;	3.5	;	2.33504
110	;	4	;	2.803
110	;	4.5	;	3.31478
110	;	5	;	3.82656
110	;	5.5	;	4.29635
110	;	6	;	4.76614
110	;	6.5	;	5.18619
110	;	7	;	5.60624
110	;	7.5	;	6.05966
110	;	8	;	6.51307
110	;	8.5	;	6.92254
110	;	9	;	7.332
110	;	9.5	;	7.76607
110	;	10	;	8.20013
110	;	10.5	;	8.6423
110	;	11	;	9.08447
110	;	11.5	;	9.52141
110	;	12	;	9.95834
110	;	12.5	;	10.44048
110	;	13	;	10.92261
110	;	13.5	;	11.32007
110	;	14	;	11.71752
110	;	14.5	;	12.23732
110	;	15	;	12.75711
110	;	15.5	;	13.16739
110	;	16	;	13.57766
110	;	16.5	;	14.00788
110	;	17	;	14.4381
110	;	17.5	;	14.97151
110	;	18	;	15.50492
110	;	18.5	;	15.99141
110	;	19	;	16.4779
110	;	19.5	;	16.94513
110	;	20	;	17.41236
110	;	20.5	;	17.85895
110	;	21	;	18.30554
110	;	21.5	;	18.806
110	;	22	;	19.306
111	;	0	;	-0.671
111	;	0.5	;	-0.171
111	;	1	;	0.32866
111	;	1.5	;	0.76523
111	;	2	;	1.2018
111	;	2.5	;	1.64773
111	;	3	;	2.09366
111	;	3.5	;	2.56803
111	;	4	;	3.0424
111	;	4.5	;	3.55183
111	;	5	;	4.06125
111	;	5.5	;	4.53708
111	;	6	;	5.01291
111	;	6.5	;	5.44895
111	;	7	;	5.88499
111	;	7.5	;	6.34773
111	;	8	;	6.81046
111	;	8.5	;	7.23803
111	;	9	;	7.6656
111	;	9.5	;	8.11285
111	;	10	;	8.5601
111	;	10.5	;	9.01384
111	;	11	;	9.46757
111	;	11.5	;	9.91713
111	;	12	;	10.36668
111	;	12.5	;	10.85239
111	;	13	;	11.33809
111	;	13.5	;	11.7157
111	;	14	;	12.0933
111	;	14.5	;	12.64949
111	;	15	;	13.20568
111	;	15.5	;	13.63391
111	;	16	;	14.06213
111	;	16.5	;	14.50631
111	;	17	;	14.95048
111	;	17.5	;	15.47721
111	;	18	;	16.00393
111	;	18.5	;	16.49313
111	;	19	;	16.98232
111	;	19.5	;	17.45611
111	;	20	;	17.92989
111	;	20.5	;	18.38716
111	;	21	;	18.84443
111	;	21.5	;	19.344
111	;	22	;	19.844
112	;	0	;	-0.504
112	;	0.5	;	-0.004
112	;	1	;	0.49649
112	;	1.5	;	0.94892
112	;	2	;	1.40135
112	;	2.5	;	1.8608
112	;	3	;	2.32025
112	;	3.5	;	2.80103
112	;	4	;	3.2818
112	;	4.5	;	3.78887
112	;	5	;	4.29594
112	;	5.5	;	4.77781
112	;	6	;	5.25968
112	;	6.5	;	5.71172
112	;	7	;	6.16375
112	;	7.5	;	6.6358
112	;	8	;	7.10784
112	;	8.5	;	7.55352
112	;	9	;	7.9992
112	;	9.5	;	8.45964
112	;	10	;	8.92008
112	;	10.5	;	9.38538
112	;	11	;	9.85068
112	;	11.5	;	10.31285
112	;	12	;	10.77501
112	;	12.5	;	11.26429
112	;	13	;	11.75356
112	;	13.5	;	12.1615
112	;	14	;	12.56943
112	;	14.5	;	13.11185
112	;	15	;	13.65426
112	;	15.5	;	14.10043
112	;	16	;	14.5466
112	;	16.5	;	15.00473
112	;	17	;	15.46286
112	;	17.5	;	15.98291
112	;	18	;	16.50295
112	;	18.5	;	16.99485
112	;	19	;	17.48674
112	;	19.5	;	17.96708
112	;	20	;	18.44742
112	;	20.5	;	18.91537
112	;	21	;	19.38332
112	;	21.5	;	19.883
112	;	22	;	20.383
113	;	0	;	-0.336
113	;	0.5	;	0.164
113	;	1	;	0.66433
113	;	1.5	;	1.13262
113	;	2	;	1.6009
113	;	2.5	;	2.07387
113	;	3	;	2.54683
113	;	3.5	;	3.03402
113	;	4	;	3.5212
113	;	4.5	;	4.02592
113	;	5	;	4.53063
113	;	5.5	;	5.01854
113	;	6	;	5.50645
113	;	6.5	;	5.97448
113	;	7	;	6.4425
113	;	7.5	;	6.92387
113	;	8	;	7.40523
113	;	8.5	;	7.86902
113	;	9	;	8.3328
113	;	9.5	;	8.80643
113	;	10	;	9.28005
113	;	10.5	;	9.75692
113	;	11	;	10.23379
113	;	11.5	;	10.70857
113	;	12	;	11.18334
113	;	12.5	;	11.67619
113	;	13	;	12.16904
113	;	13.5	;	12.60767
113	;	14	;	13.04629
113	;	14.5	;	13.57457
113	;	15	;	14.10284
113	;	15.5	;	14.56695
113	;	16	;	15.03106
113	;	16.5	;	15.50315
113	;	17	;	15.97524
113	;	17.5	;	16.48861
113	;	18	;	17.00197
113	;	18.5	;	17.49657
113	;	19	;	17.99116
113	;	19.5	;	18.47805
113	;	20	;	18.96494
113	;	20.5	;	19.44358
113	;	21	;	19.92222
113	;	21.5	;	20.422
113	;	22	;	20.922
114	;	0	;	-0.168
114	;	0.5	;	0.332
114	;	1	;	0.83216
114	;	1.5	;	1.31631
114	;	2	;	1.80045
114	;	2.5	;	2.28694
114	;	3	;	2.77342
114	;	3.5	;	3.26701
114	;	4	;	3.7606
114	;	4.5	;	4.26296
114	;	5	;	4.76531
114	;	5.5	;	5.25927
114	;	6	;	5.75323
114	;	6.5	;	6.23724
114	;	7	;	6.72125
114	;	7.5	;	7.21193
114	;	8	;	7.70261
114	;	8.5	;	8.18451
114	;	9	;	8.6664
114	;	9.5	;	9.15322
114	;	10	;	9.64003
114	;	10.5	;	10.12846
114	;	11	;	10.61689
114	;	11.5	;	11.10428
114	;	12	;	11.59167
114	;	12.5	;	12.0881
114	;	13	;	12.58452
114	;	13.5	;	13.05383
114	;	14	;	13.52314
114	;	14.5	;	14.03728
114	;	15	;	14.55142
114	;	15.5	;	15.03348
114	;	16	;	15.51553
114	;	16.5	;	16.00158
114	;	17	;	16.48762
114	;	17.5	;	16.9943
114	;	18	;	17.50098
114	;	18.5	;	17.99828
114	;	19	;	18.49558
114	;	19.5	;	18.98903
114	;	20	;	19.48247
114	;	20.5	;	19.97179
114	;	21	;	20.46111
114	;	21.5	;	20.961
114	;	22	;	21.461
115	;	0	;	0
115	;	0.5	;	0.5
115	;	1	;	1
115	;	1.5	;	1.5
115	;	2	;	2
115	;	2.5	;	2.5
115	;	3	;	3
115	;	3.5	;	3.5
115	;	4	;	4
115	;	4.5	;	4.5
115	;	5	;	5
115	;	5.5	;	5.5
115	;	6	;	6
115	;	6.5	;	6.5
115	;	7	;	7
115	;	7.5	;	7.5
115	;	8	;	8
115	;	8.5	;	8.5
115	;	9	;	9
115	;	9.5	;	9.5
115	;	10	;	10
115	;	10.5	;	10.5
115	;	11	;	11
115	;	11.5	;	11.5
115	;	12	;	12
115	;	12.5	;	12.5
115	;	13	;	13
115	;	13.5	;	13.5
115	;	14	;	14
115	;	14.5	;	14.5
115	;	15	;	15
115	;	15.5	;	15.5
115	;	16	;	16
115	;	16.5	;	16.5
115	;	17	;	17
115	;	17.5	;	17.5
115	;	18	;	18
115	;	18.5	;	18.5
115	;	19	;	19
115	;	19.5	;	19.5
115	;	20	;	20
115	;	20.5	;	20.5
115	;	21	;	21
115	;	21.5	;	21.5
115	;	22	;	22
116	;	0	;	0
116	;	0.5	;	0.5
116	;	1	;	1
116	;	1.5	;	1.5
116	;	2	;	2
116	;	2.5	;	2.5
116	;	3	;	3
116	;	3.5	;	3.5
116	;	4	;	4
116	;	4.5	;	4.5
116	;	5	;	5
116	;	5.5	;	5.5
116	;	6	;	6
116	;	6.5	;	6.5
116	;	7	;	7
116	;	7.5	;	7.5
116	;	8	;	8
116	;	8.5	;	8.5
116	;	9	;	9
116	;	9.5	;	9.5
116	;	10	;	10
116	;	10.5	;	10.5
116	;	11	;	11
116	;	11.5	;	11.5
116	;	12	;	12
116	;	12.5	;	12.5
116	;	13	;	13
116	;	13.5	;	13.5
116	;	14	;	14
116	;	14.5	;	14.5
116	;	15	;	15
116	;	15.5	;	15.5
116	;	16	;	16
116	;	16.5	;	16.5
116	;	17	;	17
116	;	17.5	;	17.5
116	;	18	;	18
116	;	18.5	;	18.5
116	;	19	;	19
116	;	19.5	;	19.5
116	;	20	;	20
116	;	20.5	;	20.5
116	;	21	;	21
116	;	21.5	;	21.5
116	;	22	;	22
117	;	0	;	0
117	;	0.5	;	0.5
117	;	1	;	1
117	;	1.5	;	1.5
117	;	2	;	2
117	;	2.5	;	2.5
117	;	3	;	3
117	;	3.5	;	3.5
117	;	4	;	4
117	;	4.5	;	4.5
117	;	5	;	5
117	;	5.5	;	5.5
117	;	6	;	6
117	;	6.5	;	6.5
117	;	7	;	7
117	;	7.5	;	7.5
117	;	8	;	8
117	;	8.5	;	8.5
117	;	9	;	9
117	;	9.5	;	9.5
117	;	10	;	10
117	;	10.5	;	10.5
117	;	11	;	11
117	;	11.5	;	11.5
117	;	12	;	12
117	;	12.5	;	12.5
117	;	13	;	13
117	;	13.5	;	13.5
117	;	14	;	14
117	;	14.5	;	14.5
117	;	15	;	15
117	;	15.5	;	15.5
117	;	16	;	16
117	;	16.5	;	16.5
117	;	17	;	17
117	;	17.5	;	17.5
117	;	18	;	18
117	;	18.5	;	18.5
117	;	19	;	19
117	;	19.5	;	19.5
117	;	20	;	20
117	;	20.5	;	20.5
117	;	21	;	21
117	;	21.5	;	21.5
117	;	22	;	22
118	;	0	;	0
118	;	0.5	;	0.5
118	;	1	;	1
118	;	1.5	;	1.5
118	;	2	;	2
118	;	2.5	;	2.5
118	;	3	;	3
118	;	3.5	;	3.5
118	;	4	;	4
118	;	4.5	;	4.5
118	;	5	;	5
118	;	5.5	;	5.5
118	;	6	;	6
118	;	6.5	;	6.5
118	;	7	;	7
118	;	7.5	;	7.5
118	;	8	;	8
118	;	8.5	;	8.5
118	;	9	;	9
118	;	9.5	;	9.5
118	;	10	;	10
118	;	10.5	;	10.5
118	;	11	;	11
118	;	11.5	;	11.5
118	;	12	;	12
118	;	12.5	;	12.5
118	;	13	;	13
118	;	13.5	;	13.5
118	;	14	;	14
118	;	14.5	;	14.5
118	;	15	;	15
118	;	15.5	;	15.5
118	;	16	;	16
118	;	16.5	;	16.5
118	;	17	;	17
118	;	17.5	;	17.5
118	;	18	;	18
118	;	18.5	;	18.5
118	;	19	;	19
118	;	19.5	;	19.5
118	;	20	;	20
118	;	20.5	;	20.5
118	;	21	;	21
118	;	21.5	;	21.5
118	;	22	;	22
119	;	0	;	0
119	;	0.5	;	0.5
119	;	1	;	1
119	;	1.5	;	1.5
119	;	2	;	2
119	;	2.5	;	2.5
119	;	3	;	3
119	;	3.5	;	3.5
119	;	4	;	4
119	;	4.5	;	4.5
119	;	5	;	5
119	;	5.5	;	5.5
119	;	6	;	6
119	;	6.5	;	6.5
119	;	7	;	7
119	;	7.5	;	7.5
119	;	8	;	8
119	;	8.5	;	8.5
119	;	9	;	9
119	;	9.5	;	9.5
119	;	10	;	10
119	;	10.5	;	10.5
119	;	11	;	11
119	;	11.5	;	11.5
119	;	12	;	12
119	;	12.5	;	12.5
119	;	13	;	13
119	;	13.5	;	13.5
119	;	14	;	14
119	;	14.5	;	14.5
119	;	15	;	15
119	;	15.5	;	15.5
119	;	16	;	16
119	;	16.5	;	16.5
119	;	17	;	17
119	;	17.5	;	17.5
119	;	18	;	18
119	;	18.5	;	18.5
119	;	19	;	19
119	;	19.5	;	19.5
119	;	20	;	20
119	;	20.5	;	20.5
119	;	21	;	21
119	;	21.5	;	21.5
119	;	22	;	22
120	;	0	;	0
120	;	0.5	;	0.5
120	;	1	;	1
120	;	1.5	;	1.5
120	;	2	;	2
120	;	2.5	;	2.5
120	;	3	;	3
120	;	3.5	;	3.5
120	;	4	;	4
120	;	4.5	;	4.5
120	;	5	;	5
120	;	5.5	;	5.5
120	;	6	;	6
120	;	6.5	;	6.5
120	;	7	;	7
120	;	7.5	;	7.5
120	;	8	;	8
120	;	8.5	;	8.5
120	;	9	;	9
120	;	9.5	;	9.5
120	;	10	;	10
120	;	10.5	;	10.5
120	;	11	;	11
120	;	11.5	;	11.5
120	;	12	;	12
120	;	12.5	;	12.5
120	;	13	;	13
120	;	13.5	;	13.5
120	;	14	;	14
120	;	14.5	;	14.5
120	;	15	;	15
120	;	15.5	;	15.5
120	;	16	;	16
120	;	16.5	;	16.5
120	;	17	;	17
120	;	17.5	;	17.5
120	;	18	;	18
120	;	18.5	;	18.5
120	;	19	;	19
120	;	19.5	;	19.5
120	;	20	;	20
120	;	20.5	;	20.5
120	;	21	;	21
120	;	21.5	;	21.5
120	;	22	;	22
