-70	;	0	;	12.33618
-70	;	100	;	12.21652
-70	;	200	;	12.09686
-70	;	300	;	11.97721
-70	;	400	;	11.85755
-70	;	500	;	11.73789
-70	;	600	;	11.61823
-70	;	700	;	11.49857
-70	;	800	;	11.37892
-70	;	900	;	11.25926
-70	;	1000	;	11.1396
-70	;	1100	;	11.0114
-70	;	1200	;	10.88319
-70	;	1300	;	10.75499
-70	;	1400	;	10.62678
-70	;	1500	;	10.49858
-70	;	1600	;	10.37037
-70	;	1700	;	10.24217
-70	;	1800	;	10.11396
-70	;	1900	;	9.98576
-70	;	2000	;	9.85755
-70	;	2100	;	9.69516
-70	;	2200	;	9.53276
-70	;	2300	;	9.37037
-70	;	2400	;	9.20798
-70	;	2500	;	9.04559
-70	;	2600	;	8.88319
-70	;	2700	;	8.7208
-70	;	2800	;	8.55841
-70	;	2900	;	8.39601
-70	;	3000	;	8.23362
-70	;	3100	;	8.09714
-70	;	3200	;	7.96065
-70	;	3300	;	7.82417
-70	;	3400	;	7.68769
-70	;	3500	;	7.55121
-70	;	3600	;	7.41472
-70	;	3700	;	7.27824
-70	;	3800	;	7.14176
-70	;	3900	;	7.00527
-70	;	4000	;	6.86879
-65	;	0	;	12.33618
-65	;	100	;	12.21652
-65	;	200	;	12.09686
-65	;	300	;	11.97721
-65	;	400	;	11.85755
-65	;	500	;	11.73789
-65	;	600	;	11.61823
-65	;	700	;	11.49857
-65	;	800	;	11.37892
-65	;	900	;	11.25926
-65	;	1000	;	11.1396
-65	;	1100	;	11.0114
-65	;	1200	;	10.88319
-65	;	1300	;	10.75499
-65	;	1400	;	10.62678
-65	;	1500	;	10.49858
-65	;	1600	;	10.37037
-65	;	1700	;	10.24217
-65	;	1800	;	10.11396
-65	;	1900	;	9.98576
-65	;	2000	;	9.85755
-65	;	2100	;	9.69522
-65	;	2200	;	9.53289
-65	;	2300	;	9.37055
-65	;	2400	;	9.20822
-65	;	2500	;	9.04589
-65	;	2600	;	8.88356
-65	;	2700	;	8.72123
-65	;	2800	;	8.55889
-65	;	2900	;	8.39656
-65	;	3000	;	8.23423
-65	;	3100	;	8.09849
-65	;	3200	;	7.96276
-65	;	3300	;	7.82702
-65	;	3400	;	7.69129
-65	;	3500	;	7.55555
-65	;	3600	;	7.41981
-65	;	3700	;	7.28408
-65	;	3800	;	7.14834
-65	;	3900	;	7.01261
-65	;	4000	;	6.87687
-60	;	0	;	12.33618
-60	;	100	;	12.21652
-60	;	200	;	12.09686
-60	;	300	;	11.97721
-60	;	400	;	11.85755
-60	;	500	;	11.73789
-60	;	600	;	11.61823
-60	;	700	;	11.49857
-60	;	800	;	11.37892
-60	;	900	;	11.25926
-60	;	1000	;	11.1396
-60	;	1100	;	11.0114
-60	;	1200	;	10.88319
-60	;	1300	;	10.75499
-60	;	1400	;	10.62678
-60	;	1500	;	10.49858
-60	;	1600	;	10.37037
-60	;	1700	;	10.24217
-60	;	1800	;	10.11396
-60	;	1900	;	9.98576
-60	;	2000	;	9.85755
-60	;	2100	;	9.69595
-60	;	2200	;	9.53435
-60	;	2300	;	9.37275
-60	;	2400	;	9.21115
-60	;	2500	;	9.04956
-60	;	2600	;	8.88796
-60	;	2700	;	8.72636
-60	;	2800	;	8.56476
-60	;	2900	;	8.40316
-60	;	3000	;	8.24156
-60	;	3100	;	8.1059
-60	;	3200	;	7.97024
-60	;	3300	;	7.83457
-60	;	3400	;	7.69891
-60	;	3500	;	7.56325
-60	;	3600	;	7.42759
-60	;	3700	;	7.29193
-60	;	3800	;	7.15626
-60	;	3900	;	7.0206
-60	;	4000	;	6.88494
-55	;	0	;	12.33618
-55	;	100	;	12.21652
-55	;	200	;	12.09686
-55	;	300	;	11.97721
-55	;	400	;	11.85755
-55	;	500	;	11.73789
-55	;	600	;	11.61823
-55	;	700	;	11.49857
-55	;	800	;	11.37892
-55	;	900	;	11.25926
-55	;	1000	;	11.1396
-55	;	1100	;	11.0114
-55	;	1200	;	10.88319
-55	;	1300	;	10.75499
-55	;	1400	;	10.62678
-55	;	1500	;	10.49858
-55	;	1600	;	10.37037
-55	;	1700	;	10.24217
-55	;	1800	;	10.11396
-55	;	1900	;	9.98576
-55	;	2000	;	9.85755
-55	;	2100	;	9.69668
-55	;	2200	;	9.53582
-55	;	2300	;	9.37495
-55	;	2400	;	9.21408
-55	;	2500	;	9.05322
-55	;	2600	;	8.89235
-55	;	2700	;	8.73148
-55	;	2800	;	8.57061
-55	;	2900	;	8.40975
-55	;	3000	;	8.24888
-55	;	3100	;	8.11329
-55	;	3200	;	7.97771
-55	;	3300	;	7.84212
-55	;	3400	;	7.70654
-55	;	3500	;	7.57095
-55	;	3600	;	7.43536
-55	;	3700	;	7.29978
-55	;	3800	;	7.16419
-55	;	3900	;	7.02861
-55	;	4000	;	6.89302
-50	;	0	;	12.33618
-50	;	100	;	12.21689
-50	;	200	;	12.0976
-50	;	300	;	11.97832
-50	;	400	;	11.85903
-50	;	500	;	11.73974
-50	;	600	;	11.62045
-50	;	700	;	11.50116
-50	;	800	;	11.38188
-50	;	900	;	11.26259
-50	;	1000	;	11.1433
-50	;	1100	;	11.01473
-50	;	1200	;	10.88615
-50	;	1300	;	10.75758
-50	;	1400	;	10.629
-50	;	1500	;	10.50043
-50	;	1600	;	10.37185
-50	;	1700	;	10.24328
-50	;	1800	;	10.1147
-50	;	1900	;	9.98613
-50	;	2000	;	9.85755
-50	;	2100	;	9.69742
-50	;	2200	;	9.53728
-50	;	2300	;	9.37715
-50	;	2400	;	9.21701
-50	;	2500	;	9.05688
-50	;	2600	;	8.89675
-50	;	2700	;	8.73661
-50	;	2800	;	8.57648
-50	;	2900	;	8.41634
-50	;	3000	;	8.25621
-50	;	3100	;	8.1207
-50	;	3200	;	7.98519
-50	;	3300	;	7.84968
-50	;	3400	;	7.71417
-50	;	3500	;	7.57866
-50	;	3600	;	7.44314
-50	;	3700	;	7.30763
-50	;	3800	;	7.17212
-50	;	3900	;	7.03661
-50	;	4000	;	6.9011
-45	;	0	;	12.33618
-45	;	100	;	12.21778
-45	;	200	;	12.09938
-45	;	300	;	11.98098
-45	;	400	;	11.86258
-45	;	500	;	11.74419
-45	;	600	;	11.62579
-45	;	700	;	11.50739
-45	;	800	;	11.38899
-45	;	900	;	11.27059
-45	;	1000	;	11.15219
-45	;	1100	;	11.02273
-45	;	1200	;	10.89326
-45	;	1300	;	10.7638
-45	;	1400	;	10.63433
-45	;	1500	;	10.50487
-45	;	1600	;	10.37541
-45	;	1700	;	10.24594
-45	;	1800	;	10.11648
-45	;	1900	;	9.98701
-45	;	2000	;	9.85755
-45	;	2100	;	9.69815
-45	;	2200	;	9.53875
-45	;	2300	;	9.37934
-45	;	2400	;	9.21994
-45	;	2500	;	9.06054
-45	;	2600	;	8.90114
-45	;	2700	;	8.74174
-45	;	2800	;	8.58233
-45	;	2900	;	8.42293
-45	;	3000	;	8.26353
-45	;	3100	;	8.12809
-45	;	3200	;	7.99266
-45	;	3300	;	7.85722
-45	;	3400	;	7.72179
-45	;	3500	;	7.58635
-45	;	3600	;	7.45091
-45	;	3700	;	7.31548
-45	;	3800	;	7.18004
-45	;	3900	;	7.04461
-45	;	4000	;	6.90917
-40	;	0	;	12.33772
-40	;	100	;	12.22006
-40	;	200	;	12.10239
-40	;	300	;	11.98473
-40	;	400	;	11.86706
-40	;	500	;	11.7494
-40	;	600	;	11.63173
-40	;	700	;	11.51407
-40	;	800	;	11.3964
-40	;	900	;	11.27874
-40	;	1000	;	11.16107
-40	;	1100	;	11.03072
-40	;	1200	;	10.90037
-40	;	1300	;	10.77001
-40	;	1400	;	10.63966
-40	;	1500	;	10.50931
-40	;	1600	;	10.37896
-40	;	1700	;	10.24861
-40	;	1800	;	10.11825
-40	;	1900	;	9.9879
-40	;	2000	;	9.85755
-40	;	2100	;	9.69888
-40	;	2200	;	9.54021
-40	;	2300	;	9.38154
-40	;	2400	;	9.22287
-40	;	2500	;	9.06421
-40	;	2600	;	8.90554
-40	;	2700	;	8.74687
-40	;	2800	;	8.5882
-40	;	2900	;	8.42953
-40	;	3000	;	8.27086
-40	;	3100	;	8.1355
-40	;	3200	;	8.00014
-40	;	3300	;	7.86478
-40	;	3400	;	7.72942
-40	;	3500	;	7.59406
-40	;	3600	;	7.45869
-40	;	3700	;	7.32333
-40	;	3800	;	7.18797
-40	;	3900	;	7.05261
-40	;	4000	;	6.91725
-35	;	0	;	12.33978
-35	;	100	;	12.2228
-35	;	200	;	12.10582
-35	;	300	;	11.98883
-35	;	400	;	11.87185
-35	;	500	;	11.75487
-35	;	600	;	11.63789
-35	;	700	;	11.52091
-35	;	800	;	11.40392
-35	;	900	;	11.28694
-35	;	1000	;	11.16996
-35	;	1100	;	11.03872
-35	;	1200	;	10.90748
-35	;	1300	;	10.77624
-35	;	1400	;	10.645
-35	;	1500	;	10.51376
-35	;	1600	;	10.38251
-35	;	1700	;	10.25127
-35	;	1800	;	10.12003
-35	;	1900	;	9.98879
-35	;	2000	;	9.85755
-35	;	2100	;	9.69961
-35	;	2200	;	9.54168
-35	;	2300	;	9.38374
-35	;	2400	;	9.22581
-35	;	2500	;	9.06787
-35	;	2600	;	8.90993
-35	;	2700	;	8.752
-35	;	2800	;	8.59406
-35	;	2900	;	8.43613
-35	;	3000	;	8.27819
-35	;	3100	;	8.1429
-35	;	3200	;	8.00762
-35	;	3300	;	7.87233
-35	;	3400	;	7.73704
-35	;	3500	;	7.60176
-35	;	3600	;	7.46647
-35	;	3700	;	7.33118
-35	;	3800	;	7.19589
-35	;	3900	;	7.06061
-35	;	4000	;	6.92532
-30	;	0	;	12.34184
-30	;	100	;	12.22554
-30	;	200	;	12.10924
-30	;	300	;	11.99294
-30	;	400	;	11.87664
-30	;	500	;	11.76034
-30	;	600	;	11.64404
-30	;	700	;	11.52774
-30	;	800	;	11.41144
-30	;	900	;	11.29514
-30	;	1000	;	11.17884
-30	;	1100	;	11.04671
-30	;	1200	;	10.91458
-30	;	1300	;	10.78245
-30	;	1400	;	10.65032
-30	;	1500	;	10.5182
-30	;	1600	;	10.38607
-30	;	1700	;	10.25394
-30	;	1800	;	10.12181
-30	;	1900	;	9.98968
-30	;	2000	;	9.85755
-30	;	2100	;	9.70035
-30	;	2200	;	9.54314
-30	;	2300	;	9.38594
-30	;	2400	;	9.22873
-30	;	2500	;	9.07153
-30	;	2600	;	8.91433
-30	;	2700	;	8.75712
-30	;	2800	;	8.59992
-30	;	2900	;	8.44271
-30	;	3000	;	8.28551
-30	;	3100	;	8.1503
-30	;	3200	;	8.01509
-30	;	3300	;	7.87988
-30	;	3400	;	7.74467
-30	;	3500	;	7.60946
-30	;	3600	;	7.47424
-30	;	3700	;	7.33903
-30	;	3800	;	7.20382
-30	;	3900	;	7.06861
-30	;	4000	;	6.9334
-25	;	0	;	12.3439
-25	;	100	;	12.22828
-25	;	200	;	12.11266
-25	;	300	;	11.99705
-25	;	400	;	11.88143
-25	;	500	;	11.76581
-25	;	600	;	11.65019
-25	;	700	;	11.53457
-25	;	800	;	11.41896
-25	;	900	;	11.30334
-25	;	1000	;	11.18772
-25	;	1100	;	11.0547
-25	;	1200	;	10.92169
-25	;	1300	;	10.78867
-25	;	1400	;	10.65565
-25	;	1500	;	10.52264
-25	;	1600	;	10.38962
-25	;	1700	;	10.2566
-25	;	1800	;	10.12358
-25	;	1900	;	9.99057
-25	;	2000	;	9.85755
-25	;	2100	;	9.70108
-25	;	2200	;	9.54461
-25	;	2300	;	9.38814
-25	;	2400	;	9.23167
-25	;	2500	;	9.0752
-25	;	2600	;	8.91872
-25	;	2700	;	8.76225
-25	;	2800	;	8.60578
-25	;	2900	;	8.44931
-25	;	3000	;	8.29284
-25	;	3100	;	8.1577
-25	;	3200	;	8.02257
-25	;	3300	;	7.88743
-25	;	3400	;	7.7523
-25	;	3500	;	7.61716
-25	;	3600	;	7.48202
-25	;	3700	;	7.34689
-25	;	3800	;	7.21175
-25	;	3900	;	7.07662
-25	;	4000	;	6.94148
-20	;	0	;	12.34596
-20	;	100	;	12.23103
-20	;	200	;	12.11609
-20	;	300	;	12.00116
-20	;	400	;	11.88622
-20	;	500	;	11.77129
-20	;	600	;	11.65635
-20	;	700	;	11.54142
-20	;	800	;	11.42648
-20	;	900	;	11.31155
-20	;	1000	;	11.19661
-20	;	1100	;	11.0627
-20	;	1200	;	10.9288
-20	;	1300	;	10.79489
-20	;	1400	;	10.66099
-20	;	1500	;	10.52708
-20	;	1600	;	10.39317
-20	;	1700	;	10.25927
-20	;	1800	;	10.12536
-20	;	1900	;	9.99146
-20	;	2000	;	9.85755
-20	;	2100	;	9.70181
-20	;	2200	;	9.54607
-20	;	2300	;	9.39033
-20	;	2400	;	9.23459
-20	;	2500	;	9.07886
-20	;	2600	;	8.92312
-20	;	2700	;	8.76738
-20	;	2800	;	8.61164
-20	;	2900	;	8.4559
-20	;	3000	;	8.30016
-20	;	3100	;	8.1651
-20	;	3200	;	8.03004
-20	;	3300	;	7.89498
-20	;	3400	;	7.75992
-20	;	3500	;	7.62486
-20	;	3600	;	7.48979
-20	;	3700	;	7.35473
-20	;	3800	;	7.21967
-20	;	3900	;	7.08461
-20	;	4000	;	6.94955
-15	;	0	;	12.34802
-15	;	100	;	12.23377
-15	;	200	;	12.11951
-15	;	300	;	12.00526
-15	;	400	;	11.89101
-15	;	500	;	11.77676
-15	;	600	;	11.6625
-15	;	700	;	11.54825
-15	;	800	;	11.434
-15	;	900	;	11.31974
-15	;	1000	;	11.20549
-15	;	1100	;	11.0707
-15	;	1200	;	10.9359
-15	;	1300	;	10.80111
-15	;	1400	;	10.66631
-15	;	1500	;	10.53152
-15	;	1600	;	10.39673
-15	;	1700	;	10.26193
-15	;	1800	;	10.12714
-15	;	1900	;	9.99234
-15	;	2000	;	9.85755
-15	;	2100	;	9.70254
-15	;	2200	;	9.54754
-15	;	2300	;	9.39253
-15	;	2400	;	9.23753
-15	;	2500	;	9.08252
-15	;	2600	;	8.92751
-15	;	2700	;	8.77251
-15	;	2800	;	8.6175
-15	;	2900	;	8.4625
-15	;	3000	;	8.30749
-15	;	3100	;	8.1459
-15	;	3200	;	7.9843
-15	;	3300	;	7.82271
-15	;	3400	;	7.66111
-15	;	3500	;	7.49952
-15	;	3600	;	7.33793
-15	;	3700	;	7.17633
-15	;	3800	;	7.01474
-15	;	3900	;	6.85314
-15	;	4000	;	6.69155
-10	;	0	;	12.35008
-10	;	100	;	12.23651
-10	;	200	;	12.12294
-10	;	300	;	12.00937
-10	;	400	;	11.8958
-10	;	500	;	11.78223
-10	;	600	;	11.66866
-10	;	700	;	11.55509
-10	;	800	;	11.44152
-10	;	900	;	11.32795
-10	;	1000	;	11.21438
-10	;	1100	;	11.0787
-10	;	1200	;	10.94301
-10	;	1300	;	10.80733
-10	;	1400	;	10.67165
-10	;	1500	;	10.53597
-10	;	1600	;	10.40028
-10	;	1700	;	10.2646
-10	;	1800	;	10.12892
-10	;	1900	;	9.99323
-10	;	2000	;	9.85755
-10	;	2100	;	9.70328
-10	;	2200	;	9.549
-10	;	2300	;	9.39473
-10	;	2400	;	9.24046
-10	;	2500	;	9.08619
-10	;	2600	;	8.93191
-10	;	2700	;	8.77764
-10	;	2800	;	8.62337
-10	;	2900	;	8.46909
-10	;	3000	;	8.31482
-10	;	3100	;	8.11782
-10	;	3200	;	7.92083
-10	;	3300	;	7.72383
-10	;	3400	;	7.52683
-10	;	3500	;	7.32984
-10	;	3600	;	7.13284
-10	;	3700	;	6.93584
-10	;	3800	;	6.73884
-10	;	3900	;	6.54185
-10	;	4000	;	6.34485
-5	;	0	;	12.35214
-5	;	100	;	12.23925
-5	;	200	;	12.12636
-5	;	300	;	12.01348
-5	;	400	;	11.90059
-5	;	500	;	11.7877
-5	;	600	;	11.67481
-5	;	700	;	11.56192
-5	;	800	;	11.44904
-5	;	900	;	11.33615
-5	;	1000	;	11.22326
-5	;	1100	;	11.08669
-5	;	1200	;	10.95012
-5	;	1300	;	10.81355
-5	;	1400	;	10.67698
-5	;	1500	;	10.54041
-5	;	1600	;	10.40383
-5	;	1700	;	10.26726
-5	;	1800	;	10.13069
-5	;	1900	;	9.99412
-5	;	2000	;	9.85755
-5	;	2100	;	9.69065
-5	;	2200	;	9.52374
-5	;	2300	;	9.35684
-5	;	2400	;	9.18993
-5	;	2500	;	9.02303
-5	;	2600	;	8.85613
-5	;	2700	;	8.68922
-5	;	2800	;	8.52232
-5	;	2900	;	8.35541
-5	;	3000	;	8.18851
-5	;	3100	;	7.96947
-5	;	3200	;	7.75044
-5	;	3300	;	7.5314
-5	;	3400	;	7.31237
-5	;	3500	;	7.09333
-5	;	3600	;	6.87429
-5	;	3700	;	6.65526
-5	;	3800	;	6.43622
-5	;	3900	;	6.21719
-5	;	4000	;	5.99815
0	;	0	;	12.3542
0	;	100	;	12.242
0	;	200	;	12.12979
0	;	300	;	12.01759
0	;	400	;	11.90538
0	;	500	;	11.79318
0	;	600	;	11.68097
0	;	700	;	11.56877
0	;	800	;	11.45656
0	;	900	;	11.34436
0	;	1000	;	11.23215
0	;	1100	;	11.09469
0	;	1200	;	10.95723
0	;	1300	;	10.81977
0	;	1400	;	10.68231
0	;	1500	;	10.54485
0	;	1600	;	10.40739
0	;	1700	;	10.26993
0	;	1800	;	10.13247
0	;	1900	;	9.99501
0	;	2000	;	9.85755
0	;	2100	;	9.65931
0	;	2200	;	9.46106
0	;	2300	;	9.26282
0	;	2400	;	9.06458
0	;	2500	;	8.86634
0	;	2600	;	8.66809
0	;	2700	;	8.46985
0	;	2800	;	8.27161
0	;	2900	;	8.07336
0	;	3000	;	7.87512
0	;	3100	;	7.65275
0	;	3200	;	7.43039
0	;	3300	;	7.20802
0	;	3400	;	6.98566
0	;	3500	;	6.76329
0	;	3600	;	6.54092
0	;	3700	;	6.31856
0	;	3800	;	6.09619
0	;	3900	;	5.87383
0	;	4000	;	5.65146
5	;	0	;	12.35626
5	;	100	;	12.24474
5	;	200	;	12.13321
5	;	300	;	12.02169
5	;	400	;	11.91017
5	;	500	;	11.79865
5	;	600	;	11.68712
5	;	700	;	11.5756
5	;	800	;	11.46408
5	;	900	;	11.35255
5	;	1000	;	11.24103
5	;	1100	;	11.09509
5	;	1200	;	10.94914
5	;	1300	;	10.8032
5	;	1400	;	10.65725
5	;	1500	;	10.51131
5	;	1600	;	10.36536
5	;	1700	;	10.21942
5	;	1800	;	10.07347
5	;	1900	;	9.92753
5	;	2000	;	9.78158
5	;	2100	;	9.5596
5	;	2200	;	9.33761
5	;	2300	;	9.11563
5	;	2400	;	8.89364
5	;	2500	;	8.67166
5	;	2600	;	8.44967
5	;	2700	;	8.22769
5	;	2800	;	8.0057
5	;	2900	;	7.78372
5	;	3000	;	7.56173
5	;	3100	;	7.33603
5	;	3200	;	7.11034
5	;	3300	;	6.88464
5	;	3400	;	6.65894
5	;	3500	;	6.43325
5	;	3600	;	6.20755
5	;	3700	;	5.98185
5	;	3800	;	5.75615
5	;	3900	;	5.53046
5	;	4000	;	5.30476
10	;	0	;	12.35832
10	;	100	;	12.24748
10	;	200	;	12.13664
10	;	300	;	12.0258
10	;	400	;	11.91496
10	;	500	;	11.80412
10	;	600	;	11.69328
10	;	700	;	11.58244
10	;	800	;	11.4716
10	;	900	;	11.36076
10	;	1000	;	11.24992
10	;	1100	;	11.09169
10	;	1200	;	10.93346
10	;	1300	;	10.77523
10	;	1400	;	10.617
10	;	1500	;	10.45877
10	;	1600	;	10.30054
10	;	1700	;	10.14231
10	;	1800	;	9.98408
10	;	1900	;	9.82585
10	;	2000	;	9.66762
10	;	2100	;	9.42569
10	;	2200	;	9.18376
10	;	2300	;	8.94184
10	;	2400	;	8.69991
10	;	2500	;	8.45798
10	;	2600	;	8.21605
10	;	2700	;	7.97412
10	;	2800	;	7.7322
10	;	2900	;	7.49027
10	;	3000	;	7.24834
10	;	3100	;	7.01931
10	;	3200	;	6.79028
10	;	3300	;	6.56126
10	;	3400	;	6.33223
10	;	3500	;	6.1032
10	;	3600	;	5.87417
10	;	3700	;	5.64514
10	;	3800	;	5.41612
10	;	3900	;	5.18709
10	;	4000	;	4.95806
15	;	0	;	12.36038
15	;	100	;	12.23917
15	;	200	;	12.11796
15	;	300	;	11.99676
15	;	400	;	11.87555
15	;	500	;	11.75434
15	;	600	;	11.63313
15	;	700	;	11.51192
15	;	800	;	11.39072
15	;	900	;	11.26951
15	;	1000	;	11.1483
15	;	1100	;	10.94574
15	;	1200	;	10.74318
15	;	1300	;	10.54062
15	;	1400	;	10.33806
15	;	1500	;	10.1355
15	;	1600	;	9.93294
15	;	1700	;	9.73038
15	;	1800	;	9.52782
15	;	1900	;	9.32526
15	;	2000	;	9.1227
15	;	2100	;	8.89127
15	;	2200	;	8.65984
15	;	2300	;	8.42842
15	;	2400	;	8.19699
15	;	2500	;	7.96556
15	;	2600	;	7.73413
15	;	2700	;	7.5027
15	;	2800	;	7.27128
15	;	2900	;	7.03985
15	;	3000	;	6.80842
15	;	3100	;	6.58364
15	;	3200	;	6.35885
15	;	3300	;	6.13407
15	;	3400	;	5.90929
15	;	3500	;	5.68451
15	;	3600	;	5.45972
15	;	3700	;	5.23494
15	;	3800	;	5.01016
15	;	3900	;	4.78537
15	;	4000	;	4.56059
20	;	0	;	12.36244
20	;	100	;	12.22319
20	;	200	;	12.08393
20	;	300	;	11.94468
20	;	400	;	11.80542
20	;	500	;	11.66617
20	;	600	;	11.52692
20	;	700	;	11.38766
20	;	800	;	11.24841
20	;	900	;	11.10915
20	;	1000	;	10.9699
20	;	1100	;	10.70914
20	;	1200	;	10.44838
20	;	1300	;	10.18763
20	;	1400	;	9.92687
20	;	1500	;	9.66611
20	;	1600	;	9.40535
20	;	1700	;	9.14459
20	;	1800	;	8.88384
20	;	1900	;	8.62308
20	;	2000	;	8.36232
20	;	2100	;	8.14523
20	;	2200	;	7.92813
20	;	2300	;	7.71104
20	;	2400	;	7.49394
20	;	2500	;	7.27685
20	;	2600	;	7.05975
20	;	2700	;	6.84266
20	;	2800	;	6.62556
20	;	2900	;	6.40847
20	;	3000	;	6.19137
20	;	3100	;	5.98753
20	;	3200	;	5.78369
20	;	3300	;	5.57985
20	;	3400	;	5.37601
20	;	3500	;	5.17217
20	;	3600	;	4.96833
20	;	3700	;	4.76449
20	;	3800	;	4.56065
20	;	3900	;	4.35681
20	;	4000	;	4.15297
25	;	0	;	12.3645
25	;	100	;	12.1481
25	;	200	;	11.93171
25	;	300	;	11.71531
25	;	400	;	11.49891
25	;	500	;	11.28252
25	;	600	;	11.06612
25	;	700	;	10.84972
25	;	800	;	10.63332
25	;	900	;	10.41693
25	;	1000	;	10.20053
25	;	1100	;	9.94067
25	;	1200	;	9.68081
25	;	1300	;	9.42095
25	;	1400	;	9.16109
25	;	1500	;	8.90123
25	;	1600	;	8.64137
25	;	1700	;	8.38151
25	;	1800	;	8.12165
25	;	1900	;	7.86179
25	;	2000	;	7.60193
25	;	2100	;	7.39917
25	;	2200	;	7.19641
25	;	2300	;	6.99364
25	;	2400	;	6.79088
25	;	2500	;	6.58812
25	;	2600	;	6.38536
25	;	2700	;	6.1826
25	;	2800	;	5.97983
25	;	2900	;	5.77707
25	;	3000	;	5.57431
25	;	3100	;	5.41859
25	;	3200	;	5.26287
25	;	3300	;	5.10714
25	;	3400	;	4.95142
25	;	3500	;	4.7957
25	;	3600	;	4.63998
25	;	3700	;	4.48426
25	;	3800	;	4.32853
25	;	3900	;	4.17281
25	;	4000	;	4.01709
30	;	0	;	12.19373
30	;	100	;	11.90565
30	;	200	;	11.61757
30	;	300	;	11.3295
30	;	400	;	11.04142
30	;	500	;	10.75334
30	;	600	;	10.46526
30	;	700	;	10.17718
30	;	800	;	9.88911
30	;	900	;	9.60103
30	;	1000	;	9.31295
30	;	1100	;	9.06581
30	;	1200	;	8.81867
30	;	1300	;	8.57153
30	;	1400	;	8.32439
30	;	1500	;	8.07725
30	;	1600	;	7.8301
30	;	1700	;	7.58296
30	;	1800	;	7.33582
30	;	1900	;	7.08868
30	;	2000	;	6.84154
30	;	2100	;	6.65311
30	;	2200	;	6.46468
30	;	2300	;	6.27626
30	;	2400	;	6.08783
30	;	2500	;	5.8994
30	;	2600	;	5.71097
30	;	2700	;	5.52254
30	;	2800	;	5.33412
30	;	2900	;	5.14569
30	;	3000	;	4.95726
30	;	3100	;	4.86324
30	;	3200	;	4.76923
30	;	3300	;	4.67521
30	;	3400	;	4.58119
30	;	3500	;	4.48718
30	;	3600	;	4.39316
30	;	3700	;	4.29914
30	;	3800	;	4.20512
30	;	3900	;	4.11111
30	;	4000	;	4.01709
35	;	0	;	11.13836
35	;	100	;	10.86706
35	;	200	;	10.59576
35	;	300	;	10.32447
35	;	400	;	10.05317
35	;	500	;	9.78187
35	;	600	;	9.51057
35	;	700	;	9.23927
35	;	800	;	8.96798
35	;	900	;	8.69668
35	;	1000	;	8.42538
35	;	1100	;	8.19096
35	;	1200	;	7.95653
35	;	1300	;	7.72211
35	;	1400	;	7.48769
35	;	1500	;	7.25327
35	;	1600	;	7.01884
35	;	1700	;	6.78442
35	;	1800	;	6.55
35	;	1900	;	6.31557
35	;	2000	;	6.08115
35	;	2100	;	5.96876
35	;	2200	;	5.85637
35	;	2300	;	5.74398
35	;	2400	;	5.63159
35	;	2500	;	5.51921
35	;	2600	;	5.40682
35	;	2700	;	5.29443
35	;	2800	;	5.18204
35	;	2900	;	5.06965
35	;	3000	;	4.95726
35	;	3100	;	4.86324
35	;	3200	;	4.76923
35	;	3300	;	4.67521
35	;	3400	;	4.58119
35	;	3500	;	4.48718
35	;	3600	;	4.39316
35	;	3700	;	4.29914
35	;	3800	;	4.20512
35	;	3900	;	4.11111
35	;	4000	;	4.01709
40	;	0	;	10.08299
40	;	100	;	9.82847
40	;	200	;	9.57395
40	;	300	;	9.31944
40	;	400	;	9.06492
40	;	500	;	8.8104
40	;	600	;	8.55588
40	;	700	;	8.30136
40	;	800	;	8.04685
40	;	900	;	7.79233
40	;	1000	;	7.53781
40	;	1100	;	7.37947
40	;	1200	;	7.22113
40	;	1300	;	7.06279
40	;	1400	;	6.90445
40	;	1500	;	6.74612
40	;	1600	;	6.58778
40	;	1700	;	6.42944
40	;	1800	;	6.2711
40	;	1900	;	6.11276
40	;	2000	;	5.95442
40	;	2100	;	5.8547
40	;	2200	;	5.75499
40	;	2300	;	5.65527
40	;	2400	;	5.55556
40	;	2500	;	5.45584
40	;	2600	;	5.35612
40	;	2700	;	5.25641
40	;	2800	;	5.15669
40	;	2900	;	5.05698
40	;	3000	;	4.95726
40	;	3100	;	4.86324
40	;	3200	;	4.76923
40	;	3300	;	4.67521
40	;	3400	;	4.58119
40	;	3500	;	4.48718
40	;	3600	;	4.39316
40	;	3700	;	4.29914
40	;	3800	;	4.20512
40	;	3900	;	4.11111
40	;	4000	;	4.01709
45	;	0	;	9.02762
45	;	100	;	8.83426
45	;	200	;	8.6409
45	;	300	;	8.44754
45	;	400	;	8.25418
45	;	500	;	8.06082
45	;	600	;	7.86746
45	;	700	;	7.6741
45	;	800	;	7.48074
45	;	900	;	7.28738
45	;	1000	;	7.09402
45	;	1100	;	6.98006
45	;	1200	;	6.8661
45	;	1300	;	6.75214
45	;	1400	;	6.63818
45	;	1500	;	6.52422
45	;	1600	;	6.41026
45	;	1700	;	6.2963
45	;	1800	;	6.18234
45	;	1900	;	6.06838
45	;	2000	;	5.95442
45	;	2100	;	5.8547
45	;	2200	;	5.75499
45	;	2300	;	5.65527
45	;	2400	;	5.55556
45	;	2500	;	5.45584
45	;	2600	;	5.35612
45	;	2700	;	5.25641
45	;	2800	;	5.15669
45	;	2900	;	5.05698
45	;	3000	;	4.95726
45	;	3100	;	4.86324
45	;	3200	;	4.76923
45	;	3300	;	4.67521
45	;	3400	;	4.58119
45	;	3500	;	4.48718
45	;	3600	;	4.39316
45	;	3700	;	4.29914
45	;	3800	;	4.20512
45	;	3900	;	4.11111
45	;	4000	;	4.01709
