200	;	0	;	3.393
200	;	0.5	;	3.893
200	;	1	;	4.393
200	;	1.5	;	4.893
200	;	2	;	5.393
200	;	2.5	;	5.893
200	;	3	;	6.41323
200	;	3.5	;	7.06183
200	;	4	;	7.71043
200	;	4.5	;	8.43953
200	;	5	;	9.12117
200	;	5.5	;	9.66634
200	;	6	;	10.22177
200	;	6.5	;	10.80951
200	;	7	;	11.39724
200	;	7.5	;	12.06335
200	;	8	;	12.74765
200	;	8.5	;	13.43972
200	;	9	;	14.04974
200	;	9.5	;	14.50234
200	;	10	;	14.95494
200	;	10.5	;	15.54674
200	;	11	;	16.15278
200	;	11.5	;	16.73013
200	;	12	;	17.30237
200	;	12.5	;	18.05739
200	;	13	;	18.85969
200	;	13.5	;	19.413
200	;	14	;	19.913
200	;	14.5	;	20.413
200	;	15	;	20.913
200	;	15.5	;	21.413
200	;	16	;	21.913
200	;	16.5	;	22.413
200	;	17	;	22.913
200	;	17.5	;	23.413
200	;	18	;	23.913
200	;	18.5	;	24.413
200	;	19	;	24.913
200	;	19.5	;	25.413
200	;	20	;	25.913
200	;	20.5	;	26.413
200	;	21	;	26.913
200	;	21.5	;	27.413
200	;	22	;	27.913
205	;	0	;	3.01
205	;	0.5	;	3.51
205	;	1	;	4.01
205	;	1.5	;	4.51
205	;	2	;	5.01
205	;	2.5	;	5.51
205	;	3	;	6.02826
205	;	3.5	;	6.6589
205	;	4	;	7.28954
205	;	4.5	;	8.00462
205	;	5	;	8.67717
205	;	5.5	;	9.22438
205	;	6	;	9.77308
205	;	6.5	;	10.32648
205	;	7	;	10.87988
205	;	7.5	;	11.53434
205	;	8	;	12.20846
205	;	8.5	;	12.87404
205	;	9	;	13.47011
205	;	9.5	;	13.93286
205	;	10	;	14.3956
205	;	10.5	;	14.97948
205	;	11	;	15.57577
205	;	11.5	;	16.14056
205	;	12	;	16.69976
205	;	12.5	;	17.41833
205	;	13	;	18.17814
205	;	13.5	;	18.724
205	;	14	;	19.224
205	;	14.5	;	19.724
205	;	15	;	20.224
205	;	15.5	;	20.724
205	;	16	;	21.224
205	;	16.5	;	21.724
205	;	17	;	22.224
205	;	17.5	;	22.724
205	;	18	;	23.224
205	;	18.5	;	23.724
205	;	19	;	24.224
205	;	19.5	;	24.724
205	;	20	;	25.224
205	;	20.5	;	25.724
205	;	21	;	26.224
205	;	21.5	;	26.724
205	;	22	;	27.224
210	;	0	;	2.628
210	;	0.5	;	3.128
210	;	1	;	3.628
210	;	1.5	;	4.128
210	;	2	;	4.628
210	;	2.5	;	5.128
210	;	3	;	5.64329
210	;	3.5	;	6.25598
210	;	4	;	6.86866
210	;	4.5	;	7.56971
210	;	5	;	8.23317
210	;	5.5	;	8.78242
210	;	6	;	9.32439
210	;	6.5	;	9.84346
210	;	7	;	10.36253
210	;	7.5	;	11.00533
210	;	8	;	11.66926
210	;	8.5	;	12.30835
210	;	9	;	12.89049
210	;	9.5	;	13.36338
210	;	10	;	13.83627
210	;	10.5	;	14.41224
210	;	11	;	14.99876
210	;	11.5	;	15.551
210	;	12	;	16.09714
210	;	12.5	;	16.77927
210	;	13	;	17.49659
210	;	13.5	;	18.035
210	;	14	;	18.535
210	;	14.5	;	19.035
210	;	15	;	19.535
210	;	15.5	;	20.035
210	;	16	;	20.535
210	;	16.5	;	21.035
210	;	17	;	21.535
210	;	17.5	;	22.035
210	;	18	;	22.535
210	;	18.5	;	23.035
210	;	19	;	23.535
210	;	19.5	;	24.035
210	;	20	;	24.535
210	;	20.5	;	25.035
210	;	21	;	25.535
210	;	21.5	;	26.035
210	;	22	;	26.535
215	;	0	;	2.245
215	;	0.5	;	2.745
215	;	1	;	3.245
215	;	1.5	;	3.745
215	;	2	;	4.245
215	;	2.5	;	4.745
215	;	3	;	5.25832
215	;	3.5	;	5.85305
215	;	4	;	6.44777
215	;	4.5	;	7.1348
215	;	5	;	7.78917
215	;	5.5	;	8.34046
215	;	6	;	8.8757
215	;	6.5	;	9.36043
215	;	7	;	9.84517
215	;	7.5	;	10.47632
215	;	8	;	11.13006
215	;	8.5	;	11.74266
215	;	9	;	12.31087
215	;	9.5	;	12.7939
215	;	10	;	13.27693
215	;	10.5	;	13.84498
215	;	11	;	14.42174
215	;	11.5	;	14.96143
215	;	12	;	15.49454
215	;	12.5	;	16.14022
215	;	13	;	16.81503
215	;	13.5	;	17.346
215	;	14	;	17.846
215	;	14.5	;	18.346
215	;	15	;	18.846
215	;	15.5	;	19.346
215	;	16	;	19.846
215	;	16.5	;	20.346
215	;	17	;	20.846
215	;	17.5	;	21.346
215	;	18	;	21.846
215	;	18.5	;	22.346
215	;	19	;	22.846
215	;	19.5	;	23.346
215	;	20	;	23.846
215	;	20.5	;	24.346
215	;	21	;	24.846
215	;	21.5	;	25.346
215	;	22	;	25.846
220	;	0	;	1.863
220	;	0.5	;	2.363
220	;	1	;	2.863
220	;	1.5	;	3.363
220	;	2	;	3.863
220	;	2.5	;	4.363
220	;	3	;	4.87335
220	;	3.5	;	5.45012
220	;	4	;	6.02689
220	;	4.5	;	6.69989
220	;	5	;	7.34517
220	;	5.5	;	7.8985
220	;	6	;	8.42701
220	;	6.5	;	8.87741
220	;	7	;	9.32781
220	;	7.5	;	9.94731
220	;	8	;	10.59087
220	;	8.5	;	11.17698
220	;	9	;	11.73124
220	;	9.5	;	12.22441
220	;	10	;	12.71758
220	;	10.5	;	13.27773
220	;	11	;	13.84474
220	;	11.5	;	14.38428
220	;	12	;	14.91894
220	;	12.5	;	15.51908
220	;	13	;	16.13615
220	;	13.5	;	16.657
220	;	14	;	17.157
220	;	14.5	;	17.657
220	;	15	;	18.157
220	;	15.5	;	18.657
220	;	16	;	19.157
220	;	16.5	;	19.657
220	;	17	;	20.157
220	;	17.5	;	20.657
220	;	18	;	21.157
220	;	18.5	;	21.657
220	;	19	;	22.157
220	;	19.5	;	22.657
220	;	20	;	23.157
220	;	20.5	;	23.657
220	;	21	;	24.157
220	;	21.5	;	24.657
220	;	22	;	25.157
225	;	0	;	1.48
225	;	0.5	;	1.98
225	;	1	;	2.48
225	;	1.5	;	2.98
225	;	2	;	3.48
225	;	2.5	;	3.98
225	;	3	;	4.48838
225	;	3.5	;	5.04719
225	;	4	;	5.606
225	;	4.5	;	6.26653
225	;	5	;	6.90355
225	;	5.5	;	7.45757
225	;	6	;	7.97831
225	;	6.5	;	8.39438
225	;	7	;	8.81045
225	;	7.5	;	9.42049
225	;	8	;	10.05566
225	;	8.5	;	10.61287
225	;	9	;	11.15161
225	;	9.5	;	11.65493
225	;	10	;	12.15825
225	;	10.5	;	12.73277
225	;	11	;	13.31457
225	;	11.5	;	13.83882
225	;	12	;	14.35283
225	;	12.5	;	14.93845
225	;	13	;	15.54261
225	;	13.5	;	16.061
225	;	14	;	16.561
225	;	14.5	;	17.061
225	;	15	;	17.561
225	;	15.5	;	18.061
225	;	16	;	18.561
225	;	16.5	;	19.061
225	;	17	;	19.561
225	;	17.5	;	20.061
225	;	18	;	20.561
225	;	18.5	;	21.061
225	;	19	;	21.561
225	;	19.5	;	22.061
225	;	20	;	22.561
225	;	20.5	;	23.061
225	;	21	;	23.561
225	;	21.5	;	24.061
225	;	22	;	24.561
230	;	0	;	1.098
230	;	0.5	;	1.598
230	;	1	;	2.098
230	;	1.5	;	2.598
230	;	2	;	3.098
230	;	2.5	;	3.598
230	;	3	;	4.10611
230	;	3.5	;	4.66647
230	;	4	;	5.22683
230	;	4.5	;	5.88832
230	;	5	;	6.51709
230	;	5.5	;	7.04043
230	;	6	;	7.54435
230	;	6.5	;	7.98714
230	;	7	;	8.42992
230	;	7.5	;	9.01853
230	;	8	;	9.62582
230	;	8.5	;	10.17349
230	;	9	;	10.70079
230	;	9.5	;	11.18903
230	;	10	;	11.67726
230	;	10.5	;	12.24951
230	;	11	;	12.83035
230	;	11.5	;	13.31891
230	;	12	;	13.79107
230	;	12.5	;	14.39022
230	;	13	;	15.02222
230	;	13.5	;	15.545
230	;	14	;	16.045
230	;	14.5	;	16.545
230	;	15	;	17.045
230	;	15.5	;	17.545
230	;	16	;	18.045
230	;	16.5	;	18.545
230	;	17	;	19.045
230	;	17.5	;	19.545
230	;	18	;	20.045
230	;	18.5	;	20.545
230	;	19	;	21.045
230	;	19.5	;	21.545
230	;	20	;	22.045
230	;	20.5	;	22.545
230	;	21	;	23.045
230	;	21.5	;	23.545
230	;	22	;	24.045
235	;	0	;	0.783
235	;	0.5	;	1.283
235	;	1	;	1.783
235	;	1.5	;	2.283
235	;	2	;	2.783
235	;	2.5	;	3.283
235	;	3	;	3.79139
235	;	3.5	;	4.35492
235	;	4	;	4.91845
235	;	4.5	;	5.54123
235	;	5	;	6.13062
235	;	5.5	;	6.6233
235	;	6	;	7.11247
235	;	6.5	;	7.59061
235	;	7	;	8.06876
235	;	7.5	;	8.62704
235	;	8	;	9.1978
235	;	8.5	;	9.74656
235	;	9	;	10.27559
235	;	9.5	;	10.76677
235	;	10	;	11.25795
235	;	10.5	;	11.80167
235	;	11	;	12.35077
235	;	11.5	;	12.83095
235	;	12	;	13.29888
235	;	12.5	;	13.8881
235	;	13	;	14.50869
235	;	13.5	;	15.03
235	;	14	;	15.53
235	;	14.5	;	16.03
235	;	15	;	16.53
235	;	15.5	;	17.03
235	;	16	;	17.53
235	;	16.5	;	18.03
235	;	17	;	18.53
235	;	17.5	;	19.03
235	;	18	;	19.53
235	;	18.5	;	20.03
235	;	19	;	20.53
235	;	19.5	;	21.03
235	;	20	;	21.53
235	;	20.5	;	22.03
235	;	21	;	22.53
235	;	21.5	;	23.03
235	;	22	;	23.53
240	;	0	;	0.522
240	;	0.5	;	1.022
240	;	1	;	1.522
240	;	1.5	;	2.022
240	;	2	;	2.522
240	;	2.5	;	3.022
240	;	3	;	3.5276
240	;	3.5	;	4.06995
240	;	4	;	4.6123
240	;	4.5	;	5.19416
240	;	5	;	5.74416
240	;	5.5	;	6.20616
240	;	6	;	6.68059
240	;	6.5	;	7.19409
240	;	7	;	7.7076
240	;	7.5	;	8.23555
240	;	8	;	8.76978
240	;	8.5	;	9.31963
240	;	9	;	9.8504
240	;	9.5	;	10.34452
240	;	10	;	10.83864
240	;	10.5	;	11.35383
240	;	11	;	11.87119
240	;	11.5	;	12.36873
240	;	12	;	12.86275
240	;	12.5	;	13.42314
240	;	13	;	14.0007
240	;	13.5	;	14.514
240	;	14	;	15.014
240	;	14.5	;	15.514
240	;	15	;	16.014
240	;	15.5	;	16.514
240	;	16	;	17.014
240	;	16.5	;	17.514
240	;	17	;	18.014
240	;	17.5	;	18.514
240	;	18	;	19.014
240	;	18.5	;	19.514
240	;	19	;	20.014
240	;	19.5	;	20.514
240	;	20	;	21.014
240	;	20.5	;	21.514
240	;	21	;	22.014
240	;	21.5	;	22.514
240	;	22	;	23.014
245	;	0	;	0.261
245	;	0.5	;	0.761
245	;	1	;	1.261
245	;	1.5	;	1.761
245	;	2	;	2.261
245	;	2.5	;	2.761
245	;	3	;	3.26379
245	;	3.5	;	3.78497
245	;	4	;	4.30615
245	;	4.5	;	4.84708
245	;	5	;	5.36599
245	;	5.5	;	5.82596
245	;	6	;	6.30151
245	;	6.5	;	6.8261
245	;	7	;	7.35068
245	;	7.5	;	7.84407
245	;	8	;	8.34175
245	;	8.5	;	8.89271
245	;	9	;	9.42519
245	;	9.5	;	9.92225
245	;	10	;	10.41931
245	;	10.5	;	10.91805
245	;	11	;	11.41696
245	;	11.5	;	11.92257
245	;	12	;	12.42936
245	;	12.5	;	12.95818
245	;	13	;	13.4927
245	;	13.5	;	13.999
245	;	14	;	14.499
245	;	14.5	;	14.999
245	;	15	;	15.499
245	;	15.5	;	15.999
245	;	16	;	16.499
245	;	16.5	;	16.999
245	;	17	;	17.499
245	;	17.5	;	17.999
245	;	18	;	18.499
245	;	18.5	;	18.999
245	;	19	;	19.499
245	;	19.5	;	19.999
245	;	20	;	20.499
245	;	20.5	;	20.999
245	;	21	;	21.499
245	;	21.5	;	21.999
245	;	22	;	22.499
250	;	0	;	0
250	;	0.5	;	0.5
250	;	1	;	1
250	;	1.5	;	1.5
250	;	2	;	2
250	;	2.5	;	2.5
250	;	3	;	3
250	;	3.5	;	3.5
250	;	4	;	4
250	;	4.5	;	4.5
250	;	5	;	5
250	;	5.5	;	5.5
250	;	6	;	6
250	;	6.5	;	6.5
250	;	7	;	7
250	;	7.5	;	7.5
250	;	8	;	8
250	;	8.5	;	8.5
250	;	9	;	9
250	;	9.5	;	9.5
250	;	10	;	10
250	;	10.5	;	10.5
250	;	11	;	11
250	;	11.5	;	11.5
250	;	12	;	12
250	;	12.5	;	12.5
250	;	13	;	13
250	;	13.5	;	13.5
250	;	14	;	14
250	;	14.5	;	14.5
250	;	15	;	15
250	;	15.5	;	15.5
250	;	16	;	16
250	;	16.5	;	16.5
250	;	17	;	17
250	;	17.5	;	17.5
250	;	18	;	18
250	;	18.5	;	18.5
250	;	19	;	19
250	;	19.5	;	19.5
250	;	20	;	20
250	;	20.5	;	20.5
250	;	21	;	21
250	;	21.5	;	21.5
250	;	22	;	22
255	;	0	;	-0.261
255	;	0.5	;	0.239
255	;	1	;	0.739
255	;	1.5	;	1.239
255	;	2	;	1.739
255	;	2.5	;	2.239
255	;	3	;	2.73621
255	;	3.5	;	3.21503
255	;	4	;	3.69385
255	;	4.5	;	4.1913
255	;	5	;	4.69274
255	;	5.5	;	5.19939
255	;	6	;	5.6985
255	;	6.5	;	6.17391
255	;	7	;	6.64932
255	;	7.5	;	7.16068
255	;	8	;	7.66771
255	;	8.5	;	8.1164
255	;	9	;	8.58244
255	;	9.5	;	9.08173
255	;	10	;	9.58103
255	;	10.5	;	10.08195
255	;	11	;	10.58304
255	;	11.5	;	11.07743
255	;	12	;	11.57063
255	;	12.5	;	12.06235
255	;	13	;	12.55369
255	;	13.5	;	13.052
255	;	14	;	13.552
255	;	14.5	;	14.052
255	;	15	;	14.552
255	;	15.5	;	15.052
255	;	16	;	15.552
255	;	16.5	;	16.052
255	;	17	;	16.552
255	;	17.5	;	17.052
255	;	18	;	17.552
255	;	18.5	;	18.052
255	;	19	;	18.552
255	;	19.5	;	19.052
255	;	20	;	19.552
255	;	20.5	;	20.052
255	;	21	;	20.552
255	;	21.5	;	21.052
255	;	22	;	21.552
260	;	0	;	-0.522
260	;	0.5	;	-0.022
260	;	1	;	0.478
260	;	1.5	;	0.978
260	;	2	;	1.478
260	;	2.5	;	1.978
260	;	3	;	2.47241
260	;	3.5	;	2.93006
260	;	4	;	3.38771
260	;	4.5	;	3.90963
260	;	5	;	4.42687
260	;	5.5	;	4.91663
260	;	6	;	5.397
260	;	6.5	;	5.84782
260	;	7	;	6.29864
260	;	7.5	;	6.82136
260	;	8	;	7.34368
260	;	8.5	;	7.78968
260	;	9	;	8.2412
260	;	9.5	;	8.70332
260	;	10	;	9.16544
260	;	10.5	;	9.66389
260	;	11	;	10.16606
260	;	11.5	;	10.65546
260	;	12	;	11.14258
260	;	12.5	;	11.62558
260	;	13	;	12.10753
260	;	13.5	;	12.604
260	;	14	;	13.104
260	;	14.5	;	13.604
260	;	15	;	14.104
260	;	15.5	;	14.604
260	;	16	;	15.104
260	;	16.5	;	15.604
260	;	17	;	16.104
260	;	17.5	;	16.604
260	;	18	;	17.104
260	;	18.5	;	17.604
260	;	19	;	18.104
260	;	19.5	;	18.604
260	;	20	;	19.104
260	;	20.5	;	19.604
260	;	21	;	20.104
260	;	21.5	;	20.604
260	;	22	;	21.104
265	;	0	;	-0.771
265	;	0.5	;	-0.271
265	;	1	;	0.229
265	;	1.5	;	0.729
265	;	2	;	1.229
265	;	2.5	;	1.729
265	;	3	;	2.21966
265	;	3.5	;	2.65085
265	;	4	;	3.08204
265	;	4.5	;	3.62796
265	;	5	;	4.16098
265	;	5.5	;	4.63386
265	;	6	;	5.09843
265	;	6.5	;	5.53687
265	;	7	;	5.97531
265	;	7.5	;	6.49683
265	;	8	;	7.01965
265	;	8.5	;	7.46296
265	;	9	;	7.89997
265	;	9.5	;	8.3249
265	;	10	;	8.74984
265	;	10.5	;	9.24583
265	;	11	;	9.7491
265	;	11.5	;	10.23899
265	;	12	;	10.72651
265	;	12.5	;	11.19675
265	;	13	;	11.66253
265	;	13.5	;	12.157
265	;	14	;	12.657
265	;	14.5	;	13.157
265	;	15	;	13.657
265	;	15.5	;	14.157
265	;	16	;	14.657
265	;	16.5	;	15.157
265	;	17	;	15.657
265	;	17.5	;	16.157
265	;	18	;	16.657
265	;	18.5	;	17.157
265	;	19	;	17.657
265	;	19.5	;	18.157
265	;	20	;	18.657
265	;	20.5	;	19.157
265	;	21	;	19.657
265	;	21.5	;	20.157
265	;	22	;	20.657
270	;	0	;	-1.005
270	;	0.5	;	-0.505
270	;	1	;	-0.005
270	;	1.5	;	0.495
270	;	2	;	0.995
270	;	2.5	;	1.495
270	;	3	;	1.98494
270	;	3.5	;	2.41095
270	;	4	;	2.83696
270	;	4.5	;	3.37374
270	;	5	;	3.8951
270	;	5.5	;	4.3511
270	;	6	;	4.80181
270	;	6.5	;	5.23589
270	;	7	;	5.66997
270	;	7.5	;	6.18202
270	;	8	;	6.69562
270	;	8.5	;	7.13624
270	;	9	;	7.56396
270	;	9.5	;	7.96694
270	;	10	;	8.36992
270	;	10.5	;	8.85042
270	;	11	;	9.33886
270	;	11.5	;	9.82506
270	;	12	;	10.31087
270	;	12.5	;	10.76792
270	;	13	;	11.21754
270	;	13.5	;	11.709
270	;	14	;	12.209
270	;	14.5	;	12.709
270	;	15	;	13.209
270	;	15.5	;	13.709
270	;	16	;	14.209
270	;	16.5	;	14.709
270	;	17	;	15.209
270	;	17.5	;	15.709
270	;	18	;	16.209
270	;	18.5	;	16.709
270	;	19	;	17.209
270	;	19.5	;	17.709
270	;	20	;	18.209
270	;	20.5	;	18.709
270	;	21	;	19.209
270	;	21.5	;	19.709
270	;	22	;	20.209
275	;	0	;	-1.239
275	;	0.5	;	-0.739
275	;	1	;	-0.239
275	;	1.5	;	0.261
275	;	2	;	0.761
275	;	2.5	;	1.261
275	;	3	;	1.75047
275	;	3.5	;	2.17301
275	;	4	;	2.59555
275	;	4.5	;	3.1212
275	;	5	;	3.62922
275	;	5.5	;	4.06834
275	;	6	;	4.50519
275	;	6.5	;	4.93491
275	;	7	;	5.36464
275	;	7.5	;	5.86551
275	;	8	;	6.36851
275	;	8.5	;	6.80829
275	;	9	;	7.23441
275	;	9.5	;	7.63433
275	;	10	;	8.03425
275	;	10.5	;	8.4953
275	;	11	;	8.9626
275	;	11.5	;	9.43051
275	;	12	;	9.89853
275	;	12.5	;	10.34751
275	;	13	;	10.79156
275	;	13.5	;	11.282
275	;	14	;	11.782
275	;	14.5	;	12.282
275	;	15	;	12.782
275	;	15.5	;	13.282
275	;	16	;	13.782
275	;	16.5	;	14.282
275	;	17	;	14.782
275	;	17.5	;	15.282
275	;	18	;	15.782
275	;	18.5	;	16.282
275	;	19	;	16.782
275	;	19.5	;	17.282
275	;	20	;	17.782
275	;	20.5	;	18.282
275	;	21	;	18.782
275	;	21.5	;	19.282
275	;	22	;	19.782
280	;	0	;	-1.473
280	;	0.5	;	-0.973
280	;	1	;	-0.473
280	;	1.5	;	0.027
280	;	2	;	0.527
280	;	2.5	;	1.027
280	;	3	;	1.51599
280	;	3.5	;	1.93507
280	;	4	;	2.35415
280	;	4.5	;	2.86867
280	;	5	;	3.36334
280	;	5.5	;	3.78557
280	;	6	;	4.20856
280	;	6.5	;	4.63393
280	;	7	;	5.05931
280	;	7.5	;	5.54797
280	;	8	;	6.03951
280	;	8.5	;	6.47959
280	;	9	;	6.90487
280	;	9.5	;	7.30173
280	;	10	;	7.69858
280	;	10.5	;	8.14017
280	;	11	;	8.58633
280	;	11.5	;	9.03595
280	;	12	;	9.4862
280	;	12.5	;	9.93719
280	;	13	;	10.38837
280	;	13.5	;	10.88
280	;	14	;	11.38
280	;	14.5	;	11.88
280	;	15	;	12.38
280	;	15.5	;	12.88
280	;	16	;	13.38
280	;	16.5	;	13.88
280	;	17	;	14.38
280	;	17.5	;	14.88
280	;	18	;	15.38
280	;	18.5	;	15.88
280	;	19	;	16.38
280	;	19.5	;	16.88
280	;	20	;	17.38
280	;	20.5	;	17.88
280	;	21	;	18.38
280	;	21.5	;	18.88
280	;	22	;	19.38
285	;	0	;	-1.707
285	;	0.5	;	-1.207
285	;	1	;	-0.707
285	;	1.5	;	-0.207
285	;	2	;	0.293
285	;	2.5	;	0.793
285	;	3	;	1.28153
285	;	3.5	;	1.69714
285	;	4	;	2.11275
285	;	4.5	;	2.61826
285	;	5	;	3.10071
285	;	5.5	;	3.50421
285	;	6	;	3.91194
285	;	6.5	;	4.33295
285	;	7	;	4.75397
285	;	7.5	;	5.23043
285	;	8	;	5.71051
285	;	8.5	;	6.1509
285	;	9	;	6.57533
285	;	9.5	;	6.96912
285	;	10	;	7.36292
285	;	10.5	;	7.78504
285	;	11	;	8.21007
285	;	11.5	;	8.64927
285	;	12	;	9.09099
285	;	12.5	;	9.53821
285	;	13	;	9.98686
285	;	13.5	;	10.478
285	;	14	;	10.978
285	;	14.5	;	11.478
285	;	15	;	11.978
285	;	15.5	;	12.478
285	;	16	;	12.978
285	;	16.5	;	13.478
285	;	17	;	13.978
285	;	17.5	;	14.478
285	;	18	;	14.978
285	;	18.5	;	15.478
285	;	19	;	15.978
285	;	19.5	;	16.478
285	;	20	;	16.978
285	;	20.5	;	17.478
285	;	21	;	17.978
285	;	21.5	;	18.478
285	;	22	;	18.978
290	;	0	;	-1.941
290	;	0.5	;	-1.441
290	;	1	;	-0.941
290	;	1.5	;	-0.441
290	;	2	;	0.059
290	;	2.5	;	0.559
290	;	3	;	1.04705
290	;	3.5	;	1.4592
290	;	4	;	1.87135
290	;	4.5	;	2.38088
290	;	5	;	2.85802
290	;	5.5	;	3.23145
290	;	6	;	3.61532
290	;	6.5	;	4.03197
290	;	7	;	4.44863
290	;	7.5	;	4.91288
290	;	8	;	5.38174
290	;	8.5	;	5.82389
290	;	9	;	6.24805
290	;	9.5	;	6.6377
290	;	10	;	7.02735
290	;	10.5	;	7.42992
290	;	11	;	7.83381
290	;	11.5	;	8.26707
290	;	12	;	8.70556
290	;	12.5	;	9.14572
290	;	13	;	9.58633
290	;	13.5	;	10.076
290	;	14	;	10.576
290	;	14.5	;	11.076
290	;	15	;	11.576
290	;	15.5	;	12.076
290	;	16	;	12.576
290	;	16.5	;	13.076
290	;	17	;	13.576
290	;	17.5	;	14.076
290	;	18	;	14.576
290	;	18.5	;	15.076
290	;	19	;	15.576
290	;	19.5	;	16.076
290	;	20	;	16.576
290	;	20.5	;	17.076
290	;	21	;	17.576
290	;	21.5	;	18.076
290	;	22	;	18.576
295	;	0	;	-2.175
295	;	0.5	;	-1.675
295	;	1	;	-1.175
295	;	1.5	;	-0.675
295	;	2	;	-0.175
295	;	2.5	;	0.325
295	;	3	;	0.81258
295	;	3.5	;	1.22126
295	;	4	;	1.62995
295	;	4.5	;	2.1435
295	;	5	;	2.62405
295	;	5.5	;	2.99756
295	;	6	;	3.37426
295	;	6.5	;	3.76101
295	;	7	;	4.14776
295	;	7.5	;	4.59534
295	;	8	;	5.05313
295	;	8.5	;	5.49782
295	;	9	;	5.92203
295	;	9.5	;	6.30693
295	;	10	;	6.69184
295	;	10.5	;	7.0748
295	;	11	;	7.45755
295	;	11.5	;	7.88488
295	;	12	;	8.32013
295	;	12.5	;	8.75324
295	;	13	;	9.18579
295	;	13.5	;	9.674
295	;	14	;	10.174
295	;	14.5	;	10.674
295	;	15	;	11.174
295	;	15.5	;	11.674
295	;	16	;	12.174
295	;	16.5	;	12.674
295	;	17	;	13.174
295	;	17.5	;	13.674
295	;	18	;	14.174
295	;	18.5	;	14.674
295	;	19	;	15.174
295	;	19.5	;	15.674
295	;	20	;	16.174
295	;	20.5	;	16.674
295	;	21	;	17.174
295	;	21.5	;	17.674
295	;	22	;	18.174
300	;	0	;	-2.409
300	;	0.5	;	-1.909
300	;	1	;	-1.409
300	;	1.5	;	-0.909
300	;	2	;	-0.409
300	;	2.5	;	0.091
300	;	3	;	0.5781
300	;	3.5	;	0.98332
300	;	4	;	1.38853
300	;	4.5	;	1.9061
300	;	5	;	2.39022
300	;	5.5	;	2.76431
300	;	6	;	3.13635
300	;	6.5	;	3.50193
300	;	7	;	3.8675
300	;	7.5	;	4.29758
300	;	8	;	4.74029
300	;	8.5	;	5.178
300	;	9	;	5.59914
300	;	9.5	;	5.98845
300	;	10	;	6.37777
300	;	10.5	;	6.73214
300	;	11	;	7.08293
300	;	11.5	;	7.50268
300	;	12	;	7.9347
300	;	12.5	;	8.36688
300	;	13	;	8.79909
300	;	13.5	;	9.287
300	;	14	;	9.787
300	;	14.5	;	10.287
300	;	15	;	10.787
300	;	15.5	;	11.287
300	;	16	;	11.787
300	;	16.5	;	12.287
300	;	17	;	12.787
300	;	17.5	;	13.287
300	;	18	;	13.787
300	;	18.5	;	14.287
300	;	19	;	14.787
300	;	19.5	;	15.287
300	;	20	;	15.787
300	;	20.5	;	16.287
300	;	21	;	16.787
300	;	21.5	;	17.287
300	;	22	;	17.787
305	;	0	;	-2.631
305	;	0.5	;	-2.131
305	;	1	;	-1.631
305	;	1.5	;	-1.131
305	;	2	;	-0.631
305	;	2.5	;	-0.131
305	;	3	;	0.35469
305	;	3.5	;	0.75116
305	;	4	;	1.14762
305	;	4.5	;	1.66872
305	;	5	;	2.15639
305	;	5.5	;	2.53107
305	;	6	;	2.90069
305	;	6.5	;	3.25441
305	;	7	;	3.60813
305	;	7.5	;	4.02867
305	;	8	;	4.45942
305	;	8.5	;	4.87087
305	;	9	;	5.27785
305	;	9.5	;	5.67627
305	;	10	;	6.07469
305	;	10.5	;	6.4256
305	;	11	;	6.77165
305	;	11.5	;	7.16007
305	;	12	;	7.55603
305	;	12.5	;	7.99292
305	;	13	;	8.44041
305	;	13.5	;	8.931
305	;	14	;	9.431
305	;	14.5	;	9.931
305	;	15	;	10.431
305	;	15.5	;	10.931
305	;	16	;	11.431
305	;	16.5	;	11.931
305	;	17	;	12.431
305	;	17.5	;	12.931
305	;	18	;	13.431
305	;	18.5	;	13.931
305	;	19	;	14.431
305	;	19.5	;	14.931
305	;	20	;	15.431
305	;	20.5	;	15.931
305	;	21	;	16.431
305	;	21.5	;	16.931
305	;	22	;	17.431
310	;	0	;	-2.842
310	;	0.5	;	-2.342
310	;	1	;	-1.842
310	;	1.5	;	-1.342
310	;	2	;	-0.842
310	;	2.5	;	-0.342
310	;	3	;	0.14248
310	;	3.5	;	0.5272
310	;	4	;	0.91193
310	;	4.5	;	1.43351
310	;	5	;	1.92257
310	;	5.5	;	2.29783
310	;	6	;	2.66503
310	;	6.5	;	3.00689
310	;	7	;	3.34875
310	;	7.5	;	3.75976
310	;	8	;	4.17854
310	;	8.5	;	4.56373
310	;	9	;	4.95657
310	;	9.5	;	5.36408
310	;	10	;	5.77159
310	;	10.5	;	6.11905
310	;	11	;	6.46037
310	;	11.5	;	6.8419
310	;	12	;	7.23058
310	;	12.5	;	7.65426
310	;	13	;	8.08699
310	;	13.5	;	8.575
310	;	14	;	9.075
310	;	14.5	;	9.575
310	;	15	;	10.075
310	;	15.5	;	10.575
310	;	16	;	11.075
310	;	16.5	;	11.575
310	;	17	;	12.075
310	;	17.5	;	12.575
310	;	18	;	13.075
310	;	18.5	;	13.575
310	;	19	;	14.075
310	;	19.5	;	14.575
310	;	20	;	15.075
310	;	20.5	;	15.575
310	;	21	;	16.075
310	;	21.5	;	16.575
310	;	22	;	17.075
315	;	0	;	-3.052
315	;	0.5	;	-2.552
315	;	1	;	-2.052
315	;	1.5	;	-1.552
315	;	2	;	-1.052
315	;	2.5	;	-0.552
315	;	3	;	-0.06836
315	;	3.5	;	0.31462
315	;	4	;	0.6976
315	;	4.5	;	1.20807
315	;	5	;	1.68874
315	;	5.5	;	2.06459
315	;	6	;	2.42937
315	;	6.5	;	2.75937
315	;	7	;	3.08936
315	;	7.5	;	3.49085
315	;	8	;	3.8991
315	;	8.5	;	4.26641
315	;	9	;	4.64846
315	;	9.5	;	5.05878
315	;	10	;	5.46909
315	;	10.5	;	5.81251
315	;	11	;	6.14909
315	;	11.5	;	6.53535
315	;	12	;	6.93044
315	;	12.5	;	7.33237
315	;	13	;	7.73606
315	;	13.5	;	8.219
315	;	14	;	8.719
315	;	14.5	;	9.219
315	;	15	;	9.719
315	;	15.5	;	10.219
315	;	16	;	10.719
315	;	16.5	;	11.219
315	;	17	;	11.719
315	;	17.5	;	12.219
315	;	18	;	12.719
315	;	18.5	;	13.219
315	;	19	;	13.719
315	;	19.5	;	14.219
315	;	20	;	14.719
315	;	20.5	;	15.219
315	;	21	;	15.719
315	;	21.5	;	16.219
315	;	22	;	16.719
320	;	0	;	-3.263
320	;	0.5	;	-2.763
320	;	1	;	-2.263
320	;	1.5	;	-1.763
320	;	2	;	-1.263
320	;	2.5	;	-0.763
320	;	3	;	-0.27919
320	;	3.5	;	0.10203
320	;	4	;	0.48326
320	;	4.5	;	0.98264
320	;	5	;	1.45492
320	;	5.5	;	1.83135
320	;	6	;	2.19371
320	;	6.5	;	2.51185
320	;	7	;	2.82999
320	;	7.5	;	3.22194
320	;	8	;	3.62573
320	;	8.5	;	4.01092
320	;	9	;	4.39648
320	;	9.5	;	4.78278
320	;	10	;	5.16908
320	;	10.5	;	5.50598
320	;	11	;	5.83782
320	;	11.5	;	6.2288
320	;	12	;	6.63031
320	;	12.5	;	7.01048
320	;	13	;	7.38513
320	;	13.5	;	7.863
320	;	14	;	8.363
320	;	14.5	;	8.863
320	;	15	;	9.363
320	;	15.5	;	9.863
320	;	16	;	10.363
320	;	16.5	;	10.863
320	;	17	;	11.363
320	;	17.5	;	11.863
320	;	18	;	12.363
320	;	18.5	;	12.863
320	;	19	;	13.363
320	;	19.5	;	13.863
320	;	20	;	14.363
320	;	20.5	;	14.863
320	;	21	;	15.363
320	;	21.5	;	15.863
320	;	22	;	16.363
325	;	0	;	-3.473
325	;	0.5	;	-2.973
325	;	1	;	-2.473
325	;	1.5	;	-1.973
325	;	2	;	-1.473
325	;	2.5	;	-0.973
325	;	3	;	-0.49003
325	;	3.5	;	-0.11055
325	;	4	;	0.26893
325	;	4.5	;	0.7572
325	;	5	;	1.22109
325	;	5.5	;	1.5981
325	;	6	;	1.95805
325	;	6.5	;	2.26433
325	;	7	;	2.5706
325	;	7.5	;	2.95303
325	;	8	;	3.35236
325	;	8.5	;	3.75542
325	;	9	;	4.14451
325	;	9.5	;	4.50679
325	;	10	;	4.86907
325	;	10.5	;	5.19944
325	;	11	;	5.52653
325	;	11.5	;	5.92225
325	;	12	;	6.33017
325	;	12.5	;	6.68859
325	;	13	;	7.0342
325	;	13.5	;	7.507
325	;	14	;	8.007
325	;	14.5	;	8.507
325	;	15	;	9.007
325	;	15.5	;	9.507
325	;	16	;	10.007
325	;	16.5	;	10.507
325	;	17	;	11.007
325	;	17.5	;	11.507
325	;	18	;	12.007
325	;	18.5	;	12.507
325	;	19	;	13.007
325	;	19.5	;	13.507
325	;	20	;	14.007
325	;	20.5	;	14.507
325	;	21	;	15.007
325	;	21.5	;	15.507
325	;	22	;	16.007
330	;	0	;	-3.684
330	;	0.5	;	-3.184
330	;	1	;	-2.684
330	;	1.5	;	-2.184
330	;	2	;	-1.684
330	;	2.5	;	-1.184
330	;	3	;	-0.70087
330	;	3.5	;	-0.32314
330	;	4	;	0.05459
330	;	4.5	;	0.53177
330	;	5	;	0.98727
330	;	5.5	;	1.36486
330	;	6	;	1.72239
330	;	6.5	;	2.01681
330	;	7	;	2.31122
330	;	7.5	;	2.68413
330	;	8	;	3.079
330	;	8.5	;	3.49993
330	;	9	;	3.89804
330	;	9.5	;	4.25233
330	;	10	;	4.60662
330	;	10.5	;	4.91612
330	;	11	;	5.22103
330	;	11.5	;	5.61754
330	;	12	;	6.03034
330	;	12.5	;	6.38487
330	;	13	;	6.72431
330	;	13.5	;	7.196
330	;	14	;	7.696
330	;	14.5	;	8.196
330	;	15	;	8.696
330	;	15.5	;	9.196
330	;	16	;	9.696
330	;	16.5	;	10.196
330	;	17	;	10.696
330	;	17.5	;	11.196
330	;	18	;	11.696
330	;	18.5	;	12.196
330	;	19	;	12.696
330	;	19.5	;	13.196
330	;	20	;	13.696
330	;	20.5	;	14.196
330	;	21	;	14.696
330	;	21.5	;	15.196
330	;	22	;	15.696
335	;	0	;	-3.895
335	;	0.5	;	-3.395
335	;	1	;	-2.895
335	;	1.5	;	-2.395
335	;	2	;	-1.895
335	;	2.5	;	-1.395
335	;	3	;	-0.9117
335	;	3.5	;	-0.53572
335	;	4	;	-0.15974
335	;	4.5	;	0.30633
335	;	5	;	0.75694
335	;	5.5	;	1.14723
335	;	6	;	1.50905
335	;	6.5	;	1.78135
335	;	7	;	2.05364
335	;	7.5	;	2.43912
335	;	8	;	2.84911
335	;	8.5	;	3.26168
335	;	9	;	3.65379
335	;	9.5	;	4.00663
335	;	10	;	4.35947
335	;	10.5	;	4.66824
335	;	11	;	4.97251
335	;	11.5	;	5.34818
335	;	12	;	5.73656
335	;	12.5	;	6.09629
335	;	13	;	6.44861
335	;	13.5	;	6.923
335	;	14	;	7.423
335	;	14.5	;	7.923
335	;	15	;	8.423
335	;	15.5	;	8.923
335	;	16	;	9.423
335	;	16.5	;	9.923
335	;	17	;	10.423
335	;	17.5	;	10.923
335	;	18	;	11.423
335	;	18.5	;	11.923
335	;	19	;	12.423
335	;	19.5	;	12.923
335	;	20	;	13.423
335	;	20.5	;	13.923
335	;	21	;	14.423
335	;	21.5	;	14.923
335	;	22	;	15.423
340	;	0	;	-4.105
340	;	0.5	;	-3.605
340	;	1	;	-3.105
340	;	1.5	;	-2.605
340	;	2	;	-2.105
340	;	2.5	;	-1.605
340	;	3	;	-1.12254
340	;	3.5	;	-0.74831
340	;	4	;	-0.37408
340	;	4.5	;	0.0809
340	;	5	;	0.52709
340	;	5.5	;	0.93165
340	;	6	;	1.30168
340	;	6.5	;	1.56306
340	;	7	;	1.82443
340	;	7.5	;	2.21866
340	;	8	;	2.6362
340	;	8.5	;	3.03017
340	;	9	;	3.40955
340	;	9.5	;	3.76093
340	;	10	;	4.11231
340	;	10.5	;	4.42037
340	;	11	;	4.72399
340	;	11.5	;	5.08399
340	;	12	;	5.45403
340	;	12.5	;	5.81517
340	;	13	;	6.17402
340	;	13.5	;	6.649
340	;	14	;	7.149
340	;	14.5	;	7.649
340	;	15	;	8.149
340	;	15.5	;	8.649
340	;	16	;	9.149
340	;	16.5	;	9.649
340	;	17	;	10.149
340	;	17.5	;	10.649
340	;	18	;	11.149
340	;	18.5	;	11.649
340	;	19	;	12.149
340	;	19.5	;	12.649
340	;	20	;	13.149
340	;	20.5	;	13.649
340	;	21	;	14.149
340	;	21.5	;	14.649
340	;	22	;	15.149
345	;	0	;	-4.316
345	;	0.5	;	-3.816
345	;	1	;	-3.316
345	;	1.5	;	-2.816
345	;	2	;	-2.316
345	;	2.5	;	-1.816
345	;	3	;	-1.33337
345	;	3.5	;	-0.96089
345	;	4	;	-0.58841
345	;	4.5	;	-0.14454
345	;	5	;	0.29722
345	;	5.5	;	0.71607
345	;	6	;	1.0989
345	;	6.5	;	1.36846
345	;	7	;	1.63802
345	;	7.5	;	2.02133
345	;	8	;	2.4239
345	;	8.5	;	2.80279
345	;	9	;	3.17085
345	;	9.5	;	3.51813
345	;	10	;	3.86541
345	;	10.5	;	4.17249
345	;	11	;	4.47546
345	;	11.5	;	4.82384
345	;	12	;	5.18028
345	;	12.5	;	5.53988
345	;	13	;	5.9003
345	;	13.5	;	6.376
345	;	14	;	6.876
345	;	14.5	;	7.376
345	;	15	;	7.876
345	;	15.5	;	8.376
345	;	16	;	8.876
345	;	16.5	;	9.376
345	;	17	;	9.876
345	;	17.5	;	10.376
345	;	18	;	10.876
345	;	18.5	;	11.376
345	;	19	;	11.876
345	;	19.5	;	12.376
345	;	20	;	12.876
345	;	20.5	;	13.376
345	;	21	;	13.876
345	;	21.5	;	14.376
345	;	22	;	14.876
350	;	0	;	-4.526
350	;	0.5	;	-4.026
350	;	1	;	-3.526
350	;	1.5	;	-3.026
350	;	2	;	-2.526
350	;	2.5	;	-2.026
350	;	3	;	-1.54421
350	;	3.5	;	-1.17348
350	;	4	;	-0.80275
350	;	4.5	;	-0.36998
350	;	5	;	0.06735
350	;	5.5	;	0.50049
350	;	6	;	0.89613
350	;	6.5	;	1.17387
350	;	7	;	1.4516
350	;	7.5	;	1.82401
350	;	8	;	2.21351
350	;	8.5	;	2.58854
350	;	9	;	2.94977
350	;	9.5	;	3.28452
350	;	10	;	3.61928
350	;	10.5	;	3.92461
350	;	11	;	4.22694
350	;	11.5	;	4.56368
350	;	12	;	4.90653
350	;	12.5	;	5.26459
350	;	13	;	5.62658
350	;	13.5	;	6.102
350	;	14	;	6.602
350	;	14.5	;	7.102
350	;	15	;	7.602
350	;	15.5	;	8.102
350	;	16	;	8.602
350	;	16.5	;	9.102
350	;	17	;	9.602
350	;	17.5	;	10.102
350	;	18	;	10.602
350	;	18.5	;	11.102
350	;	19	;	11.602
350	;	19.5	;	12.102
350	;	20	;	12.602
350	;	20.5	;	13.102
350	;	21	;	13.602
350	;	21.5	;	14.102
350	;	22	;	14.602
355	;	0	;	-4.737
355	;	0.5	;	-4.237
355	;	1	;	-3.737
355	;	1.5	;	-3.237
355	;	2	;	-2.737
355	;	2.5	;	-2.237
355	;	3	;	-1.75504
355	;	3.5	;	-1.38606
355	;	4	;	-1.01708
355	;	4.5	;	-0.59541
355	;	5	;	-0.1625
355	;	5.5	;	0.28491
355	;	6	;	0.69336
355	;	6.5	;	0.97927
355	;	7	;	1.26519
355	;	7.5	;	1.62668
355	;	8	;	2.00311
355	;	8.5	;	2.37428
355	;	9	;	2.72869
355	;	9.5	;	3.05091
355	;	10	;	3.37314
355	;	10.5	;	3.67673
355	;	11	;	3.97842
355	;	11.5	;	4.30352
355	;	12	;	4.63279
355	;	12.5	;	4.98929
355	;	13	;	5.35285
355	;	13.5	;	5.829
355	;	14	;	6.329
355	;	14.5	;	6.829
355	;	15	;	7.329
355	;	15.5	;	7.829
355	;	16	;	8.329
355	;	16.5	;	8.829
355	;	17	;	9.329
355	;	17.5	;	9.829
355	;	18	;	10.329
355	;	18.5	;	10.829
355	;	19	;	11.329
355	;	19.5	;	11.829
355	;	20	;	12.329
355	;	20.5	;	12.829
355	;	21	;	13.329
355	;	21.5	;	13.829
355	;	22	;	14.329
360	;	0	;	-4.948
360	;	0.5	;	-4.448
360	;	1	;	-3.948
360	;	1.5	;	-3.448
360	;	2	;	-2.948
360	;	2.5	;	-2.448
360	;	3	;	-1.96588
360	;	3.5	;	-1.59865
360	;	4	;	-1.23142
360	;	4.5	;	-0.82085
360	;	5	;	-0.39237
360	;	5.5	;	0.06932
360	;	6	;	0.49058
360	;	6.5	;	0.78468
360	;	7	;	1.07878
360	;	7.5	;	1.42936
360	;	8	;	1.79271
360	;	8.5	;	2.16003
360	;	9	;	2.50761
360	;	9.5	;	2.81731
360	;	10	;	3.12701
360	;	10.5	;	3.42886
360	;	11	;	3.7299
360	;	11.5	;	4.04336
360	;	12	;	4.35904
360	;	12.5	;	4.714
360	;	13	;	5.07913
360	;	13.5	;	5.556
360	;	14	;	6.056
360	;	14.5	;	6.556
360	;	15	;	7.056
360	;	15.5	;	7.556
360	;	16	;	8.056
360	;	16.5	;	8.556
360	;	17	;	9.056
360	;	17.5	;	9.556
360	;	18	;	10.056
360	;	18.5	;	10.556
360	;	19	;	11.056
360	;	19.5	;	11.556
360	;	20	;	12.056
360	;	20.5	;	12.556
360	;	21	;	13.056
360	;	21.5	;	13.556
360	;	22	;	14.056
365	;	0	;	-5.158
365	;	0.5	;	-4.658
365	;	1	;	-4.158
365	;	1.5	;	-3.658
365	;	2	;	-3.158
365	;	2.5	;	-2.658
365	;	3	;	-2.17672
365	;	3.5	;	-1.81123
365	;	4	;	-1.44575
365	;	4.5	;	-1.04628
365	;	5	;	-0.62223
365	;	5.5	;	-0.14626
365	;	6	;	0.28781
365	;	6.5	;	0.59009
365	;	7	;	0.89236
365	;	7.5	;	1.23203
365	;	8	;	1.58232
365	;	8.5	;	1.94578
365	;	9	;	2.28903
365	;	9.5	;	2.59348
365	;	10	;	2.89793
365	;	10.5	;	3.19089
365	;	11	;	3.48267
365	;	11.5	;	3.78715
365	;	12	;	4.09388
365	;	12.5	;	4.45619
365	;	13	;	4.83289
365	;	13.5	;	5.311
365	;	14	;	5.811
365	;	14.5	;	6.311
365	;	15	;	6.811
365	;	15.5	;	7.311
365	;	16	;	7.811
365	;	16.5	;	8.311
365	;	17	;	8.811
365	;	17.5	;	9.311
365	;	18	;	9.811
365	;	18.5	;	10.311
365	;	19	;	10.811
365	;	19.5	;	11.311
365	;	20	;	11.811
365	;	20.5	;	12.311
365	;	21	;	12.811
365	;	21.5	;	13.311
365	;	22	;	13.811
370	;	0	;	-5.369
370	;	0.5	;	-4.869
370	;	1	;	-4.369
370	;	1.5	;	-3.869
370	;	2	;	-3.369
370	;	2.5	;	-2.869
370	;	3	;	-2.38756
370	;	3.5	;	-2.02382
370	;	4	;	-1.66009
370	;	4.5	;	-1.27172
370	;	5	;	-0.85209
370	;	5.5	;	-0.36184
370	;	6	;	0.08581
370	;	6.5	;	0.39949
370	;	7	;	0.71316
370	;	7.5	;	1.06058
370	;	8	;	1.4119
370	;	8.5	;	1.74739
370	;	9	;	2.07364
370	;	9.5	;	2.38218
370	;	10	;	2.69072
370	;	10.5	;	2.9701
370	;	11	;	3.24649
370	;	11.5	;	3.56962
370	;	12	;	3.90106
370	;	12.5	;	4.26081
370	;	13	;	4.62789
370	;	13.5	;	5.105
370	;	14	;	5.605
370	;	14.5	;	6.105
370	;	15	;	6.605
370	;	15.5	;	7.105
370	;	16	;	7.605
370	;	16.5	;	8.105
370	;	17	;	8.605
370	;	17.5	;	9.105
370	;	18	;	9.605
370	;	18.5	;	10.105
370	;	19	;	10.605
370	;	19.5	;	11.105
370	;	20	;	11.605
370	;	20.5	;	12.105
370	;	21	;	12.605
370	;	21.5	;	13.105
370	;	22	;	13.605
375	;	0	;	-5.579
375	;	0.5	;	-5.079
375	;	1	;	-4.579
375	;	1.5	;	-4.079
375	;	2	;	-3.579
375	;	2.5	;	-3.079
375	;	3	;	-2.59839
375	;	3.5	;	-2.2364
375	;	4	;	-1.87441
375	;	4.5	;	-1.49715
375	;	5	;	-1.08195
375	;	5.5	;	-0.57742
375	;	6	;	-0.11419
375	;	6.5	;	0.2191
375	;	7	;	0.55239
375	;	7.5	;	0.90044
375	;	8	;	1.24661
375	;	8.5	;	1.56839
375	;	9	;	1.88299
375	;	9.5	;	2.18379
375	;	10	;	2.4846
375	;	10.5	;	2.78334
375	;	11	;	3.08187
375	;	11.5	;	3.39741
375	;	12	;	3.71597
375	;	12.5	;	4.06542
375	;	13	;	4.42287
375	;	13.5	;	4.898
375	;	14	;	5.398
375	;	14.5	;	5.898
375	;	15	;	6.398
375	;	15.5	;	6.898
375	;	16	;	7.398
375	;	16.5	;	7.898
375	;	17	;	8.398
375	;	17.5	;	8.898
375	;	18	;	9.398
375	;	18.5	;	9.898
375	;	19	;	10.398
375	;	19.5	;	10.898
375	;	20	;	11.398
375	;	20.5	;	11.898
375	;	21	;	12.398
375	;	21.5	;	12.898
375	;	22	;	13.398
380	;	0	;	-5.79
380	;	0.5	;	-5.29
380	;	1	;	-4.79
380	;	1.5	;	-4.29
380	;	2	;	-3.79
380	;	2.5	;	-3.29
380	;	3	;	-2.80923
380	;	3.5	;	-2.44899
380	;	4	;	-2.08875
380	;	4.5	;	-1.72259
380	;	5	;	-1.31181
380	;	5.5	;	-0.793
380	;	6	;	-0.31421
380	;	6.5	;	0.0387
380	;	7	;	0.39162
380	;	7.5	;	0.74029
380	;	8	;	1.08296
380	;	8.5	;	1.40071
380	;	9	;	1.70751
380	;	9.5	;	1.99334
380	;	10	;	2.27916
380	;	10.5	;	2.5966
380	;	11	;	2.91727
380	;	11.5	;	3.22521
380	;	12	;	3.53088
380	;	12.5	;	3.87004
380	;	13	;	4.21786
380	;	13.5	;	4.691
380	;	14	;	5.191
380	;	14.5	;	5.691
380	;	15	;	6.191
380	;	15.5	;	6.691
380	;	16	;	7.191
380	;	16.5	;	7.691
380	;	17	;	8.191
380	;	17.5	;	8.691
380	;	18	;	9.191
380	;	18.5	;	9.691
380	;	19	;	10.191
380	;	19.5	;	10.691
380	;	20	;	11.191
380	;	20.5	;	11.691
380	;	21	;	12.191
380	;	21.5	;	12.691
380	;	22	;	13.191
385	;	0	;	-6.001
385	;	0.5	;	-5.501
385	;	1	;	-5.001
385	;	1.5	;	-4.501
385	;	2	;	-4.001
385	;	2.5	;	-3.501
385	;	3	;	-3.02006
385	;	3.5	;	-2.66157
385	;	4	;	-2.30308
385	;	4.5	;	-1.94802
385	;	5	;	-1.54167
385	;	5.5	;	-1.00859
385	;	6	;	-0.51423
385	;	6.5	;	-0.14169
385	;	7	;	0.23085
385	;	7.5	;	0.58015
385	;	8	;	0.91931
385	;	8.5	;	1.23303
385	;	9	;	1.53205
385	;	9.5	;	1.80289
385	;	10	;	2.07372
385	;	10.5	;	2.40985
385	;	11	;	2.75266
385	;	11.5	;	3.053
385	;	12	;	3.34578
385	;	12.5	;	3.67465
385	;	13	;	4.01285
385	;	13.5	;	4.485
385	;	14	;	4.985
385	;	14.5	;	5.485
385	;	15	;	5.985
385	;	15.5	;	6.485
385	;	16	;	6.985
385	;	16.5	;	7.485
385	;	17	;	7.985
385	;	17.5	;	8.485
385	;	18	;	8.985
385	;	18.5	;	9.485
385	;	19	;	9.985
385	;	19.5	;	10.485
385	;	20	;	10.985
385	;	20.5	;	11.485
385	;	21	;	11.985
385	;	21.5	;	12.485
385	;	22	;	12.985
390	;	0	;	-6.211
390	;	0.5	;	-5.711
390	;	1	;	-5.211
390	;	1.5	;	-4.711
390	;	2	;	-4.211
390	;	2.5	;	-3.711
390	;	3	;	-3.23089
390	;	3.5	;	-2.87416
390	;	4	;	-2.51742
390	;	4.5	;	-2.17346
390	;	5	;	-1.77154
390	;	5.5	;	-1.22417
390	;	6	;	-0.71423
390	;	6.5	;	-0.32208
390	;	7	;	0.07008
390	;	7.5	;	0.42
390	;	8	;	0.75566
390	;	8.5	;	1.06534
390	;	9	;	1.3625
390	;	9.5	;	1.63564
390	;	10	;	1.90878
390	;	10.5	;	2.24665
390	;	11	;	2.59114
390	;	11.5	;	2.88079
390	;	12	;	3.16069
390	;	12.5	;	3.47926
390	;	13	;	3.80784
390	;	13.5	;	4.278
390	;	14	;	4.778
390	;	14.5	;	5.278
390	;	15	;	5.778
390	;	15.5	;	6.278
390	;	16	;	6.778
390	;	16.5	;	7.278
390	;	17	;	7.778
390	;	17.5	;	8.278
390	;	18	;	8.778
390	;	18.5	;	9.278
390	;	19	;	9.778
390	;	19.5	;	10.278
390	;	20	;	10.778
390	;	20.5	;	11.278
390	;	21	;	11.778
390	;	21.5	;	12.278
390	;	22	;	12.778
395	;	0	;	-6.422
395	;	0.5	;	-5.922
395	;	1	;	-5.422
395	;	1.5	;	-4.922
395	;	2	;	-4.422
395	;	2.5	;	-3.922
395	;	3	;	-3.44174
395	;	3.5	;	-3.08674
395	;	4	;	-2.73175
395	;	4.5	;	-2.39889
395	;	5	;	-2.0014
395	;	5.5	;	-1.43975
395	;	6	;	-0.91425
395	;	6.5	;	-0.50247
395	;	7	;	-0.0907
395	;	7.5	;	0.25986
395	;	8	;	0.59202
395	;	8.5	;	0.89766
395	;	9	;	1.19435
395	;	9.5	;	1.47384
395	;	10	;	1.75334
395	;	10.5	;	2.08897
395	;	11	;	2.43035
395	;	11.5	;	2.70859
395	;	12	;	2.9756
395	;	12.5	;	3.28387
395	;	13	;	3.60282
395	;	13.5	;	4.071
395	;	14	;	4.571
395	;	14.5	;	5.071
395	;	15	;	5.571
395	;	15.5	;	6.071
395	;	16	;	6.571
395	;	16.5	;	7.071
395	;	17	;	7.571
395	;	17.5	;	8.071
395	;	18	;	8.571
395	;	18.5	;	9.071
395	;	19	;	9.571
395	;	19.5	;	10.071
395	;	20	;	10.571
395	;	20.5	;	11.071
395	;	21	;	11.571
395	;	21.5	;	12.071
395	;	22	;	12.571
400	;	0	;	-6.632
400	;	0.5	;	-6.132
400	;	1	;	-5.632
400	;	1.5	;	-5.132
400	;	2	;	-4.632
400	;	2.5	;	-4.132
400	;	3	;	-3.65257
400	;	3.5	;	-3.29933
400	;	4	;	-2.94609
400	;	4.5	;	-2.62433
400	;	5	;	-2.23126
400	;	5.5	;	-1.65533
400	;	6	;	-1.11426
400	;	6.5	;	-0.68286
400	;	7	;	-0.25147
400	;	7.5	;	0.09972
400	;	8	;	0.42837
400	;	8.5	;	0.72998
400	;	9	;	1.02619
400	;	9.5	;	1.31204
400	;	10	;	1.5979
400	;	10.5	;	1.93129
400	;	11	;	2.26955
400	;	11.5	;	2.53638
400	;	12	;	2.79051
400	;	12.5	;	3.08849
400	;	13	;	3.39782
400	;	13.5	;	3.864
400	;	14	;	4.364
400	;	14.5	;	4.864
400	;	15	;	5.364
400	;	15.5	;	5.864
400	;	16	;	6.364
400	;	16.5	;	6.864
400	;	17	;	7.364
400	;	17.5	;	7.864
400	;	18	;	8.364
400	;	18.5	;	8.864
400	;	19	;	9.364
400	;	19.5	;	9.864
400	;	20	;	10.364
400	;	20.5	;	10.864
400	;	21	;	11.364
400	;	21.5	;	11.864
400	;	22	;	12.364
