-15	;	0	;	-0.231
-15	;	0.5	;	0.269
-15	;	1	;	0.764
-15	;	1.5	;	1.121
-15	;	2	;	1.479
-15	;	2.5	;	1.881
-15	;	3	;	2.284
-15	;	3.5	;	2.645
-15	;	4	;	3.002
-15	;	4.5	;	3.398
-15	;	5	;	3.798
-15	;	5.5	;	4.156
-15	;	6	;	4.509
-15	;	6.5	;	4.9
-15	;	7	;	5.293
-15	;	7.5	;	5.672
-15	;	8	;	6.05
-15	;	8.5	;	6.406
-15	;	9	;	6.759
-15	;	9.5	;	7.149
-15	;	10	;	7.543
-15	;	10.5	;	7.94
-15	;	11	;	8.336
-15	;	11.5	;	8.682
-15	;	12	;	9.028
-15	;	12.5	;	9.433
-15	;	13	;	9.855
-15	;	13.5	;	10.182
-15	;	14	;	10.502
-15	;	14.5	;	10.889
-15	;	15	;	11.289
-15	;	15.5	;	11.707
-15	;	16	;	12.129
-15	;	16.5	;	12.561
-15	;	17	;	12.993
-15	;	17.5	;	13.311
-15	;	18	;	13.605
-15	;	18.5	;	14.077
-15	;	19	;	14.577
-15	;	19.5	;	15.077
-15	;	20	;	15.577
-15	;	20.5	;	16.077
-15	;	21	;	16.577
-15	;	21.5	;	17.077
-15	;	22	;	17.577
-10	;	0	;	-0.154
-10	;	0.5	;	0.346
-10	;	1	;	0.843
-10	;	1.5	;	1.247
-10	;	2	;	1.652
-10	;	2.5	;	2.088
-10	;	3	;	2.523
-10	;	3.5	;	2.93
-10	;	4	;	3.334
-10	;	4.5	;	3.765
-10	;	5	;	4.198
-10	;	5.5	;	4.604
-10	;	6	;	5.006
-10	;	6.5	;	5.433
-10	;	7	;	5.862
-10	;	7.5	;	6.281
-10	;	8	;	6.7
-10	;	8.5	;	7.104
-10	;	9	;	7.506
-10	;	9.5	;	7.933
-10	;	10	;	8.362
-10	;	10.5	;	8.794
-10	;	11	;	9.224
-10	;	11.5	;	9.621
-10	;	12	;	10.019
-10	;	12.5	;	10.455
-10	;	13	;	10.903
-10	;	13.5	;	11.288
-10	;	14	;	11.668
-10	;	14.5	;	12.093
-10	;	15	;	12.526
-10	;	15.5	;	12.971
-10	;	16	;	13.419
-10	;	16.5	;	13.874
-10	;	17	;	14.329
-10	;	17.5	;	14.604
-10	;	18	;	14.841
-10	;	18.5	;	15.42
-10	;	19	;	16.051
-10	;	19.5	;	16.551
-10	;	20	;	17.051
-10	;	20.5	;	17.551
-10	;	21	;	18.051
-10	;	21.5	;	18.551
-10	;	22	;	19.051
-5	;	0	;	-0.077
-5	;	0.5	;	0.423
-5	;	1	;	0.921
-5	;	1.5	;	1.374
-5	;	2	;	1.826
-5	;	2.5	;	2.294
-5	;	3	;	2.761
-5	;	3.5	;	3.215
-5	;	4	;	3.667
-5	;	4.5	;	4.133
-5	;	5	;	4.599
-5	;	5.5	;	5.052
-5	;	6	;	5.503
-5	;	6.5	;	5.967
-5	;	7	;	6.431
-5	;	7.5	;	6.891
-5	;	8	;	7.35
-5	;	8.5	;	7.802
-5	;	9	;	8.253
-5	;	9.5	;	8.716
-5	;	10	;	9.181
-5	;	10.5	;	9.647
-5	;	11	;	10.112
-5	;	11.5	;	10.561
-5	;	12	;	11.009
-5	;	12.5	;	11.478
-5	;	13	;	11.952
-5	;	13.5	;	12.394
-5	;	14	;	12.834
-5	;	14.5	;	13.296
-5	;	15	;	13.763
-5	;	15.5	;	14.236
-5	;	16	;	14.71
-5	;	16.5	;	15.187
-5	;	17	;	15.664
-5	;	17.5	;	16.052
-5	;	18	;	16.421
-5	;	18.5	;	16.96
-5	;	19	;	17.526
-5	;	19.5	;	18.026
-5	;	20	;	18.526
-5	;	20.5	;	19.026
-5	;	21	;	19.526
-5	;	21.5	;	20.026
-5	;	22	;	20.526
0	;	0	;	0
0	;	0.5	;	0.5
0	;	1	;	1
0	;	1.5	;	1.5
0	;	2	;	2
0	;	2.5	;	2.5
0	;	3	;	3
0	;	3.5	;	3.5
0	;	4	;	4
0	;	4.5	;	4.5
0	;	5	;	5
0	;	5.5	;	5.5
0	;	6	;	6
0	;	6.5	;	6.5
0	;	7	;	7
0	;	7.5	;	7.5
0	;	8	;	8
0	;	8.5	;	8.5
0	;	9	;	9
0	;	9.5	;	9.5
0	;	10	;	10
0	;	10.5	;	10.5
0	;	11	;	11
0	;	11.5	;	11.5
0	;	12	;	12
0	;	12.5	;	12.5
0	;	13	;	13
0	;	13.5	;	13.5
0	;	14	;	14
0	;	14.5	;	14.5
0	;	15	;	15
0	;	15.5	;	15.5
0	;	16	;	16
0	;	16.5	;	16.5
0	;	17	;	17
0	;	17.5	;	17.5
0	;	18	;	18
0	;	18.5	;	18.5
0	;	19	;	19
0	;	19.5	;	19.5
0	;	20	;	20
0	;	20.5	;	20.5
0	;	21	;	21
0	;	21.5	;	21.5
0	;	22	;	22
5	;	0	;	0.039
5	;	0.5	;	0.539
5	;	1	;	1.039
5	;	1.5	;	1.558
5	;	2	;	2.077
5	;	2.5	;	2.591
5	;	3	;	3.105
5	;	3.5	;	3.624
5	;	4	;	4.143
5	;	4.5	;	4.655
5	;	5	;	5.167
5	;	5.5	;	5.69
5	;	6	;	6.215
5	;	6.5	;	6.738
5	;	7	;	7.26
5	;	7.5	;	7.776
5	;	8	;	8.292
5	;	8.5	;	8.805
5	;	9	;	9.317
5	;	9.5	;	9.85
5	;	10	;	10.385
5	;	10.5	;	10.91
5	;	11	;	11.434
5	;	11.5	;	11.931
5	;	12	;	12.429
5	;	12.5	;	12.945
5	;	13	;	13.466
5	;	13.5	;	13.991
5	;	14	;	14.516
5	;	14.5	;	15.026
5	;	15	;	15.534
5	;	15.5	;	16.06
5	;	16	;	16.592
5	;	16.5	;	17.097
5	;	17	;	17.602
5	;	17.5	;	18.121
5	;	18	;	18.643
5	;	18.5	;	19.195
5	;	19	;	19.752
5	;	19.5	;	20.252
5	;	20	;	20.752
5	;	20.5	;	21.252
5	;	21	;	21.752
5	;	21.5	;	22.252
5	;	22	;	22.752
10	;	0	;	0.077
10	;	0.5	;	0.577
10	;	1	;	1.078
10	;	1.5	;	1.616
10	;	2	;	2.154
10	;	2.5	;	2.682
10	;	3	;	3.21
10	;	3.5	;	3.747
10	;	4	;	4.285
10	;	4.5	;	4.811
10	;	5	;	5.334
10	;	5.5	;	5.881
10	;	6	;	6.43
10	;	6.5	;	6.975
10	;	7	;	7.521
10	;	7.5	;	8.052
10	;	8	;	8.584
10	;	8.5	;	9.109
10	;	9	;	9.634
10	;	9.5	;	10.2
10	;	10	;	10.771
10	;	10.5	;	11.32
10	;	11	;	11.867
10	;	11.5	;	12.363
10	;	12	;	12.859
10	;	12.5	;	13.39
10	;	13	;	13.932
10	;	13.5	;	14.482
10	;	14	;	15.033
10	;	14.5	;	15.553
10	;	15	;	16.067
10	;	15.5	;	16.621
10	;	16	;	17.183
10	;	16.5	;	17.694
10	;	17	;	18.203
10	;	17.5	;	18.741
10	;	18	;	19.285
10	;	18.5	;	19.89
10	;	19	;	20.503
10	;	19.5	;	21.003
10	;	20	;	21.503
10	;	20.5	;	22.003
10	;	21	;	22.503
10	;	21.5	;	23.003
10	;	22	;	23.503
15	;	0	;	0.116
15	;	0.5	;	0.616
15	;	1	;	1.118
15	;	1.5	;	1.675
15	;	2	;	2.232
15	;	2.5	;	2.773
15	;	3	;	3.315
15	;	3.5	;	3.871
15	;	4	;	4.428
15	;	4.5	;	4.966
15	;	5	;	5.502
15	;	5.5	;	6.071
15	;	6	;	6.644
15	;	6.5	;	7.213
15	;	7	;	7.781
15	;	7.5	;	8.328
15	;	8	;	8.876
15	;	8.5	;	9.414
15	;	9	;	9.95
15	;	9.5	;	10.55
15	;	10	;	11.156
15	;	10.5	;	11.73
15	;	11	;	12.301
15	;	11.5	;	12.794
15	;	12	;	13.288
15	;	12.5	;	13.835
15	;	13	;	14.397
15	;	13.5	;	14.973
15	;	14	;	15.549
15	;	14.5	;	16.079
15	;	15	;	16.601
15	;	15.5	;	17.181
15	;	16	;	17.775
15	;	16.5	;	18.291
15	;	17	;	18.805
15	;	17.5	;	19.362
15	;	18	;	19.928
15	;	18.5	;	20.585
15	;	19	;	21.255
15	;	19.5	;	21.755
15	;	20	;	22.255
15	;	20.5	;	22.755
15	;	21	;	23.255
15	;	21.5	;	23.755
15	;	22	;	24.255
20	;	0	;	0.154
20	;	0.5	;	0.654
20	;	1	;	1.157
20	;	1.5	;	1.733
20	;	2	;	2.309
20	;	2.5	;	2.865
20	;	3	;	3.42
20	;	3.5	;	3.995
20	;	4	;	4.571
20	;	4.5	;	5.121
20	;	5	;	5.669
20	;	5.5	;	6.261
20	;	6	;	6.859
20	;	6.5	;	7.451
20	;	7	;	8.041
20	;	7.5	;	8.604
20	;	8	;	9.167
20	;	8.5	;	9.718
20	;	9	;	10.267
20	;	9.5	;	10.9
20	;	10	;	11.541
20	;	10.5	;	12.139
20	;	11	;	12.734
20	;	11.5	;	13.226
20	;	12	;	13.717
20	;	12.5	;	14.28
20	;	13	;	14.863
20	;	13.5	;	15.464
20	;	14	;	16.065
20	;	14.5	;	16.606
20	;	15	;	17.134
20	;	15.5	;	17.742
20	;	16	;	18.367
20	;	16.5	;	18.888
20	;	17	;	19.406
20	;	17.5	;	19.982
20	;	18	;	20.571
20	;	18.5	;	21.28
20	;	19	;	22.007
20	;	19.5	;	22.507
20	;	20	;	23.007
20	;	20.5	;	23.507
20	;	21	;	24.007
20	;	21.5	;	24.507
20	;	22	;	25.007
25	;	0	;	0.193
25	;	0.5	;	0.693
25	;	1	;	1.196
25	;	1.5	;	1.791
25	;	2	;	2.386
25	;	2.5	;	2.956
25	;	3	;	3.525
25	;	3.5	;	4.118
25	;	4	;	4.714
25	;	4.5	;	5.277
25	;	5	;	5.836
25	;	5.5	;	6.451
25	;	6	;	7.074
25	;	6.5	;	7.688
25	;	7	;	8.302
25	;	7.5	;	8.88
25	;	8	;	9.459
25	;	8.5	;	10.023
25	;	9	;	10.584
25	;	9.5	;	11.25
25	;	10	;	11.926
25	;	10.5	;	12.549
25	;	11	;	13.168
25	;	11.5	;	13.657
25	;	12	;	14.147
25	;	12.5	;	14.725
25	;	13	;	15.329
25	;	13.5	;	15.954
25	;	14	;	16.582
25	;	14.5	;	17.132
25	;	15	;	17.668
25	;	15.5	;	18.302
25	;	16	;	18.958
25	;	16.5	;	19.485
25	;	17	;	20.008
25	;	17.5	;	20.603
25	;	18	;	21.213
25	;	18.5	;	21.625
25	;	19	;	22.007
25	;	19.5	;	22.507
25	;	20	;	23.007
25	;	20.5	;	23.507
25	;	21	;	24.007
25	;	21.5	;	24.507
25	;	22	;	25.007
30	;	0	;	0.231
30	;	0.5	;	0.731
30	;	1	;	1.235
30	;	1.5	;	1.849
30	;	2	;	2.463
30	;	2.5	;	3.047
30	;	3	;	3.63
30	;	3.5	;	4.242
30	;	4	;	4.856
30	;	4.5	;	5.432
30	;	5	;	6.003
30	;	5.5	;	6.641
30	;	6	;	7.289
30	;	6.5	;	7.926
30	;	7	;	8.562
30	;	7.5	;	9.156
30	;	8	;	9.751
30	;	8.5	;	10.327
30	;	9	;	10.901
30	;	9.5	;	11.6
30	;	10	;	12.312
30	;	10.5	;	12.959
30	;	11	;	13.601
30	;	11.5	;	14.089
30	;	12	;	14.576
30	;	12.5	;	15.17
30	;	13	;	15.795
30	;	13.5	;	16.445
30	;	14	;	17.098
30	;	14.5	;	17.658
30	;	15	;	18.201
30	;	15.5	;	18.862
30	;	16	;	19.55
30	;	16.5	;	20.082
30	;	17	;	20.609
30	;	17.5	;	21.223
30	;	18	;	21.856
30	;	18.5	;	21.969
30	;	19	;	22.007
30	;	19.5	;	22.507
30	;	20	;	23.007
30	;	20.5	;	23.507
30	;	21	;	24.007
30	;	21.5	;	24.507
30	;	22	;	25.007
