-15	;	0	;	-0.149
-15	;	0.5	;	0.351
-15	;	1	;	0.85106
-15	;	1.5	;	1.2234
-15	;	2	;	1.59574
-15	;	2.5	;	2.00798
-15	;	3	;	2.42021
-15	;	3.5	;	2.91224
-15	;	4	;	3.40426
-15	;	4.5	;	3.8032
-15	;	5	;	4.20213
-15	;	5.5	;	4.56117
-15	;	6	;	4.92021
-15	;	6.5	;	5.33245
-15	;	7	;	5.74468
-15	;	7.5	;	6.19681
-15	;	8	;	6.64894
-15	;	8.5	;	7.06117
-15	;	9	;	7.4734
-15	;	9.5	;	7.84575
-15	;	10	;	8.21809
-15	;	10.5	;	8.61703
-15	;	11	;	9.01596
-15	;	11.5	;	9.49468
-15	;	12	;	9.9734
-15	;	12.5	;	10.37234
-15	;	13	;	10.77128
-15	;	13.5	;	11.19681
-15	;	14	;	11.62234
-15	;	14.5	;	12.02128
-15	;	15	;	12.42021
-15	;	15.5	;	12.81915
-15	;	16	;	13.21809
-15	;	16.5	;	13.65692
-15	;	17	;	14.09574
-15	;	17.5	;	14.52128
-15	;	18	;	14.94681
-15	;	18.5	;	15.34575
-15	;	19	;	15.74468
-15	;	19.5	;	16.15692
-15	;	20	;	16.56915
-15	;	20.5	;	16.9149
-15	;	21	;	17.26064
-10	;	0	;	-0.099
-10	;	0.5	;	0.401
-10	;	1	;	0.90071
-10	;	1.5	;	1.3156
-10	;	2	;	1.73049
-10	;	2.5	;	2.17198
-10	;	3	;	2.61347
-10	;	3.5	;	3.10816
-10	;	4	;	3.60284
-10	;	4.5	;	4.03547
-10	;	5	;	4.46809
-10	;	5.5	;	4.87412
-10	;	6	;	5.28014
-10	;	6.5	;	5.72163
-10	;	7	;	6.16312
-10	;	7.5	;	6.63121
-10	;	8	;	7.09929
-10	;	8.5	;	7.54078
-10	;	9	;	7.98227
-10	;	9.5	;	8.39717
-10	;	10	;	8.81206
-10	;	10.5	;	9.24469
-10	;	11	;	9.67731
-10	;	11.5	;	10.16312
-10	;	12	;	10.64893
-10	;	12.5	;	11.08156
-10	;	13	;	11.51419
-10	;	13.5	;	11.96454
-10	;	14	;	12.41489
-10	;	14.5	;	12.84752
-10	;	15	;	13.28014
-10	;	15.5	;	13.71277
-10	;	16	;	14.14539
-10	;	16.5	;	14.60461
-10	;	17	;	15.06383
-10	;	17.5	;	15.51419
-10	;	18	;	15.96454
-10	;	18.5	;	16.39717
-10	;	19	;	16.82979
-10	;	19.5	;	17.27128
-10	;	20	;	17.71277
-10	;	20.5	;	18.10993
-10	;	21	;	18.50709
-5	;	0	;	-0.05
-5	;	0.5	;	0.45
-5	;	1	;	0.95035
-5	;	1.5	;	1.4078
-5	;	2	;	1.86525
-5	;	2.5	;	2.336
-5	;	3	;	2.80674
-5	;	3.5	;	3.30408
-5	;	4	;	3.80142
-5	;	4.5	;	4.26773
-5	;	5	;	4.73404
-5	;	5.5	;	5.18706
-5	;	6	;	5.64007
-5	;	6.5	;	6.11082
-5	;	7	;	6.58156
-5	;	7.5	;	7.06561
-5	;	8	;	7.54965
-5	;	8.5	;	8.02039
-5	;	9	;	8.49113
-5	;	9.5	;	8.94858
-5	;	10	;	9.40603
-5	;	10.5	;	9.87234
-5	;	11	;	10.33865
-5	;	11.5	;	10.83156
-5	;	12	;	11.32447
-5	;	12.5	;	11.79078
-5	;	13	;	12.25709
-5	;	13.5	;	12.73227
-5	;	14	;	13.20745
-5	;	14.5	;	13.67376
-5	;	15	;	14.14007
-5	;	15.5	;	14.60639
-5	;	16	;	15.0727
-5	;	16.5	;	15.55231
-5	;	17	;	16.03191
-5	;	17.5	;	16.50709
-5	;	18	;	16.98227
-5	;	18.5	;	17.44858
-5	;	19	;	17.91489
-5	;	19.5	;	18.38564
-5	;	20	;	18.85638
-5	;	20.5	;	19.30497
-5	;	21	;	19.75355
0	;	0	;	0
0	;	0.5	;	0.5
0	;	1	;	1
0	;	1.5	;	1.5
0	;	2	;	2
0	;	2.5	;	2.5
0	;	3	;	3
0	;	3.5	;	3.5
0	;	4	;	4
0	;	4.5	;	4.5
0	;	5	;	5
0	;	5.5	;	5.5
0	;	6	;	6
0	;	6.5	;	6.5
0	;	7	;	7
0	;	7.5	;	7.5
0	;	8	;	8
0	;	8.5	;	8.5
0	;	9	;	9
0	;	9.5	;	9.5
0	;	10	;	10
0	;	10.5	;	10.5
0	;	11	;	11
0	;	11.5	;	11.5
0	;	12	;	12
0	;	12.5	;	12.5
0	;	13	;	13
0	;	13.5	;	13.5
0	;	14	;	14
0	;	14.5	;	14.5
0	;	15	;	15
0	;	15.5	;	15.5
0	;	16	;	16
0	;	16.5	;	16.5
0	;	17	;	17
0	;	17.5	;	17.5
0	;	18	;	18
0	;	18.5	;	18.5
0	;	19	;	19
0	;	19.5	;	19.5
0	;	20	;	20
0	;	20.5	;	20.5
0	;	21	;	21
5	;	0	;	0.024
5	;	0.5	;	0.524
5	;	1	;	1.02394
5	;	1.5	;	1.52926
5	;	2	;	2.03458
5	;	2.5	;	2.54876
5	;	3	;	3.06294
5	;	3.5	;	3.5727
5	;	4	;	4.08245
5	;	4.5	;	4.59442
5	;	5	;	5.10638
5	;	5.5	;	5.6117
5	;	6	;	6.11702
5	;	6.5	;	6.62678
5	;	7	;	7.13653
5	;	7.5	;	7.64407
5	;	8	;	8.1516
5	;	8.5	;	8.66357
5	;	9	;	9.17553
5	;	9.5	;	9.6875
5	;	10	;	10.19947
5	;	10.5	;	10.70922
5	;	11	;	11.21897
5	;	11.5	;	11.73759
5	;	12	;	12.25621
5	;	12.5	;	12.75266
5	;	13	;	13.24911
5	;	13.5	;	13.76108
5	;	14	;	14.27305
5	;	14.5	;	14.78724
5	;	15	;	15.30142
5	;	15.5	;	15.80231
5	;	16	;	16.30319
5	;	16.5	;	16.80851
5	;	17	;	17.31383
5	;	17.5	;	17.83023
5	;	18	;	18.34663
5	;	18.5	;	18.85441
5	;	19	;	19.36219
5	;	19.5	;	19.8585
5	;	20	;	20.3548
5	;	20.5	;	21.30063
5	;	21	;	22.24645
10	;	0	;	0.048
10	;	0.5	;	0.548
10	;	1	;	1.04787
10	;	1.5	;	1.55851
10	;	2	;	2.06915
10	;	2.5	;	2.59752
10	;	3	;	3.12589
10	;	3.5	;	3.64539
10	;	4	;	4.16489
10	;	4.5	;	4.68883
10	;	5	;	5.21277
10	;	5.5	;	5.72341
10	;	6	;	6.23404
10	;	6.5	;	6.75355
10	;	7	;	7.27305
10	;	7.5	;	7.78812
10	;	8	;	8.30319
10	;	8.5	;	8.82713
10	;	9	;	9.35106
10	;	9.5	;	9.875
10	;	10	;	10.39894
10	;	10.5	;	10.91844
10	;	11	;	11.43794
10	;	11.5	;	11.97518
10	;	12	;	12.51241
10	;	12.5	;	13.00532
10	;	13	;	13.49823
10	;	13.5	;	14.02217
10	;	14	;	14.5461
10	;	14.5	;	15.07447
10	;	15	;	15.60284
10	;	15.5	;	16.10461
10	;	16	;	16.60638
10	;	16.5	;	17.11702
10	;	17	;	17.62766
10	;	17.5	;	18.16046
10	;	18	;	18.69326
10	;	18.5	;	19.20882
10	;	19	;	19.72438
10	;	19.5	;	20.21699
10	;	20	;	20.7096
10	;	20.5	;	22.10126
10	;	21	;	23.49291
15	;	0	;	0.072
15	;	0.5	;	0.572
15	;	1	;	1.07181
15	;	1.5	;	1.58777
15	;	2	;	2.10373
15	;	2.5	;	2.64628
15	;	3	;	3.18883
15	;	3.5	;	3.71809
15	;	4	;	4.24734
15	;	4.5	;	4.78325
15	;	5	;	5.31915
15	;	5.5	;	5.83511
15	;	6	;	6.35107
15	;	6.5	;	6.88033
15	;	7	;	7.40958
15	;	7.5	;	7.93219
15	;	8	;	8.45479
15	;	8.5	;	8.9907
15	;	9	;	9.5266
15	;	9.5	;	10.06251
15	;	10	;	10.59841
15	;	10.5	;	11.12767
15	;	11	;	11.65692
15	;	11.5	;	12.21277
15	;	12	;	12.76862
15	;	12.5	;	13.25798
15	;	13	;	13.74734
15	;	13.5	;	14.28325
15	;	14	;	14.81915
15	;	14.5	;	15.36171
15	;	15	;	15.90426
15	;	15.5	;	16.40692
15	;	16	;	16.90958
15	;	16.5	;	17.42554
15	;	17	;	17.94149
15	;	17.5	;	18.4907
15	;	18	;	19.0399
15	;	18.5	;	19.56324
15	;	19	;	20.08657
15	;	19.5	;	20.57549
15	;	20	;	21.0644
15	;	20.5	;	22.90188
15	;	21	;	24.73936
20	;	0	;	0.096
20	;	0.5	;	0.596
20	;	1	;	1.09575
20	;	1.5	;	1.61703
20	;	2	;	2.1383
20	;	2.5	;	2.69504
20	;	3	;	3.25177
20	;	3.5	;	3.79078
20	;	4	;	4.32979
20	;	4.5	;	4.87766
20	;	5	;	5.42553
20	;	5.5	;	5.94681
20	;	6	;	6.46809
20	;	6.5	;	7.0071
20	;	7	;	7.5461
20	;	7.5	;	8.07624
20	;	8	;	8.60638
20	;	8.5	;	9.15426
20	;	9	;	9.70213
20	;	9.5	;	10.25
20	;	10	;	10.79787
20	;	10.5	;	11.33688
20	;	11	;	11.87589
20	;	11.5	;	12.45036
20	;	12	;	13.02482
20	;	12.5	;	13.51064
20	;	13	;	13.99645
20	;	13.5	;	14.54433
20	;	14	;	15.0922
20	;	14.5	;	15.64894
20	;	15	;	16.20567
20	;	15.5	;	16.70922
20	;	16	;	17.21277
20	;	16.5	;	17.73405
20	;	17	;	18.25532
20	;	17.5	;	18.82093
20	;	18	;	19.38653
20	;	18.5	;	19.91765
20	;	19	;	20.44876
20	;	19.5	;	20.93398
20	;	20	;	21.4192
20	;	20.5	;	23.70251
20	;	21	;	25.98581
25	;	0	;	0.12
25	;	0.5	;	0.62
25	;	1	;	1.11968
25	;	1.5	;	1.64628
25	;	2	;	2.17288
25	;	2.5	;	2.7438
25	;	3	;	3.31472
25	;	3.5	;	3.86348
25	;	4	;	4.41223
25	;	4.5	;	4.97208
25	;	5	;	5.53192
25	;	5.5	;	6.05852
25	;	6	;	6.58511
25	;	6.5	;	7.13387
25	;	7	;	7.68263
25	;	7.5	;	8.22031
25	;	8	;	8.75798
25	;	8.5	;	9.31782
25	;	9	;	9.87766
25	;	9.5	;	10.4375
25	;	10	;	10.99734
25	;	10.5	;	11.5461
25	;	11	;	12.09486
25	;	11.5	;	12.68795
25	;	12	;	13.28103
25	;	12.5	;	13.7633
25	;	13	;	14.24557
25	;	13.5	;	14.80541
25	;	14	;	15.36525
25	;	14.5	;	15.93617
25	;	15	;	16.50709
25	;	15.5	;	17.01153
25	;	16	;	17.51596
25	;	16.5	;	18.04256
25	;	17	;	18.56915
25	;	17.5	;	19.15116
25	;	18	;	19.73316
25	;	18.5	;	20.27206
25	;	19	;	20.81095
25	;	19.5	;	21.29248
25	;	20	;	21.774
25	;	20.5	;	24.50314
25	;	21	;	27.23227
30	;	0	;	0.144
30	;	0.5	;	0.644
30	;	1	;	1.14362
30	;	1.5	;	1.67554
30	;	2	;	2.20745
30	;	2.5	;	2.79256
30	;	3	;	3.37766
30	;	3.5	;	3.93617
30	;	4	;	4.49468
30	;	4.5	;	5.06649
30	;	5	;	5.6383
30	;	5.5	;	6.17022
30	;	6	;	6.70213
30	;	6.5	;	7.26064
30	;	7	;	7.81915
30	;	7.5	;	8.36436
30	;	8	;	8.90957
30	;	8.5	;	9.48138
30	;	9	;	10.05319
30	;	9.5	;	10.625
30	;	10	;	11.19681
30	;	10.5	;	11.75532
30	;	11	;	12.31383
30	;	11.5	;	12.92553
30	;	12	;	13.53723
30	;	12.5	;	14.01596
30	;	13	;	14.49468
30	;	13.5	;	15.06649
30	;	14	;	15.6383
30	;	14.5	;	16.22341
30	;	15	;	16.80851
30	;	15.5	;	17.31383
30	;	16	;	17.81915
30	;	16.5	;	18.35107
30	;	17	;	18.88298
30	;	17.5	;	19.48139
30	;	18	;	20.07979
30	;	18.5	;	20.62647
30	;	19	;	21.17314
30	;	19.5	;	21.65097
30	;	20	;	22.1288
30	;	20.5	;	25.30376
30	;	21	;	28.47872
