-60	;	0	;	401.69082
-60	;	100	;	399.77938
-60	;	200	;	397.86794
-60	;	300	;	395.9565
-60	;	400	;	394.04506
-60	;	500	;	392.13362
-60	;	600	;	390.22218
-60	;	700	;	388.31074
-60	;	800	;	386.3993
-60	;	900	;	384.48786
-60	;	1000	;	382.57642
-60	;	1100	;	380.59897
-60	;	1200	;	378.62152
-60	;	1300	;	376.64407
-60	;	1400	;	374.66662
-60	;	1500	;	372.68918
-60	;	1600	;	370.71173
-60	;	1700	;	368.73428
-60	;	1800	;	366.75683
-60	;	1900	;	364.77938
-60	;	2000	;	362.80193
-60	;	2100	;	360.50945
-60	;	2200	;	358.21697
-60	;	2300	;	355.92448
-60	;	2400	;	353.632
-60	;	2500	;	351.33952
-60	;	2600	;	349.04704
-60	;	2700	;	346.75456
-60	;	2800	;	344.46207
-60	;	2900	;	342.16959
-60	;	3000	;	339.87711
-60	;	3100	;	337.51876
-60	;	3200	;	335.16042
-60	;	3300	;	332.80207
-60	;	3400	;	330.44373
-60	;	3500	;	328.08538
-60	;	3600	;	325.72703
-60	;	3700	;	323.36869
-60	;	3800	;	321.01034
-60	;	3900	;	318.652
-60	;	4000	;	316.29365
-55	;	0	;	401.69082
-55	;	100	;	399.78125
-55	;	200	;	397.87168
-55	;	300	;	395.9621
-55	;	400	;	394.05253
-55	;	500	;	392.14296
-55	;	600	;	390.23339
-55	;	700	;	388.32382
-55	;	800	;	386.41424
-55	;	900	;	384.50467
-55	;	1000	;	382.5951
-55	;	1100	;	380.61578
-55	;	1200	;	378.63647
-55	;	1300	;	376.65715
-55	;	1400	;	374.67783
-55	;	1500	;	372.69852
-55	;	1600	;	370.7192
-55	;	1700	;	368.73988
-55	;	1800	;	366.76056
-55	;	1900	;	364.78125
-55	;	2000	;	362.80193
-55	;	2100	;	360.51163
-55	;	2200	;	358.22133
-55	;	2300	;	355.93103
-55	;	2400	;	353.64073
-55	;	2500	;	351.35043
-55	;	2600	;	349.06013
-55	;	2700	;	346.76983
-55	;	2800	;	344.47953
-55	;	2900	;	342.18923
-55	;	3000	;	339.89893
-55	;	3100	;	337.54309
-55	;	3200	;	335.18725
-55	;	3300	;	332.8314
-55	;	3400	;	330.47556
-55	;	3500	;	328.11972
-55	;	3600	;	325.76388
-55	;	3700	;	323.40804
-55	;	3800	;	321.05219
-55	;	3900	;	318.69635
-55	;	4000	;	316.34051
-50	;	0	;	401.69082
-50	;	100	;	399.78312
-50	;	200	;	397.87541
-50	;	300	;	395.96771
-50	;	400	;	394.06
-50	;	500	;	392.1523
-50	;	600	;	390.2446
-50	;	700	;	388.33689
-50	;	800	;	386.42919
-50	;	900	;	384.52148
-50	;	1000	;	382.61378
-50	;	1100	;	380.6326
-50	;	1200	;	378.65141
-50	;	1300	;	376.67023
-50	;	1400	;	374.68904
-50	;	1500	;	372.70786
-50	;	1600	;	370.72667
-50	;	1700	;	368.74549
-50	;	1800	;	366.7643
-50	;	1900	;	364.78312
-50	;	2000	;	362.80193
-50	;	2100	;	360.51381
-50	;	2200	;	358.22569
-50	;	2300	;	355.93758
-50	;	2400	;	353.64946
-50	;	2500	;	351.36134
-50	;	2600	;	349.07322
-50	;	2700	;	346.7851
-50	;	2800	;	344.49699
-50	;	2900	;	342.20887
-50	;	3000	;	339.92075
-50	;	3100	;	337.56741
-50	;	3200	;	335.21407
-50	;	3300	;	332.86073
-50	;	3400	;	330.50739
-50	;	3500	;	328.15406
-50	;	3600	;	325.80072
-50	;	3700	;	323.44738
-50	;	3800	;	321.09404
-50	;	3900	;	318.7407
-50	;	4000	;	316.38736
-45	;	0	;	401.69082
-45	;	100	;	399.78498
-45	;	200	;	397.87915
-45	;	300	;	395.97331
-45	;	400	;	394.06748
-45	;	500	;	392.16164
-45	;	600	;	390.2558
-45	;	700	;	388.34997
-45	;	800	;	386.44413
-45	;	900	;	384.5383
-45	;	1000	;	382.63246
-45	;	1100	;	380.64941
-45	;	1200	;	378.66635
-45	;	1300	;	376.6833
-45	;	1400	;	374.70025
-45	;	1500	;	372.7172
-45	;	1600	;	370.73414
-45	;	1700	;	368.75109
-45	;	1800	;	366.76804
-45	;	1900	;	364.78498
-45	;	2000	;	362.80193
-45	;	2100	;	360.516
-45	;	2200	;	358.23006
-45	;	2300	;	355.94413
-45	;	2400	;	353.65819
-45	;	2500	;	351.37226
-45	;	2600	;	349.08632
-45	;	2700	;	346.80039
-45	;	2800	;	344.51445
-45	;	2900	;	342.22852
-45	;	3000	;	339.94258
-45	;	3100	;	337.59174
-45	;	3200	;	335.24091
-45	;	3300	;	332.89007
-45	;	3400	;	330.53924
-45	;	3500	;	328.1884
-45	;	3600	;	325.83756
-45	;	3700	;	323.48673
-45	;	3800	;	321.13589
-45	;	3900	;	318.78506
-45	;	4000	;	316.43422
-40	;	0	;	401.69082
-40	;	100	;	399.78685
-40	;	200	;	397.88288
-40	;	300	;	395.97891
-40	;	400	;	394.07494
-40	;	500	;	392.17098
-40	;	600	;	390.26701
-40	;	700	;	388.36304
-40	;	800	;	386.45907
-40	;	900	;	384.5551
-40	;	1000	;	382.65113
-40	;	1100	;	380.66621
-40	;	1200	;	378.68129
-40	;	1300	;	376.69637
-40	;	1400	;	374.71145
-40	;	1500	;	372.72653
-40	;	1600	;	370.74161
-40	;	1700	;	368.75669
-40	;	1800	;	366.77177
-40	;	1900	;	364.78685
-40	;	2000	;	362.80193
-40	;	2100	;	360.51818
-40	;	2200	;	358.23442
-40	;	2300	;	355.95067
-40	;	2400	;	353.66692
-40	;	2500	;	351.38317
-40	;	2600	;	349.09941
-40	;	2700	;	346.81566
-40	;	2800	;	344.53191
-40	;	2900	;	342.24815
-40	;	3000	;	339.9644
-40	;	3100	;	337.61607
-40	;	3200	;	335.26773
-40	;	3300	;	332.9194
-40	;	3400	;	330.57107
-40	;	3500	;	328.22274
-40	;	3600	;	325.8744
-40	;	3700	;	323.52607
-40	;	3800	;	321.17774
-40	;	3900	;	318.8294
-40	;	4000	;	316.48107
-35	;	0	;	401.69082
-35	;	100	;	399.78872
-35	;	200	;	397.88662
-35	;	300	;	395.98452
-35	;	400	;	394.08242
-35	;	500	;	392.18032
-35	;	600	;	390.27821
-35	;	700	;	388.37611
-35	;	800	;	386.47401
-35	;	900	;	384.57191
-35	;	1000	;	382.66981
-35	;	1100	;	380.68302
-35	;	1200	;	378.69623
-35	;	1300	;	376.70945
-35	;	1400	;	374.72266
-35	;	1500	;	372.73587
-35	;	1600	;	370.74908
-35	;	1700	;	368.76229
-35	;	1800	;	366.77551
-35	;	1900	;	364.78872
-35	;	2000	;	362.80193
-35	;	2100	;	360.52036
-35	;	2200	;	358.23879
-35	;	2300	;	355.95722
-35	;	2400	;	353.67565
-35	;	2500	;	351.39408
-35	;	2600	;	349.11251
-35	;	2700	;	346.83094
-35	;	2800	;	344.54937
-35	;	2900	;	342.2678
-35	;	3000	;	339.98623
-35	;	3100	;	337.6404
-35	;	3200	;	335.29457
-35	;	3300	;	332.94874
-35	;	3400	;	330.60291
-35	;	3500	;	328.25708
-35	;	3600	;	325.91125
-35	;	3700	;	323.56542
-35	;	3800	;	321.21959
-35	;	3900	;	318.87376
-35	;	4000	;	316.52793
-30	;	0	;	401.69082
-30	;	100	;	399.79059
-30	;	200	;	397.89035
-30	;	300	;	395.99012
-30	;	400	;	394.08989
-30	;	500	;	392.18966
-30	;	600	;	390.28942
-30	;	700	;	388.38919
-30	;	800	;	386.48896
-30	;	900	;	384.58872
-30	;	1000	;	382.68849
-30	;	1100	;	380.69983
-30	;	1200	;	378.71118
-30	;	1300	;	376.72252
-30	;	1400	;	374.73387
-30	;	1500	;	372.74521
-30	;	1600	;	370.75655
-30	;	1700	;	368.7679
-30	;	1800	;	366.77924
-30	;	1900	;	364.79059
-30	;	2000	;	362.80193
-30	;	2100	;	360.52254
-30	;	2200	;	358.24315
-30	;	2300	;	355.96377
-30	;	2400	;	353.68438
-30	;	2500	;	351.40499
-30	;	2600	;	349.1256
-30	;	2700	;	346.84621
-30	;	2800	;	344.56683
-30	;	2900	;	342.28744
-30	;	3000	;	340.00805
-30	;	3100	;	337.66472
-30	;	3200	;	335.3214
-30	;	3300	;	332.97807
-30	;	3400	;	330.63474
-30	;	3500	;	328.29142
-30	;	3600	;	325.94809
-30	;	3700	;	323.60476
-30	;	3800	;	321.26143
-30	;	3900	;	318.91811
-30	;	4000	;	316.57478
-25	;	0	;	401.69082
-25	;	100	;	399.79246
-25	;	200	;	397.89409
-25	;	300	;	395.99573
-25	;	400	;	394.09736
-25	;	500	;	392.199
-25	;	600	;	390.30063
-25	;	700	;	388.40227
-25	;	800	;	386.5039
-25	;	900	;	384.60554
-25	;	1000	;	382.70717
-25	;	1100	;	380.71665
-25	;	1200	;	378.72612
-25	;	1300	;	376.7356
-25	;	1400	;	374.74507
-25	;	1500	;	372.75455
-25	;	1600	;	370.76403
-25	;	1700	;	368.7735
-25	;	1800	;	366.78298
-25	;	1900	;	364.79245
-25	;	2000	;	362.80193
-25	;	2100	;	360.52473
-25	;	2200	;	358.24752
-25	;	2300	;	355.97032
-25	;	2400	;	353.69311
-25	;	2500	;	351.41591
-25	;	2600	;	349.1387
-25	;	2700	;	346.8615
-25	;	2800	;	344.58429
-25	;	2900	;	342.30709
-25	;	3000	;	340.02988
-25	;	3100	;	337.68906
-25	;	3200	;	335.34823
-25	;	3300	;	333.00741
-25	;	3400	;	330.66658
-25	;	3500	;	328.32576
-25	;	3600	;	325.98494
-25	;	3700	;	323.64411
-25	;	3800	;	321.30329
-25	;	3900	;	318.96246
-25	;	4000	;	316.62164
-20	;	0	;	401.69082
-20	;	100	;	399.79432
-20	;	200	;	397.89782
-20	;	300	;	396.00133
-20	;	400	;	394.10483
-20	;	500	;	392.20833
-20	;	600	;	390.31183
-20	;	700	;	388.41533
-20	;	800	;	386.51884
-20	;	900	;	384.62234
-20	;	1000	;	382.72584
-20	;	1100	;	380.73345
-20	;	1200	;	378.74106
-20	;	1300	;	376.74867
-20	;	1400	;	374.75628
-20	;	1500	;	372.76389
-20	;	1600	;	370.77149
-20	;	1700	;	368.7791
-20	;	1800	;	366.78671
-20	;	1900	;	364.79432
-20	;	2000	;	362.80193
-20	;	2100	;	360.52691
-20	;	2200	;	358.25188
-20	;	2300	;	355.97686
-20	;	2400	;	353.70184
-20	;	2500	;	351.42682
-20	;	2600	;	349.15179
-20	;	2700	;	346.87677
-20	;	2800	;	344.60175
-20	;	2900	;	342.32672
-20	;	3000	;	340.0517
-20	;	3100	;	337.69039
-20	;	3200	;	335.32907
-20	;	3300	;	332.96776
-20	;	3400	;	330.60644
-20	;	3500	;	328.24513
-20	;	3600	;	325.88381
-20	;	3700	;	323.5225
-20	;	3800	;	321.16118
-20	;	3900	;	318.79987
-20	;	4000	;	316.43855
-15	;	0	;	401.69082
-15	;	100	;	399.79619
-15	;	200	;	397.90156
-15	;	300	;	396.00693
-15	;	400	;	394.1123
-15	;	500	;	392.21767
-15	;	600	;	390.32304
-15	;	700	;	388.42841
-15	;	800	;	386.53378
-15	;	900	;	384.63915
-15	;	1000	;	382.74452
-15	;	1100	;	380.75026
-15	;	1200	;	378.756
-15	;	1300	;	376.76174
-15	;	1400	;	374.76748
-15	;	1500	;	372.77323
-15	;	1600	;	370.77897
-15	;	1700	;	368.78471
-15	;	1800	;	366.79045
-15	;	1900	;	364.79619
-15	;	2000	;	362.80193
-15	;	2100	;	360.52909
-15	;	2200	;	358.25625
-15	;	2300	;	355.98341
-15	;	2400	;	353.71057
-15	;	2500	;	351.43773
-15	;	2600	;	349.16488
-15	;	2700	;	346.89204
-15	;	2800	;	344.6192
-15	;	2900	;	342.34636
-15	;	3000	;	340.07352
-15	;	3100	;	337.1226
-15	;	3200	;	334.17167
-15	;	3300	;	331.22075
-15	;	3400	;	328.26983
-15	;	3500	;	325.31891
-15	;	3600	;	322.36798
-15	;	3700	;	319.41706
-15	;	3800	;	316.46614
-15	;	3900	;	313.51521
-15	;	4000	;	310.56429
-10	;	0	;	401.69082
-10	;	100	;	399.79806
-10	;	200	;	397.9053
-10	;	300	;	396.01253
-10	;	400	;	394.11977
-10	;	500	;	392.22701
-10	;	600	;	390.33425
-10	;	700	;	388.44149
-10	;	800	;	386.54872
-10	;	900	;	384.65596
-10	;	1000	;	382.7632
-10	;	1100	;	380.76707
-10	;	1200	;	378.77095
-10	;	1300	;	376.77482
-10	;	1400	;	374.77869
-10	;	1500	;	372.78257
-10	;	1600	;	370.78644
-10	;	1700	;	368.79031
-10	;	1800	;	366.79418
-10	;	1900	;	364.79806
-10	;	2000	;	362.80193
-10	;	2100	;	360.53127
-10	;	2200	;	358.26061
-10	;	2300	;	355.98996
-10	;	2400	;	353.7193
-10	;	2500	;	351.44864
-10	;	2600	;	349.17798
-10	;	2700	;	346.90732
-10	;	2800	;	344.63667
-10	;	2900	;	342.36601
-10	;	3000	;	340.09535
-10	;	3100	;	336.55482
-10	;	3200	;	333.01428
-10	;	3300	;	329.47375
-10	;	3400	;	325.93322
-10	;	3500	;	322.39269
-10	;	3600	;	318.85215
-10	;	3700	;	315.31162
-10	;	3800	;	311.77109
-10	;	3900	;	308.23055
-10	;	4000	;	304.69002
-5	;	0	;	401.69082
-5	;	100	;	399.79993
-5	;	200	;	397.90903
-5	;	300	;	396.01814
-5	;	400	;	394.12724
-5	;	500	;	392.23635
-5	;	600	;	390.34546
-5	;	700	;	388.45456
-5	;	800	;	386.56367
-5	;	900	;	384.67277
-5	;	1000	;	382.78188
-5	;	1100	;	380.78389
-5	;	1200	;	378.78589
-5	;	1300	;	376.7879
-5	;	1400	;	374.7899
-5	;	1500	;	372.79191
-5	;	1600	;	370.79391
-5	;	1700	;	368.79592
-5	;	1800	;	366.79792
-5	;	1900	;	364.79993
-5	;	2000	;	362.80193
-5	;	2100	;	359.96796
-5	;	2200	;	357.134
-5	;	2300	;	354.30003
-5	;	2400	;	351.46607
-5	;	2500	;	348.6321
-5	;	2600	;	345.79813
-5	;	2700	;	342.96417
-5	;	2800	;	340.1302
-5	;	2900	;	337.29624
-5	;	3000	;	334.46227
-5	;	3100	;	330.89762
-5	;	3200	;	327.33297
-5	;	3300	;	323.76832
-5	;	3400	;	320.20367
-5	;	3500	;	316.63902
-5	;	3600	;	313.07436
-5	;	3700	;	309.50971
-5	;	3800	;	305.94506
-5	;	3900	;	302.38041
-5	;	4000	;	298.81576
0	;	0	;	401.69082
0	;	100	;	399.80179
0	;	200	;	397.91277
0	;	300	;	396.02374
0	;	400	;	394.13471
0	;	500	;	392.24569
0	;	600	;	390.35666
0	;	700	;	388.46763
0	;	800	;	386.5786
0	;	900	;	384.68958
0	;	1000	;	382.80055
0	;	1100	;	380.80069
0	;	1200	;	378.80083
0	;	1300	;	376.80096
0	;	1400	;	374.8011
0	;	1500	;	372.80124
0	;	1600	;	370.80138
0	;	1700	;	368.80152
0	;	1800	;	366.80165
0	;	1900	;	364.80179
0	;	2000	;	362.80193
0	;	2100	;	359.36968
0	;	2200	;	355.93743
0	;	2300	;	352.50517
0	;	2400	;	349.07292
0	;	2500	;	345.64067
0	;	2600	;	342.20842
0	;	2700	;	338.77617
0	;	2800	;	335.34391
0	;	2900	;	331.91166
0	;	3000	;	328.47941
0	;	3100	;	324.92562
0	;	3200	;	321.37183
0	;	3300	;	317.81804
0	;	3400	;	314.26425
0	;	3500	;	310.71046
0	;	3600	;	307.15666
0	;	3700	;	303.60287
0	;	3800	;	300.04908
0	;	3900	;	296.49529
0	;	4000	;	292.9415
5	;	0	;	401.69082
5	;	100	;	399.80366
5	;	200	;	397.9165
5	;	300	;	396.02934
5	;	400	;	394.14218
5	;	500	;	392.25503
5	;	600	;	390.36787
5	;	700	;	388.48071
5	;	800	;	386.59355
5	;	900	;	384.70639
5	;	1000	;	382.81923
5	;	1100	;	380.8175
5	;	1200	;	378.81577
5	;	1300	;	376.81404
5	;	1400	;	374.81231
5	;	1500	;	372.81058
5	;	1600	;	370.80885
5	;	1700	;	368.80712
5	;	1800	;	366.80539
5	;	1900	;	364.80366
5	;	2000	;	362.80193
5	;	2100	;	358.77139
5	;	2200	;	354.74085
5	;	2300	;	350.71032
5	;	2400	;	346.67978
5	;	2500	;	342.64924
5	;	2600	;	338.6187
5	;	2700	;	334.58816
5	;	2800	;	330.55763
5	;	2900	;	326.52709
5	;	3000	;	322.49655
5	;	3100	;	318.95362
5	;	3200	;	315.41069
5	;	3300	;	311.86776
5	;	3400	;	308.32483
5	;	3500	;	304.7819
5	;	3600	;	301.23896
5	;	3700	;	297.69603
5	;	3800	;	294.1531
5	;	3900	;	290.61017
5	;	4000	;	287.06724
10	;	0	;	401.69082
10	;	100	;	399.80553
10	;	200	;	397.92024
10	;	300	;	396.03495
10	;	400	;	394.14966
10	;	500	;	392.26437
10	;	600	;	390.37907
10	;	700	;	388.49378
10	;	800	;	386.60849
10	;	900	;	384.7232
10	;	1000	;	382.83791
10	;	1100	;	380.05966
10	;	1200	;	377.28141
10	;	1300	;	374.50316
10	;	1400	;	371.72491
10	;	1500	;	368.94667
10	;	1600	;	366.16842
10	;	1700	;	363.39017
10	;	1800	;	360.61192
10	;	1900	;	357.83367
10	;	2000	;	355.05542
10	;	2100	;	351.20125
10	;	2200	;	347.34707
10	;	2300	;	343.4929
10	;	2400	;	339.63872
10	;	2500	;	335.78455
10	;	2600	;	331.93038
10	;	2700	;	328.0762
10	;	2800	;	324.22203
10	;	2900	;	320.36785
10	;	3000	;	316.51368
10	;	3100	;	312.73984
10	;	3200	;	308.966
10	;	3300	;	305.19216
10	;	3400	;	301.41832
10	;	3500	;	297.64448
10	;	3600	;	293.87064
10	;	3700	;	290.0968
10	;	3800	;	286.32296
10	;	3900	;	282.54912
10	;	4000	;	278.77528
15	;	0	;	401.69082
15	;	100	;	399.32999
15	;	200	;	396.96916
15	;	300	;	394.60833
15	;	400	;	392.2475
15	;	500	;	389.88667
15	;	600	;	387.52583
15	;	700	;	385.165
15	;	800	;	382.80417
15	;	900	;	380.44334
15	;	1000	;	378.08251
15	;	1100	;	374.40413
15	;	1200	;	370.72574
15	;	1300	;	367.04736
15	;	1400	;	363.36897
15	;	1500	;	359.69059
15	;	1600	;	356.01221
15	;	1700	;	352.33382
15	;	1800	;	348.65544
15	;	1900	;	344.97705
15	;	2000	;	341.29867
15	;	2100	;	337.60548
15	;	2200	;	333.91228
15	;	2300	;	330.21909
15	;	2400	;	326.52589
15	;	2500	;	322.8327
15	;	2600	;	319.1395
15	;	2700	;	315.44631
15	;	2800	;	311.75311
15	;	2900	;	308.05992
15	;	3000	;	304.36672
15	;	3100	;	300.6788
15	;	3200	;	296.99087
15	;	3300	;	293.30295
15	;	3400	;	289.61502
15	;	3500	;	285.9271
15	;	3600	;	282.23918
15	;	3700	;	278.55125
15	;	3800	;	274.86333
15	;	3900	;	271.1754
15	;	4000	;	267.48748
20	;	0	;	401.69082
20	;	100	;	397.92692
20	;	200	;	394.16301
20	;	300	;	390.39911
20	;	400	;	386.63521
20	;	500	;	382.87131
20	;	600	;	379.1074
20	;	700	;	375.3435
20	;	800	;	371.5796
20	;	900	;	367.81569
20	;	1000	;	364.05179
20	;	1100	;	360.4008
20	;	1200	;	356.74982
20	;	1300	;	353.09883
20	;	1400	;	349.44784
20	;	1500	;	345.79686
20	;	1600	;	342.14587
20	;	1700	;	338.49488
20	;	1800	;	334.84389
20	;	1900	;	331.19291
20	;	2000	;	327.54192
20	;	2100	;	323.91274
20	;	2200	;	320.28356
20	;	2300	;	316.65438
20	;	2400	;	313.0252
20	;	2500	;	309.39603
20	;	2600	;	305.76685
20	;	2700	;	302.13767
20	;	2800	;	298.50849
20	;	2900	;	294.87931
20	;	3000	;	291.25013
20	;	3100	;	287.74509
20	;	3200	;	284.24004
20	;	3300	;	280.735
20	;	3400	;	277.22995
20	;	3500	;	273.72491
20	;	3600	;	270.21987
20	;	3700	;	266.71482
20	;	3800	;	263.20978
20	;	3900	;	259.70473
20	;	4000	;	256.19969
25	;	0	;	391.74037
25	;	100	;	387.56844
25	;	200	;	383.39651
25	;	300	;	379.22458
25	;	400	;	375.05265
25	;	500	;	370.88072
25	;	600	;	366.70878
25	;	700	;	362.53685
25	;	800	;	358.36492
25	;	900	;	354.19299
25	;	1000	;	350.02106
25	;	1100	;	346.39747
25	;	1200	;	342.77388
25	;	1300	;	339.15029
25	;	1400	;	335.5267
25	;	1500	;	331.90312
25	;	1600	;	328.27953
25	;	1700	;	324.65594
25	;	1800	;	321.03235
25	;	1900	;	317.40876
25	;	2000	;	313.78517
25	;	2100	;	310.22001
25	;	2200	;	306.65484
25	;	2300	;	303.08968
25	;	2400	;	299.52451
25	;	2500	;	295.95935
25	;	2600	;	292.39419
25	;	2700	;	288.82902
25	;	2800	;	285.26386
25	;	2900	;	281.69869
25	;	3000	;	278.13353
25	;	3100	;	274.81137
25	;	3200	;	271.4892
25	;	3300	;	268.16704
25	;	3400	;	264.84487
25	;	3500	;	261.52271
25	;	3600	;	258.20055
25	;	3700	;	254.87838
25	;	3800	;	251.55622
25	;	3900	;	248.23405
25	;	4000	;	244.91189
30	;	0	;	374.93882
30	;	100	;	371.04397
30	;	200	;	367.14912
30	;	300	;	363.25427
30	;	400	;	359.35942
30	;	500	;	355.46458
30	;	600	;	351.56973
30	;	700	;	347.67488
30	;	800	;	343.78003
30	;	900	;	339.88518
30	;	1000	;	335.99033
30	;	1100	;	332.39414
30	;	1200	;	328.79795
30	;	1300	;	325.20176
30	;	1400	;	321.60557
30	;	1500	;	318.00938
30	;	1600	;	314.41318
30	;	1700	;	310.81699
30	;	1800	;	307.2208
30	;	1900	;	303.62461
30	;	2000	;	300.02842
30	;	2100	;	296.52727
30	;	2200	;	293.02612
30	;	2300	;	289.52498
30	;	2400	;	286.02383
30	;	2500	;	282.52268
30	;	2600	;	279.02153
30	;	2700	;	275.52038
30	;	2800	;	272.01924
30	;	2900	;	268.51809
30	;	3000	;	265.01694
30	;	3100	;	261.87766
30	;	3200	;	258.73837
30	;	3300	;	255.59909
30	;	3400	;	252.4598
30	;	3500	;	249.32052
30	;	3600	;	246.18124
30	;	3700	;	243.04195
30	;	3800	;	239.90267
30	;	3900	;	236.76338
30	;	4000	;	233.6241
35	;	0	;	358.13727
35	;	100	;	354.5195
35	;	200	;	350.90174
35	;	300	;	347.28397
35	;	400	;	343.6662
35	;	500	;	340.04844
35	;	600	;	336.43067
35	;	700	;	332.8129
35	;	800	;	329.19513
35	;	900	;	325.57737
35	;	1000	;	321.9596
35	;	1100	;	318.39081
35	;	1200	;	314.82201
35	;	1300	;	311.25322
35	;	1400	;	307.68443
35	;	1500	;	304.11564
35	;	1600	;	300.54684
35	;	1700	;	296.97805
35	;	1800	;	293.40926
35	;	1900	;	289.84046
35	;	2000	;	286.27167
35	;	2100	;	282.83454
35	;	2200	;	279.39741
35	;	2300	;	275.96027
35	;	2400	;	272.52314
35	;	2500	;	269.08601
35	;	2600	;	265.64888
35	;	2700	;	262.21175
35	;	2800	;	258.77461
35	;	2900	;	255.33748
35	;	3000	;	251.90035
35	;	3100	;	248.94395
35	;	3200	;	245.98754
35	;	3300	;	243.03114
35	;	3400	;	240.07473
35	;	3500	;	237.11833
35	;	3600	;	234.16192
35	;	3700	;	231.20552
35	;	3800	;	228.24911
35	;	3900	;	225.29271
35	;	4000	;	222.3363
40	;	0	;	341.33571
40	;	100	;	337.99503
40	;	200	;	334.65434
40	;	300	;	331.31366
40	;	400	;	327.97297
40	;	500	;	324.63229
40	;	600	;	321.29161
40	;	700	;	317.95092
40	;	800	;	314.61024
40	;	900	;	311.26955
40	;	1000	;	307.92887
40	;	1100	;	304.38748
40	;	1200	;	300.84608
40	;	1300	;	297.30469
40	;	1400	;	293.76329
40	;	1500	;	290.2219
40	;	1600	;	286.6805
40	;	1700	;	283.13911
40	;	1800	;	279.59771
40	;	1900	;	276.05632
40	;	2000	;	272.51492
40	;	2100	;	269.1418
40	;	2200	;	265.76869
40	;	2300	;	262.39557
40	;	2400	;	259.02245
40	;	2500	;	255.64934
40	;	2600	;	252.27622
40	;	2700	;	248.9031
40	;	2800	;	245.52998
40	;	2900	;	242.15687
40	;	3000	;	238.78375
40	;	3100	;	236.01023
40	;	3200	;	233.2367
40	;	3300	;	230.46318
40	;	3400	;	227.68965
40	;	3500	;	224.91613
40	;	3600	;	222.14261
40	;	3700	;	219.36908
40	;	3800	;	216.59556
40	;	3900	;	213.82203
40	;	4000	;	211.04851
45	;	0	;	324.53416
45	;	100	;	321.47056
45	;	200	;	318.40696
45	;	300	;	315.34336
45	;	400	;	312.27976
45	;	500	;	309.21616
45	;	600	;	306.15255
45	;	700	;	303.08895
45	;	800	;	300.02535
45	;	900	;	296.96175
45	;	1000	;	293.89815
45	;	1100	;	290.38415
45	;	1200	;	286.87016
45	;	1300	;	283.35616
45	;	1400	;	279.84216
45	;	1500	;	276.32817
45	;	1600	;	272.81417
45	;	1700	;	269.30017
45	;	1800	;	265.78617
45	;	1900	;	262.27218
45	;	2000	;	258.75818
45	;	2100	;	255.44908
45	;	2200	;	252.13998
45	;	2300	;	248.83087
45	;	2400	;	245.52177
45	;	2500	;	242.21267
45	;	2600	;	238.90357
45	;	2700	;	235.59447
45	;	2800	;	232.28536
45	;	2900	;	228.97626
45	;	3000	;	225.66716
45	;	3100	;	223.07652
45	;	3200	;	220.48587
45	;	3300	;	217.89523
45	;	3400	;	215.30458
45	;	3500	;	212.71394
45	;	3600	;	210.12329
45	;	3700	;	207.53265
45	;	3800	;	204.942
45	;	3900	;	202.35136
45	;	4000	;	199.76071
