95	;	0	;	-4.865
95	;	100	;	95.135
95	;	200	;	184.13241
95	;	300	;	265.19913
95	;	400	;	345.11243
95	;	500	;	435.89017
95	;	600	;	513.66795
95	;	700	;	582.78895
95	;	800	;	643.01796
95	;	900	;	694.66252
95	;	1000	;	741.44894
95	;	1100	;	781.44894
95	;	1200	;	824.27134
95	;	1300	;	876.65229
95	;	1400	;	928.59355
95	;	1500	;	978.59355
95	;	1600	;	1029.16184
95	;	1700	;	1081.54279
95	;	1800	;	1132.12631
95	;	1900	;	1175.30812
95	;	2000	;	1218.54498
95	;	2100	;	1262.73103
95	;	2200	;	1306.91708
95	;	2300	;	1352.68923
95	;	2400	;	1398.52256
95	;	2500	;	1443.32194
95	;	2600	;	1487.50798
95	;	2700	;	1541.50541
95	;	2800	;	1604.00542
95	;	2900	;	1642.45387
95	;	3000	;	1680.3849
95	;	3100	;	1719.68965
95	;	3200	;	1766.35631
95	;	3300	;	1813.02298
95	;	3400	;	1882.63516
95	;	3500	;	1935.86867
95	;	3600	;	1980.05472
95	;	3700	;	2040.11972
95	;	3800	;	2110.10599
95	;	3900	;	2166.51625
95	;	4000	;	3614.6452
95	;	4100	;	3793.506
95	;	4200	;	3893.506
95	;	4300	;	3993.506
95	;	4400	;	4093.506
95	;	4500	;	4193.506
95	;	4600	;	4293.506
95	;	4700	;	4393.506
95	;	4800	;	4493.506
95	;	4900	;	4593.506
95	;	5000	;	4693.506
95	;	5100	;	4793.506
95	;	5200	;	4893.506
95	;	5300	;	4993.506
95	;	5400	;	5093.506
95	;	5500	;	5193.506
95	;	5600	;	5293.506
95	;	5700	;	5393.506
95	;	5800	;	5493.506
95	;	5900	;	5593.506
95	;	6000	;	5693.506
97.5	;	0	;	-4.865
97.5	;	100	;	95.135
97.5	;	200	;	187.93932
97.5	;	300	;	271.0721
97.5	;	400	;	352.52525
97.5	;	500	;	444.27749
97.5	;	600	;	526.15258
97.5	;	700	;	595.78617
97.5	;	800	;	656.31651
97.5	;	900	;	711.90765
97.5	;	1000	;	758.40927
97.5	;	1100	;	802.17726
97.5	;	1200	;	856.06527
97.5	;	1300	;	913.00996
97.5	;	1400	;	969.1571
97.5	;	1500	;	1025.83441
97.5	;	1600	;	1086.01553
97.5	;	1700	;	1142.41565
97.5	;	1800	;	1192.48713
97.5	;	1900	;	1239.83263
97.5	;	2000	;	1284.74076
97.5	;	2100	;	1335.05308
97.5	;	2200	;	1391.46821
97.5	;	2300	;	1442.14145
97.5	;	2400	;	1488.5265
97.5	;	2500	;	1548.78267
97.5	;	2600	;	1615.45285
97.5	;	2700	;	1667.16968
97.5	;	2800	;	1718.8812
97.5	;	2900	;	1770.55601
97.5	;	3000	;	1824.51945
97.5	;	3100	;	1891.52308
97.5	;	3200	;	1949.1375
97.5	;	3300	;	2005.14376
97.5	;	3400	;	2074.37991
97.5	;	3500	;	2142.59212
97.5	;	3600	;	2209.71321
97.5	;	3700	;	2258.7033
97.5	;	3800	;	2308.27446
97.5	;	3900	;	2372.9485
97.5	;	4000	;	3614.6452
97.5	;	4100	;	3793.506
97.5	;	4200	;	3893.506
97.5	;	4300	;	3993.506
97.5	;	4400	;	4093.506
97.5	;	4500	;	4193.506
97.5	;	4600	;	4293.506
97.5	;	4700	;	4393.506
97.5	;	4800	;	4493.506
97.5	;	4900	;	4593.506
97.5	;	5000	;	4693.506
97.5	;	5100	;	4793.506
97.5	;	5200	;	4893.506
97.5	;	5300	;	4993.506
97.5	;	5400	;	5093.506
97.5	;	5500	;	5193.506
97.5	;	5600	;	5293.506
97.5	;	5700	;	5393.506
97.5	;	5800	;	5493.506
97.5	;	5900	;	5593.506
97.5	;	6000	;	5693.506
100	;	0	;	-1.637
100	;	100	;	98.363
100	;	200	;	193.84501
100	;	300	;	277.50296
100	;	400	;	361.56126
100	;	500	;	455.81443
100	;	600	;	539.71137
100	;	700	;	610.31557
100	;	800	;	672.88562
100	;	900	;	731.85483
100	;	1000	;	779.82366
100	;	1100	;	832.70322
100	;	1200	;	895.90681
100	;	1300	;	959.12099
100	;	1400	;	1022.92632
100	;	1500	;	1092.65471
100	;	1600	;	1157.54761
100	;	1700	;	1217.98464
100	;	1800	;	1264.54786
100	;	1900	;	1312.32083
100	;	2000	;	1380.94841
100	;	2100	;	1440.75371
100	;	2200	;	1491.56783
100	;	2300	;	1559.64927
100	;	2400	;	1628.73743
100	;	2500	;	1687.01376
100	;	2600	;	1747.26047
100	;	2700	;	1809.02285
100	;	2800	;	1876.56091
100	;	2900	;	1936.26661
100	;	3000	;	1989.20655
100	;	3100	;	2062.81724
100	;	3200	;	2136.5328
100	;	3300	;	2205.56218
100	;	3400	;	2260.48128
100	;	3500	;	2321.26891
100	;	3600	;	2414.57546
100	;	3700	;	2478.43955
100	;	3800	;	2555.12099
100	;	3900	;	2755.05726
100	;	4000	;	3614.6452
100	;	4100	;	3793.506
100	;	4200	;	3893.506
100	;	4300	;	3993.506
100	;	4400	;	4093.506
100	;	4500	;	4193.506
100	;	4600	;	4293.506
100	;	4700	;	4393.506
100	;	4800	;	4493.506
100	;	4900	;	4593.506
100	;	5000	;	4693.506
100	;	5100	;	4793.506
100	;	5200	;	4893.506
100	;	5300	;	4993.506
100	;	5400	;	5093.506
100	;	5500	;	5193.506
100	;	5600	;	5293.506
100	;	5700	;	5393.506
100	;	5800	;	5493.506
100	;	5900	;	5593.506
100	;	6000	;	5693.506
102.5	;	0	;	1.667
102.5	;	100	;	101.667
102.5	;	200	;	200.35116
102.5	;	300	;	283.92078
102.5	;	400	;	371.48929
102.5	;	500	;	466.93777
102.5	;	600	;	550.0324
102.5	;	700	;	625.47667
102.5	;	800	;	689.28658
102.5	;	900	;	748.23358
102.5	;	1000	;	801.09257
102.5	;	1100	;	867.62978
102.5	;	1200	;	937.88274
102.5	;	1300	;	1008.19887
102.5	;	1400	;	1082.33942
102.5	;	1500	;	1154.01889
102.5	;	1600	;	1220.65396
102.5	;	1700	;	1273.10939
102.5	;	1800	;	1333.52069
102.5	;	1900	;	1410.51511
102.5	;	2000	;	1469.24795
102.5	;	2100	;	1532.83745
102.5	;	2200	;	1609.17259
102.5	;	2300	;	1685.22454
102.5	;	2400	;	1752.50919
102.5	;	2500	;	1814.99733
102.5	;	2600	;	1887.0749
102.5	;	2700	;	1953.39603
102.5	;	2800	;	2022.30934
102.5	;	2900	;	2103.29191
102.5	;	3000	;	2181.70162
102.5	;	3100	;	2246.16427
102.5	;	3200	;	2303.35273
102.5	;	3300	;	2393.54541
102.5	;	3400	;	2484.54101
102.5	;	3500	;	2565.77696
102.5	;	3600	;	2634.4955
102.5	;	3700	;	2689.03748
102.5	;	3800	;	2749.63282
102.5	;	3900	;	2832.27639
102.5	;	4000	;	3614.6452
102.5	;	4100	;	3793.506
102.5	;	4200	;	3893.506
102.5	;	4300	;	3993.506
102.5	;	4400	;	4093.506
102.5	;	4500	;	4193.506
102.5	;	4600	;	4293.506
102.5	;	4700	;	4393.506
102.5	;	4800	;	4493.506
102.5	;	4900	;	4593.506
102.5	;	5000	;	4693.506
102.5	;	5100	;	4793.506
102.5	;	5200	;	4893.506
102.5	;	5300	;	4993.506
102.5	;	5400	;	5093.506
102.5	;	5500	;	5193.506
102.5	;	5600	;	5293.506
102.5	;	5700	;	5393.506
102.5	;	5800	;	5493.506
102.5	;	5900	;	5593.506
102.5	;	6000	;	5693.506
105	;	0	;	4.827
105	;	100	;	104.827
105	;	200	;	201.28719
105	;	300	;	288.41388
105	;	400	;	383.01541
105	;	500	;	477.83799
105	;	600	;	560.36924
105	;	700	;	636.17871
105	;	800	;	706.47099
105	;	900	;	768.10627
105	;	1000	;	831.65265
105	;	1100	;	910.45476
105	;	1200	;	989.76431
105	;	1300	;	1069.35496
105	;	1400	;	1148.25852
105	;	1500	;	1223.29349
105	;	1600	;	1282.62057
105	;	1700	;	1358.16468
105	;	1800	;	1438.57609
105	;	1900	;	1504.53722
105	;	2000	;	1579.83412
105	;	2100	;	1659.17998
105	;	2200	;	1738.24956
105	;	2300	;	1813.39617
105	;	2400	;	1895.06896
105	;	2500	;	1960.1687
105	;	2600	;	2031.26186
105	;	2700	;	2117.9569
105	;	2800	;	2207.24018
105	;	2900	;	2274.65859
105	;	3000	;	2359.35443
105	;	3100	;	2448.2508
105	;	3200	;	2530.37405
105	;	3300	;	2622.33719
105	;	3400	;	2676.88868
105	;	3500	;	2745.28263
105	;	3600	;	2819.9983
105	;	3700	;	2880.75758
105	;	3800	;	2962.3388
105	;	3900	;	3041.44636
105	;	4000	;	3614.6452
105	;	4100	;	3793.506
105	;	4200	;	3893.506
105	;	4300	;	3993.506
105	;	4400	;	4093.506
105	;	4500	;	4193.506
105	;	4600	;	4293.506
105	;	4700	;	4393.506
105	;	4800	;	4493.506
105	;	4900	;	4593.506
105	;	5000	;	4693.506
105	;	5100	;	4793.506
105	;	5200	;	4893.506
105	;	5300	;	4993.506
105	;	5400	;	5093.506
105	;	5500	;	5193.506
105	;	5600	;	5293.506
105	;	5700	;	5393.506
105	;	5800	;	5493.506
105	;	5900	;	5593.506
105	;	6000	;	5693.506
107.5	;	0	;	3.629
107.5	;	100	;	103.629
107.5	;	200	;	200.97866
107.5	;	300	;	293.66646
107.5	;	400	;	390.23608
107.5	;	500	;	485.42041
107.5	;	600	;	570.9086
107.5	;	700	;	649.02835
107.5	;	800	;	726.18782
107.5	;	900	;	790.00397
107.5	;	1000	;	866.40842
107.5	;	1100	;	949.52862
107.5	;	1200	;	1033.41568
107.5	;	1300	;	1120.97438
107.5	;	1400	;	1207.57506
107.5	;	1500	;	1276.79678
107.5	;	1600	;	1356.49913
107.5	;	1700	;	1441.78691
107.5	;	1800	;	1517.16653
107.5	;	1900	;	1594.81584
107.5	;	2000	;	1680.3346
107.5	;	2100	;	1775.94373
107.5	;	2200	;	1858.08772
107.5	;	2300	;	1930.52468
107.5	;	2400	;	2007.80957
107.5	;	2500	;	2091.13474
107.5	;	2600	;	2180.7221
107.5	;	2700	;	2259.27269
107.5	;	2800	;	2348.59993
107.5	;	2900	;	2447.64186
107.5	;	3000	;	2534.0345
107.5	;	3100	;	2633.88366
107.5	;	3200	;	2700.70084
107.5	;	3300	;	2774.19432
107.5	;	3400	;	2855.14827
107.5	;	3500	;	2940.23252
107.5	;	3600	;	3019.06844
107.5	;	3700	;	3086.92823
107.5	;	3800	;	3173.24524
107.5	;	3900	;	3255.99382
107.5	;	4000	;	3614.6452
107.5	;	4100	;	3793.506
107.5	;	4200	;	3893.506
107.5	;	4300	;	3993.506
107.5	;	4400	;	4093.506
107.5	;	4500	;	4193.506
107.5	;	4600	;	4293.506
107.5	;	4700	;	4393.506
107.5	;	4800	;	4493.506
107.5	;	4900	;	4593.506
107.5	;	5000	;	4693.506
107.5	;	5100	;	4793.506
107.5	;	5200	;	4893.506
107.5	;	5300	;	4993.506
107.5	;	5400	;	5093.506
107.5	;	5500	;	5193.506
107.5	;	5600	;	5293.506
107.5	;	5700	;	5393.506
107.5	;	5800	;	5493.506
107.5	;	5900	;	5593.506
107.5	;	6000	;	5693.506
110	;	0	;	2.431
110	;	100	;	102.431
110	;	200	;	200.66306
110	;	300	;	299.92911
110	;	400	;	396.76289
110	;	500	;	490.56631
110	;	600	;	579.11797
110	;	700	;	664.65541
110	;	800	;	746.12612
110	;	900	;	817.18806
110	;	1000	;	905.26398
110	;	1100	;	992.45805
110	;	1200	;	1086.5902
110	;	1300	;	1184.49981
110	;	1400	;	1269.07523
110	;	1500	;	1354.59464
110	;	1600	;	1445.25228
110	;	1700	;	1529.63789
110	;	1800	;	1611.13755
110	;	1900	;	1704.61395
110	;	2000	;	1798.15829
110	;	2100	;	1885.84327
110	;	2200	;	1964.49415
110	;	2300	;	2055.16987
110	;	2400	;	2151.98476
110	;	2500	;	2239.74851
110	;	2600	;	2324.29938
110	;	2700	;	2422.68038
110	;	2800	;	2519.73126
110	;	2900	;	2617.90072
110	;	3000	;	2693.02719
110	;	3100	;	2783.3588
110	;	3200	;	2871.03472
110	;	3300	;	2955.91723
110	;	3400	;	3037.86411
110	;	3500	;	3121.95522
110	;	3600	;	3213.70186
110	;	3700	;	3293.0875
110	;	3800	;	3378.64936
110	;	3900	;	3459.71699
110	;	4000	;	3614.6452
110	;	4100	;	3793.506
110	;	4200	;	3893.506
110	;	4300	;	3993.506
110	;	4400	;	4093.506
110	;	4500	;	4193.506
110	;	4600	;	4293.506
110	;	4700	;	4393.506
110	;	4800	;	4493.506
110	;	4900	;	4593.506
110	;	5000	;	4693.506
110	;	5100	;	4793.506
110	;	5200	;	4893.506
110	;	5300	;	4993.506
110	;	5400	;	5093.506
110	;	5500	;	5193.506
110	;	5600	;	5293.506
110	;	5700	;	5393.506
110	;	5800	;	5493.506
110	;	5900	;	5593.506
110	;	6000	;	5693.506
112.5	;	0	;	1.233
112.5	;	100	;	101.233
112.5	;	200	;	200.34016
112.5	;	300	;	300
112.5	;	400	;	399.82464
112.5	;	500	;	495.86983
112.5	;	600	;	588.73435
112.5	;	700	;	681.12316
112.5	;	800	;	768.29758
112.5	;	900	;	856.08345
112.5	;	1000	;	949.68432
112.5	;	1100	;	1044.01334
112.5	;	1200	;	1143.24085
112.5	;	1300	;	1240.00236
112.5	;	1400	;	1329.49865
112.5	;	1500	;	1424.26942
112.5	;	1600	;	1517.10171
112.5	;	1700	;	1606.62602
112.5	;	1800	;	1704.47271
112.5	;	1900	;	1799.16163
112.5	;	2000	;	1892.14902
112.5	;	2100	;	1980.58739
112.5	;	2200	;	2080.27183
112.5	;	2300	;	2176.51088
112.5	;	2400	;	2267.89265
112.5	;	2500	;	2363.16549
112.5	;	2600	;	2461.9457
112.5	;	2700	;	2561.17883
112.5	;	2800	;	2654.3025
112.5	;	2900	;	2751.42309
112.5	;	3000	;	2847.2906
112.5	;	3100	;	2931.83586
112.5	;	3200	;	3027.29358
112.5	;	3300	;	3125.79925
112.5	;	3400	;	3212.86017
112.5	;	3500	;	3320.71775
112.5	;	3600	;	3411.41888
112.5	;	3700	;	3497.36679
112.5	;	3800	;	3585.2706
112.5	;	3900	;	3692.7477
112.5	;	4000	;	3817.86456
112.5	;	4100	;	3992.971
112.5	;	4200	;	4092.971
112.5	;	4300	;	4192.971
112.5	;	4400	;	4292.971
112.5	;	4500	;	4392.971
112.5	;	4600	;	4492.971
112.5	;	4700	;	4592.971
112.5	;	4800	;	4692.971
112.5	;	4900	;	4792.971
112.5	;	5000	;	4892.971
112.5	;	5100	;	4992.971
112.5	;	5200	;	5092.971
112.5	;	5300	;	5192.971
112.5	;	5400	;	5292.971
112.5	;	5500	;	5392.971
112.5	;	5600	;	5492.971
112.5	;	5700	;	5592.971
112.5	;	5800	;	5692.971
112.5	;	5900	;	5792.971
112.5	;	6000	;	5892.971
115	;	0	;	0.035
115	;	100	;	100.035
115	;	200	;	200.00968
115	;	300	;	300
115	;	400	;	400
115	;	500	;	499.87945
115	;	600	;	599.95248
115	;	700	;	699.91286
115	;	800	;	799.80152
115	;	900	;	899.96151
115	;	1000	;	999.76254
115	;	1100	;	1099.93623
115	;	1200	;	1200
115	;	1300	;	1300
115	;	1400	;	1399.67029
115	;	1500	;	1499.96625
115	;	1600	;	1600
115	;	1700	;	1700
115	;	1800	;	1799.55212
115	;	1900	;	1899.44082
115	;	2000	;	2000
115	;	2100	;	2100
115	;	2200	;	2200
115	;	2300	;	2300
115	;	2400	;	2400
115	;	2500	;	2500
115	;	2600	;	2600
115	;	2700	;	2700
115	;	2800	;	2800
115	;	2900	;	2900
115	;	3000	;	3000
115	;	3100	;	3100
115	;	3200	;	3199.96604
115	;	3300	;	3299.08586
115	;	3400	;	3399.03753
115	;	3500	;	3500
115	;	3600	;	3600
115	;	3700	;	3700
115	;	3800	;	3800
115	;	3900	;	3900
115	;	4000	;	4000
115	;	4100	;	4100
115	;	4200	;	4200
115	;	4300	;	4300
115	;	4400	;	4400
115	;	4500	;	4500
115	;	4600	;	4600
115	;	4700	;	4700
115	;	4800	;	4800
115	;	4900	;	4900
115	;	5000	;	5000
115	;	5100	;	5100
115	;	5200	;	5200
115	;	5300	;	5300
115	;	5400	;	5400
115	;	5500	;	5500
115	;	5600	;	5600
115	;	5700	;	5700
115	;	5800	;	5800
115	;	5900	;	5900
115	;	6000	;	6000
117.5	;	0	;	0
117.5	;	100	;	100
117.5	;	200	;	200
117.5	;	300	;	300
117.5	;	400	;	400
117.5	;	500	;	500
117.5	;	600	;	600
117.5	;	700	;	700
117.5	;	800	;	800
117.5	;	900	;	900
117.5	;	1000	;	1000
117.5	;	1100	;	1100
117.5	;	1200	;	1200
117.5	;	1300	;	1300
117.5	;	1400	;	1400
117.5	;	1500	;	1500
117.5	;	1600	;	1600
117.5	;	1700	;	1700
117.5	;	1800	;	1800
117.5	;	1900	;	1900
117.5	;	2000	;	2000
117.5	;	2100	;	2100
117.5	;	2200	;	2200
117.5	;	2300	;	2300
117.5	;	2400	;	2400
117.5	;	2500	;	2500
117.5	;	2600	;	2600
117.5	;	2700	;	2700
117.5	;	2800	;	2800
117.5	;	2900	;	2900
117.5	;	3000	;	3000
117.5	;	3100	;	3100
117.5	;	3200	;	3200
117.5	;	3300	;	3300
117.5	;	3400	;	3400
117.5	;	3500	;	3500
117.5	;	3600	;	3600
117.5	;	3700	;	3700
117.5	;	3800	;	3800
117.5	;	3900	;	3900
117.5	;	4000	;	4000
117.5	;	4100	;	4100
117.5	;	4200	;	4200
117.5	;	4300	;	4300
117.5	;	4400	;	4400
117.5	;	4500	;	4500
117.5	;	4600	;	4600
117.5	;	4700	;	4700
117.5	;	4800	;	4800
117.5	;	4900	;	4900
117.5	;	5000	;	5000
117.5	;	5100	;	5100
117.5	;	5200	;	5200
117.5	;	5300	;	5300
117.5	;	5400	;	5400
117.5	;	5500	;	5500
117.5	;	5600	;	5600
117.5	;	5700	;	5700
117.5	;	5800	;	5800
117.5	;	5900	;	5900
117.5	;	6000	;	6000
120	;	0	;	0
120	;	100	;	100
120	;	200	;	200
120	;	300	;	300
120	;	400	;	400
120	;	500	;	500
120	;	600	;	600
120	;	700	;	700
120	;	800	;	800
120	;	900	;	900
120	;	1000	;	1000
120	;	1100	;	1100
120	;	1200	;	1200
120	;	1300	;	1300
120	;	1400	;	1400
120	;	1500	;	1500
120	;	1600	;	1600
120	;	1700	;	1700
120	;	1800	;	1800
120	;	1900	;	1900
120	;	2000	;	2000
120	;	2100	;	2100
120	;	2200	;	2200
120	;	2300	;	2300
120	;	2400	;	2400
120	;	2500	;	2500
120	;	2600	;	2600
120	;	2700	;	2700
120	;	2800	;	2800
120	;	2900	;	2900
120	;	3000	;	3000
120	;	3100	;	3100
120	;	3200	;	3200
120	;	3300	;	3300
120	;	3400	;	3400
120	;	3500	;	3500
120	;	3600	;	3600
120	;	3700	;	3700
120	;	3800	;	3800
120	;	3900	;	3900
120	;	4000	;	4000
120	;	4100	;	4100
120	;	4200	;	4200
120	;	4300	;	4300
120	;	4400	;	4400
120	;	4500	;	4500
120	;	4600	;	4600
120	;	4700	;	4700
120	;	4800	;	4800
120	;	4900	;	4900
120	;	5000	;	5000
120	;	5100	;	5100
120	;	5200	;	5200
120	;	5300	;	5300
120	;	5400	;	5400
120	;	5500	;	5500
120	;	5600	;	5600
120	;	5700	;	5700
120	;	5800	;	5800
120	;	5900	;	5900
120	;	6000	;	6000
