-2	;	0	;	-5.724
-2	;	100	;	94.276
-2	;	200	;	194.276
-2	;	300	;	294.276
-2	;	400	;	394.276
-2	;	500	;	494.276
-2	;	600	;	568.995
-2	;	700	;	652.808
-2	;	800	;	752.116
-2	;	900	;	845.444
-2	;	1000	;	929.471
-2	;	1100	;	1012.622
-2	;	1200	;	1107.851
-2	;	1300	;	1192.675
-2	;	1400	;	1285.671
-2	;	1500	;	1388.728
-2	;	1600	;	1480.268
-2	;	1700	;	1557.476
-2	;	1800	;	1650.49
-2	;	1900	;	1758.94
-2	;	2000	;	1829.845
-2	;	2100	;	1891.844
-2	;	2200	;	1973.109
-2	;	2300	;	2068.646
-2	;	2400	;	2153.949
-2	;	2500	;	2242.533
-2	;	2600	;	2318.682
-2	;	2700	;	2380.849
-2	;	2800	;	2468.726
-2	;	2900	;	2551.764
-2	;	3000	;	2617.295
-2	;	3100	;	2681.502
-2	;	3200	;	2760.893
-2	;	3300	;	2839.993
-2	;	3400	;	2918.574
-2	;	3500	;	2990.902
-2	;	3600	;	3046.816
-2	;	3700	;	3132.396
-2	;	3800	;	3177.611
-2	;	3900	;	3232.143
-2	;	4000	;	3303.909
-1.5	;	0	;	-4.368
-1.5	;	100	;	95.632
-1.5	;	200	;	195.632
-1.5	;	300	;	295.632
-1.5	;	400	;	395.632
-1.5	;	500	;	495.632
-1.5	;	600	;	576.725
-1.5	;	700	;	664.606
-1.5	;	800	;	764.087
-1.5	;	900	;	858.832
-1.5	;	1000	;	946.196
-1.5	;	1100	;	1034.194
-1.5	;	1200	;	1130.888
-1.5	;	1300	;	1219.266
-1.5	;	1400	;	1313.953
-1.5	;	1500	;	1416.509
-1.5	;	1600	;	1509.94
-1.5	;	1700	;	1589.299
-1.5	;	1800	;	1682.181
-1.5	;	1900	;	1787.744
-1.5	;	2000	;	1867.063
-1.5	;	2100	;	1937.619
-1.5	;	2200	;	2025.438
-1.5	;	2300	;	2121.423
-1.5	;	2400	;	2207.806
-1.5	;	2500	;	2299.203
-1.5	;	2600	;	2382.389
-1.5	;	2700	;	2456.25
-1.5	;	2800	;	2545.253
-1.5	;	2900	;	2626.274
-1.5	;	3000	;	2698.612
-1.5	;	3100	;	2778.352
-1.5	;	3200	;	2858.917
-1.5	;	3300	;	2949.656
-1.5	;	3400	;	3024.706
-1.5	;	3500	;	3105.9
-1.5	;	3600	;	3176.213
-1.5	;	3700	;	3264.281
-1.5	;	3800	;	3317.235
-1.5	;	3900	;	3374.8
-1.5	;	4000	;	3461.698
-1	;	0	;	-3.012
-1	;	100	;	96.988
-1	;	200	;	196.988
-1	;	300	;	296.988
-1	;	400	;	396.988
-1	;	500	;	496.988
-1	;	600	;	584.456
-1	;	700	;	676.404
-1	;	800	;	776.058
-1	;	900	;	872.221
-1	;	1000	;	962.922
-1	;	1100	;	1055.765
-1	;	1200	;	1153.925
-1	;	1300	;	1245.856
-1	;	1400	;	1342.234
-1	;	1500	;	1444.29
-1	;	1600	;	1539.612
-1	;	1700	;	1621.122
-1	;	1800	;	1713.872
-1	;	1900	;	1816.549
-1	;	2000	;	1904.281
-1	;	2100	;	1983.394
-1	;	2200	;	2077.768
-1	;	2300	;	2174.199
-1	;	2400	;	2261.662
-1	;	2500	;	2355.874
-1	;	2600	;	2446.097
-1	;	2700	;	2531.651
-1	;	2800	;	2621.781
-1	;	2900	;	2700.784
-1	;	3000	;	2785.729
-1	;	3100	;	2875.862
-1	;	3200	;	2959.821
-1	;	3300	;	3059.318
-1	;	3400	;	3130.839
-1	;	3500	;	3220.897
-1	;	3600	;	3305.609
-1	;	3700	;	3396.166
-1	;	3800	;	3456.861
-1	;	3900	;	3525.149
-1	;	4000	;	3619.486
-0.5	;	0	;	-1.656
-0.5	;	100	;	98.344
-0.5	;	200	;	198.344
-0.5	;	300	;	298.344
-0.5	;	400	;	398.344
-0.5	;	500	;	498.344
-0.5	;	600	;	592.186
-0.5	;	700	;	688.202
-0.5	;	800	;	788.029
-0.5	;	900	;	885.61
-0.5	;	1000	;	979.647
-0.5	;	1100	;	1077.337
-0.5	;	1200	;	1176.963
-0.5	;	1300	;	1272.447
-0.5	;	1400	;	1370.516
-0.5	;	1500	;	1472.071
-0.5	;	1600	;	1569.285
-0.5	;	1700	;	1653.154
-0.5	;	1800	;	1745.583
-0.5	;	1900	;	1857.445
-0.5	;	2000	;	1947.688
-0.5	;	2100	;	2036.322
-0.5	;	2200	;	2131.119
-0.5	;	2300	;	2235.993
-0.5	;	2400	;	2330.16
-0.5	;	2500	;	2425.845
-0.5	;	2600	;	2515.147
-0.5	;	2700	;	2607.75
-0.5	;	2800	;	2710.04
-0.5	;	2900	;	2798.734
-0.5	;	3000	;	2888.664
-0.5	;	3100	;	2985.298
-0.5	;	3200	;	3078.428
-0.5	;	3300	;	3175.765
-0.5	;	3400	;	3256.875
-0.5	;	3500	;	3359.434
-0.5	;	3600	;	3452.01
-0.5	;	3700	;	3542.079
-0.5	;	3800	;	3617.123
-0.5	;	3900	;	3694.314
-0.5	;	4000	;	3794.352
0	;	0	;	0
0	;	100	;	100
0	;	200	;	200
0	;	300	;	300
0	;	400	;	400
0	;	500	;	500
0	;	600	;	600
0	;	700	;	700
0	;	800	;	800
0	;	900	;	900
0	;	1000	;	1000
0	;	1100	;	1100
0	;	1200	;	1200
0	;	1300	;	1300
0	;	1400	;	1400
0	;	1500	;	1500
0	;	1600	;	1600
0	;	1700	;	1700
0	;	1800	;	1800
0	;	1900	;	1900
0	;	2000	;	2000
0	;	2100	;	2100
0	;	2200	;	2200
0	;	2300	;	2300
0	;	2400	;	2400
0	;	2500	;	2500
0	;	2600	;	2600
0	;	2700	;	2700
0	;	2800	;	2800
0	;	2900	;	2900
0	;	3000	;	3000
0	;	3100	;	3100
0	;	3200	;	3200
0	;	3300	;	3300
0	;	3400	;	3400
0	;	3500	;	3500
0	;	3600	;	3600
0	;	3700	;	3700
0	;	3800	;	3800
0	;	3900	;	3900
0	;	4000	;	4000
0.5	;	0	;	6.685
0.5	;	100	;	106.685
0.5	;	200	;	206.685
0.5	;	300	;	306.685
0.5	;	400	;	406.685
0.5	;	500	;	506.685
0.5	;	600	;	610.404
0.5	;	700	;	716.42
0.5	;	800	;	820.631
0.5	;	900	;	921.923
0.5	;	1000	;	1027.223
0.5	;	1100	;	1132.912
0.5	;	1200	;	1238.367
0.5	;	1300	;	1345.797
0.5	;	1400	;	1449.623
0.5	;	1500	;	1552.422
0.5	;	1600	;	1650.049
0.5	;	1700	;	1750.092
0.5	;	1800	;	1855.352
0.5	;	1900	;	1968.543
0.5	;	2000	;	2055.447
0.5	;	2100	;	2163.678
0.5	;	2200	;	2275.613
0.5	;	2300	;	2380.627
0.5	;	2400	;	2491.024
0.5	;	2500	;	2585.054
0.5	;	2600	;	2686.632
0.5	;	2700	;	2799.136
0.5	;	2800	;	2913.397
0.5	;	2900	;	3022.669
0.5	;	3000	;	3123.618
0.5	;	3100	;	3231.775
0.5	;	3200	;	3344.405
0.5	;	3300	;	3458.117
0.5	;	3400	;	3544.886
0.5	;	3500	;	3671.705
0.5	;	3600	;	3790.037
0.5	;	3700	;	3903.341
0.5	;	3800	;	4000
0.5	;	3900	;	4000
0.5	;	4000	;	4000
1	;	0	;	13.369
1	;	100	;	113.369
1	;	200	;	213.369
1	;	300	;	313.369
1	;	400	;	413.369
1	;	500	;	513.369
1	;	600	;	624.09
1	;	700	;	736.104
1	;	800	;	842.355
1	;	900	;	944.002
1	;	1000	;	1054.446
1	;	1100	;	1168.319
1	;	1200	;	1280.018
1	;	1300	;	1392.025
1	;	1400	;	1499.246
1	;	1500	;	1606.159
1	;	1600	;	1700.21
1	;	1700	;	1800.983
1	;	1800	;	1913.412
1	;	1900	;	2038.224
1	;	2000	;	2128.393
1	;	2100	;	2234.281
1	;	2200	;	2351.768
1	;	2300	;	2465.816
1	;	2400	;	2588.21
1	;	2500	;	2685.269
1	;	2600	;	2807.092
1	;	2700	;	2906.462
1	;	2800	;	3028.495
1	;	2900	;	3145.419
1	;	3000	;	3264.018
1	;	3100	;	3382.001
1	;	3200	;	3501.209
1	;	3300	;	3629.181
1	;	3400	;	3715.353
1	;	3500	;	3875.126
1	;	3600	;	3984.498
1	;	3700	;	4000
1	;	3800	;	4000
1	;	3900	;	4000
1	;	4000	;	4000
1.5	;	0	;	20.053
1.5	;	100	;	120.053
1.5	;	200	;	220.053
1.5	;	300	;	320.053
1.5	;	400	;	420.053
1.5	;	500	;	520.053
1.5	;	600	;	637.777
1.5	;	700	;	755.789
1.5	;	800	;	864.08
1.5	;	900	;	966.081
1.5	;	1000	;	1081.669
1.5	;	1100	;	1203.725
1.5	;	1200	;	1321.668
1.5	;	1300	;	1438.253
1.5	;	1400	;	1548.869
1.5	;	1500	;	1659.895
1.5	;	1600	;	1770.223
1.5	;	1700	;	1883.104
1.5	;	1800	;	2002.741
1.5	;	1900	;	2126.934
1.5	;	2000	;	2209.878
1.5	;	2100	;	2341.561
1.5	;	2200	;	2462.425
1.5	;	2300	;	2582.173
1.5	;	2400	;	2707.616
1.5	;	2500	;	2811.354
1.5	;	2600	;	2946.557
1.5	;	2700	;	3054.034
1.5	;	2800	;	3192.779
1.5	;	2900	;	3324.688
1.5	;	3000	;	3423.478
1.5	;	3100	;	3550.65
1.5	;	3200	;	3705.408
1.5	;	3300	;	3836.595
1.5	;	3400	;	3956.381
1.5	;	3500	;	4000
1.5	;	3600	;	4000
1.5	;	3700	;	4000
1.5	;	3800	;	4000
1.5	;	3900	;	4000
1.5	;	4000	;	4000
2	;	0	;	26.361
2	;	100	;	126.361
2	;	200	;	226.361
2	;	300	;	326.361
2	;	400	;	426.361
2	;	500	;	526.361
2	;	600	;	651.358
2	;	700	;	774.591
2	;	800	;	884.581
2	;	900	;	986.916
2	;	1000	;	1108.544
2	;	1100	;	1237.536
2	;	1200	;	1360.972
2	;	1300	;	1481.877
2	;	1400	;	1598.114
2	;	1500	;	1713.632
2	;	1600	;	1841.12
2	;	1700	;	1965.39
2	;	1800	;	2092.071
2	;	1900	;	2227.569
2	;	2000	;	2347.223
2	;	2100	;	2455.112
2	;	2200	;	2573.048
2	;	2300	;	2701.154
2	;	2400	;	2842.981
2	;	2500	;	2966.382
2	;	2600	;	3113.299
2	;	2700	;	3205.33
2	;	2800	;	3361.263
2	;	2900	;	3505.767
2	;	3000	;	3626.253
2	;	3100	;	3758.454
2	;	3200	;	4000
2	;	3300	;	4000
2	;	3400	;	4000
2	;	3500	;	4000
2	;	3600	;	4000
2	;	3700	;	4000
2	;	3800	;	4000
2	;	3900	;	4000
2	;	4000	;	4000
