0	;	0	;	0
0	;	100	;	100
0	;	200	;	200
0	;	300	;	300
0	;	400	;	400
0	;	500	;	500
0	;	600	;	600
0	;	700	;	700
0	;	800	;	800
0	;	900	;	900
0	;	1000	;	1000
0	;	1100	;	1100
0	;	1200	;	1200
0	;	1300	;	1300
0	;	1400	;	1400
0	;	1500	;	1500
0	;	1600	;	1600
0	;	1700	;	1700
0	;	1800	;	1800
0	;	1900	;	1900
0	;	2000	;	2000
0	;	2100	;	2100
0	;	2200	;	2200
0	;	2300	;	2300
0	;	2400	;	2400
0	;	2500	;	2500
0	;	2600	;	2600
0	;	2700	;	2700
0	;	2800	;	2800
0	;	2900	;	2900
0	;	3000	;	3000
0	;	3100	;	3100
0	;	3200	;	3200
0	;	3300	;	3300
0	;	3400	;	3400
0	;	3500	;	3500
0	;	3600	;	3600
0	;	3700	;	3700
0	;	3800	;	3800
0	;	3900	;	3900
0	;	4000	;	4000
0	;	4100	;	4100
0	;	4200	;	4200
0	;	4300	;	4300
0	;	4400	;	4400
0	;	4500	;	4500
0	;	4600	;	4600
0	;	4700	;	4700
0	;	4800	;	4800
0	;	4900	;	4900
0	;	5000	;	5000
0	;	5100	;	5100
0	;	5200	;	5200
0	;	5300	;	5300
0	;	5400	;	5400
0	;	5500	;	5500
0	;	5600	;	5600
0	;	5700	;	5700
0	;	5800	;	5800
0	;	5900	;	5900
0	;	6000	;	6000
1	;	0	;	106.051
1	;	100	;	206.051
1	;	200	;	306.051
1	;	300	;	406.051
1	;	400	;	506.051
1	;	500	;	606.051
1	;	600	;	706.051
1	;	700	;	806.051
1	;	800	;	906.051
1	;	900	;	1006.051
1	;	1000	;	1106.051
1	;	1100	;	1206.051
1	;	1200	;	1303.42948
1	;	1300	;	1400.72473
1	;	1400	;	1500.53619
1	;	1500	;	1600.53619
1	;	1600	;	1701.17999
1	;	1700	;	1801.86026
1	;	1800	;	1901.87667
1	;	1900	;	2001.87668
1	;	2000	;	2102.5336
1	;	2100	;	2203.19585
1	;	2200	;	2303.21716
1	;	2300	;	2403.21716
1	;	2400	;	2503.21716
1	;	2500	;	2603.21716
1	;	2600	;	2703.21716
1	;	2700	;	2803.20691
1	;	2800	;	2902.56997
1	;	2900	;	3001.93302
1	;	3000	;	3100.55562
1	;	3100	;	3199.31061
1	;	3200	;	3301.17396
1	;	3300	;	3403.03732
1	;	3400	;	3501.94464
1	;	3500	;	3600.53619
1	;	3600	;	3702.54961
1	;	3700	;	3804.55416
1	;	3800	;	3903.25546
1	;	3900	;	4001.95676
1	;	4000	;	4103.16207
1	;	4100	;	4204.53193
1	;	4200	;	4301.5019
1	;	4300	;	4398.54007
1	;	4400	;	4498.8701
1	;	4500	;	4599.21358
1	;	4600	;	4700.54691
1	;	4700	;	4801.87487
1	;	4800	;	4901.20373
1	;	4900	;	5000
1	;	5000	;	5050.938
1	;	5100	;	5150.938
1	;	5200	;	5250.938
1	;	5300	;	5350.938
1	;	5400	;	5450.938
1	;	5500	;	5550.938
1	;	5600	;	5650.938
1	;	5700	;	5750.938
1	;	5800	;	5850.938
1	;	5900	;	5950.938
1	;	6000	;	6050.938
2	;	0	;	212.103
2	;	100	;	312.103
2	;	200	;	412.103
2	;	300	;	512.103
2	;	400	;	612.103
2	;	500	;	712.103
2	;	600	;	812.103
2	;	700	;	912.103
2	;	800	;	1012.103
2	;	900	;	1112.103
2	;	1000	;	1211.9454
2	;	1100	;	1306.67834
2	;	1200	;	1401.41128
2	;	1300	;	1501.07238
2	;	1400	;	1601.07238
2	;	1500	;	1702.37614
2	;	1600	;	1803.746
2	;	1700	;	1903.75335
2	;	1800	;	2003.76765
2	;	1900	;	2105.10098
2	;	2000	;	2206.43432
2	;	2100	;	2306.43432
2	;	2200	;	2406.43432
2	;	2300	;	2506.43432
2	;	2400	;	2606.43431
2	;	2500	;	2706.43431
2	;	2600	;	2806.37322
2	;	2700	;	2905.1074
2	;	2800	;	3003.84158
2	;	2900	;	3101.09536
2	;	3000	;	3198.59504
2	;	3100	;	3302.3925
2	;	3200	;	3406.18997
2	;	3300	;	3503.83526
2	;	3400	;	3601.09442
2	;	3500	;	3705.20401
2	;	3600	;	3808.99154
2	;	3700	;	3906.42744
2	;	3800	;	4003.86334
2	;	3900	;	4106.41197
2	;	4000	;	4208.95334
2	;	4100	;	4302.91308
2	;	4200	;	4397.07047
2	;	4300	;	4497.73272
2	;	4400	;	4598.40591
2	;	4500	;	4701.10861
2	;	4600	;	4803.72475
2	;	4700	;	4902.39142
2	;	4800	;	5000
2	;	4900	;	5001.877
2	;	5000	;	5101.877
2	;	5100	;	5201.877
2	;	5200	;	5301.877
2	;	5300	;	5401.877
2	;	5400	;	5501.877
2	;	5500	;	5601.877
2	;	5600	;	5701.877
2	;	5700	;	5801.877
2	;	5800	;	5901.877
2	;	5900	;	6001.877
2	;	6000	;	6101.877
3	;	0	;	318.154
3	;	100	;	418.154
3	;	200	;	518.154
3	;	300	;	618.154
3	;	400	;	718.154
3	;	500	;	818.154
3	;	600	;	918.154
3	;	700	;	1018.154
3	;	800	;	1118.154
3	;	900	;	1217.45832
3	;	1000	;	1309.76047
3	;	1100	;	1402.06261
3	;	1200	;	1501.60858
3	;	1300	;	1601.60858
3	;	1400	;	1703.58879
3	;	1500	;	1805.63002
3	;	1600	;	1905.63003
3	;	1700	;	2005.68941
3	;	1800	;	2107.70283
3	;	1900	;	2209.65148
3	;	2000	;	2309.65148
3	;	2100	;	2409.65148
3	;	2200	;	2509.65147
3	;	2300	;	2609.65147
3	;	2400	;	2709.65147
3	;	2500	;	2809.49972
3	;	2600	;	2907.61292
3	;	2700	;	3005.72613
3	;	2800	;	3101.6199
3	;	2900	;	3197.85177
3	;	3000	;	3303.65822
3	;	3100	;	3409.46467
3	;	3200	;	3505.6741
3	;	3300	;	3601.67607
3	;	3400	;	3707.96978
3	;	3500	;	3813.31659
3	;	3600	;	3909.51912
3	;	3700	;	4005.72166
3	;	3800	;	4109.75343
3	;	3900	;	4213.03631
3	;	4000	;	4304.24152
3	;	4100	;	4395.59111
3	;	4200	;	4496.58778
3	;	4300	;	4597.58446
3	;	4400	;	4701.6857
3	;	4500	;	4805.55012
3	;	4600	;	4903.56337
3	;	4700	;	5000
3	;	4800	;	5000
3	;	4900	;	5052.815
3	;	5000	;	5152.815
3	;	5100	;	5252.815
3	;	5200	;	5352.815
3	;	5300	;	5452.815
3	;	5400	;	5552.815
3	;	5500	;	5652.815
3	;	5600	;	5752.815
3	;	5700	;	5852.815
3	;	5800	;	5952.815
3	;	5900	;	6052.815
3	;	6000	;	6152.815
4	;	0	;	424.205
4	;	100	;	524.205
4	;	200	;	624.205
4	;	300	;	724.205
4	;	400	;	824.205
4	;	500	;	924.205
4	;	600	;	1024.205
4	;	700	;	1124.205
4	;	800	;	1222.69541
4	;	900	;	1312.68837
4	;	1000	;	1402.68134
4	;	1100	;	1502.14477
4	;	1200	;	1602.14477
4	;	1300	;	1704.81829
4	;	1400	;	1807.5067
4	;	1500	;	1907.50671
4	;	1600	;	2007.63714
4	;	1700	;	2110.33984
4	;	1800	;	2212.86864
4	;	1900	;	2312.86864
4	;	2000	;	2412.86864
4	;	2100	;	2512.86863
4	;	2200	;	2612.86863
4	;	2300	;	2712.86863
4	;	2400	;	2812.58713
4	;	2500	;	2910.08713
4	;	2600	;	3007.58713
4	;	2700	;	3102.12988
4	;	2800	;	3197.07916
4	;	2900	;	3304.97389
4	;	3000	;	3412.86863
4	;	3100	;	3507.46322
4	;	3200	;	3602.28265
4	;	3300	;	3710.85408
4	;	3400	;	3817.53351
4	;	3500	;	3912.53351
4	;	3600	;	4007.53352
4	;	3700	;	4113.19036
4	;	3800	;	4216.88669
4	;	3900	;	4305.49429
4	;	4000	;	4394.10188
4	;	4100	;	4495.43521
4	;	4200	;	4596.76854
4	;	4300	;	4702.27882
4	;	4400	;	4807.35149
4	;	4500	;	4904.71991
4	;	4600	;	5000
4	;	4700	;	5000
4	;	4800	;	5003.753
4	;	4900	;	5103.753
4	;	5000	;	5203.753
4	;	5100	;	5303.753
4	;	5200	;	5403.753
4	;	5300	;	5503.753
4	;	5400	;	5603.753
4	;	5500	;	5703.753
4	;	5600	;	5803.753
4	;	5700	;	5903.753
4	;	5800	;	6003.753
4	;	5900	;	6103.753
4	;	6000	;	6203.753
