1	;	1000	;	1036.145
1	;	1100	;	1144.023
1	;	1200	;	1252.209
1	;	1300	;	1352.209
1	;	1400	;	1452.209
1	;	1500	;	1555.445
1	;	1600	;	1658.735
1	;	1700	;	1761.944
1	;	1800	;	1865.149
1	;	1900	;	1967.987
1	;	2000	;	2070.765
1	;	2100	;	2176.625
1	;	2200	;	2282.706
1	;	2300	;	2385.439
1	;	2400	;	2488.003
1	;	2500	;	2591.762
1	;	2600	;	2695.709
1	;	2700	;	2800.651
1	;	2800	;	2905.761
1	;	2900	;	3006.371
1	;	3000	;	3106.981
1	;	3100	;	3212.738
1	;	3200	;	3319.682
1	;	3300	;	3421.064
1	;	3400	;	3521.722
1	;	3500	;	3627.893
1	;	3600	;	3735.035
1	;	3700	;	3837.037
1	;	3800	;	3938.912
1	;	3900	;	4040.351
1	;	4000	;	4141.702
1	;	4100	;	4249.425
1	;	4200	;	4357.838
1	;	4300	;	4453.891
1	;	4400	;	4549.943
1	;	4500	;	4653.405
1	;	4600	;	4756.887
1	;	4700	;	4857.577
1	;	4800	;	4957.577
1	;	4900	;	5057.577
1	;	5000	;	5157.577
2	;	1000	;	1072.289
2	;	1100	;	1188.046
2	;	1200	;	1304.418
2	;	1300	;	1404.418
2	;	1400	;	1504.418
2	;	1500	;	1610.891
2	;	1600	;	1717.47
2	;	1700	;	1823.889
2	;	1800	;	1930.299
2	;	1900	;	2035.974
2	;	2000	;	2141.529
2	;	2100	;	2253.249
2	;	2200	;	2365.411
2	;	2300	;	2470.878
2	;	2400	;	2576.007
2	;	2500	;	2683.524
2	;	2600	;	2791.418
2	;	2700	;	2901.301
2	;	2800	;	3011.523
2	;	2900	;	3112.742
2	;	3000	;	3213.962
2	;	3100	;	3325.476
2	;	3200	;	3439.365
2	;	3300	;	3542.128
2	;	3400	;	3643.444
2	;	3500	;	3755.785
2	;	3600	;	3870.071
2	;	3700	;	3974.075
2	;	3800	;	4077.825
2	;	3900	;	4180.701
2	;	4000	;	4283.404
2	;	4100	;	4398.85
2	;	4200	;	4515.977
2	;	4300	;	4617.439
2	;	4400	;	4718.901
2	;	4500	;	4826.292
2	;	4600	;	4933.698
2	;	4700	;	5035.165
2	;	4800	;	5135.165
2	;	4900	;	5235.165
2	;	5000	;	5335.165
3	;	1000	;	1108.434
3	;	1100	;	1232.069
3	;	1200	;	1356.627
3	;	1300	;	1456.627
3	;	1400	;	1556.627
3	;	1500	;	1666.336
3	;	1600	;	1776.205
3	;	1700	;	1885.833
3	;	1800	;	1995.448
3	;	1900	;	2103.96
3	;	2000	;	2212.294
3	;	2100	;	2329.874
3	;	2200	;	2448.117
3	;	2300	;	2556.318
3	;	2400	;	2664.01
3	;	2500	;	2775.285
3	;	2600	;	2887.127
3	;	2700	;	3001.952
3	;	2800	;	3117.284
3	;	2900	;	3219.113
3	;	3000	;	3320.942
3	;	3100	;	3438.214
3	;	3200	;	3559.047
3	;	3300	;	3663.192
3	;	3400	;	3765.166
3	;	3500	;	3883.678
3	;	3600	;	4005.106
3	;	3700	;	4111.112
3	;	3800	;	4216.737
3	;	3900	;	4321.052
3	;	4000	;	4425.106
3	;	4100	;	4548.275
3	;	4200	;	4674.116
3	;	4300	;	4780.988
3	;	4400	;	4887.859
3	;	4500	;	4938.957
3	;	4600	;	4989.906
3	;	4700	;	5080.187
3	;	4800	;	5180.187
3	;	4900	;	5280.187
3	;	5000	;	5380.187
4	;	1000	;	1144.578
4	;	1100	;	1276.093
4	;	1200	;	1408.835
4	;	1300	;	1508.835
4	;	1400	;	1608.835
4	;	1500	;	1721.782
4	;	1600	;	1834.94
4	;	1700	;	1947.777
4	;	1800	;	2060.598
4	;	1900	;	2171.947
4	;	2000	;	2283.058
4	;	2100	;	2406.498
4	;	2200	;	2530.822
4	;	2300	;	2641.757
4	;	2400	;	2752.013
4	;	2500	;	2867.047
4	;	2600	;	2982.837
4	;	2700	;	3102.603
4	;	2800	;	3223.045
4	;	2900	;	3325.484
4	;	3000	;	3427.923
4	;	3100	;	3550.952
4	;	3200	;	3678.73
4	;	3300	;	3784.256
4	;	3400	;	3886.888
4	;	3500	;	4011.57
4	;	3600	;	4140.142
4	;	3700	;	4248.149
4	;	3800	;	4355.649
4	;	3900	;	4461.402
4	;	4000	;	4566.808
4	;	4100	;	4697.701
4	;	4200	;	4831.353
4	;	4300	;	4915.564
4	;	4400	;	4999.775
4	;	4500	;	5000
4	;	4600	;	5000
4	;	4700	;	5080.187
4	;	4800	;	5180.187
4	;	4900	;	5280.187
4	;	5000	;	5380.187
