100;100.00;115
100;113.73;113
100;113.73;112
100;113.92;114
100;113.94;111
100;114.30;115
100;114.33;110
100;114.93;109
100;115.72;108
100;116.71;107
100;117.89;106
100;119.27;105
100;120.84;104
100;122.61;103
100;124.58;102
100;126.74;101
100;129.10;100
100;131.66;99
100;134.41;98
100;137.36;97
100;140.50;96
100;143.84;95
100;5000.00;95
200;200.00;115
200;211.81;113
200;211.82;114
200;212.02;112
200;212.06;115
200;212.46;111
200;213.12;110
200;214.01;109
200;215.12;108
200;216.46;107
200;218.03;106
200;219.82;105
200;221.84;104
200;224.08;103
200;226.55;102
200;229.24;101
200;232.17;100
200;235.31;99
200;238.68;98
200;242.28;97
200;246.11;96
200;250.16;95
200;5000.00;95
300;300.00;115
300;318.10;115
300;318.45;114
300;319.07;113
300;319.98;112
300;321.17;111
300;322.64;110
300;324.40;109
300;326.43;108
300;328.75;107
300;331.35;106
300;334.23;105
300;337.39;104
300;340.84;103
300;344.56;102
300;348.57;101
300;352.86;100
300;357.43;99
300;362.29;98
300;367.42;97
300;372.84;96
300;378.53;95
300;5000.00;95
400;400.00;115
400;421.72;115
400;423.48;114
400;425.47;113
400;427.68;112
400;430.10;111
400;432.75;110
400;435.63;109
400;438.72;108
400;442.04;107
400;445.58;106
400;449.34;105
400;453.32;104
400;457.53;103
400;461.96;102
400;466.60;101
400;471.48;100
400;476.57;99
400;481.89;98
400;487.42;97
400;493.18;96
400;499.17;95
400;5000.00;95
500;500.00;115
500;524.22;115
500;525.66;114
500;527.53;113
500;529.82;112
500;532.53;111
500;535.66;110
500;539.22;109
500;543.20;108
500;547.60;107
500;552.42;106
500;557.66;105
500;563.33;104
500;569.41;103
500;575.92;102
500;582.85;101
500;590.21;100
500;597.98;99
500;606.18;98
500;614.80;97
500;623.84;96
500;633.30;95
500;5000.00;95
600;600.00;115
600;625.31;115
600;627.61;114
600;630.39;113
600;633.64;112
600;637.38;111
600;641.59;110
600;646.28;109
600;651.45;108
600;657.10;107
600;663.23;106
600;669.84;105
600;676.92;104
600;684.49;103
600;692.53;102
600;701.05;101
600;710.06;100
600;719.54;99
600;729.50;98
600;739.93;97
600;750.85;96
600;762.25;95
600;5000.00;95
700;700.00;115
700;719.54;115
700;726.59;114
700;734.24;113
700;742.48;112
700;751.31;111
700;760.73;110
700;770.74;109
700;781.35;108
700;792.54;107
700;804.33;106
700;816.71;105
700;829.68;104
700;843.25;103
700;857.40;102
700;872.15;101
700;887.48;100
700;903.41;99
700;919.93;98
700;937.05;97
700;954.75;96
700;973.05;95
700;5000.00;95
800;800.00;115
800;820.85;115
800;832.32;114
800;844.55;113
800;857.56;112
800;871.33;111
800;885.87;110
800;901.18;109
800;917.26;108
800;934.11;107
800;951.72;106
800;970.10;105
800;989.25;104
800;1009.17;103
800;1029.86;102
800;1051.31;101
800;1073.54;100
800;1096.53;99
800;1120.29;98
800;1144.81;97
800;1170.11;96
800;1196.17;95
800;5000.00;95
900;900.00;115
900;919.67;115
900;935.94;114
900;952.96;113
900;970.73;112
900;989.26;111
900;1008.54;110
900;1028.57;109
900;1049.36;108
900;1070.90;107
900;1093.19;106
900;1116.24;105
900;1140.03;104
900;1164.58;103
900;1189.89;102
900;1215.94;101
900;1242.75;100
900;1270.32;99
900;1298.63;98
900;1327.70;97
900;1357.52;96
900;1388.10;95
900;5000.00;95
1000;1000.00;115
1000;1016.06;115
1000;1036.07;114
1000;1056.98;113
1000;1078.79;112
1000;1101.50;111
1000;1125.12;110
1000;1149.65;109
1000;1175.08;108
1000;1201.41;107
1000;1228.65;106
1000;1256.79;105
1000;1285.83;104
1000;1315.78;103
1000;1346.63;102
1000;1378.39;101
1000;1411.05;100
1000;1444.62;99
1000;1479.09;98
1000;1514.46;97
1000;1550.74;96
1000;1587.92;95
1000;5000.00;95
1100;1100.00;115
1100;1108.87;115
1100;1131.39;114
1100;1154.97;113
1100;1179.61;112
1100;1205.30;111
1100;1232.05;110
1100;1259.85;109
1100;1288.71;108
1100;1318.63;107
1100;1349.61;106
1100;1381.64;105
1100;1414.72;104
1100;1448.87;103
1100;1484.07;102
1100;1520.32;101
1100;1557.64;100
1100;1596.00;99
1100;1635.43;98
1100;1675.91;97
1100;1717.45;96
1100;1760.05;95
1100;5000.00;95
1200;1200.00;115
1200;1215.84;115
1200;1239.72;114
1200;1265.20;113
1200;1292.29;112
1200;1320.97;111
1200;1351.26;110
1200;1383.15;109
1200;1416.63;108
1200;1451.73;107
1200;1488.42;106
1200;1526.71;105
1200;1566.60;104
1200;1608.10;103
1200;1651.20;102
1200;1695.90;101
1200;1742.20;100
1200;1790.10;99
1200;1839.60;98
1200;1890.71;97
1200;1943.42;96
1200;1997.72;95
1200;5000.00;95
1300;1300.00;115
1300;1315.21;115
1300;1342.75;114
1300;1372.17;113
1300;1403.49;112
1300;1436.69;111
1300;1471.78;110
1300;1508.75;109
1300;1547.62;108
1300;1588.36;107
1300;1631.00;106
1300;1675.52;105
1300;1721.93;104
1300;1770.22;103
1300;1820.40;102
1300;1872.47;101
1300;1926.43;100
1300;1982.27;99
1300;2040.00;98
1300;2099.61;97
1300;2161.11;96
1300;2224.50;95
1300;5000.00;95
1400;1400.00;115
1400;1418.45;115
1400;1443.89;114
1400;1472.13;113
1400;1503.20;112
1400;1537.07;111
1400;1573.77;110
1400;1613.27;109
1400;1655.59;108
1400;1700.73;107
1400;1748.68;106
1400;1799.44;105
1400;1853.02;104
1400;1909.42;103
1400;1968.62;102
1400;2030.65;101
1400;2095.48;100
1400;2163.13;99
1400;2233.60;98
1400;2306.88;97
1400;2382.98;96
1400;2461.89;95
1400;5000.00;95
1500;1500.00;115
1500;1523.06;115
1500;1549.76;114
1500;1579.50;113
1500;1612.29;112
1500;1648.12;111
1500;1687.00;110
1500;1728.92;109
1500;1773.89;108
1500;1821.90;107
1500;1872.95;106
1500;1927.05;105
1500;1984.19;104
1500;2044.37;103
1500;2107.60;102
1500;2173.88;101
1500;2243.19;100
1500;2315.56;99
1500;2390.96;98
1500;2469.41;97
1500;2550.90;96
1500;2635.44;95
1500;5000.00;95
1600;1600.00;115
1600;1619.94;115
1600;1652.06;114
1600;1687.14;113
1600;1725.18;112
1600;1766.18;111
1600;1810.15;110
1600;1857.07;109
1600;1906.97;108
1600;1959.82;107
1600;2015.63;106
1600;2074.41;105
1600;2136.15;104
1600;2200.85;103
1600;2268.52;102
1600;2339.15;101
1600;2412.73;100
1600;2489.29;99
1600;2568.80;98
1600;2651.28;97
1600;2736.71;96
1600;2825.12;95
1600;5000.00;95
1700;1700.00;115
1700;1716.38;115
1700;1749.81;114
1700;1787.11;113
1700;1828.28;112
1700;1873.31;111
1700;1922.20;110
1700;1974.96;109
1700;2031.59;108
1700;2092.08;107
1700;2156.44;106
1700;2224.67;105
1700;2296.76;104
1700;2372.71;103
1700;2452.53;102
1700;2536.22;101
1700;2623.77;100
1700;2715.19;99
1700;2810.48;98
1700;2909.63;97
1700;3012.64;96
1700;3119.52;95
1700;5000.00;95
1800;1800.00;115
1800;1830.01;115
1800;1863.76;114
1800;1901.61;113
1800;1943.57;112
1800;1989.65;111
1800;2039.83;110
1800;2094.12;109
1800;2152.53;108
1800;2215.04;107
1800;2281.67;106
1800;2352.40;105
1800;2427.25;104
1800;2506.21;103
1800;2589.27;102
1800;2676.45;101
1800;2767.74;100
1800;2863.13;99
1800;2962.64;98
1800;3066.26;97
1800;3173.99;96
1800;3285.82;95
1800;5000.00;95
1900;1900.00;115
1900;1925.24;115
1900;1959.91;114
1900;1998.95;113
1900;2042.36;112
1900;2090.14;111
1900;2142.29;110
1900;2198.81;109
1900;2259.70;108
1900;2324.95;107
1900;2394.58;106
1900;2468.58;105
1900;2546.95;104
1900;2629.68;103
1900;2716.79;102
1900;2808.26;101
1900;2904.11;100
1900;3004.32;99
1900;3108.91;98
1900;3217.86;97
1900;3331.18;96
1900;3448.87;95
1900;5000.00;95
2000;2000.00;115
2000;2033.38;115
2000;2066.16;114
2000;2104.23;113
2000;2147.60;112
2000;2196.28;111
2000;2250.25;110
2000;2309.53;109
2000;2374.11;108
2000;2443.99;107
2000;2519.17;106
2000;2599.65;105
2000;2685.43;104
2000;2776.52;103
2000;2872.90;102
2000;2974.59;101
2000;3081.57;100
2000;3193.86;99
2000;3311.45;98
2000;3434.34;97
2000;3562.53;96
2000;3696.02;95
2000;5000.00;95
2100;2100.00;115
2100;2146.62;115
2100;2183.04;114
2100;2224.90;113
2100;2272.19;112
2100;2324.92;111
2100;2383.09;110
2100;2446.70;109
2100;2515.74;108
2100;2590.22;107
2100;2670.13;106
2100;2755.49;105
2100;2846.28;104
2100;2942.51;103
2100;3044.17;102
2100;3151.28;101
2100;3263.82;100
2100;3381.79;99
2100;3505.21;98
2100;3634.06;97
2100;3768.35;96
2100;3908.07;95
2100;5000.00;95
2200;2200.00;115
2200;2242.85;115
2200;2277.15;114
2200;2317.86;113
2200;2364.97;112
2200;2418.49;111
2200;2478.42;110
2200;2544.75;109
2200;2617.50;108
2200;2696.65;107
2200;2782.20;106
2200;2874.17;105
2200;2972.54;104
2200;3077.32;103
2200;3188.51;102
2200;3306.10;101
2200;3430.10;100
2200;3560.51;99
2200;3697.33;98
2200;3840.55;97
2200;3990.19;96
2200;4146.22;95
2200;5000.00;95
2300;2300.00;115
2300;2336.02;115
2300;2374.14;114
2300;2419.30;113
2300;2471.52;112
2300;2530.79;111
2300;2597.10;110
2300;2670.47;109
2300;2750.89;108
2300;2838.36;107
2300;2932.89;106
2300;3034.46;105
2300;3143.08;104
2300;3258.76;103
2300;3381.48;102
2300;3511.26;101
2300;3648.09;100
2300;3791.97;99
2300;3942.90;98
2300;4100.88;97
2300;4265.91;96
2300;4437.99;95
2300;5000.00;95
2400;2400.00;115
2400;2432.08;115
2400;2473.76;114
2400;2523.16;113
2400;2580.28;112
2400;2645.13;111
2400;2717.70;110
2400;2797.99;109
2400;2886.00;108
2400;2981.73;107
2400;3085.18;106
2400;3196.35;105
2400;3315.25;104
2400;3441.86;103
2400;3576.20;102
2400;3718.26;101
2400;3868.04;100
2400;4025.55;99
2400;4190.77;98
2400;4363.71;97
2400;4544.38;96
2400;4732.77;95
2400;6000.00;95
2500;2500.00;115
2500;2524.72;115
2500;2572.53;114
2500;2628.00;113
2500;2691.13;112
2500;2761.91;111
2500;2840.35;110
2500;2926.45;109
2500;3020.21;108
2500;3121.62;107
2500;3230.70;106
2500;3347.43;105
2500;3471.81;104
2500;3603.86;103
2500;3743.56;102
2500;3890.92;101
2500;4045.93;100
2500;4208.61;99
2500;4378.94;98
2500;4556.93;97
2500;4742.57;96
2500;4935.87;95
2500;6000.00;95
2600;2600.00;115
2600;2629.60;115
2600;2678.37;114
2600;2736.48;113
2600;2803.93;112
2600;2880.73;111
2600;2966.87;110
2600;3062.36;109
2600;3167.18;108
2600;3281.36;107
2600;3404.87;106
2600;3537.73;105
2600;3679.93;104
2600;3831.47;103
2600;3992.36;102
2600;4162.60;101
2600;4342.17;100
2600;4531.09;99
2600;4729.35;98
2600;4936.96;97
2600;5153.91;96
2600;5380.20;95
2600;6000.00;95
2700;2700.00;115
2700;2733.46;115
2700;2788.37;114
2700;2853.09;113
2700;2927.62;112
2700;3011.95;111
2700;3106.09;110
2700;3210.04;109
2700;3323.79;108
2700;3447.35;107
2700;3580.72;106
2700;3723.89;105
2700;3876.87;104
2700;4039.66;103
2700;4212.25;102
2700;4394.65;101
2700;4586.86;100
2700;4788.87;99
2700;5000.69;98
2700;5222.32;97
2700;5453.76;96
2700;5695.00;95
2700;6000.00;95
2800;2800.00;115
2800;2831.11;115
2800;2889.29;114
2800;2960.01;113
2800;3043.26;112
2800;3139.05;111
2800;3247.38;110
2800;3368.24;109
2800;3501.64;108
2800;3647.57;107
2800;3806.04;106
2800;3977.05;105
2800;4160.59;104
2800;4356.67;103
2800;4565.28;102
2800;4786.43;101
2800;5020.12;100
2800;5266.34;99
2800;5525.10;98
2800;5796.39;97
2800;6080.22;96
2800;6376.59;95
2800;7000.00;95
2900;2900.00;115
2900;2926.94;115
2900;2995.87;114
2900;3079.86;113
2900;3178.92;112
2900;3293.05;111
2900;3422.23;110
2900;3566.49;109
2900;3725.80;108
2900;3900.18;107
2900;4089.62;106
2900;4294.13;105
2900;4513.70;104
2900;4748.34;103
2900;4998.04;102
2900;5262.80;101
2900;5542.63;100
2900;5837.52;99
2900;6147.47;98
2900;6472.49;97
2900;6812.57;96
2900;7167.72;95
2900;8000.00;95
3000;3000.00;115
3000;3035.09;115
3000;3113.41;114
3000;3209.96;113
3000;3324.74;112
3000;3457.75;111
3000;3608.98;110
3000;3778.45;109
3000;3966.14;108
3000;4172.06;107
3000;4396.21;106
3000;4638.59;105
3000;4899.20;104
3000;5178.04;103
3000;5475.11;102
3000;5790.40;101
3000;6123.92;100
3000;6475.68;99
3000;6845.66;98
3000;7233.87;97
3000;7640.31;96
3000;8064.98;95
3000;9000.00;95
3100;3100.00;115
3100;3142.14;115
3100;3242.02;114
3100;3359.47;113
3100;3494.51;112
3100;3647.12;111
3100;3817.31;110
3100;4005.08;109
3100;4210.43;108
3100;4433.36;107
3100;4673.86;106
3100;4931.95;105
3100;5207.61;104
3100;5500.85;103
3100;5811.67;102
3100;6140.06;101
3100;6486.04;100
3100;6849.59;99
3100;7230.73;98
3100;7629.44;97
3100;8045.73;96
3100;8479.60;95
3100;9000.00;95
3200;3200.00;115
3200;3238.00;115
3200;3342.84;114
3200;3478.34;113
3200;3644.49;112
3200;3841.31;111
3200;4068.79;110
3200;4326.92;109
3200;4615.72;108
3200;4935.17;107
3200;5285.28;106
3200;5666.06;105
3200;6077.49;104
3200;6519.58;103
3200;6992.33;102
3200;7495.74;101
3200;8029.81;100
3200;8594.54;99
3200;9189.93;98
3200;9815.97;97
3200;10472.68;96
3200;11160.05;95
3200;12000.00;95
3300;3300.00;115
3300;3343.67;115
3300;3474.41;114
3300;3632.45;113
3300;3817.80;112
3300;4030.45;111
3300;4270.40;110
3300;4537.66;109
3300;4832.22;108
3300;5154.08;107
3300;5503.25;106
3300;5879.72;105
3300;6283.49;104
3300;6714.57;103
3300;7172.95;102
3300;7658.63;101
3300;8171.62;100
3300;8711.91;99
3300;9279.50;98
3300;9874.40;97
3300;10496.60;96
3300;11146.10;95
3300;12000.00;95
3400;3400.00;115
3400;3438.44;115
3400;3592.78;114
3400;3791.71;113
3400;4035.21;112
3400;4323.31;111
3400;4655.98;110
3400;5033.23;109
3400;5455.07;108
3400;5921.49;107
3400;6432.49;106
3400;6988.07;105
3400;7588.24;104
3400;8232.98;103
3400;8922.31;102
3400;9656.23;101
3400;10434.72;100
3400;11257.80;99
3400;12125.45;98
3400;13037.70;97
3400;13994.52;96
3400;14995.92;95
3400;20000.00;95
3500;3500.00;115
3500;3560.80;115
3500;3754.23;114
3500;3986.62;113
3500;4257.97;112
3500;4568.29;111
3500;4917.58;110
3500;5305.82;109
3500;5733.03;108
3500;6199.20;107
3500;6704.34;106
3500;7248.44;105
3500;7831.50;104
3500;8453.52;103
3500;9114.51;102
3500;9814.47;101
3500;10553.38;100
3500;11331.26;99
3500;12148.10;98
3500;13003.91;97
3500;13898.68;96
3500;14832.41;95
3500;20000.00;95
3600;3600.00;115
3600;3660.70;115
3600;3876.86;114
3600;4111.52;113
3600;4364.70;112
3600;4636.38;111
3600;4926.57;110
3600;5235.26;109
3600;5562.47;108
3600;5908.18;107
3600;6272.40;106
3600;6655.13;105
3600;7056.37;104
3600;7476.12;103
3600;7914.37;102
3600;8371.13;101
3600;8846.40;100
3600;9340.18;99
3600;9852.46;98
3600;10383.25;97
3600;10932.55;96
3600;11500.36;95
3600;12000.00;95
3800;3800.00;115
3800;3868.39;115
3800;4043.48;114
3800;4218.57;113
3800;4393.66;112
3800;4568.74;111
3800;4743.83;110
3800;4918.92;109
3800;5094.01;108
3800;5269.10;107
3800;5444.19;106
3800;5619.27;105
3800;5794.36;104
3800;5969.45;103
3800;6144.54;102
3800;6319.63;101
3800;6494.72;100
3800;6669.80;99
3800;6844.89;98
3800;7019.98;97
3800;7195.07;96
3800;7370.16;95
3800;8000.00;95
3900;3900.00;115
3900;3982.96;115
3900;4188.69;114
3900;4394.43;113
3900;4600.17;112
3900;4805.90;111
3900;5011.64;110
3900;5217.37;109
3900;5423.11;108
3900;5628.85;107
3900;5834.58;106
3900;6040.32;105
3900;6246.05;104
3900;6451.79;103
3900;6657.52;102
3900;6863.26;101
3900;7069.00;100
3900;7274.73;99
3900;7480.47;98
3900;7686.20;97
3900;7891.94;96
3900;8097.68;95
3900;9000.00;95
4000;4000;115
4000;5000;115
