95;0;27.58
95;100;127.58
95;200;232.7517
95;300;356.69145
95;400;421.21505
95;500;479.54838
95;600;450.07089
95;700;1043.99676
95;800;885.01179
95;900;1318.77155
95;1000;1567.91827
95;1100;1728.29563
95;1200;1963.19832
95;1300;2214.92978
95;1400;2444.65012
95;1500;2623.0284
95;1600;2827.45619
95;1700;3119.97343
95;1800;3263.70095
95;1900;3435.0356
95;2000;3704.06606
95;2100;3883.06769
95;2200;3975.9213
95;2300;3989.76314
95;2400;3987.37171
95;2500;3992.20025
95;2600;3991.49603
95;2700;3992.86475
95;2800;3994.88472
95;2900;3996.78431
95;3000;3998.79878
95;3100;3997.43513
95;3200;3997.10701
95;3300;4000.54973
95;3400;4000.25706
95;3500;3999.29552
95;3600;3996.2085
95;3700;4999.52709
95;3800;6800.61181
95;3900;7643.404
95;4000;7743.404
97.5;0;19.975
97.5;100;119.975
97.5;200;223.20041
97.5;300;457.68883
97.5;400;515.8675
97.5;500;554.57102
97.5;600;518.87947
97.5;700;1011.34765
97.5;800;916.92902
97.5;900;1262.44297
97.5;1000;1480.70934
97.5;1100;1630.60858
97.5;1200;1838.68165
97.5;1300;2063.57577
97.5;1400;2265.3279
97.5;1500;2430.15982
97.5;1600;2614.61415
97.5;1700;2848.96517
97.5;1800;2976.75823
97.5;1900;3135.22937
97.5;2000;3311.9657
97.5;2100;3488.31959
97.5;2200;3676.37823
97.5;2300;3940.83634
97.5;2400;3986.55425
97.5;2500;3992.20025
97.5;2600;3991.49603
97.5;2700;3992.86475
97.5;2800;3994.88472
97.5;2900;3996.78431
97.5;3000;3998.79878
97.5;3100;3997.43513
97.5;3200;3997.10701
97.5;3300;4000.54973
97.5;3400;4000.25706
97.5;3500;3999.29552
97.5;3600;3996.2085
97.5;3700;4868.63442
97.5;3800;6435.1241
97.5;3900;7175.478
97.5;4000;7275.478
100;0;12.127
100;100;112.127
100;200;213.15496
100;300;443.17666
100;400;499.88357
100;500;537.44251
100;600;506.76357
100;700;960.53202
100;800;874.86871
100;900;1191.17261
100;1000;1392.57233
100;1100;1532.91715
100;1200;1714.16498
100;1300;1912.22176
100;1400;2086.00569
100;1500;2237.29124
100;1600;2402.18277
100;1700;2586.68689
100;1800;2722.79662
100;1900;2864.625
100;2000;3030.84877
100;2100;3191.09541
100;2200;3344.27255
100;2300;3548.55106
100;2400;3793.32291
100;2500;3967.18788
100;2600;3991.49603
100;2700;3992.86475
100;2800;3994.88472
100;2900;3996.78431
100;3000;3998.79878
100;3100;3997.43513
100;3200;3997.10701
100;3300;4000.54973
100;3400;4000.25706
100;3500;3999.29552
100;3600;3996.2085
100;3700;4737.74177
100;3800;6069.63639
100;3900;6707.553
100;4000;6807.553
102.5;0;4.278
102.5;100;104.278
102.5;200;203.10951
102.5;300;428.66448
102.5;400;483.89963
102.5;500;520.31399
102.5;600;494.64767
102.5;700;909.71639
102.5;800;832.80838
102.5;900;1120.43767
102.5;1000;1314.85474
102.5;1100;1440.41845
102.5;1200;1605.78147
102.5;1300;1775.15293
102.5;1400;1909.28138
102.5;1500;2064.54411
102.5;1600;2222.48792
102.5;1700;2394.77733
102.5;1800;2513.69435
102.5;1900;2649.36053
102.5;2000;2789.89173
102.5;2100;2930.80117
102.5;2200;3077.0221
102.5;2300;3260.89788
102.5;2400;3437.24183
102.5;2500;3584.55222
102.5;2600;3814.69898
102.5;2700;3976.85929
102.5;2800;3994.88472
102.5;2900;3996.78431
102.5;3000;3998.79878
102.5;3100;3997.43513
102.5;3200;3997.10701
102.5;3300;4000.54973
102.5;3400;4000.25706
102.5;3500;3999.29552
102.5;3600;3996.2085
102.5;3700;4606.8491
102.5;3800;5704.14868
102.5;3900;6239.627
102.5;4000;6339.627
105;0;0
105;100;100
105;200;200
105;300;315.91128
105;400;391.51525
105;500;462.86737
105;600;483.42159
105;700;864.60991
105;800;796.19768
105;900;1065.72992
105;1000;1247.17014
105;1100;1362.75206
105;1200;1509.52914
105;1300;1666.51608
105;1400;1784.4077
105;1500;1922.46354
105;1600;2059.62534
105;1700;2205.7815
105;1800;2320.45327
105;1900;2444.51208
105;2000;2583.63992
105;2100;2718.08733
105;2200;2836.9919
105;2300;2993.88628
105;2400;3149.78601
105;2500;3293.97121
105;2600;3464.77387
105;2700;3672.50469
105;2800;3878.3322
105;2900;3981.64353
105;3000;3998.79878
105;3100;3997.43513
105;3200;3997.10701
105;3300;4000.54973
105;3400;4000.25706
105;3500;3999.29552
105;3600;3996.2085
105;3700;4475.95645
105;3800;5338.66097
105;3900;5771.702
105;4000;5871.702
107.5;0;0
107.5;100;100
107.5;200;200
107.5;300;334.55371
107.5;400;403.40328
107.5;500;465.19856
107.5;600;479.13012
107.5;700;832.86489
107.5;800;771.86093
107.5;900;1016.3954
107.5;1000;1179.48555
107.5;1100;1285.08566
107.5;1200;1413.2768
107.5;1300;1558.34356
107.5;1400;1664.02082
107.5;1500;1790.69733
107.5;1600;1917.3701
107.5;1700;2060.20494
107.5;1800;2172.01257
107.5;1900;2273.57011
107.5;2000;2395.78425
107.5;2100;2525.98524
107.5;2200;2646.70638
107.5;2300;2776.00634
107.5;2400;2913.60113
107.5;2500;3040.10256
107.5;2600;3187.03203
107.5;2700;3343.1285
107.5;2800;3522.43024
107.5;2900;3713.31091
107.5;3000;3957.27952
107.5;3100;3996.8077
107.5;3200;3997.10701
107.5;3300;4000.54973
107.5;3400;4000.25706
107.5;3500;3999.29552
107.5;3600;3996.2085
107.5;3700;4345.06378
107.5;3800;4973.17326
107.5;3900;5303.776
107.5;4000;5403.776
110;0;0
110;100;100
110;200;200
110;300;357.22731
110;400;418.42444
110;500;469.215
110;600;474.83864
110;700;801.11986
110;800;748.84094
110;900;967.58352
110;1000;1117.71775
110;1100;1212.38837
110;1200;1338.32256
110;1300;1456.9194
110;1400;1563.44894
110;1500;1690.43977
110;1600;1799.75861
110;1700;1921.83466
110;1800;2029.65047
110;1900;2139.96046
110;2000;2247.78246
110;2100;2363.2863
110;2200;2465.18285
110;2300;2588.93466
110;2400;2707.56103
110;2500;2823.9316
110;2600;2953.20872
110;2700;3071.69653
110;2800;3219.95356
110;2900;3367.15456
110;3000;3540.83731
110;3100;3748.60596
110;3200;3926.2482
110;3300;3996.08576
110;3400;4000.25706
110;3500;3999.29552
110;3600;3996.2085
110;3700;4214.17113
110;3800;4607.68555
110;3900;4835.851
110;4000;4935.851
112.5;0;0
112.5;100;100
112.5;200;200
112.5;300;379.90092
112.5;400;433.4456
112.5;500;473.23144
112.5;600;470.54716
112.5;700;769.37483
112.5;800;726.9024
112.5;900;921.90108
112.5;1000;1058.83268
112.5;1100;1153.32936
112.5;1200;1265.72719
112.5;1300;1377.781
112.5;1400;1480.61669
112.5;1500;1591.1311
112.5;1600;1692.97466
112.5;1700;1803.2777
112.5;1800;1913.6464
112.5;1900;2020.08595
112.5;2000;2118.69655
112.5;2100;2231.47492
112.5;2200;2332.01616
112.5;2300;2435.4726
112.5;2400;2537.65017
112.5;2500;2646.00194
112.5;2600;2757.89871
112.5;2700;2877.8751
112.5;2800;2989.99168
112.5;2900;3124.53432
112.5;3000;3230.25388
112.5;3100;3382.6511
112.5;3200;3513.75117
112.5;3300;3649.13752
112.5;3400;3806.74369
112.5;3500;3967.05817
112.5;3600;3996.2085
112.5;3700;4083.27846
112.5;3800;4242.19784
112.5;3900;4367.925
112.5;4000;4467.925
115;0;0
115;100;100
115;200;200
115;300;307.41699
115;400;374.50789
115;500;437.46672
115;600;466.2557
115;700;737.62981
115;800;705.8796
115;900;876.75463
115;1000;1000.16586
115;1100;1100.00079
115;1200;1200
115;1300;1300
115;1400;1400
115;1500;1500
115;1600;1600
115;1700;1700.03221
115;1800;1800.17536
115;1900;1900.21146
115;2000;2004.23169
115;2100;2103.33932
115;2200;2200.71902
115;2300;2306.58734
115;2400;2400.96844
115;2500;2500.22004
115;2600;2605.34185
115;2700;2701.09244
115;2800;2800.03571
115;2900;2900
115;3000;3004.21826
115;3100;3100.81814
115;3200;3200
115;3300;3312.3965
115;3400;3408.69843
115;3500;3502.21857
115;3600;3600.32858
115;3700;3700
115;3800;3800
115;3900;3900
115;4000;4000
117.5;0;0
117.5;100;100
117.5;200;200
117.5;300;300
117.5;400;383.57986
117.5;500;465.52046
117.5;600;530.03709
117.5;700;718.25333
117.5;800;752.75813
117.5;900;887.87794
117.5;1000;1000
117.5;1100;1100
117.5;1200;1200
117.5;1300;1300
117.5;1400;1400
117.5;1500;1500
117.5;1600;1600
117.5;1700;1700
117.5;1800;1800
117.5;1900;1900
117.5;2000;2000
117.5;2100;2100
117.5;2200;2200
117.5;2300;2300
117.5;2400;2400
117.5;2500;2500
117.5;2600;2600
117.5;2700;2700
117.5;2800;2800
117.5;2900;2900
117.5;3000;3000
117.5;3100;3100
117.5;3200;3200
117.5;3300;3300
117.5;3400;3400
117.5;3500;3500
117.5;3600;3600
117.5;3700;3700
117.5;3800;3800
117.5;3900;3900
117.5;4000;4000
120;0;0
120;100;100
120;200;200
120;300;300
120;400;400
120;500;500
120;600;600
120;700;700
120;800;800
120;900;900
120;1000;1000
120;1100;1100
120;1200;1200
120;1300;1300
120;1400;1400
120;1500;1500
120;1600;1600
120;1700;1700
120;1800;1800
120;1900;1900
120;2000;2000
120;2100;2100
120;2200;2200
120;2300;2300
120;2400;2400
120;2500;2500
120;2600;2600
120;2700;2700
120;2800;2800
120;2900;2900
120;3000;3000
120;3100;3100
120;3200;3200
120;3300;3300
120;3400;3400
120;3500;3500
120;3600;3600
120;3700;3700
120;3800;3800
120;3900;3900
120;4000;4000
