-1	;	1000	;	1000
-1	;	1100	;	1100
-1	;	1200	;	1200
-1	;	1300	;	1300
-1	;	1400	;	1400
-1	;	1500	;	1500
-1	;	1600	;	1600
-1	;	1700	;	1700
-1	;	1800	;	1800
-1	;	1900	;	1900
-1	;	2000	;	2000
-1	;	2100	;	2100
-1	;	2200	;	2200
-1	;	2300	;	2300
-1	;	2400	;	2400
-1	;	2500	;	2500
-1	;	2600	;	2600
-1	;	2700	;	2700
-1	;	2800	;	2800
-1	;	2900	;	2900
-1	;	3000	;	3000
-1	;	3100	;	3100
-1	;	3200	;	3200
-1	;	3300	;	3300
-1	;	3400	;	3400
-1	;	3500	;	3500
-1	;	3600	;	3600
-1	;	3700	;	3700
-1	;	3800	;	3800
-1	;	3900	;	3900
-1	;	4000	;	4000
-1	;	4100	;	4100
-1	;	4200	;	4200
-1	;	4300	;	4300
-1	;	4400	;	4400
-1	;	4500	;	4500
-1	;	4600	;	4600
-1	;	4700	;	4700
-1	;	4800	;	4800
-1	;	4900	;	4900
-1	;	5000	;	5000
-0.75	;	1000	;	946.309
-0.75	;	1100	;	1044.957
-0.75	;	1200	;	1143.549
-0.75	;	1300	;	1242.14
-0.75	;	1400	;	1340.732
-0.75	;	1500	;	1439.323
-0.75	;	1600	;	1537.915
-0.75	;	1700	;	1636.506
-0.75	;	1800	;	1735.098
-0.75	;	1900	;	1833.689
-0.75	;	2000	;	1932.281
-0.75	;	2100	;	2030.872
-0.75	;	2200	;	2129.464
-0.75	;	2300	;	2228.056
-0.75	;	2400	;	2326.647
-0.75	;	2500	;	2425.239
-0.75	;	2600	;	2523.83
-0.75	;	2700	;	2622.422
-0.75	;	2800	;	2721.013
-0.75	;	2900	;	2819.605
-0.75	;	3000	;	2918.196
-0.75	;	3100	;	3016.788
-0.75	;	3200	;	3115.38
-0.75	;	3300	;	3213.971
-0.75	;	3400	;	3312.563
-0.75	;	3500	;	3411.409
-0.75	;	3600	;	3511.409
-0.75	;	3700	;	3611.409
-0.75	;	3800	;	3711.409
-0.75	;	3900	;	3811.409
-0.75	;	4000	;	3911.409
-0.75	;	4100	;	4011.409
-0.75	;	4200	;	4111.409
-0.75	;	4300	;	4211.409
-0.75	;	4400	;	4311.409
-0.75	;	4500	;	4411.409
-0.75	;	4600	;	4511.409
-0.75	;	4700	;	4611.409
-0.75	;	4800	;	4711.409
-0.75	;	4900	;	4811.409
-0.75	;	5000	;	4911.409
-0.5	;	1000	;	892.617
-0.5	;	1100	;	991.443
-0.5	;	1200	;	1088.665
-0.5	;	1300	;	1185.887
-0.5	;	1400	;	1283.11
-0.5	;	1500	;	1380.332
-0.5	;	1600	;	1477.554
-0.5	;	1700	;	1574.776
-0.5	;	1800	;	1671.999
-0.5	;	1900	;	1769.221
-0.5	;	2000	;	1866.443
-0.5	;	2100	;	1963.665
-0.5	;	2200	;	2060.887
-0.5	;	2300	;	2158.11
-0.5	;	2400	;	2255.332
-0.5	;	2500	;	2352.554
-0.5	;	2600	;	2449.776
-0.5	;	2700	;	2546.999
-0.5	;	2800	;	2644.221
-0.5	;	2900	;	2741.443
-0.5	;	3000	;	2838.665
-0.5	;	3100	;	2935.887
-0.5	;	3200	;	3033.11
-0.5	;	3300	;	3130.332
-0.5	;	3400	;	3227.554
-0.5	;	3500	;	3324.776
-0.5	;	3600	;	3422.819
-0.5	;	3700	;	3522.819
-0.5	;	3800	;	3622.819
-0.5	;	3900	;	3722.819
-0.5	;	4000	;	3822.819
-0.5	;	4100	;	3922.819
-0.5	;	4200	;	4022.819
-0.5	;	4300	;	4122.819
-0.5	;	4400	;	4222.819
-0.5	;	4500	;	4322.819
-0.5	;	4600	;	4422.819
-0.5	;	4700	;	4522.819
-0.5	;	4800	;	4622.819
-0.5	;	4900	;	4722.819
-0.5	;	5000	;	4822.819
-0.25	;	1000	;	838.926
-0.25	;	1100	;	938.926
-0.25	;	1200	;	1035.285
-0.25	;	1300	;	1131.176
-0.25	;	1400	;	1227.066
-0.25	;	1500	;	1322.957
-0.25	;	1600	;	1418.847
-0.25	;	1700	;	1514.738
-0.25	;	1800	;	1610.628
-0.25	;	1900	;	1706.518
-0.25	;	2000	;	1802.409
-0.25	;	2100	;	1898.299
-0.25	;	2200	;	1994.19
-0.25	;	2300	;	2090.08
-0.25	;	2400	;	2185.97
-0.25	;	2500	;	2281.861
-0.25	;	2600	;	2377.751
-0.25	;	2700	;	2473.642
-0.25	;	2800	;	2569.532
-0.25	;	2900	;	2665.422
-0.25	;	3000	;	2761.313
-0.25	;	3100	;	2857.203
-0.25	;	3200	;	2953.094
-0.25	;	3300	;	3048.984
-0.25	;	3400	;	3144.875
-0.25	;	3500	;	3240.765
-0.25	;	3600	;	3336.655
-0.25	;	3700	;	3434.228
-0.25	;	3800	;	3534.228
-0.25	;	3900	;	3634.228
-0.25	;	4000	;	3734.228
-0.25	;	4100	;	3834.228
-0.25	;	4200	;	3934.228
-0.25	;	4300	;	4034.228
-0.25	;	4400	;	4134.228
-0.25	;	4500	;	4234.228
-0.25	;	4600	;	4334.228
-0.25	;	4700	;	4434.228
-0.25	;	4800	;	4534.228
-0.25	;	4900	;	4634.228
-0.25	;	5000	;	4734.228
0	;	1000	;	785.235
0	;	1100	;	885.235
0	;	1200	;	983.348
0	;	1300	;	1077.943
0	;	1400	;	1172.538
0	;	1500	;	1267.132
0	;	1600	;	1361.727
0	;	1700	;	1456.321
0	;	1800	;	1550.916
0	;	1900	;	1645.511
0	;	2000	;	1740.105
0	;	2100	;	1834.7
0	;	2200	;	1929.294
0	;	2300	;	2023.889
0	;	2400	;	2118.484
0	;	2500	;	2213.078
0	;	2600	;	2307.673
0	;	2700	;	2402.267
0	;	2800	;	2496.862
0	;	2900	;	2591.457
0	;	3000	;	2686.051
0	;	3100	;	2780.646
0	;	3200	;	2875.24
0	;	3300	;	2969.835
0	;	3400	;	3064.43
0	;	3500	;	3159.024
0	;	3600	;	3253.619
0	;	3700	;	3348.213
0	;	3800	;	3445.638
0	;	3900	;	3545.638
0	;	4000	;	3645.638
0	;	4100	;	3745.638
0	;	4200	;	3845.638
0	;	4300	;	3945.638
0	;	4400	;	4045.638
0	;	4500	;	4145.638
0	;	4600	;	4245.638
0	;	4700	;	4345.638
0	;	4800	;	4445.638
0	;	4900	;	4545.638
0	;	5000	;	4645.638
