150	;	0	;	-167.858
150	;	100	;	-67.858
150	;	200	;	32.142
150	;	300	;	132.142
150	;	400	;	232.142
150	;	500	;	332.142
150	;	600	;	432.142
150	;	700	;	532.142
150	;	800	;	632.142
150	;	900	;	723.37954
150	;	1000	;	726.01826
150	;	1100	;	759.30034
150	;	1200	;	775.91472
150	;	1300	;	1014.62143
150	;	1400	;	868.31608
150	;	1500	;	873.21582
150	;	1600	;	948.49941
150	;	1700	;	1030.77987
150	;	1800	;	1005.69539
150	;	1900	;	1053.882
150	;	2000	;	1169.90579
150	;	2100	;	1159.74911
150	;	2200	;	1315.29412
150	;	2300	;	1399.30377
150	;	2400	;	1512.82615
150	;	2500	;	1536.11341
150	;	2600	;	1573.96424
150	;	2700	;	1592.602
150	;	2800	;	1598.0325
150	;	2900	;	1658.05605
150	;	3000	;	1681.9712
150	;	3100	;	1719.49672
150	;	3200	;	1694.6776
150	;	3300	;	1694.1654
150	;	3400	;	1659.0799
150	;	3500	;	1729.16386
150	;	3600	;	1829.628
150	;	3700	;	1929.628
150	;	3800	;	2029.628
150	;	3900	;	2129.628
150	;	4000	;	2229.628
150	;	4100	;	2329.628
150	;	4200	;	2429.628
150	;	4300	;	2529.628
150	;	4400	;	2629.628
150	;	4500	;	2729.628
150	;	4600	;	2829.628
150	;	4700	;	2929.628
150	;	4800	;	3029.628
150	;	4900	;	3129.628
150	;	5000	;	3229.628
160	;	0	;	-153.215
160	;	100	;	-53.215
160	;	200	;	46.785
160	;	300	;	146.785
160	;	400	;	246.785
160	;	500	;	346.785
160	;	600	;	446.785
160	;	700	;	546.785
160	;	800	;	646.785
160	;	900	;	738.92959
160	;	1000	;	751.64671
160	;	1100	;	792.13892
160	;	1200	;	815.89875
160	;	1300	;	1017.50163
160	;	1400	;	916.0251
160	;	1500	;	934.62049
160	;	1600	;	1011.87486
160	;	1700	;	1094.38389
160	;	1800	;	1087.57018
160	;	1900	;	1139.20817
160	;	2000	;	1250.16611
160	;	2100	;	1256.53032
160	;	2200	;	1402.72653
160	;	2300	;	1486.14957
160	;	2400	;	1594.51209
160	;	2500	;	1625.18867
160	;	2600	;	1668.49375
160	;	2700	;	1695.34714
160	;	2800	;	1710.51161
160	;	2900	;	1769.92065
160	;	3000	;	1798.57934
160	;	3100	;	1840.26016
160	;	3200	;	1830.49789
160	;	3300	;	1836.31958
160	;	3400	;	1816.73443
160	;	3500	;	1881.61524
160	;	3600	;	1980.398
160	;	3700	;	2080.398
160	;	3800	;	2180.398
160	;	3900	;	2280.398
160	;	4000	;	2380.398
160	;	4100	;	2480.398
160	;	4200	;	2580.398
160	;	4300	;	2680.398
160	;	4400	;	2780.398
160	;	4500	;	2880.398
160	;	4600	;	2980.398
160	;	4700	;	3080.398
160	;	4800	;	3180.398
160	;	4900	;	3280.398
160	;	5000	;	3380.398
170	;	0	;	-138.572
170	;	100	;	-38.572
170	;	200	;	61.428
170	;	300	;	161.428
170	;	400	;	261.428
170	;	500	;	361.428
170	;	600	;	461.428
170	;	700	;	561.428
170	;	800	;	661.428
170	;	900	;	754.47964
170	;	1000	;	777.27516
170	;	1100	;	824.9775
170	;	1200	;	855.88277
170	;	1300	;	1020.38184
170	;	1400	;	963.73412
170	;	1500	;	996.02516
170	;	1600	;	1075.25031
170	;	1700	;	1157.98791
170	;	1800	;	1169.44498
170	;	1900	;	1224.53435
170	;	2000	;	1330.42643
170	;	2100	;	1353.31152
170	;	2200	;	1490.15895
170	;	2300	;	1572.99538
170	;	2400	;	1676.19804
170	;	2500	;	1714.26394
170	;	2600	;	1763.02327
170	;	2700	;	1798.09229
170	;	2800	;	1822.99072
170	;	2900	;	1881.78524
170	;	3000	;	1915.18749
170	;	3100	;	1961.02359
170	;	3200	;	1966.31817
170	;	3300	;	1978.47377
170	;	3400	;	1974.38896
170	;	3500	;	2034.06662
170	;	3600	;	2131.168
170	;	3700	;	2231.168
170	;	3800	;	2331.168
170	;	3900	;	2431.168
170	;	4000	;	2531.168
170	;	4100	;	2631.168
170	;	4200	;	2731.168
170	;	4300	;	2831.168
170	;	4400	;	2931.168
170	;	4500	;	3031.168
170	;	4600	;	3131.168
170	;	4700	;	3231.168
170	;	4800	;	3331.168
170	;	4900	;	3431.168
170	;	5000	;	3531.168
180	;	0	;	-123.929
180	;	100	;	-23.929
180	;	200	;	76.071
180	;	300	;	176.071
180	;	400	;	276.071
180	;	500	;	376.071
180	;	600	;	476.071
180	;	700	;	576.071
180	;	800	;	676.071
180	;	900	;	770.02968
180	;	1000	;	802.90361
180	;	1100	;	857.81608
180	;	1200	;	895.8668
180	;	1300	;	1023.26205
180	;	1400	;	1011.44315
180	;	1500	;	1057.42983
180	;	1600	;	1138.62577
180	;	1700	;	1221.59193
180	;	1800	;	1251.31977
180	;	1900	;	1309.86052
180	;	2000	;	1410.68675
180	;	2100	;	1450.09272
180	;	2200	;	1577.59136
180	;	2300	;	1659.84119
180	;	2400	;	1757.88398
180	;	2500	;	1803.3392
180	;	2600	;	1857.55278
180	;	2700	;	1900.83743
180	;	2800	;	1935.46983
180	;	2900	;	1993.64983
180	;	3000	;	2031.79563
180	;	3100	;	2081.78703
180	;	3200	;	2102.13846
180	;	3300	;	2120.62796
180	;	3400	;	2132.04349
180	;	3500	;	2186.518
180	;	3600	;	2281.937
180	;	3700	;	2381.937
180	;	3800	;	2481.937
180	;	3900	;	2581.937
180	;	4000	;	2681.937
180	;	4100	;	2781.937
180	;	4200	;	2881.937
180	;	4300	;	2981.937
180	;	4400	;	3081.937
180	;	4500	;	3181.937
180	;	4600	;	3281.937
180	;	4700	;	3381.937
180	;	4800	;	3481.937
180	;	4900	;	3581.937
180	;	5000	;	3681.937
190	;	0	;	-109.286
190	;	100	;	-9.286
190	;	200	;	90.714
190	;	300	;	190.714
190	;	400	;	290.714
190	;	500	;	390.714
190	;	600	;	490.714
190	;	700	;	590.714
190	;	800	;	690.714
190	;	900	;	785.57973
190	;	1000	;	828.53206
190	;	1100	;	890.65466
190	;	1200	;	935.85082
190	;	1300	;	1026.14225
190	;	1400	;	1059.15217
190	;	1500	;	1118.8345
190	;	1600	;	1202.00122
190	;	1700	;	1285.19595
190	;	1800	;	1333.19457
190	;	1900	;	1395.18669
190	;	2000	;	1490.94707
190	;	2100	;	1546.87392
190	;	2200	;	1665.02378
190	;	2300	;	1746.68699
190	;	2400	;	1839.56993
190	;	2500	;	1892.41446
190	;	2600	;	1952.08229
190	;	2700	;	2003.58257
190	;	2800	;	2047.94894
190	;	2900	;	2105.51442
190	;	3000	;	2148.40377
190	;	3100	;	2202.55047
190	;	3200	;	2237.95874
190	;	3300	;	2262.78215
190	;	3400	;	2289.69802
190	;	3500	;	2338.96939
190	;	3600	;	2432.707
190	;	3700	;	2532.707
190	;	3800	;	2632.707
190	;	3900	;	2732.707
190	;	4000	;	2832.707
190	;	4100	;	2932.707
190	;	4200	;	3032.707
190	;	4300	;	3132.707
190	;	4400	;	3232.707
190	;	4500	;	3332.707
190	;	4600	;	3432.707
190	;	4700	;	3532.707
190	;	4800	;	3632.707
190	;	4900	;	3732.707
190	;	5000	;	3832.707
200	;	0	;	-94.643
200	;	100	;	5.357
200	;	200	;	105.357
200	;	300	;	205.357
200	;	400	;	305.357
200	;	500	;	405.357
200	;	600	;	505.357
200	;	700	;	605.357
200	;	800	;	705.357
200	;	900	;	801.12978
200	;	1000	;	854.16051
200	;	1100	;	923.49323
200	;	1200	;	975.83485
200	;	1300	;	1029.02246
200	;	1400	;	1106.86119
200	;	1500	;	1180.23917
200	;	1600	;	1265.37667
200	;	1700	;	1348.79997
200	;	1800	;	1415.06936
200	;	1900	;	1480.51287
200	;	2000	;	1571.20739
200	;	2100	;	1643.65513
200	;	2200	;	1752.4562
200	;	2300	;	1833.5328
200	;	2400	;	1921.25587
200	;	2500	;	1981.48973
200	;	2600	;	2046.61181
200	;	2700	;	2106.32772
200	;	2800	;	2160.42805
200	;	2900	;	2217.37901
200	;	3000	;	2265.01192
200	;	3100	;	2323.31391
200	;	3200	;	2373.77903
200	;	3300	;	2404.93634
200	;	3400	;	2447.35255
200	;	3500	;	2491.42077
200	;	3600	;	2583.477
200	;	3700	;	2683.477
200	;	3800	;	2783.477
200	;	3900	;	2883.477
200	;	4000	;	2983.477
200	;	4100	;	3083.477
200	;	4200	;	3183.477
200	;	4300	;	3283.477
200	;	4400	;	3383.477
200	;	4500	;	3483.477
200	;	4600	;	3583.477
200	;	4700	;	3683.477
200	;	4800	;	3783.477
200	;	4900	;	3883.477
200	;	5000	;	3983.477
210	;	0	;	-80
210	;	100	;	20
210	;	200	;	120
210	;	300	;	220
210	;	400	;	320
210	;	500	;	420
210	;	600	;	520
210	;	700	;	620
210	;	800	;	720
210	;	900	;	816.67982
210	;	1000	;	879.78896
210	;	1100	;	956.33181
210	;	1200	;	1016.80365
210	;	1300	;	1086.80365
210	;	1400	;	1162.21068
210	;	1500	;	1241.64383
210	;	1600	;	1328.75213
210	;	1700	;	1412.404
210	;	1800	;	1496.94416
210	;	1900	;	1565.83904
210	;	2000	;	1651.46771
210	;	2100	;	1740.43633
210	;	2200	;	1839.88861
210	;	2300	;	1920.37861
210	;	2400	;	2002.94181
210	;	2500	;	2070.56499
210	;	2600	;	2141.14132
210	;	2700	;	2209.07286
210	;	2800	;	2272.90716
210	;	2900	;	2329.2436
210	;	3000	;	2381.62006
210	;	3100	;	2444.07735
210	;	3200	;	2509.59931
210	;	3300	;	2547.09053
210	;	3400	;	2605.00708
210	;	3500	;	2643.87215
210	;	3600	;	2734.247
210	;	3700	;	2834.247
210	;	3800	;	2934.247
210	;	3900	;	3034.247
210	;	4000	;	3134.247
210	;	4100	;	3234.247
210	;	4200	;	3334.247
210	;	4300	;	3434.247
210	;	4400	;	3534.247
210	;	4500	;	3634.247
210	;	4600	;	3734.247
210	;	4700	;	3834.247
210	;	4800	;	3934.247
210	;	4900	;	4034.247
210	;	5000	;	4134.247
220	;	0	;	-65
220	;	100	;	35
220	;	200	;	135
220	;	300	;	235
220	;	400	;	335
220	;	500	;	435
220	;	600	;	535
220	;	700	;	635
220	;	800	;	735
220	;	900	;	832.8445
220	;	1000	;	908.89452
220	;	1100	;	988.85845
220	;	1200	;	1057.10806
220	;	1300	;	1133.77473
220	;	1400	;	1216.06046
220	;	1500	;	1302.19178
220	;	1600	;	1390.85259
220	;	1700	;	1474.50446
220	;	1800	;	1559.04461
220	;	1900	;	1640.32534
220	;	2000	;	1728.18004
220	;	2100	;	1820.10824
220	;	2200	;	1916.26194
220	;	2300	;	2004.28207
220	;	2400	;	2085.92831
220	;	2500	;	2163.17557
220	;	2600	;	2236.11849
220	;	2700	;	2307.703
220	;	2800	;	2374.0487
220	;	2900	;	2441.65178
220	;	3000	;	2502.52134
220	;	3100	;	2571.64144
220	;	3200	;	2648.41381
220	;	3300	;	2692.15356
220	;	3400	;	2759.72288
220	;	3500	;	2819.47032
220	;	3600	;	2913.242
220	;	3700	;	3013.242
220	;	3800	;	3113.242
220	;	3900	;	3213.242
220	;	4000	;	3313.242
220	;	4100	;	3413.242
220	;	4200	;	3513.242
220	;	4300	;	3613.242
220	;	4400	;	3713.242
220	;	4500	;	3813.242
220	;	4600	;	3913.242
220	;	4700	;	4013.242
220	;	4800	;	4113.242
220	;	4900	;	4213.242
220	;	5000	;	4313.242
230	;	0	;	-47
230	;	100	;	53
230	;	200	;	153
230	;	300	;	253
230	;	400	;	353
230	;	500	;	453
230	;	600	;	553
230	;	700	;	653
230	;	800	;	753
230	;	900	;	851.46442
230	;	1000	;	934.4024
230	;	1100	;	1021.03501
230	;	1200	;	1101.12633
230	;	1300	;	1187.793
230	;	1400	;	1274.03559
230	;	1500	;	1363.51599
230	;	1600	;	1456.37696
230	;	1700	;	1547.13359
230	;	1800	;	1639.33966
230	;	1900	;	1723.7871
230	;	2000	;	1815.13373
230	;	2100	;	1907.77947
230	;	2200	;	2004.86026
230	;	2300	;	2091.96774
230	;	2400	;	2177.53134
230	;	2500	;	2263.15785
230	;	2600	;	2341.74944
230	;	2700	;	2424.95533
230	;	2800	;	2499.9239
230	;	2900	;	2578.7969
230	;	3000	;	2650.74449
230	;	3100	;	2728.19034
230	;	3200	;	2816.45377
230	;	3300	;	2872.69058
230	;	3400	;	2945.23697
230	;	3500	;	3011.94521
230	;	3600	;	3106.849
230	;	3700	;	3206.849
230	;	3800	;	3306.849
230	;	3900	;	3406.849
230	;	4000	;	3506.849
230	;	4100	;	3606.849
230	;	4200	;	3706.849
230	;	4300	;	3806.849
230	;	4400	;	3906.849
230	;	4500	;	4006.849
230	;	4600	;	4106.849
230	;	4700	;	4206.849
230	;	4800	;	4306.849
230	;	4900	;	4406.849
230	;	5000	;	4506.849
240	;	0	;	-29
240	;	100	;	71
240	;	200	;	171
240	;	300	;	271
240	;	400	;	371
240	;	500	;	471
240	;	600	;	571
240	;	700	;	671
240	;	800	;	771
240	;	900	;	870.38345
240	;	1000	;	963.53288
240	;	1100	;	1063.47032
240	;	1200	;	1152.38964
240	;	1300	;	1245.72298
240	;	1400	;	1338.84427
240	;	1500	;	1429.26941
240	;	1600	;	1528.9782
240	;	1700	;	1623.6308
240	;	1800	;	1719.66983
240	;	1900	;	1810.34532
240	;	2000	;	1908.6758
240	;	2100	;	2002.75664
240	;	2200	;	2094.59665
240	;	2300	;	2197.66421
240	;	2400	;	2278.36398
240	;	2500	;	2378.15453
240	;	2600	;	2465.67071
240	;	2700	;	2552.98789
240	;	2800	;	2633.94215
240	;	2900	;	2724.08179
240	;	3000	;	2813.14274
240	;	3100	;	2910.04566
240	;	3200	;	2991.79965
240	;	3300	;	3060.53354
240	;	3400	;	3146.65407
240	;	3500	;	3228.85845
240	;	3600	;	3326.027
240	;	3700	;	3426.027
240	;	3800	;	3526.027
240	;	3900	;	3626.027
240	;	4000	;	3726.027
240	;	4100	;	3826.027
240	;	4200	;	3926.027
240	;	4300	;	4026.027
240	;	4400	;	4126.027
240	;	4500	;	4226.027
240	;	4600	;	4326.027
240	;	4700	;	4426.027
240	;	4800	;	4526.027
240	;	4900	;	4626.027
240	;	5000	;	4726.027
250	;	0	;	0
250	;	100	;	100
250	;	200	;	200
250	;	300	;	300
250	;	400	;	400
250	;	500	;	500
250	;	600	;	600
250	;	700	;	700
250	;	800	;	800
250	;	900	;	900
250	;	1000	;	1000
250	;	1100	;	1100
250	;	1200	;	1200
250	;	1300	;	1300
250	;	1400	;	1400
250	;	1500	;	1500
250	;	1600	;	1600
250	;	1700	;	1700
250	;	1800	;	1800
250	;	1900	;	1900
250	;	2000	;	2000
250	;	2100	;	2100
250	;	2200	;	2200
250	;	2300	;	2300
250	;	2400	;	2400
250	;	2500	;	2500
250	;	2600	;	2600
250	;	2700	;	2700
250	;	2800	;	2800
250	;	2900	;	2900
250	;	3000	;	3000
250	;	3100	;	3100
250	;	3200	;	3200
250	;	3300	;	3300
250	;	3400	;	3400
250	;	3500	;	3500
250	;	3600	;	3600
250	;	3700	;	3700
250	;	3800	;	3800
250	;	3900	;	3900
250	;	4000	;	4000
250	;	4100	;	4100
250	;	4200	;	4200
250	;	4300	;	4300
250	;	4400	;	4400
250	;	4500	;	4500
250	;	4600	;	4600
250	;	4700	;	4700
250	;	4800	;	4800
250	;	4900	;	4900
250	;	5000	;	5000
260	;	0	;	14.815
260	;	100	;	114.815
260	;	200	;	214.815
260	;	300	;	314.815
260	;	400	;	414.815
260	;	500	;	514.815
260	;	600	;	614.815
260	;	700	;	714.815
260	;	800	;	814.815
260	;	900	;	915.9736
260	;	1000	;	1028.84379
260	;	1100	;	1138.74572
260	;	1200	;	1239.92398
260	;	1300	;	1353.12808
260	;	1400	;	1457.22486
260	;	1500	;	1563.32953
260	;	1600	;	1663.38147
260	;	1700	;	1767.99916
260	;	1800	;	1882.64187
260	;	1900	;	1979.57526
260	;	2000	;	2081.83744
260	;	2100	;	2194.26496
260	;	2200	;	2296.92133
260	;	2300	;	2400.40348
260	;	2400	;	2511.34878
260	;	2500	;	2628.97685
260	;	2600	;	2736.54698
260	;	2700	;	2843.96411
260	;	2800	;	2950.66515
260	;	2900	;	3066.02548
260	;	3000	;	3183.75108
260	;	3100	;	3297.60971
260	;	3200	;	3423.52144
260	;	3300	;	3541.2988
260	;	3400	;	3662.1245
260	;	3500	;	3785.43215
260	;	3600	;	3888.809
260	;	3700	;	3988.809
260	;	3800	;	4088.809
260	;	3900	;	4188.809
260	;	4000	;	4288.809
260	;	4100	;	4388.809
260	;	4200	;	4488.809
260	;	4300	;	4588.809
260	;	4400	;	4688.809
260	;	4500	;	4788.809
260	;	4600	;	4888.809
260	;	4700	;	4988.809
260	;	4800	;	5088.809
260	;	4900	;	5188.809
260	;	5000	;	5288.809
270	;	0	;	47.655
270	;	100	;	147.655
270	;	200	;	247.655
270	;	300	;	347.655
270	;	400	;	447.655
270	;	500	;	547.655
270	;	600	;	647.655
270	;	700	;	747.655
270	;	800	;	847.655
270	;	900	;	948.81282
270	;	1000	;	1061.68302
270	;	1100	;	1181.48233
270	;	1200	;	1291.18966
270	;	1300	;	1414.38236
270	;	1400	;	1525.60847
270	;	1500	;	1629.78335
270	;	1600	;	1739.31994
270	;	1700	;	1851.49188
270	;	1800	;	1970.17806
270	;	1900	;	2076.42531
270	;	2000	;	2180.35511
270	;	2100	;	2292.78264
270	;	2200	;	2408.96998
270	;	2300	;	2520.70871
270	;	2400	;	2656.09842
270	;	2500	;	2785.87537
270	;	2600	;	2900.32345
270	;	2700	;	3014.14469
270	;	2800	;	3134.47358
270	;	2900	;	3277.97333
270	;	3000	;	3419.32478
270	;	3100	;	3575.58663
270	;	3200	;	3693.54503
270	;	3300	;	3855.8217
270	;	3400	;	3990.5255
270	;	3500	;	4172.1
270	;	3600	;	4285.845
270	;	3700	;	4385.845
270	;	3800	;	4485.845
270	;	3900	;	4585.845
270	;	4000	;	4685.845
270	;	4100	;	4785.845
270	;	4200	;	4885.845
270	;	4300	;	4985.845
270	;	4400	;	5085.845
270	;	4500	;	5185.845
270	;	4600	;	5285.845
270	;	4700	;	5385.845
270	;	4800	;	5485.845
270	;	4900	;	5585.845
270	;	5000	;	5685.845
280	;	0	;	76.845
280	;	100	;	176.845
280	;	200	;	276.845
280	;	300	;	376.845
280	;	400	;	476.845
280	;	500	;	576.845
280	;	600	;	676.845
280	;	700	;	776.845
280	;	800	;	876.845
280	;	900	;	978.89957
280	;	1000	;	1101.7289
280	;	1100	;	1228.21741
280	;	1200	;	1353.28011
280	;	1300	;	1479.80236
280	;	1400	;	1600.81783
280	;	1500	;	1715.02851
280	;	1600	;	1830.31121
280	;	1700	;	1953.01376
280	;	1800	;	2072.34454
280	;	1900	;	2178.59179
280	;	2000	;	2288.38573
280	;	2100	;	2411.11534
280	;	2200	;	2536.14596
280	;	2300	;	2659.20534
280	;	2400	;	2811.96635
280	;	2500	;	2954.93797
280	;	2600	;	3085.66792
280	;	2700	;	3218.64837
280	;	2800	;	3362.37172
280	;	2900	;	3518.53651
280	;	3000	;	3681.6023
280	;	3100	;	3859.13701
280	;	3200	;	4015.09693
280	;	3300	;	4173.27572
280	;	3400	;	4317.7887
280	;	3500	;	4558.76785
280	;	3600	;	4682.88
280	;	3700	;	4782.88
280	;	3800	;	4882.88
280	;	3900	;	4982.88
280	;	4000	;	5082.88
280	;	4100	;	5182.88
280	;	4200	;	5282.88
280	;	4300	;	5382.88
280	;	4400	;	5482.88
280	;	4500	;	5582.88
280	;	4600	;	5682.88
280	;	4700	;	5782.88
280	;	4800	;	5882.88
280	;	4900	;	5982.88
280	;	5000	;	6082.88
290	;	0	;	102.387
290	;	100	;	202.387
290	;	200	;	302.387
290	;	300	;	402.387
290	;	400	;	502.387
290	;	500	;	602.387
290	;	600	;	702.387
290	;	700	;	802.387
290	;	800	;	902.387
290	;	900	;	1005.93506
290	;	1000	;	1145.36295
290	;	1100	;	1275.30217
290	;	1200	;	1415.43139
290	;	1300	;	1548.61269
290	;	1400	;	1670.14509
290	;	1500	;	1792.97606
290	;	1600	;	1920.84488
290	;	1700	;	2047.66776
290	;	1800	;	2174.44084
290	;	1900	;	2291.73237
290	;	2000	;	2410.6877
290	;	2100	;	2544.04325
290	;	2200	;	2681.29989
290	;	2300	;	2815.94597
290	;	2400	;	2980.08979
290	;	2500	;	3141.30007
290	;	2600	;	3285.83761
290	;	2700	;	3451.62857
290	;	2800	;	3611.55454
290	;	2900	;	3797.25349
290	;	3000	;	3960.72215
290	;	3100	;	4186.61572
290	;	3200	;	4336.64883
290	;	3300	;	4490.72975
290	;	3400	;	4645.0519
290	;	3500	;	4945.4357
290	;	3600	;	5079.915
290	;	3700	;	5179.915
290	;	3800	;	5279.915
290	;	3900	;	5379.915
290	;	4000	;	5479.915
290	;	4100	;	5579.915
290	;	4200	;	5679.915
290	;	4300	;	5779.915
290	;	4400	;	5879.915
290	;	4500	;	5979.915
290	;	4600	;	6079.915
290	;	4700	;	6179.915
290	;	4800	;	6279.915
290	;	4900	;	6379.915
290	;	5000	;	6479.915
300	;	0	;	129
300	;	100	;	229
300	;	200	;	329
300	;	300	;	429
300	;	400	;	529
300	;	500	;	629
300	;	600	;	729
300	;	700	;	829
300	;	800	;	929
300	;	900	;	1032.82986
300	;	1000	;	1175.38385
300	;	1100	;	1318.87239
300	;	1200	;	1471.93904
300	;	1300	;	1618.77333
300	;	1400	;	1747.98817
300	;	1500	;	1874.92571
300	;	1600	;	2010.71959
300	;	1700	;	2152.05814
300	;	1800	;	2283.6044
300	;	1900	;	2411.9
300	;	2000	;	2537.60001
300	;	2100	;	2687.97435
300	;	2200	;	2841.86131
300	;	2300	;	2985.01979
300	;	2400	;	3177.58932
300	;	2500	;	3344.24053
300	;	2600	;	3523.68395
300	;	2700	;	3699.95528
300	;	2800	;	3875.96189
300	;	2900	;	4077.17391
300	;	3000	;	4253.47296
300	;	3100	;	4514.09444
300	;	3200	;	4658.20073
300	;	3300	;	4808.18377
300	;	3400	;	4972.3151
300	;	3500	;	5332.10354
300	;	3600	;	5476.951
300	;	3700	;	5576.951
300	;	3800	;	5676.951
300	;	3900	;	5776.951
300	;	4000	;	5876.951
300	;	4100	;	5976.951
300	;	4200	;	6076.951
300	;	4300	;	6176.951
300	;	4400	;	6276.951
300	;	4500	;	6376.951
300	;	4600	;	6476.951
300	;	4700	;	6576.951
300	;	4800	;	6676.951
300	;	4900	;	6776.951
300	;	5000	;	6876.951
310	;	0	;	165
310	;	100	;	265
310	;	200	;	365
310	;	300	;	465
310	;	400	;	565
310	;	500	;	665
310	;	600	;	765
310	;	700	;	865
310	;	800	;	965
310	;	900	;	1070.07448
310	;	1000	;	1226.45756
310	;	1100	;	1376.68572
310	;	1200	;	1537.82856
310	;	1300	;	1687.99999
310	;	1400	;	1823.84236
310	;	1500	;	1957.48572
310	;	1600	;	2108.54516
310	;	1700	;	2261.12635
310	;	1800	;	2415.05055
310	;	1900	;	2549.75715
310	;	2000	;	2685.38776
310	;	2100	;	2846.01905
310	;	2200	;	3016.26667
310	;	2300	;	3178.58462
310	;	2400	;	3381.35638
310	;	2500	;	3572.47764
310	;	2600	;	3764.84508
310	;	2700	;	3977.60187
310	;	2800	;	4144.90953
310	;	2900	;	4357.09434
310	;	3000	;	4546.22376
310	;	3100	;	4841.57315
310	;	3200	;	4979.75262
310	;	3300	;	5125.6378
310	;	3400	;	5299.5783
310	;	3500	;	5718.77139
310	;	3600	;	5873.986
310	;	3700	;	5973.986
310	;	3800	;	6073.986
310	;	3900	;	6173.986
310	;	4000	;	6273.986
310	;	4100	;	6373.986
310	;	4200	;	6473.986
310	;	4300	;	6573.986
310	;	4400	;	6673.986
310	;	4500	;	6773.986
310	;	4600	;	6873.986
310	;	4700	;	6973.986
310	;	4800	;	7073.986
310	;	4900	;	7173.986
310	;	5000	;	7273.986
320	;	0	;	202
320	;	100	;	302
320	;	200	;	402
320	;	300	;	502
320	;	400	;	602
320	;	500	;	702
320	;	600	;	802
320	;	700	;	902
320	;	800	;	1002
320	;	900	;	1108.23721
320	;	1000	;	1277.53957
320	;	1100	;	1434.49905
320	;	1200	;	1611.21523
320	;	1300	;	1774.73523
320	;	1400	;	1914.79803
320	;	1500	;	2051.79429
320	;	1600	;	2217.34216
320	;	1700	;	2388.04955
320	;	1800	;	2546.67253
320	;	1900	;	2696.91428
320	;	2000	;	2852.96327
320	;	2100	;	3029.75662
320	;	2200	;	3212.95238
320	;	2300	;	3394.09231
320	;	2400	;	3620.94106
320	;	2500	;	3835.89512
320	;	2600	;	4092.51323
320	;	2700	;	4304.0528
320	;	2800	;	4413.85717
320	;	2900	;	4637.01477
320	;	3000	;	4838.97456
320	;	3100	;	5169.05186
320	;	3200	;	5301.30452
320	;	3300	;	5443.09182
320	;	3400	;	5626.8415
320	;	3500	;	6105.43924
320	;	3600	;	6271.022
320	;	3700	;	6371.022
320	;	3800	;	6471.022
320	;	3900	;	6571.022
320	;	4000	;	6671.022
320	;	4100	;	6771.022
320	;	4200	;	6871.022
320	;	4300	;	6971.022
320	;	4400	;	7071.022
320	;	4500	;	7171.022
320	;	4600	;	7271.022
320	;	4700	;	7371.022
320	;	4800	;	7471.022
320	;	4900	;	7571.022
320	;	5000	;	7671.022
330	;	0	;	246
330	;	100	;	346
330	;	200	;	446
330	;	300	;	546
330	;	400	;	646
330	;	500	;	746
330	;	600	;	846
330	;	700	;	946
330	;	800	;	1046
330	;	900	;	1153.12623
330	;	1000	;	1332.30651
330	;	1100	;	1509.1962
330	;	1200	;	1691.79427
330	;	1300	;	1861.98857
330	;	1400	;	2018.49064
330	;	1500	;	2169.37143
330	;	1600	;	2338.02788
330	;	1700	;	2536.26954
330	;	1800	;	2700.23737
330	;	1900	;	2866.01429
330	;	2000	;	3033.66531
330	;	2100	;	3230.39154
330	;	2200	;	3441.48572
330	;	2300	;	3638.9099
330	;	2400	;	3872.25098
330	;	2500	;	4125.7374
330	;	2600	;	4422.42898
330	;	2700	;	4630.50372
330	;	2800	;	4682.8048
330	;	2900	;	4916.93519
330	;	3000	;	5131.72537
330	;	3100	;	5496.53057
330	;	3200	;	5622.85642
330	;	3300	;	5760.54585
330	;	3400	;	5954.1047
330	;	3500	;	6492.10708
330	;	3600	;	6668.057
330	;	3700	;	6768.057
330	;	3800	;	6868.057
330	;	3900	;	6968.057
330	;	4000	;	7068.057
330	;	4100	;	7168.057
330	;	4200	;	7268.057
330	;	4300	;	7368.057
330	;	4400	;	7468.057
330	;	4500	;	7568.057
330	;	4600	;	7668.057
330	;	4700	;	7768.057
330	;	4800	;	7868.057
330	;	4900	;	7968.057
330	;	5000	;	8068.057
340	;	0	;	294
340	;	100	;	394
340	;	200	;	494
340	;	300	;	594
340	;	400	;	694
340	;	500	;	794
340	;	600	;	894
340	;	700	;	994
340	;	800	;	1094
340	;	900	;	1201.98716
340	;	1000	;	1390.73343
340	;	1100	;	1574.32381
340	;	1200	;	1761.5238
340	;	1300	;	1945.06667
340	;	1400	;	2118.52611
340	;	1500	;	2283.29143
340	;	1600	;	2489.33466
340	;	1700	;	2676.1024
340	;	1800	;	2868.18462
340	;	1900	;	3040.44285
340	;	2000	;	3220.96327
340	;	2100	;	3438.34074
340	;	2200	;	3653.60001
340	;	2300	;	3854.62858
340	;	2400	;	4181.13554
340	;	2500	;	4439.30965
340	;	2600	;	4752.34473
340	;	2700	;	4956.95465
340	;	2800	;	4951.75244
340	;	2900	;	5196.85562
340	;	3000	;	5424.47617
340	;	3100	;	5824.00928
340	;	3200	;	5944.40831
340	;	3300	;	6077.99987
340	;	3400	;	6281.3679
340	;	3500	;	6878.77493
340	;	3600	;	7065.092
340	;	3700	;	7165.092
340	;	3800	;	7265.092
340	;	3900	;	7365.092
340	;	4000	;	7465.092
340	;	4100	;	7565.092
340	;	4200	;	7665.092
340	;	4300	;	7765.092
340	;	4400	;	7865.092
340	;	4500	;	7965.092
340	;	4600	;	8065.092
340	;	4700	;	8165.092
340	;	4800	;	8265.092
340	;	4900	;	8365.092
340	;	5000	;	8465.092
350	;	0	;	349
350	;	100	;	449
350	;	200	;	549
350	;	300	;	649
350	;	400	;	749
350	;	500	;	849
350	;	600	;	949
350	;	700	;	1049
350	;	800	;	1149
350	;	900	;	1257.87384
350	;	1000	;	1456.47203
350	;	1100	;	1640.15238
350	;	1200	;	1853.25713
350	;	1300	;	2053.48571
350	;	1400	;	2225.05616
350	;	1500	;	2403.74858
350	;	1600	;	2627.3888
350	;	1700	;	2846.04989
350	;	1800	;	3050.93627
350	;	1900	;	3232.6
350	;	2000	;	3435.36327
350	;	2100	;	3654.80635
350	;	2200	;	3872.76191
350	;	2300	;	4096.92253
350	;	2400	;	4490.0201
350	;	2500	;	4752.8819
350	;	2600	;	5082.26048
350	;	2700	;	5283.40558
350	;	2800	;	5220.70008
350	;	2900	;	5476.77605
350	;	3000	;	5717.22698
350	;	3100	;	6151.488
350	;	3200	;	6265.96021
350	;	3300	;	6395.4539
350	;	3400	;	6608.6311
350	;	3500	;	7265.44278
350	;	3600	;	7462.128
350	;	3700	;	7562.128
350	;	3800	;	7662.128
350	;	3900	;	7762.128
350	;	4000	;	7862.128
350	;	4100	;	7962.128
350	;	4200	;	8062.128
350	;	4300	;	8162.128
350	;	4400	;	8262.128
350	;	4500	;	8362.128
350	;	4600	;	8462.128
350	;	4700	;	8562.128
350	;	4800	;	8662.128
350	;	4900	;	8762.128
350	;	5000	;	8862.128
360	;	0	;	413.686
360	;	100	;	513.686
360	;	200	;	613.686
360	;	300	;	713.686
360	;	400	;	813.686
360	;	500	;	913.686
360	;	600	;	1013.686
360	;	700	;	1113.686
360	;	800	;	1213.686
360	;	900	;	1323.25204
360	;	1000	;	1529.54462
360	;	1100	;	1723.21525
360	;	1200	;	1955.83999
360	;	1300	;	2166.07999
360	;	1400	;	2354.34876
360	;	1500	;	2544.04572
360	;	1600	;	2783.72865
360	;	1700	;	3020.51595
360	;	1800	;	3233.72308
360	;	1900	;	3446.45714
360	;	2000	;	3657.73062
360	;	2100	;	3869.00318
360	;	2200	;	4113.85418
360	;	2300	;	4339.56182
360	;	2400	;	4798.90466
360	;	2500	;	5066.45414
360	;	2600	;	5412.17623
360	;	2700	;	5609.85651
360	;	2800	;	5489.64771
360	;	2900	;	5756.69647
360	;	3000	;	6009.97778
360	;	3100	;	6478.96671
360	;	3200	;	6587.51211
360	;	3300	;	6712.90792
360	;	3400	;	6935.8943
360	;	3500	;	7652.11063
360	;	3600	;	7859.163
360	;	3700	;	7959.163
360	;	3800	;	8059.163
360	;	3900	;	8159.163
360	;	4000	;	8259.163
360	;	4100	;	8359.163
360	;	4200	;	8459.163
360	;	4300	;	8559.163
360	;	4400	;	8659.163
360	;	4500	;	8759.163
360	;	4600	;	8859.163
360	;	4700	;	8959.163
360	;	4800	;	9059.163
360	;	4900	;	9159.163
360	;	5000	;	9259.163
370	;	0	;	477
370	;	100	;	577
370	;	200	;	677
370	;	300	;	777
370	;	400	;	877
370	;	500	;	977
370	;	600	;	1077
370	;	700	;	1177
370	;	800	;	1277
370	;	900	;	1387.97939
370	;	1000	;	1609.97267
370	;	1100	;	1823.52334
370	;	1200	;	2065.91999
370	;	1300	;	2296.18285
370	;	1400	;	2501.92709
370	;	1500	;	2699.74857
370	;	1600	;	2958.1249
370	;	1700	;	3213.26772
370	;	1800	;	3434.79561
370	;	1900	;	3653.8
370	;	2000	;	3877.94286
370	;	2100	;	4106.95
370	;	2200	;	4357.08394
370	;	2300	;	4582.2011
370	;	2400	;	5107.78922
370	;	2500	;	5380.02639
370	;	2600	;	5742.09198
370	;	2700	;	5936.30744
370	;	2800	;	5758.59535
370	;	2900	;	6036.6169
370	;	3000	;	6302.72858
370	;	3100	;	6806.44542
370	;	3200	;	6909.06401
370	;	3300	;	7030.36195
370	;	3400	;	7263.1575
370	;	3500	;	8038.77847
370	;	3600	;	8256.198
370	;	3700	;	8356.198
370	;	3800	;	8456.198
370	;	3900	;	8556.198
370	;	4000	;	8656.198
370	;	4100	;	8756.198
370	;	4200	;	8856.198
370	;	4300	;	8956.198
370	;	4400	;	9056.198
370	;	4500	;	9156.198
370	;	4600	;	9256.198
370	;	4700	;	9356.198
370	;	4800	;	9456.198
370	;	4900	;	9556.198
370	;	5000	;	9656.198
380	;	0	;	554.6
380	;	100	;	654.6
380	;	200	;	754.6
380	;	300	;	854.6
380	;	400	;	954.6
380	;	500	;	1054.6
380	;	600	;	1154.6
380	;	700	;	1254.6
380	;	800	;	1354.6
380	;	900	;	1467.30127
380	;	1000	;	1708.42652
380	;	1100	;	1928.86858
380	;	1200	;	2194.0419
380	;	1300	;	2430.97904
380	;	1400	;	2646.79409
380	;	1500	;	2857.55429
380	;	1600	;	3143.03393
380	;	1700	;	3423.87449
380	;	1800	;	3644.25
380	;	1900	;	3858.48169
380	;	2000	;	4100.23062
380	;	2100	;	4345.60186
380	;	2200	;	4600.3137
380	;	2300	;	4824.84039
380	;	2400	;	5416.67379
380	;	2500	;	5693.59864
380	;	2600	;	6072.00773
380	;	2700	;	6262.75837
380	;	2800	;	6027.54299
380	;	2900	;	6316.53732
380	;	3000	;	6595.47939
380	;	3100	;	7133.92413
380	;	3200	;	7230.6159
380	;	3300	;	7347.81597
380	;	3400	;	7590.42069
380	;	3500	;	8425.44632
380	;	3600	;	8653.234
380	;	3700	;	8753.234
380	;	3800	;	8853.234
380	;	3900	;	8953.234
380	;	4000	;	9053.234
380	;	4100	;	9153.234
380	;	4200	;	9253.234
380	;	4300	;	9353.234
380	;	4400	;	9453.234
380	;	4500	;	9553.234
380	;	4600	;	9653.234
380	;	4700	;	9753.234
380	;	4800	;	9853.234
380	;	4900	;	9953.234
380	;	5000	;	10053.234
390	;	0	;	666.029
390	;	100	;	766.029
390	;	200	;	866.029
390	;	300	;	966.029
390	;	400	;	1066.029
390	;	500	;	1166.029
390	;	600	;	1266.029
390	;	700	;	1366.029
390	;	800	;	1466.029
390	;	900	;	1578.88893
390	;	1000	;	1821.78181
390	;	1100	;	2052.16001
390	;	1200	;	2336.79237
390	;	1300	;	2580.40381
390	;	1400	;	2812.65813
390	;	1500	;	3040.18286
390	;	1600	;	3350.11515
390	;	1700	;	3625.44807
390	;	1800	;	3855.29671
390	;	1900	;	4105.41987
390	;	2000	;	4332.25001
390	;	2100	;	4584.25371
390	;	2200	;	4843.54347
390	;	2300	;	5067.47967
390	;	2400	;	5725.55835
390	;	2500	;	6007.17089
390	;	2600	;	6401.92348
390	;	2700	;	6589.2093
390	;	2800	;	6296.49062
390	;	2900	;	6596.45775
390	;	3000	;	6888.23019
390	;	3100	;	7461.40285
390	;	3200	;	7552.1678
390	;	3300	;	7665.27
390	;	3400	;	7917.68389
390	;	3500	;	8812.11417
390	;	3600	;	9050.269
390	;	3700	;	9150.269
390	;	3800	;	9250.269
390	;	3900	;	9350.269
390	;	4000	;	9450.269
390	;	4100	;	9550.269
390	;	4200	;	9650.269
390	;	4300	;	9750.269
390	;	4400	;	9850.269
390	;	4500	;	9950.269
390	;	4600	;	10050.269
390	;	4700	;	10150.269
390	;	4800	;	10250.269
390	;	4900	;	10350.269
390	;	5000	;	10450.269
400	;	0	;	779.4
400	;	100	;	879.4
400	;	200	;	979.4
400	;	300	;	1079.4
400	;	400	;	1179.4
400	;	500	;	1279.4
400	;	600	;	1379.4
400	;	700	;	1479.4
400	;	800	;	1579.4
400	;	900	;	1692.85927
400	;	1000	;	1942.40674
400	;	1100	;	2182.76572
400	;	1200	;	2479.78666
400	;	1300	;	2743.42094
400	;	1400	;	2993.15074
400	;	1500	;	3243.2
400	;	1600	;	3558.57229
400	;	1700	;	3833.90521
400	;	1800	;	4104.84067
400	;	1900	;	4358.26897
400	;	2000	;	4564.26939
400	;	2100	;	4822.90556
400	;	2200	;	5086.77323
400	;	2300	;	5310.11896
400	;	2400	;	6034.44291
400	;	2500	;	6320.74314
400	;	2600	;	6731.83923
400	;	2700	;	6915.66023
400	;	2800	;	6565.43826
400	;	2900	;	6876.37818
400	;	3000	;	7180.981
400	;	3100	;	7788.88156
400	;	3200	;	7873.7197
400	;	3300	;	7982.72402
400	;	3400	;	8244.94709
400	;	3500	;	9198.78201
400	;	3600	;	9447.304
400	;	3700	;	9547.304
400	;	3800	;	9647.304
400	;	3900	;	9747.304
400	;	4000	;	9847.304
400	;	4100	;	9947.304
400	;	4200	;	10047.304
400	;	4300	;	10147.304
400	;	4400	;	10247.304
400	;	4500	;	10347.304
400	;	4600	;	10447.304
400	;	4700	;	10547.304
400	;	4800	;	10647.304
400	;	4900	;	10747.304
400	;	5000	;	10847.304
410	;	0	;	896.429
410	;	100	;	996.429
410	;	200	;	1096.429
410	;	300	;	1196.429
410	;	400	;	1296.429
410	;	500	;	1396.429
410	;	600	;	1496.429
410	;	700	;	1596.429
410	;	800	;	1696.429
410	;	900	;	1811.38513
410	;	1000	;	2077.5691
410	;	1100	;	2331.30668
410	;	1200	;	2648.31999
410	;	1300	;	2928.63999
410	;	1400	;	3189.21773
410	;	1500	;	3449.32572
410	;	1600	;	3767.02943
410	;	1700	;	4085.7611
410	;	1800	;	4354.82803
410	;	1900	;	4611.11808
410	;	2000	;	4796.28878
410	;	2100	;	5061.55741
410	;	2200	;	5330.00299
410	;	2300	;	5552.75824
410	;	2400	;	6343.32747
410	;	2500	;	6634.31539
410	;	2600	;	7061.75497
410	;	2700	;	7242.11115
410	;	2800	;	6834.3859
410	;	2900	;	7156.2986
410	;	3000	;	7473.7318
410	;	3100	;	8116.36027
410	;	3200	;	8195.27159
410	;	3300	;	8300.17805
410	;	3400	;	8572.21029
410	;	3500	;	9585.44986
410	;	3600	;	9844.34
410	;	3700	;	9944.34
410	;	3800	;	10044.34
410	;	3900	;	10144.34
410	;	4000	;	10244.34
410	;	4100	;	10344.34
410	;	4200	;	10444.34
410	;	4300	;	10544.34
410	;	4400	;	10644.34
410	;	4500	;	10744.34
410	;	4600	;	10844.34
410	;	4700	;	10944.34
410	;	4800	;	11044.34
410	;	4900	;	11144.34
410	;	5000	;	11244.34
420	;	0	;	1024.429
420	;	100	;	1124.429
420	;	200	;	1224.429
420	;	300	;	1324.429
420	;	400	;	1424.429
420	;	500	;	1524.429
420	;	600	;	1624.429
420	;	700	;	1724.429
420	;	800	;	1824.429
420	;	900	;	1940.88241
420	;	1000	;	2223.70288
420	;	1100	;	2494.12573
420	;	1200	;	2838.79618
420	;	1300	;	3135.80189
420	;	1400	;	3410.41182
420	;	1500	;	3686.81144
420	;	1600	;	4010.00765
420	;	1700	;	4339.65616
420	;	1800	;	4604.8154
420	;	1900	;	4863.96719
420	;	2000	;	5028.30817
420	;	2100	;	5300.20926
420	;	2200	;	5573.23276
420	;	2300	;	5795.39752
420	;	2400	;	6652.21203
420	;	2500	;	6947.88764
420	;	2600	;	7391.67072
420	;	2700	;	7568.56208
420	;	2800	;	7103.33353
420	;	2900	;	7436.21903
420	;	3000	;	7766.4826
420	;	3100	;	8443.83898
420	;	3200	;	8516.82349
420	;	3300	;	8617.63207
420	;	3400	;	8899.47349
420	;	3500	;	9972.11771
420	;	3600	;	10241.375
420	;	3700	;	10341.375
420	;	3800	;	10441.375
420	;	3900	;	10541.375
420	;	4000	;	10641.375
420	;	4100	;	10741.375
420	;	4200	;	10841.375
420	;	4300	;	10941.375
420	;	4400	;	11041.375
420	;	4500	;	11141.375
420	;	4600	;	11241.375
420	;	4700	;	11341.375
420	;	4800	;	11441.375
420	;	4900	;	11541.375
420	;	5000	;	11641.375
430	;	0	;	1159.743
430	;	100	;	1259.743
430	;	200	;	1359.743
430	;	300	;	1459.743
430	;	400	;	1559.743
430	;	500	;	1659.743
430	;	600	;	1759.743
430	;	700	;	1859.743
430	;	800	;	1959.743
430	;	900	;	2077.69399
430	;	1000	;	2377.15095
430	;	1100	;	2667.56572
430	;	1200	;	3032.86856
430	;	1300	;	3343.22285
430	;	1400	;	3641.15862
430	;	1500	;	3941.02858
430	;	1600	;	4254.13249
430	;	1700	;	4593.55123
430	;	1800	;	4854.80277
430	;	1900	;	5116.8163
430	;	2000	;	5260.32756
430	;	2100	;	5538.86111
430	;	2200	;	5816.46252
430	;	2300	;	6038.03681
430	;	2400	;	6961.0966
430	;	2500	;	7261.45989
430	;	2600	;	7721.58647
430	;	2700	;	7895.01301
430	;	2800	;	7372.28117
430	;	2900	;	7716.13945
430	;	3000	;	8059.23341
430	;	3100	;	8771.3177
430	;	3200	;	8838.37539
430	;	3300	;	8935.0861
430	;	3400	;	9226.73669
430	;	3500	;	10358.78556
430	;	3600	;	10638.41
430	;	3700	;	10738.41
430	;	3800	;	10838.41
430	;	3900	;	10938.41
430	;	4000	;	11038.41
430	;	4100	;	11138.41
430	;	4200	;	11238.41
430	;	4300	;	11338.41
430	;	4400	;	11438.41
430	;	4500	;	11538.41
430	;	4600	;	11638.41
430	;	4700	;	11738.41
430	;	4800	;	11838.41
430	;	4900	;	11938.41
430	;	5000	;	12038.41
440	;	0	;	1302.371
440	;	100	;	1402.371
440	;	200	;	1502.371
440	;	300	;	1602.371
440	;	400	;	1702.371
440	;	500	;	1802.371
440	;	600	;	1902.371
440	;	700	;	2002.371
440	;	800	;	2102.371
440	;	900	;	2222.41876
440	;	1000	;	2545.16683
440	;	1100	;	2849.02097
440	;	1200	;	3241.69141
440	;	1300	;	3572.06857
440	;	1400	;	3887.47981
440	;	1500	;	4198.35429
440	;	1600	;	4498.25732
440	;	1700	;	4847.4463
440	;	1800	;	5104.79013
440	;	1900	;	5369.66541
440	;	2000	;	5492.34694
440	;	2100	;	5777.51296
440	;	2200	;	6059.69228
440	;	2300	;	6280.67609
440	;	2400	;	7269.98116
440	;	2500	;	7575.03214
440	;	2600	;	8051.50222
440	;	2700	;	8221.46394
440	;	2800	;	7641.22881
440	;	2900	;	7996.05988
440	;	3000	;	8351.98421
440	;	3100	;	9098.79641
440	;	3200	;	9159.92729
440	;	3300	;	9252.54012
440	;	3400	;	9553.99989
440	;	3500	;	10745.4534
440	;	3600	;	11035.446
440	;	3700	;	11135.446
440	;	3800	;	11235.446
440	;	3900	;	11335.446
440	;	4000	;	11435.446
440	;	4100	;	11535.446
440	;	4200	;	11635.446
440	;	4300	;	11735.446
440	;	4400	;	11835.446
440	;	4500	;	11935.446
440	;	4600	;	12035.446
440	;	4700	;	12135.446
440	;	4800	;	12235.446
440	;	4900	;	12335.446
440	;	5000	;	12435.446
450	;	0	;	1455.971
450	;	100	;	1555.971
450	;	200	;	1655.971
450	;	300	;	1755.971
450	;	400	;	1855.971
450	;	500	;	1955.971
450	;	600	;	2055.971
450	;	700	;	2155.971
450	;	800	;	2255.971
450	;	900	;	2379.61224
450	;	1000	;	2742.2879
450	;	1100	;	3049.81334
450	;	1200	;	3457.70665
450	;	1300	;	3801.43237
450	;	1400	;	3847.2197
450	;	1500	;	4385.73715
450	;	1600	;	4742.38216
450	;	1700	;	5101.34137
450	;	1800	;	5354.7775
450	;	1900	;	5622.51452
450	;	2000	;	5724.36633
450	;	2100	;	6016.16481
450	;	2200	;	6302.92205
450	;	2300	;	6523.31538
450	;	2400	;	7578.86572
450	;	2500	;	7888.60438
450	;	2600	;	8381.41797
450	;	2700	;	8547.91487
450	;	2800	;	7910.17644
450	;	2900	;	8275.98031
450	;	3000	;	8644.73502
450	;	3100	;	9426.27512
450	;	3200	;	9481.47918
450	;	3300	;	9569.99414
450	;	3400	;	9881.26309
450	;	3500	;	11132.12125
450	;	3600	;	11432.481
450	;	3700	;	11532.481
450	;	3800	;	11632.481
450	;	3900	;	11732.481
450	;	4000	;	11832.481
450	;	4100	;	11932.481
450	;	4200	;	12032.481
450	;	4300	;	12132.481
450	;	4400	;	12232.481
450	;	4500	;	12332.481
450	;	4600	;	12432.481
450	;	4700	;	12532.481
450	;	4800	;	12632.481
450	;	4900	;	12732.481
450	;	5000	;	12832.481
460	;	0	;	1609.571
460	;	100	;	1709.571
460	;	200	;	1809.571
460	;	300	;	1909.571
460	;	400	;	2009.571
460	;	500	;	2109.571
460	;	600	;	2209.571
460	;	700	;	2309.571
460	;	800	;	2409.571
460	;	900	;	2536.80572
460	;	1000	;	2939.40898
460	;	1100	;	3250.60571
460	;	1200	;	3673.72189
460	;	1300	;	4030.79618
460	;	1400	;	4225.23892
460	;	1500	;	4675.205
460	;	1600	;	4986.50699
460	;	1700	;	5355.23644
460	;	1800	;	5604.76486
460	;	1900	;	5875.36363
460	;	2000	;	5956.38572
460	;	2100	;	6254.81666
460	;	2200	;	6546.15181
460	;	2300	;	6765.95466
460	;	2400	;	7887.75028
460	;	2500	;	8202.17663
460	;	2600	;	8711.33372
460	;	2700	;	8874.3658
460	;	2800	;	8179.12408
460	;	2900	;	8555.90073
460	;	3000	;	8937.48582
460	;	3100	;	9753.75383
460	;	3200	;	9803.03108
460	;	3300	;	9887.44817
460	;	3400	;	10208.52629
460	;	3500	;	11518.7891
460	;	3600	;	11829.516
460	;	3700	;	11929.516
460	;	3800	;	12029.516
460	;	3900	;	12129.516
460	;	4000	;	12229.516
460	;	4100	;	12329.516
460	;	4200	;	12429.516
460	;	4300	;	12529.516
460	;	4400	;	12629.516
460	;	4500	;	12729.516
460	;	4600	;	12829.516
460	;	4700	;	12929.516
460	;	4800	;	13029.516
460	;	4900	;	13129.516
460	;	5000	;	13229.516
470	;	0	;	1763.171
470	;	100	;	1863.171
470	;	200	;	1963.171
470	;	300	;	2063.171
470	;	400	;	2163.171
470	;	500	;	2263.171
470	;	600	;	2363.171
470	;	700	;	2463.171
470	;	800	;	2563.171
470	;	900	;	2693.99921
470	;	1000	;	3136.53005
470	;	1100	;	3451.39809
470	;	1200	;	3889.73713
470	;	1300	;	4260.15999
470	;	1400	;	4255.03202
470	;	1500	;	4879.685
470	;	1600	;	5230.63182
470	;	1700	;	5609.13151
470	;	1800	;	5854.75223
470	;	1900	;	6128.21274
470	;	2000	;	6188.4051
470	;	2100	;	6493.46851
470	;	2200	;	6789.38157
470	;	2300	;	7008.59395
470	;	2400	;	8196.63484
470	;	2500	;	8515.74888
470	;	2600	;	9041.24947
470	;	2700	;	9200.81673
470	;	2800	;	8448.07172
470	;	2900	;	8835.82116
470	;	3000	;	9230.23662
470	;	3100	;	10081.23255
470	;	3200	;	10124.58298
470	;	3300	;	10204.90219
470	;	3400	;	10535.78949
470	;	3500	;	11905.45694
470	;	3600	;	12226.552
470	;	3700	;	12326.552
470	;	3800	;	12426.552
470	;	3900	;	12526.552
470	;	4000	;	12626.552
470	;	4100	;	12726.552
470	;	4200	;	12826.552
470	;	4300	;	12926.552
470	;	4400	;	13026.552
470	;	4500	;	13126.552
470	;	4600	;	13226.552
470	;	4700	;	13326.552
470	;	4800	;	13426.552
470	;	4900	;	13526.552
470	;	5000	;	13626.552
480	;	0	;	1916.771
480	;	100	;	2016.771
480	;	200	;	2116.771
480	;	300	;	2216.771
480	;	400	;	2316.771
480	;	500	;	2416.771
480	;	600	;	2516.771
480	;	700	;	2616.771
480	;	800	;	2716.771
480	;	900	;	2851.19269
480	;	1000	;	3333.65113
480	;	1100	;	3652.19046
480	;	1200	;	4105.75237
480	;	1300	;	4489.5238
480	;	1400	;	4284.82512
480	;	1500	;	5084.165
480	;	1600	;	5474.75666
480	;	1700	;	5863.02657
480	;	1800	;	6104.73959
480	;	1900	;	6381.06184
480	;	2000	;	6420.42449
480	;	2100	;	6732.12036
480	;	2200	;	7032.61134
480	;	2300	;	7251.23323
480	;	2400	;	8505.5194
480	;	2500	;	8829.32113
480	;	2600	;	9371.16522
480	;	2700	;	9527.26766
480	;	2800	;	8717.01935
480	;	2900	;	9115.74159
480	;	3000	;	9522.98743
480	;	3100	;	10408.71126
480	;	3200	;	10446.13487
480	;	3300	;	10522.35622
480	;	3400	;	10863.05269
480	;	3500	;	12292.12479
480	;	3600	;	12623.587
480	;	3700	;	12723.587
480	;	3800	;	12823.587
480	;	3900	;	12923.587
480	;	4000	;	13023.587
480	;	4100	;	13123.587
480	;	4200	;	13223.587
480	;	4300	;	13323.587
480	;	4400	;	13423.587
480	;	4500	;	13523.587
480	;	4600	;	13623.587
480	;	4700	;	13723.587
480	;	4800	;	13823.587
480	;	4900	;	13923.587
480	;	5000	;	14023.587
490	;	0	;	2070.371
490	;	100	;	2170.371
490	;	200	;	2270.371
490	;	300	;	2370.371
490	;	400	;	2470.371
490	;	500	;	2570.371
490	;	600	;	2670.371
490	;	700	;	2770.371
490	;	800	;	2870.371
490	;	900	;	3008.38617
490	;	1000	;	3530.7722
490	;	1100	;	3852.98284
490	;	1200	;	4321.76761
490	;	1300	;	4718.88761
490	;	1400	;	4314.61823
490	;	1500	;	5288.645
490	;	1600	;	5718.88149
490	;	1700	;	6116.92164
490	;	1800	;	6354.72696
490	;	1900	;	6633.91095
490	;	2000	;	6652.44388
490	;	2100	;	6970.77222
490	;	2200	;	7275.8411
490	;	2300	;	7493.87251
490	;	2400	;	8814.40397
490	;	2500	;	9142.89338
490	;	2600	;	9701.08097
490	;	2700	;	9853.71858
490	;	2800	;	8985.96699
490	;	2900	;	9395.66201
490	;	3000	;	9815.73823
490	;	3100	;	10736.18997
490	;	3200	;	10767.68677
490	;	3300	;	10839.81024
490	;	3400	;	11190.31589
490	;	3500	;	12678.79264
490	;	3600	;	13020.622
490	;	3700	;	13120.622
490	;	3800	;	13220.622
490	;	3900	;	13320.622
490	;	4000	;	13420.622
490	;	4100	;	13520.622
490	;	4200	;	13620.622
490	;	4300	;	13720.622
490	;	4400	;	13820.622
490	;	4500	;	13920.622
490	;	4600	;	14020.622
490	;	4700	;	14120.622
490	;	4800	;	14220.622
490	;	4900	;	14320.622
490	;	5000	;	14420.622
500	;	0	;	2223.971
500	;	100	;	2323.971
500	;	200	;	2423.971
500	;	300	;	2523.971
500	;	400	;	2623.971
500	;	500	;	2723.971
500	;	600	;	2823.971
500	;	700	;	2923.971
500	;	800	;	3023.971
500	;	900	;	3165.57966
500	;	1000	;	3727.89328
500	;	1100	;	4053.77521
500	;	1200	;	4537.78285
500	;	1300	;	4948.25142
500	;	1400	;	4344.41133
500	;	1500	;	5493.125
500	;	1600	;	5963.00633
500	;	1700	;	6370.81671
500	;	1800	;	6604.71432
500	;	1900	;	6886.76006
500	;	2000	;	6884.46327
500	;	2100	;	7209.42407
500	;	2200	;	7519.07086
500	;	2300	;	7736.5118
500	;	2400	;	9123.28853
500	;	2500	;	9456.46563
500	;	2600	;	10030.99672
500	;	2700	;	10180.16951
500	;	2800	;	9254.91463
500	;	2900	;	9675.58244
500	;	3000	;	10108.48904
500	;	3100	;	11063.66868
500	;	3200	;	11089.23867
500	;	3300	;	11157.26427
500	;	3400	;	11517.57909
500	;	3500	;	13065.46049
500	;	3600	;	13417.658
500	;	3700	;	13517.658
500	;	3800	;	13617.658
500	;	3900	;	13717.658
500	;	4000	;	13817.658
500	;	4100	;	13917.658
500	;	4200	;	14017.658
500	;	4300	;	14117.658
500	;	4400	;	14217.658
500	;	4500	;	14317.658
500	;	4600	;	14417.658
500	;	4700	;	14517.658
500	;	4800	;	14617.658
500	;	4900	;	14717.658
500	;	5000	;	14817.658
