1000	;	1000	;	250
1000	;	1100	;	276.33
1000	;	1200	;	302.66
1000	;	1300	;	328.99
1000	;	1400	;	355.32
1000	;	1500	;	381.65
1000	;	1600	;	407.98
1000	;	1700	;	434.31
1000	;	1800	;	457.4
1000	;	1900	;	479.982
1000	;	2000	;	502.564
1000	;	2100	;	520.012
1000	;	2200	;	528.098
1000	;	2300	;	536.185
1000	;	2400	;	544.271
1000	;	2500	;	552.358
1000	;	2600	;	560.444
1000	;	2700	;	568.531
1000	;	2800	;	576.618
1000	;	2900	;	584.704
1000	;	3000	;	592.791
1000	;	3100	;	600.877
1000	;	3200	;	608.964
1000	;	3300	;	617.05
1000	;	3400	;	625.137
1000	;	3500	;	633.224
1000	;	3600	;	641.31
1000	;	3700	;	649.397
1000	;	3800	;	657.483
1000	;	3900	;	665.57
1000	;	4000	;	673.657
1000	;	4100	;	681.743
1000	;	4200	;	689.83
1000	;	4300	;	697.916
1000	;	4400	;	706.003
1000	;	4500	;	714.089
1000	;	4600	;	722.176
1000	;	4700	;	730.263
1000	;	4800	;	738.349
1000	;	4900	;	746.436
1000	;	5000	;	754.522
1000	;	5100	;	762.609
1000	;	5200	;	770.695
1000	;	5300	;	778.782
1000	;	5400	;	786.869
1000	;	5500	;	794.955
1000	;	5600	;	803.042
1000	;	5700	;	811.128
1000	;	5800	;	819.215
1000	;	5900	;	827.301
1000	;	6000	;	835.388
1000	;	6100	;	843.475
1000	;	6200	;	851.561
1000	;	6300	;	859.648
1000	;	6400	;	867.734
1000	;	6500	;	875.821
1100	;	1000	;	223.67
1100	;	1100	;	250
1100	;	1200	;	276.33
1100	;	1300	;	302.66
1100	;	1400	;	328.99
1100	;	1500	;	355.32
1100	;	1600	;	381.65
1100	;	1700	;	407.98
1100	;	1800	;	431.07
1100	;	1900	;	453.652
1100	;	2000	;	476.234
1100	;	2100	;	493.682
1100	;	2200	;	501.768
1100	;	2300	;	509.855
1100	;	2400	;	517.941
1100	;	2500	;	526.028
1100	;	2600	;	534.114
1100	;	2700	;	542.201
1100	;	2800	;	550.288
1100	;	2900	;	558.374
1100	;	3000	;	566.461
1100	;	3100	;	574.547
1100	;	3200	;	582.634
1100	;	3300	;	590.72
1100	;	3400	;	598.807
1100	;	3500	;	606.894
1100	;	3600	;	614.98
1100	;	3700	;	623.067
1100	;	3800	;	631.153
1100	;	3900	;	639.24
1100	;	4000	;	647.327
1100	;	4100	;	655.413
1100	;	4200	;	663.5
1100	;	4300	;	671.586
1100	;	4400	;	679.673
1100	;	4500	;	687.759
1100	;	4600	;	695.846
1100	;	4700	;	703.933
1100	;	4800	;	712.019
1100	;	4900	;	720.106
1100	;	5000	;	728.192
1100	;	5100	;	736.279
1100	;	5200	;	744.365
1100	;	5300	;	752.452
1100	;	5400	;	760.539
1100	;	5500	;	768.625
1100	;	5600	;	776.712
1100	;	5700	;	784.798
1100	;	5800	;	792.885
1100	;	5900	;	800.972
1100	;	6000	;	809.058
1100	;	6100	;	817.145
1100	;	6200	;	825.231
1100	;	6300	;	833.318
1100	;	6400	;	841.404
1100	;	6500	;	849.491
1200	;	1000	;	197.34
1200	;	1100	;	223.67
1200	;	1200	;	250
1200	;	1300	;	276.33
1200	;	1400	;	302.66
1200	;	1500	;	328.99
1200	;	1600	;	355.32
1200	;	1700	;	381.65
1200	;	1800	;	404.74
1200	;	1900	;	427.322
1200	;	2000	;	449.904
1200	;	2100	;	467.352
1200	;	2200	;	475.438
1200	;	2300	;	483.525
1200	;	2400	;	491.611
1200	;	2500	;	499.698
1200	;	2600	;	507.784
1200	;	2700	;	515.871
1200	;	2800	;	523.958
1200	;	2900	;	532.044
1200	;	3000	;	540.131
1200	;	3100	;	548.217
1200	;	3200	;	556.304
1200	;	3300	;	564.391
1200	;	3400	;	572.477
1200	;	3500	;	580.564
1200	;	3600	;	588.65
1200	;	3700	;	596.737
1200	;	3800	;	604.823
1200	;	3900	;	612.91
1200	;	4000	;	620.997
1200	;	4100	;	629.083
1200	;	4200	;	637.17
1200	;	4300	;	645.256
1200	;	4400	;	653.343
1200	;	4500	;	661.429
1200	;	4600	;	669.516
1200	;	4700	;	677.603
1200	;	4800	;	685.689
1200	;	4900	;	693.776
1200	;	5000	;	701.862
1200	;	5100	;	709.949
1200	;	5200	;	718.036
1200	;	5300	;	726.122
1200	;	5400	;	734.209
1200	;	5500	;	742.295
1200	;	5600	;	750.382
1200	;	5700	;	758.468
1200	;	5800	;	766.555
1200	;	5900	;	774.642
1200	;	6000	;	782.728
1200	;	6100	;	790.815
1200	;	6200	;	798.901
1200	;	6300	;	806.988
1200	;	6400	;	815.074
1200	;	6500	;	823.161
1300	;	1000	;	171.01
1300	;	1100	;	197.34
1300	;	1200	;	223.67
1300	;	1300	;	250
1300	;	1400	;	276.33
1300	;	1500	;	302.66
1300	;	1600	;	328.99
1300	;	1700	;	355.32
1300	;	1800	;	378.41
1300	;	1900	;	400.992
1300	;	2000	;	423.574
1300	;	2100	;	441.022
1300	;	2200	;	449.108
1300	;	2300	;	457.195
1300	;	2400	;	465.281
1300	;	2500	;	473.368
1300	;	2600	;	481.455
1300	;	2700	;	489.541
1300	;	2800	;	497.628
1300	;	2900	;	505.714
1300	;	3000	;	513.801
1300	;	3100	;	521.887
1300	;	3200	;	529.974
1300	;	3300	;	538.061
1300	;	3400	;	546.147
1300	;	3500	;	554.234
1300	;	3600	;	562.32
1300	;	3700	;	570.407
1300	;	3800	;	578.493
1300	;	3900	;	586.58
1300	;	4000	;	594.667
1300	;	4100	;	602.753
1300	;	4200	;	610.84
1300	;	4300	;	618.926
1300	;	4400	;	627.013
1300	;	4500	;	635.099
1300	;	4600	;	643.186
1300	;	4700	;	651.273
1300	;	4800	;	659.359
1300	;	4900	;	667.446
1300	;	5000	;	675.532
1300	;	5100	;	683.619
1300	;	5200	;	691.706
1300	;	5300	;	699.792
1300	;	5400	;	707.879
1300	;	5500	;	715.965
1300	;	5600	;	724.052
1300	;	5700	;	732.138
1300	;	5800	;	740.225
1300	;	5900	;	748.312
1300	;	6000	;	756.398
1300	;	6100	;	764.485
1300	;	6200	;	772.571
1300	;	6300	;	780.658
1300	;	6400	;	788.744
1300	;	6500	;	796.831
1400	;	1000	;	144.68
1400	;	1100	;	171.01
1400	;	1200	;	197.34
1400	;	1300	;	223.67
1400	;	1400	;	250
1400	;	1500	;	276.33
1400	;	1600	;	302.66
1400	;	1700	;	328.99
1400	;	1800	;	352.08
1400	;	1900	;	374.662
1400	;	2000	;	397.244
1400	;	2100	;	414.692
1400	;	2200	;	422.778
1400	;	2300	;	430.865
1400	;	2400	;	438.951
1400	;	2500	;	447.038
1400	;	2600	;	455.125
1400	;	2700	;	463.211
1400	;	2800	;	471.298
1400	;	2900	;	479.384
1400	;	3000	;	487.471
1400	;	3100	;	495.557
1400	;	3200	;	503.644
1400	;	3300	;	511.731
1400	;	3400	;	519.817
1400	;	3500	;	527.904
1400	;	3600	;	535.99
1400	;	3700	;	544.077
1400	;	3800	;	552.163
1400	;	3900	;	560.25
1400	;	4000	;	568.337
1400	;	4100	;	576.423
1400	;	4200	;	584.51
1400	;	4300	;	592.596
1400	;	4400	;	600.683
1400	;	4500	;	608.77
1400	;	4600	;	616.856
1400	;	4700	;	624.943
1400	;	4800	;	633.029
1400	;	4900	;	641.116
1400	;	5000	;	649.202
1400	;	5100	;	657.289
1400	;	5200	;	665.376
1400	;	5300	;	673.462
1400	;	5400	;	681.549
1400	;	5500	;	689.635
1400	;	5600	;	697.722
1400	;	5700	;	705.808
1400	;	5800	;	713.895
1400	;	5900	;	721.982
1400	;	6000	;	730.068
1400	;	6100	;	738.155
1400	;	6200	;	746.241
1400	;	6300	;	754.328
1400	;	6400	;	762.415
1400	;	6500	;	770.501
1500	;	1000	;	118.35
1500	;	1100	;	144.68
1500	;	1200	;	171.01
1500	;	1300	;	197.34
1500	;	1400	;	223.67
1500	;	1500	;	250
1500	;	1600	;	276.33
1500	;	1700	;	302.66
1500	;	1800	;	325.75
1500	;	1900	;	348.332
1500	;	2000	;	370.914
1500	;	2100	;	388.362
1500	;	2200	;	396.448
1500	;	2300	;	404.535
1500	;	2400	;	412.621
1500	;	2500	;	420.708
1500	;	2600	;	428.795
1500	;	2700	;	436.881
1500	;	2800	;	444.968
1500	;	2900	;	453.054
1500	;	3000	;	461.141
1500	;	3100	;	469.227
1500	;	3200	;	477.314
1500	;	3300	;	485.401
1500	;	3400	;	493.487
1500	;	3500	;	501.574
1500	;	3600	;	509.66
1500	;	3700	;	517.747
1500	;	3800	;	525.834
1500	;	3900	;	533.92
1500	;	4000	;	542.007
1500	;	4100	;	550.093
1500	;	4200	;	558.18
1500	;	4300	;	566.266
1500	;	4400	;	574.353
1500	;	4500	;	582.44
1500	;	4600	;	590.526
1500	;	4700	;	598.613
1500	;	4800	;	606.699
1500	;	4900	;	614.786
1500	;	5000	;	622.872
1500	;	5100	;	630.959
1500	;	5200	;	639.046
1500	;	5300	;	647.132
1500	;	5400	;	655.219
1500	;	5500	;	663.305
1500	;	5600	;	671.392
1500	;	5700	;	679.479
1500	;	5800	;	687.565
1500	;	5900	;	695.652
1500	;	6000	;	703.738
1500	;	6100	;	711.825
1500	;	6200	;	719.911
1500	;	6300	;	727.998
1500	;	6400	;	736.085
1500	;	6500	;	744.171
1600	;	1000	;	109.39233
1600	;	1100	;	132.82694
1600	;	1200	;	156.26155
1600	;	1300	;	179.69616
1600	;	1400	;	203.13078
1600	;	1500	;	226.56539
1600	;	1600	;	250
1600	;	1700	;	273.4346
1600	;	1800	;	296.3946
1600	;	1900	;	318.94525
1600	;	2000	;	339.40565
1600	;	2100	;	359.11389
1600	;	2200	;	377.45083
1600	;	2300	;	387.59344
1600	;	2400	;	395.69402
1600	;	2500	;	403.79459
1600	;	2600	;	411.89518
1600	;	2700	;	419.99576
1600	;	2800	;	426.92249
1600	;	2900	;	433.732
1600	;	3000	;	440.54151
1600	;	3100	;	447.35102
1600	;	3200	;	454.16053
1600	;	3300	;	460.97004
1600	;	3400	;	467.77956
1600	;	3500	;	474.58907
1600	;	3600	;	481.39858
1600	;	3700	;	488.20809
1600	;	3800	;	495.0176
1600	;	3900	;	501.82711
1600	;	4000	;	508.63662
1600	;	4100	;	515.44614
1600	;	4200	;	522.25565
1600	;	4300	;	529.06515
1600	;	4400	;	535.87467
1600	;	4500	;	542.68418
1600	;	4600	;	549.49369
1600	;	4700	;	556.30321
1600	;	4800	;	563.11271
1600	;	4900	;	569.92222
1600	;	5000	;	576.73173
1600	;	5100	;	583.54125
1600	;	5200	;	590.35076
1600	;	5300	;	597.16027
1600	;	5400	;	603.96978
1600	;	5500	;	610.77929
1600	;	5600	;	617.5888
1600	;	5700	;	624.39832
1600	;	5800	;	631.20783
1600	;	5900	;	638.01734
1600	;	6000	;	644.82685
1600	;	6100	;	651.63636
1600	;	6200	;	658.44587
1600	;	6300	;	665.25538
1600	;	6400	;	672.0649
1600	;	6500	;	678.87441
1700	;	1000	;	96.68389
1700	;	1100	;	118.58619
1700	;	1200	;	140.4885
1700	;	1300	;	162.39079
1700	;	1400	;	184.2931
1700	;	1500	;	206.1954
1700	;	1600	;	228.0977
1700	;	1700	;	250
1700	;	1800	;	271.9023
1700	;	1900	;	293.01503
1700	;	2000	;	312.09128
1700	;	2100	;	331.16754
1700	;	2200	;	350.24378
1700	;	2300	;	367.58586
1700	;	2400	;	381.26241
1700	;	2500	;	389.23771
1700	;	2600	;	397.213
1700	;	2700	;	405.18831
1700	;	2800	;	412.91519
1700	;	2900	;	420.30479
1700	;	3000	;	426.95817
1700	;	3100	;	433.61155
1700	;	3200	;	440.26492
1700	;	3300	;	446.91829
1700	;	3400	;	453.57168
1700	;	3500	;	460.22505
1700	;	3600	;	466.87842
1700	;	3700	;	473.5318
1700	;	3800	;	480.18518
1700	;	3900	;	486.83855
1700	;	4000	;	493.49193
1700	;	4100	;	500.14531
1700	;	4200	;	506.79868
1700	;	4300	;	513.45206
1700	;	4400	;	520.10543
1700	;	4500	;	526.75881
1700	;	4600	;	533.41218
1700	;	4700	;	540.06556
1700	;	4800	;	546.71893
1700	;	4900	;	553.37231
1700	;	5000	;	560.02568
1700	;	5100	;	566.67906
1700	;	5200	;	573.33243
1700	;	5300	;	579.98581
1700	;	5400	;	586.63918
1700	;	5500	;	593.29256
1700	;	5600	;	599.94594
1700	;	5700	;	606.59931
1700	;	5800	;	613.25269
1700	;	5900	;	619.90606
1700	;	6000	;	626.55944
1700	;	6100	;	633.21281
1700	;	6200	;	639.86619
1700	;	6300	;	646.51956
1700	;	6400	;	653.17294
1700	;	6500	;	659.82631
1800	;	1000	;	89.54267
1800	;	1100	;	109.59984
1800	;	1200	;	129.65701
1800	;	1300	;	149.71417
1800	;	1400	;	169.77134
1800	;	1500	;	189.8285
1800	;	1600	;	209.88566
1800	;	1700	;	229.94283
1800	;	1800	;	250
1800	;	1900	;	269.91365
1800	;	2000	;	289.10427
1800	;	2100	;	306.16764
1800	;	2200	;	323.23101
1800	;	2300	;	340.29438
1800	;	2400	;	356.71211
1800	;	2500	;	371.99143
1800	;	2600	;	382.95912
1800	;	2700	;	390.77894
1800	;	2800	;	398.59876
1800	;	2900	;	406.35619
1800	;	3000	;	413.9666
1800	;	3100	;	420.98903
1800	;	3200	;	427.5708
1800	;	3300	;	434.15256
1800	;	3400	;	440.73433
1800	;	3500	;	447.31611
1800	;	3600	;	453.89787
1800	;	3700	;	460.47964
1800	;	3800	;	467.06141
1800	;	3900	;	473.64317
1800	;	4000	;	480.22494
1800	;	4100	;	486.80671
1800	;	4200	;	493.38847
1800	;	4300	;	499.97024
1800	;	4400	;	506.55202
1800	;	4500	;	513.13378
1800	;	4600	;	519.71555
1800	;	4700	;	526.29732
1800	;	4800	;	532.87908
1800	;	4900	;	539.46085
1800	;	5000	;	546.04262
1800	;	5100	;	552.62438
1800	;	5200	;	559.20615
1800	;	5300	;	565.78792
1800	;	5400	;	572.36969
1800	;	5500	;	578.95146
1800	;	5600	;	585.53323
1800	;	5700	;	592.11499
1800	;	5800	;	598.69676
1800	;	5900	;	605.27853
1800	;	6000	;	611.86029
1800	;	6100	;	618.44206
1800	;	6200	;	625.02383
1800	;	6300	;	631.6056
1800	;	6400	;	638.18737
1800	;	6500	;	644.76913
1900	;	1000	;	85.34277
1900	;	1100	;	103.63801
1900	;	1200	;	121.93327
1900	;	1300	;	140.22851
1900	;	1400	;	158.52375
1900	;	1500	;	176.81901
1900	;	1600	;	195.11425
1900	;	1700	;	213.4095
1900	;	1800	;	231.70475
1900	;	1900	;	250
1900	;	2000	;	268.17289
1900	;	2100	;	285.70266
1900	;	2200	;	303.23243
1900	;	2300	;	319.08795
1900	;	2400	;	334.78914
1900	;	2500	;	350.49032
1900	;	2600	;	364.888
1900	;	2700	;	378.33401
1900	;	2800	;	386.97653
1900	;	2900	;	394.37371
1900	;	3000	;	401.77089
1900	;	3100	;	408.9903
1900	;	3200	;	416.07649
1900	;	3300	;	422.57886
1900	;	3400	;	428.79707
1900	;	3500	;	435.0153
1900	;	3600	;	441.23353
1900	;	3700	;	447.45174
1900	;	3800	;	453.66997
1900	;	3900	;	459.88819
1900	;	4000	;	466.10641
1900	;	4100	;	472.32464
1900	;	4200	;	478.54285
1900	;	4300	;	484.76108
1900	;	4400	;	490.97931
1900	;	4500	;	497.19752
1900	;	4600	;	503.41575
1900	;	4700	;	509.63397
1900	;	4800	;	515.85219
1900	;	4900	;	522.07042
1900	;	5000	;	528.28863
1900	;	5100	;	534.50686
1900	;	5200	;	540.72508
1900	;	5300	;	546.9433
1900	;	5400	;	553.16153
1900	;	5500	;	559.37975
1900	;	5600	;	565.59797
1900	;	5700	;	571.8162
1900	;	5800	;	578.03441
1900	;	5900	;	584.25264
1900	;	6000	;	590.47086
1900	;	6100	;	596.68908
1900	;	6200	;	602.90731
1900	;	6300	;	609.12553
1900	;	6400	;	615.34375
1900	;	6500	;	621.56198
2000	;	1000	;	71.78067
2000	;	1100	;	89.6026
2000	;	1200	;	107.42454
2000	;	1300	;	125.24647
2000	;	1400	;	143.0684
2000	;	1500	;	160.89033
2000	;	1600	;	178.71227
2000	;	1700	;	196.5342
2000	;	1800	;	214.35614
2000	;	1900	;	232.17807
2000	;	2000	;	250
2000	;	2100	;	267.82194
2000	;	2200	;	284.29269
2000	;	2300	;	299.94648
2000	;	2400	;	315.53975
2000	;	2500	;	329.76815
2000	;	2600	;	343.84748
2000	;	2700	;	357.9268
2000	;	2800	;	369.30555
2000	;	2900	;	378.92508
2000	;	3000	;	388.54462
2000	;	3100	;	395.78735
2000	;	3200	;	402.96769
2000	;	3300	;	409.9191
2000	;	3400	;	416.75909
2000	;	3500	;	423.57778
2000	;	3600	;	429.58469
2000	;	3700	;	435.59159
2000	;	3800	;	441.5985
2000	;	3900	;	447.60541
2000	;	4000	;	453.61231
2000	;	4100	;	459.61921
2000	;	4200	;	465.62612
2000	;	4300	;	471.63302
2000	;	4400	;	477.63993
2000	;	4500	;	483.64684
2000	;	4600	;	489.65374
2000	;	4700	;	495.66065
2000	;	4800	;	501.66755
2000	;	4900	;	507.67446
2000	;	5000	;	513.68136
2000	;	5100	;	519.68827
2000	;	5200	;	525.69518
2000	;	5300	;	531.70208
2000	;	5400	;	537.70898
2000	;	5500	;	543.71589
2000	;	5600	;	549.7228
2000	;	5700	;	555.7297
2000	;	5800	;	561.73661
2000	;	5900	;	567.74351
2000	;	6000	;	573.75042
2000	;	6100	;	579.75732
2000	;	6200	;	585.76423
2000	;	6300	;	591.77114
2000	;	6400	;	597.77804
2000	;	6500	;	603.78495
2100	;	1000	;	63.431
2100	;	1100	;	80.39182
2100	;	1200	;	97.35264
2100	;	1300	;	114.31345
2100	;	1400	;	131.27427
2100	;	1500	;	148.23509
2100	;	1600	;	165.19591
2100	;	1700	;	182.15673
2100	;	1800	;	199.11755
2100	;	1900	;	216.07837
2100	;	2000	;	233.03918
2100	;	2100	;	250
2100	;	2200	;	266.34587
2100	;	2300	;	282.61872
2100	;	2400	;	298.03565
2100	;	2500	;	312.08606
2100	;	2600	;	326.06861
2100	;	2700	;	339.86812
2100	;	2800	;	352.16563
2100	;	2900	;	363.88474
2100	;	3000	;	375.60385
2100	;	3100	;	384.40301
2100	;	3200	;	390.98544
2100	;	3300	;	397.56787
2100	;	3400	;	404.1503
2100	;	3500	;	410.72303
2100	;	3600	;	416.9263
2100	;	3700	;	423.12958
2100	;	3800	;	429.33285
2100	;	3900	;	435.53613
2100	;	4000	;	441.7394
2100	;	4100	;	447.94267
2100	;	4200	;	454.14595
2100	;	4300	;	460.34922
2100	;	4400	;	466.5525
2100	;	4500	;	472.75577
2100	;	4600	;	478.95905
2100	;	4700	;	485.16232
2100	;	4800	;	491.3656
2100	;	4900	;	497.56888
2100	;	5000	;	503.77215
2100	;	5100	;	509.97543
2100	;	5200	;	516.1787
2100	;	5300	;	522.38197
2100	;	5400	;	528.58525
2100	;	5500	;	534.78852
2100	;	5600	;	540.9918
2100	;	5700	;	547.19507
2100	;	5800	;	553.39835
2100	;	5900	;	559.60162
2100	;	6000	;	565.8049
2100	;	6100	;	572.00817
2100	;	6200	;	578.21145
2100	;	6300	;	584.41472
2100	;	6400	;	590.618
2100	;	6500	;	596.82128
2200	;	1000	;	69.14586
2200	;	1100	;	84.21704
2200	;	1200	;	99.28822
2200	;	1300	;	114.3594
2200	;	1400	;	129.43057
2200	;	1500	;	144.50175
2200	;	1600	;	159.57293
2200	;	1700	;	174.64411
2200	;	1800	;	189.71529
2200	;	1900	;	204.78646
2200	;	2000	;	219.85764
2200	;	2100	;	234.92882
2200	;	2200	;	250
2200	;	2300	;	265.07118
2200	;	2400	;	279.60751
2200	;	2500	;	293.67808
2200	;	2600	;	307.74866
2200	;	2700	;	321.70486
2200	;	2800	;	334.24084
2200	;	2900	;	346.22474
2200	;	3000	;	358.20863
2200	;	3100	;	369.04385
2200	;	3200	;	378.51164
2200	;	3300	;	386.53146
2200	;	3400	;	392.72667
2200	;	3500	;	398.92188
2200	;	3600	;	405.1171
2200	;	3700	;	411.31231
2200	;	3800	;	417.50752
2200	;	3900	;	423.70274
2200	;	4000	;	429.89795
2200	;	4100	;	436.09316
2200	;	4200	;	442.28837
2200	;	4300	;	448.48359
2200	;	4400	;	454.6788
2200	;	4500	;	460.87401
2200	;	4600	;	467.06922
2200	;	4700	;	473.26444
2200	;	4800	;	479.45965
2200	;	4900	;	485.65486
2200	;	5000	;	491.85008
2200	;	5100	;	498.04529
2200	;	5200	;	504.2405
2200	;	5300	;	510.43571
2200	;	5400	;	516.63093
2200	;	5500	;	522.82614
2200	;	5600	;	529.02135
2200	;	5700	;	535.21657
2200	;	5800	;	541.41178
2200	;	5900	;	547.60699
2200	;	6000	;	553.80221
2200	;	6100	;	559.99742
2200	;	6200	;	566.19263
2200	;	6300	;	572.38785
2200	;	6400	;	578.58306
2200	;	6500	;	584.77827
2300	;	1000	;	58.96485
2300	;	1100	;	73.76967
2300	;	1200	;	88.57448
2300	;	1300	;	103.3793
2300	;	1400	;	118.18412
2300	;	1500	;	132.98893
2300	;	1600	;	147.79375
2300	;	1700	;	162.59857
2300	;	1800	;	177.40339
2300	;	1900	;	192.2082
2300	;	2000	;	207.01302
2300	;	2100	;	221.81784
2300	;	2200	;	236.19097
2300	;	2300	;	250
2300	;	2400	;	263.80902
2300	;	2500	;	276.81544
2300	;	2600	;	289.67349
2300	;	2700	;	302.53155
2300	;	2800	;	314.81438
2300	;	2900	;	326.65242
2300	;	3000	;	338.49047
2300	;	3100	;	350.32852
2300	;	3200	;	362.16656
2300	;	3300	;	372.83807
2300	;	3400	;	382.03959
2300	;	3500	;	388.39409
2300	;	3600	;	394.39219
2300	;	3700	;	400.39028
2300	;	3800	;	406.38838
2300	;	3900	;	412.38649
2300	;	4000	;	418.38458
2300	;	4100	;	424.38268
2300	;	4200	;	430.38078
2300	;	4300	;	436.37889
2300	;	4400	;	442.37698
2300	;	4500	;	448.37508
2300	;	4600	;	454.37318
2300	;	4700	;	460.37128
2300	;	4800	;	466.36938
2300	;	4900	;	472.36748
2300	;	5000	;	478.36559
2300	;	5100	;	484.36368
2300	;	5200	;	490.36178
2300	;	5300	;	496.35988
2300	;	5400	;	502.35798
2300	;	5500	;	508.35608
2300	;	5600	;	514.35418
2300	;	5700	;	520.35228
2300	;	5800	;	526.35038
2300	;	5900	;	532.34848
2300	;	6000	;	538.34658
2300	;	6100	;	544.34468
2300	;	6200	;	550.34278
2300	;	6300	;	556.34088
2300	;	6400	;	562.33898
2300	;	6500	;	568.33708
2400	;	1000	;	9.53505
2400	;	1100	;	27.32622
2400	;	1200	;	45.11738
2400	;	1300	;	62.90855
2400	;	1400	;	80.69971
2400	;	1500	;	98.49088
2400	;	1600	;	116.28204
2400	;	1700	;	134.07321
2400	;	1800	;	151.86438
2400	;	1900	;	169.65554
2400	;	2000	;	187.44671
2400	;	2100	;	205.23788
2400	;	2200	;	222.74695
2400	;	2300	;	236.52234
2400	;	2400	;	250
2400	;	2500	;	261.19715
2400	;	2600	;	272.33555
2400	;	2700	;	283.47395
2400	;	2800	;	294.61235
2400	;	2900	;	305.75076
2400	;	3000	;	316.88916
2400	;	3100	;	328.02756
2400	;	3200	;	339.37564
2400	;	3300	;	350.72452
2400	;	3400	;	362.0734
2400	;	3500	;	372.29486
2400	;	3600	;	382.37519
2400	;	3700	;	388.1403
2400	;	3800	;	393.86082
2400	;	3900	;	399.58134
2400	;	4000	;	405.30186
2400	;	4100	;	411.02237
2400	;	4200	;	416.74289
2400	;	4300	;	422.46341
2400	;	4400	;	428.18392
2400	;	4500	;	433.90444
2400	;	4600	;	439.62495
2400	;	4700	;	445.34547
2400	;	4800	;	451.06598
2400	;	4900	;	456.7865
2400	;	5000	;	462.50702
2400	;	5100	;	468.22753
2400	;	5200	;	473.94805
2400	;	5300	;	479.66857
2400	;	5400	;	485.38908
2400	;	5500	;	491.1096
2400	;	5600	;	496.83012
2400	;	5700	;	502.55064
2400	;	5800	;	508.27115
2400	;	5900	;	513.99167
2400	;	6000	;	519.71218
2400	;	6100	;	525.43269
2400	;	6200	;	531.15321
2400	;	6300	;	536.87373
2400	;	6400	;	542.59425
2400	;	6500	;	548.31476
2500	;	1000	;	6.40097
2500	;	1100	;	23.30361
2500	;	1200	;	40.20625
2500	;	1300	;	57.10889
2500	;	1400	;	74.01154
2500	;	1500	;	90.91418
2500	;	1600	;	107.81682
2500	;	1700	;	124.71946
2500	;	1800	;	141.6221
2500	;	1900	;	158.52475
2500	;	2000	;	175.42739
2500	;	2100	;	192.33003
2500	;	2200	;	209.19603
2500	;	2300	;	224.76489
2500	;	2400	;	237.70595
2500	;	2500	;	250
2500	;	2600	;	260.85169
2500	;	2700	;	271.36106
2500	;	2800	;	281.87042
2500	;	2900	;	292.37977
2500	;	3000	;	302.88914
2500	;	3100	;	313.3985
2500	;	3200	;	323.97698
2500	;	3300	;	334.5462
2500	;	3400	;	345.02692
2500	;	3500	;	355.50765
2500	;	3600	;	365.98837
2500	;	3700	;	375.04657
2500	;	3800	;	383.56453
2500	;	3900	;	389.06512
2500	;	4000	;	394.5657
2500	;	4100	;	400.06629
2500	;	4200	;	405.56688
2500	;	4300	;	411.06747
2500	;	4400	;	416.56806
2500	;	4500	;	422.06864
2500	;	4600	;	427.56923
2500	;	4700	;	433.06981
2500	;	4800	;	438.5704
2500	;	4900	;	444.07098
2500	;	5000	;	449.57157
2500	;	5100	;	455.07216
2500	;	5200	;	460.57275
2500	;	5300	;	466.07333
2500	;	5400	;	471.57392
2500	;	5500	;	477.0745
2500	;	5600	;	482.57509
2500	;	5700	;	488.07568
2500	;	5800	;	493.57627
2500	;	5900	;	499.07685
2500	;	6000	;	504.57744
2500	;	6100	;	510.07803
2500	;	6200	;	515.57861
2500	;	6300	;	521.0792
2500	;	6400	;	526.57978
2500	;	6500	;	532.08037
2600	;	1000	;	-7.38064
2600	;	1100	;	9.60889
2600	;	1200	;	26.59842
2600	;	1300	;	43.58795
2600	;	1400	;	60.57748
2600	;	1500	;	77.56701
2600	;	1600	;	94.55653
2600	;	1700	;	111.54606
2600	;	1800	;	128.53559
2600	;	1900	;	145.52512
2600	;	2000	;	162.51464
2600	;	2100	;	179.50417
2600	;	2200	;	196.4937
2600	;	2300	;	213.39888
2600	;	2400	;	227.82703
2600	;	2500	;	239.34813
2600	;	2600	;	250
2600	;	2700	;	260.44557
2600	;	2800	;	270.89115
2600	;	2900	;	281.33671
2600	;	3000	;	291.78228
2600	;	3100	;	302.22785
2600	;	3200	;	312.38308
2600	;	3300	;	322.41308
2600	;	3400	;	332.38974
2600	;	3500	;	342.3664
2600	;	3600	;	352.34307
2600	;	3700	;	362.31973
2600	;	3800	;	371.97968
2600	;	3900	;	379.82126
2600	;	4000	;	386.37998
2600	;	4100	;	391.83301
2600	;	4200	;	397.28603
2600	;	4300	;	402.73906
2600	;	4400	;	408.19209
2600	;	4500	;	413.64512
2600	;	4600	;	419.09814
2600	;	4700	;	424.55117
2600	;	4800	;	430.00419
2600	;	4900	;	435.45722
2600	;	5000	;	440.91025
2600	;	5100	;	446.36328
2600	;	5200	;	451.8163
2600	;	5300	;	457.26934
2600	;	5400	;	462.72236
2600	;	5500	;	468.17538
2600	;	5600	;	473.62841
2600	;	5700	;	479.08144
2600	;	5800	;	484.53447
2600	;	5900	;	489.98749
2600	;	6000	;	495.44052
2600	;	6100	;	500.89355
2600	;	6200	;	506.34658
2600	;	6300	;	511.79961
2600	;	6400	;	517.25263
2600	;	6500	;	522.70565
2700	;	1000	;	-10.88192
2700	;	1100	;	5.15449
2700	;	1200	;	21.1909
2700	;	1300	;	37.22731
2700	;	1400	;	53.26372
2700	;	1500	;	69.30014
2700	;	1600	;	85.33656
2700	;	1700	;	101.37297
2700	;	1800	;	117.40938
2700	;	1900	;	133.44579
2700	;	2000	;	149.4822
2700	;	2100	;	165.51861
2700	;	2200	;	181.55502
2700	;	2300	;	197.59144
2700	;	2400	;	213.30199
2700	;	2500	;	227.49039
2700	;	2600	;	238.76764
2700	;	2700	;	250
2700	;	2800	;	259.42984
2700	;	2900	;	268.85968
2700	;	3000	;	278.28951
2700	;	3100	;	287.71936
2700	;	3200	;	297.04988
2700	;	3300	;	306.38663
2700	;	3400	;	315.78277
2700	;	3500	;	325.1789
2700	;	3600	;	334.57503
2700	;	3700	;	343.97116
2700	;	3800	;	353.36729
2700	;	3900	;	362.76342
2700	;	4000	;	371.72071
2700	;	4100	;	380.29976
2700	;	4200	;	385.70583
2700	;	4300	;	390.85771
2700	;	4400	;	396.00959
2700	;	4500	;	401.16148
2700	;	4600	;	406.31337
2700	;	4700	;	411.46525
2700	;	4800	;	416.61714
2700	;	4900	;	421.76902
2700	;	5000	;	426.9209
2700	;	5100	;	432.07279
2700	;	5200	;	437.22467
2700	;	5300	;	442.37656
2700	;	5400	;	447.52845
2700	;	5500	;	452.68033
2700	;	5600	;	457.83221
2700	;	5700	;	462.9841
2700	;	5800	;	468.13598
2700	;	5900	;	473.28787
2700	;	6000	;	478.43976
2700	;	6100	;	483.59164
2700	;	6200	;	488.74352
2700	;	6300	;	493.89541
2700	;	6400	;	499.04729
2700	;	6500	;	504.19918
2800	;	1000	;	-11.67978
2800	;	1100	;	3.6387
2800	;	1200	;	18.95718
2800	;	1300	;	34.27567
2800	;	1400	;	49.59415
2800	;	1500	;	64.91263
2800	;	1600	;	80.23111
2800	;	1700	;	95.54959
2800	;	1800	;	110.86807
2800	;	1900	;	126.18655
2800	;	2000	;	141.50503
2800	;	2100	;	156.82351
2800	;	2200	;	172.14199
2800	;	2300	;	187.46047
2800	;	2400	;	202.77895
2800	;	2500	;	217.94582
2800	;	2600	;	229.60141
2800	;	2700	;	240.05964
2800	;	2800	;	250
2800	;	2900	;	259.0119
2800	;	3000	;	267.81425
2800	;	3100	;	276.61659
2800	;	3200	;	285.41894
2800	;	3300	;	294.23481
2800	;	3400	;	303.08719
2800	;	3500	;	312.23694
2800	;	3600	;	321.38669
2800	;	3700	;	330.53644
2800	;	3800	;	339.68619
2800	;	3900	;	348.83594
2800	;	4000	;	357.98569
2800	;	4100	;	367.13544
2800	;	4200	;	375.37358
2800	;	4300	;	383.26955
2800	;	4400	;	388.24572
2800	;	4500	;	393.22189
2800	;	4600	;	398.19805
2800	;	4700	;	403.17422
2800	;	4800	;	408.15039
2800	;	4900	;	413.12655
2800	;	5000	;	418.10271
2800	;	5100	;	423.07887
2800	;	5200	;	428.05504
2800	;	5300	;	433.03121
2800	;	5400	;	438.00737
2800	;	5500	;	442.98354
2800	;	5600	;	447.9597
2800	;	5700	;	452.93587
2800	;	5800	;	457.91203
2800	;	5900	;	462.8882
2800	;	6000	;	467.86436
2800	;	6100	;	472.84053
2800	;	6200	;	477.81669
2800	;	6300	;	482.79286
2800	;	6400	;	487.76902
2800	;	6500	;	492.74518
2900	;	1000	;	-23.04508
2900	;	1100	;	-7.84183
2900	;	1200	;	7.36142
2900	;	1300	;	22.56467
2900	;	1400	;	37.76793
2900	;	1500	;	52.97118
2900	;	1600	;	68.17443
2900	;	1700	;	83.37768
2900	;	1800	;	98.58093
2900	;	1900	;	113.78418
2900	;	2000	;	128.98743
2900	;	2100	;	144.19068
2900	;	2200	;	159.39394
2900	;	2300	;	174.59719
2900	;	2400	;	189.80044
2900	;	2500	;	205.00369
2900	;	2600	;	219.49731
2900	;	2700	;	230.21933
2900	;	2800	;	240.23282
2900	;	2900	;	250
2900	;	3000	;	258.50113
2900	;	3100	;	266.86047
2900	;	3200	;	275.21981
2900	;	3300	;	283.57914
2900	;	3400	;	291.94364
2900	;	3500	;	300.38703
2900	;	3600	;	309.1106
2900	;	3700	;	317.88249
2900	;	3800	;	326.65438
2900	;	3900	;	335.42627
2900	;	4000	;	344.19815
2900	;	4100	;	352.97004
2900	;	4200	;	361.74193
2900	;	4300	;	370.44242
2900	;	4400	;	378.3683
2900	;	4500	;	384.46332
2900	;	4600	;	389.27673
2900	;	4700	;	394.09014
2900	;	4800	;	398.90354
2900	;	4900	;	403.71695
2900	;	5000	;	408.53036
2900	;	5100	;	413.34376
2900	;	5200	;	418.15717
2900	;	5300	;	422.97058
2900	;	5400	;	427.78399
2900	;	5500	;	432.59739
2900	;	5600	;	437.4108
2900	;	5700	;	442.22421
2900	;	5800	;	447.03762
2900	;	5900	;	451.85102
2900	;	6000	;	456.66443
2900	;	6100	;	461.47784
2900	;	6200	;	466.29124
2900	;	6300	;	471.10465
2900	;	6400	;	475.91806
2900	;	6500	;	480.73147
3000	;	1000	;	-10.35752
3000	;	1100	;	3.3739
3000	;	1200	;	17.10532
3000	;	1300	;	30.83673
3000	;	1400	;	44.56815
3000	;	1500	;	58.29957
3000	;	1600	;	72.03099
3000	;	1700	;	85.7624
3000	;	1800	;	99.49382
3000	;	1900	;	113.22524
3000	;	2000	;	126.95665
3000	;	2100	;	140.68807
3000	;	2200	;	154.41949
3000	;	2300	;	168.1509
3000	;	2400	;	181.88232
3000	;	2500	;	195.61374
3000	;	2600	;	209.34515
3000	;	2700	;	222.09096
3000	;	2800	;	231.47552
3000	;	2900	;	240.86008
3000	;	3000	;	250
3000	;	3100	;	258.15627
3000	;	3200	;	266.15622
3000	;	3300	;	274.15618
3000	;	3400	;	282.15612
3000	;	3500	;	290.15607
3000	;	3600	;	298.21266
3000	;	3700	;	306.44953
3000	;	3800	;	314.78047
3000	;	3900	;	323.11141
3000	;	4000	;	331.44236
3000	;	4100	;	339.77329
3000	;	4200	;	348.10424
3000	;	4300	;	356.43518
3000	;	4400	;	364.76612
3000	;	4500	;	372.72703
3000	;	4600	;	380.42891
3000	;	4700	;	385.08837
3000	;	4800	;	389.67615
3000	;	4900	;	394.26393
3000	;	5000	;	398.85171
3000	;	5100	;	403.43949
3000	;	5200	;	408.02727
3000	;	5300	;	412.61504
3000	;	5400	;	417.20282
3000	;	5500	;	421.7906
3000	;	5600	;	426.37837
3000	;	5700	;	430.96616
3000	;	5800	;	435.55393
3000	;	5900	;	440.14171
3000	;	6000	;	444.72949
3000	;	6100	;	449.31727
3000	;	6200	;	453.90504
3000	;	6300	;	458.49282
3000	;	6400	;	463.0806
3000	;	6500	;	467.66838
3100	;	1000	;	-18.06077
3100	;	1100	;	-4.61174
3100	;	1200	;	8.83729
3100	;	1300	;	22.28632
3100	;	1400	;	35.73535
3100	;	1500	;	49.18438
3100	;	1600	;	62.63341
3100	;	1700	;	76.08244
3100	;	1800	;	89.53147
3100	;	1900	;	102.9805
3100	;	2000	;	116.42953
3100	;	2100	;	129.87856
3100	;	2200	;	143.3276
3100	;	2300	;	156.77663
3100	;	2400	;	170.22566
3100	;	2500	;	183.67469
3100	;	2600	;	197.12372
3100	;	2700	;	210.50761
3100	;	2800	;	222.79683
3100	;	2900	;	231.93684
3100	;	3000	;	241.07685
3100	;	3100	;	250
3100	;	3200	;	257.9063
3100	;	3300	;	265.60232
3100	;	3400	;	273.29834
3100	;	3500	;	280.99435
3100	;	3600	;	288.69037
3100	;	3700	;	296.42511
3100	;	3800	;	304.26461
3100	;	3900	;	312.21196
3100	;	4000	;	320.1593
3100	;	4100	;	328.10665
3100	;	4200	;	336.05399
3100	;	4300	;	344.00133
3100	;	4400	;	351.94868
3100	;	4500	;	359.89602
3100	;	4600	;	367.84337
3100	;	4700	;	375.09981
3100	;	4800	;	381.93555
3100	;	4900	;	386.19206
3100	;	5000	;	390.44857
3100	;	5100	;	394.70508
3100	;	5200	;	398.96159
3100	;	5300	;	403.2181
3100	;	5400	;	407.47462
3100	;	5500	;	411.73113
3100	;	5600	;	415.98764
3100	;	5700	;	420.24415
3100	;	5800	;	424.50066
3100	;	5900	;	428.75717
3100	;	6000	;	433.01368
3100	;	6100	;	437.2702
3100	;	6200	;	441.52671
3100	;	6300	;	445.78322
3100	;	6400	;	450.03974
3100	;	6500	;	454.29625
3200	;	1000	;	-20.63446
3200	;	1100	;	-7.6908
3200	;	1200	;	5.25285
3200	;	1300	;	18.1965
3200	;	1400	;	31.14016
3200	;	1500	;	44.08381
3200	;	1600	;	57.02746
3200	;	1700	;	69.97111
3200	;	1800	;	82.91477
3200	;	1900	;	95.85842
3200	;	2000	;	108.80207
3200	;	2100	;	121.74573
3200	;	2200	;	134.68938
3200	;	2300	;	147.63303
3200	;	2400	;	160.57669
3200	;	2500	;	173.52034
3200	;	2600	;	186.46399
3200	;	2700	;	199.40765
3200	;	2800	;	212.29198
3200	;	2900	;	223.80113
3200	;	3000	;	232.58742
3200	;	3100	;	241.3737
3200	;	3200	;	250
3200	;	3300	;	257.63896
3200	;	3400	;	265.23858
3200	;	3500	;	272.83819
3200	;	3600	;	280.4378
3200	;	3700	;	288.03742
3200	;	3800	;	295.65064
3200	;	3900	;	303.28142
3200	;	4000	;	310.91222
3200	;	4100	;	318.54301
3200	;	4200	;	326.17381
3200	;	4300	;	333.8046
3200	;	4400	;	341.43539
3200	;	4500	;	349.06619
3200	;	4600	;	356.69698
3200	;	4700	;	364.32777
3200	;	4800	;	371.89263
3200	;	4900	;	379.03702
3200	;	5000	;	383.72412
3200	;	5100	;	387.34264
3200	;	5200	;	390.96117
3200	;	5300	;	394.57969
3200	;	5400	;	398.19822
3200	;	5500	;	401.81674
3200	;	5600	;	405.43527
3200	;	5700	;	409.05379
3200	;	5800	;	412.67232
3200	;	5900	;	416.29084
3200	;	6000	;	419.90937
3200	;	6100	;	423.52789
3200	;	6200	;	427.14641
3200	;	6300	;	430.76494
3200	;	6400	;	434.38346
3200	;	6500	;	438.00199
3300	;	1000	;	-24.25901
3300	;	1100	;	-11.71102
3300	;	1200	;	0.83697
3300	;	1300	;	13.38496
3300	;	1400	;	25.93294
3300	;	1500	;	38.48093
3300	;	1600	;	51.02892
3300	;	1700	;	63.57691
3300	;	1800	;	76.1249
3300	;	1900	;	88.67288
3300	;	2000	;	101.22087
3300	;	2100	;	113.76886
3300	;	2200	;	126.31685
3300	;	2300	;	138.86483
3300	;	2400	;	151.41282
3300	;	2500	;	163.96081
3300	;	2600	;	176.5088
3300	;	2700	;	189.05679
3300	;	2800	;	201.60477
3300	;	2900	;	213.9964
3300	;	3000	;	224.61906
3300	;	3100	;	233.13702
3300	;	3200	;	241.65497
3300	;	3300	;	250
3300	;	3400	;	257.32834
3300	;	3500	;	264.57429
3300	;	3600	;	271.82025
3300	;	3700	;	279.0662
3300	;	3800	;	286.31215
3300	;	3900	;	293.55811
3300	;	4000	;	300.80406
3300	;	4100	;	308.10141
3300	;	4200	;	315.40082
3300	;	4300	;	322.70023
3300	;	4400	;	329.99963
3300	;	4500	;	337.29904
3300	;	4600	;	344.59844
3300	;	4700	;	351.89785
3300	;	4800	;	359.19726
3300	;	4900	;	366.49666
3300	;	5000	;	373.35023
3300	;	5100	;	380.0099
3300	;	5200	;	384.40684
3300	;	5300	;	387.75292
3300	;	5400	;	391.09901
3300	;	5500	;	394.44509
3300	;	5600	;	397.79117
3300	;	5700	;	401.13725
3300	;	5800	;	404.48333
3300	;	5900	;	407.82942
3300	;	6000	;	411.1755
3300	;	6100	;	414.52158
3300	;	6200	;	417.86766
3300	;	6300	;	421.21374
3300	;	6400	;	424.55982
3300	;	6500	;	427.90591
3400	;	1000	;	-14.61476
3400	;	1100	;	-3.00914
3400	;	1200	;	8.59648
3400	;	1300	;	20.2021
3400	;	1400	;	31.80772
3400	;	1500	;	43.41334
3400	;	1600	;	55.01896
3400	;	1700	;	66.62458
3400	;	1800	;	78.2302
3400	;	1900	;	89.83582
3400	;	2000	;	101.44144
3400	;	2100	;	113.04706
3400	;	2200	;	124.65269
3400	;	2300	;	136.25831
3400	;	2400	;	147.86393
3400	;	2500	;	159.46955
3400	;	2600	;	171.07517
3400	;	2700	;	182.68079
3400	;	2800	;	194.28641
3400	;	2900	;	205.89203
3400	;	3000	;	217.07052
3400	;	3100	;	226.40464
3400	;	3200	;	234.3825
3400	;	3300	;	242.36036
3400	;	3400	;	250
3400	;	3500	;	257.17154
3400	;	3600	;	264.2142
3400	;	3700	;	271.25686
3400	;	3800	;	278.29951
3400	;	3900	;	285.34218
3400	;	4000	;	292.38483
3400	;	4100	;	299.44471
3400	;	4200	;	306.50528
3400	;	4300	;	313.56585
3400	;	4400	;	320.62641
3400	;	4500	;	327.68698
3400	;	4600	;	334.74754
3400	;	4700	;	341.80811
3400	;	4800	;	348.86868
3400	;	4900	;	355.92925
3400	;	5000	;	362.98981
3400	;	5100	;	370.05038
3400	;	5200	;	376.35289
3400	;	5300	;	382.26639
3400	;	5400	;	385.59129
3400	;	5500	;	388.91619
3400	;	5600	;	392.24109
3400	;	5700	;	395.56599
3400	;	5800	;	398.89088
3400	;	5900	;	402.21578
3400	;	6000	;	405.54067
3400	;	6100	;	408.86557
3400	;	6200	;	412.19046
3400	;	6300	;	415.51536
3400	;	6400	;	418.84026
3400	;	6500	;	422.16516
3500	;	1000	;	-2.7158
3500	;	1100	;	7.85549
3500	;	1200	;	18.4268
3500	;	1300	;	28.99809
3500	;	1400	;	39.56939
3500	;	1500	;	50.14069
3500	;	1600	;	60.71199
3500	;	1700	;	71.28329
3500	;	1800	;	81.85459
3500	;	1900	;	92.42588
3500	;	2000	;	102.99718
3500	;	2100	;	113.56848
3500	;	2200	;	124.13978
3500	;	2300	;	134.71108
3500	;	2400	;	145.28238
3500	;	2500	;	155.85367
3500	;	2600	;	166.42497
3500	;	2700	;	176.99627
3500	;	2800	;	187.56757
3500	;	2900	;	198.13887
3500	;	3000	;	208.71017
3500	;	3100	;	218.81413
3500	;	3200	;	227.14516
3500	;	3300	;	234.82367
3500	;	3400	;	242.50218
3500	;	3500	;	250
3500	;	3600	;	256.82058
3500	;	3700	;	263.41935
3500	;	3800	;	270.01811
3500	;	3900	;	276.61686
3500	;	4000	;	283.21563
3500	;	4100	;	289.81439
3500	;	4200	;	296.41315
3500	;	4300	;	303.01191
3500	;	4400	;	309.80785
3500	;	4500	;	316.61002
3500	;	4600	;	323.4122
3500	;	4700	;	330.21438
3500	;	4800	;	337.01656
3500	;	4900	;	343.81874
3500	;	5000	;	350.62092
3500	;	5100	;	357.4231
3500	;	5200	;	364.22528
3500	;	5300	;	371.0123
3500	;	5400	;	376.73746
3500	;	5500	;	382.46261
3500	;	5600	;	388.18776
3500	;	5700	;	393.91291
3500	;	5800	;	399.63806
3500	;	5900	;	405.36322
3500	;	6000	;	411.08837
3500	;	6100	;	416.81352
3500	;	6200	;	422.53867
3500	;	6300	;	428.26383
3500	;	6400	;	433.98898
3500	;	6500	;	439.71413
3600	;	1000	;	-5.89797
3600	;	1100	;	4.38658
3600	;	1200	;	14.67114
3600	;	1300	;	24.95569
3600	;	1400	;	35.24024
3600	;	1500	;	45.52479
3600	;	1600	;	55.80935
3600	;	1700	;	66.0939
3600	;	1800	;	76.37845
3600	;	1900	;	86.663
3600	;	2000	;	96.94756
3600	;	2100	;	107.23211
3600	;	2200	;	117.51666
3600	;	2300	;	127.80121
3600	;	2400	;	138.08576
3600	;	2500	;	148.37032
3600	;	2600	;	158.65487
3600	;	2700	;	168.93942
3600	;	2800	;	179.22397
3600	;	2900	;	189.50853
3600	;	3000	;	199.79308
3600	;	3100	;	210.07763
3600	;	3200	;	219.89148
3600	;	3300	;	227.81087
3600	;	3400	;	235.28777
3600	;	3500	;	242.76467
3600	;	3600	;	250
3600	;	3700	;	256.53564
3600	;	3800	;	262.87697
3600	;	3900	;	269.21832
3600	;	4000	;	275.55966
3600	;	4100	;	281.901
3600	;	4200	;	288.24234
3600	;	4300	;	294.58368
3600	;	4400	;	301.00131
3600	;	4500	;	307.42136
3600	;	4600	;	313.8414
3600	;	4700	;	320.26144
3600	;	4800	;	326.68149
3600	;	4900	;	333.10153
3600	;	5000	;	339.52157
3600	;	5100	;	345.94162
3600	;	5200	;	352.36167
3600	;	5300	;	358.78171
3600	;	5400	;	365.20175
3600	;	5500	;	371.62179
3600	;	5600	;	378.04184
3600	;	5700	;	384.46188
3600	;	5800	;	390.88192
3600	;	5900	;	397.30197
3600	;	6000	;	403.72201
3600	;	6100	;	410.14205
3600	;	6200	;	416.5621
3600	;	6300	;	422.98215
3600	;	6400	;	429.40219
3600	;	6500	;	435.82223
3700	;	1000	;	-5.03879
3700	;	1100	;	4.86033
3700	;	1200	;	14.75946
3700	;	1300	;	24.65858
3700	;	1400	;	34.5577
3700	;	1500	;	44.45681
3700	;	1600	;	54.35593
3700	;	1700	;	64.25505
3700	;	1800	;	74.15417
3700	;	1900	;	84.05329
3700	;	2000	;	93.95242
3700	;	2100	;	103.85154
3700	;	2200	;	113.75065
3700	;	2300	;	123.64977
3700	;	2400	;	133.54889
3700	;	2500	;	143.44801
3700	;	2600	;	153.34713
3700	;	2700	;	163.24625
3700	;	2800	;	173.14537
3700	;	2900	;	183.04449
3700	;	3000	;	192.94361
3700	;	3100	;	202.84273
3700	;	3200	;	212.74185
3700	;	3300	;	221.906
3700	;	3400	;	229.02347
3700	;	3500	;	236.10723
3700	;	3600	;	243.19101
3700	;	3700	;	250
3700	;	3800	;	256.34084
3700	;	3900	;	262.49071
3700	;	4000	;	268.64058
3700	;	4100	;	274.79046
3700	;	4200	;	280.94034
3700	;	4300	;	287.09021
3700	;	4400	;	293.24009
3700	;	4500	;	299.38996
3700	;	4600	;	305.53984
3700	;	4700	;	311.68972
3700	;	4800	;	317.83959
3700	;	4900	;	323.98946
3700	;	5000	;	330.13934
3700	;	5100	;	336.28922
3700	;	5200	;	342.43909
3700	;	5300	;	348.58897
3700	;	5400	;	354.73884
3700	;	5500	;	360.88872
3700	;	5600	;	367.0386
3700	;	5700	;	373.18847
3700	;	5800	;	379.33834
3700	;	5900	;	385.48822
3700	;	6000	;	391.6381
3700	;	6100	;	397.78797
3700	;	6200	;	403.93784
3700	;	6300	;	410.08772
3700	;	6400	;	416.2376
3700	;	6500	;	422.38747
3800	;	1000	;	-0.23409
3800	;	1100	;	9.13705
3800	;	1200	;	18.50818
3800	;	1300	;	27.87932
3800	;	1400	;	37.25046
3800	;	1500	;	46.62159
3800	;	1600	;	55.99273
3800	;	1700	;	65.36387
3800	;	1800	;	74.73501
3800	;	1900	;	84.10615
3800	;	2000	;	93.47729
3800	;	2100	;	102.84843
3800	;	2200	;	112.21956
3800	;	2300	;	121.5907
3800	;	2400	;	130.96184
3800	;	2500	;	140.33298
3800	;	2600	;	149.70412
3800	;	2700	;	159.07526
3800	;	2800	;	168.44639
3800	;	2900	;	177.81753
3800	;	3000	;	187.18867
3800	;	3100	;	196.5598
3800	;	3200	;	205.93094
3800	;	3300	;	215.30208
3800	;	3400	;	223.26988
3800	;	3500	;	230.00564
3800	;	3600	;	236.74141
3800	;	3700	;	243.47718
3800	;	3800	;	250
3800	;	3900	;	256.13346
3800	;	4000	;	262.10121
3800	;	4100	;	268.06896
3800	;	4200	;	274.03671
3800	;	4300	;	280.00446
3800	;	4400	;	285.97222
3800	;	4500	;	291.93996
3800	;	4600	;	297.90772
3800	;	4700	;	303.87547
3800	;	4800	;	309.84322
3800	;	4900	;	315.81097
3800	;	5000	;	321.77872
3800	;	5100	;	327.74647
3800	;	5200	;	333.71422
3800	;	5300	;	339.68197
3800	;	5400	;	345.64972
3800	;	5500	;	351.61748
3800	;	5600	;	357.58523
3800	;	5700	;	363.55298
3800	;	5800	;	369.52073
3800	;	5900	;	375.48848
3800	;	6000	;	381.45623
3800	;	6100	;	387.42398
3800	;	6200	;	393.39173
3800	;	6300	;	399.35948
3800	;	6400	;	405.32723
3800	;	6500	;	411.29499
3900	;	1000	;	-5.42306
3900	;	1100	;	3.77874
3900	;	1200	;	12.98054
3900	;	1300	;	22.18234
3900	;	1400	;	31.38412
3900	;	1500	;	40.58592
3900	;	1600	;	49.78772
3900	;	1700	;	58.98952
3900	;	1800	;	68.19131
3900	;	1900	;	77.39311
3900	;	2000	;	86.5949
3900	;	2100	;	95.7967
3900	;	2200	;	104.9985
3900	;	2300	;	114.20029
3900	;	2400	;	123.40209
3900	;	2500	;	132.60389
3900	;	2600	;	141.80569
3900	;	2700	;	151.00747
3900	;	2800	;	160.20927
3900	;	2900	;	169.41107
3900	;	3000	;	178.61287
3900	;	3100	;	187.81466
3900	;	3200	;	197.01646
3900	;	3300	;	206.21825
3900	;	3400	;	215.41735
3900	;	3500	;	223.37631
3900	;	3600	;	230.03275
3900	;	3700	;	236.68918
3900	;	3800	;	243.34562
3900	;	3900	;	250
3900	;	4000	;	255.60707
3900	;	4100	;	261.21147
3900	;	4200	;	266.81587
3900	;	4300	;	272.42026
3900	;	4400	;	278.02466
3900	;	4500	;	283.62905
3900	;	4600	;	289.23345
3900	;	4700	;	294.83785
3900	;	4800	;	300.44224
3900	;	4900	;	306.04664
3900	;	5000	;	311.65103
3900	;	5100	;	317.25543
3900	;	5200	;	322.85983
3900	;	5300	;	328.46422
3900	;	5400	;	334.06862
3900	;	5500	;	339.67301
3900	;	5600	;	345.27741
3900	;	5700	;	350.88181
3900	;	5800	;	356.4862
3900	;	5900	;	362.0906
3900	;	6000	;	367.69499
3900	;	6100	;	373.29939
3900	;	6200	;	378.90379
3900	;	6300	;	384.50818
3900	;	6400	;	390.11258
3900	;	6500	;	395.71697
4000	;	1000	;	9.83067
4000	;	1100	;	18.15379
4000	;	1200	;	26.47691
4000	;	1300	;	34.80002
4000	;	1400	;	43.12314
4000	;	1500	;	51.44626
4000	;	1600	;	59.76938
4000	;	1700	;	68.0925
4000	;	1800	;	76.41561
4000	;	1900	;	84.73873
4000	;	2000	;	93.06185
4000	;	2100	;	101.38497
4000	;	2200	;	109.70808
4000	;	2300	;	118.0312
4000	;	2400	;	126.35432
4000	;	2500	;	134.67744
4000	;	2600	;	143.00056
4000	;	2700	;	151.32367
4000	;	2800	;	159.64679
4000	;	2900	;	167.96991
4000	;	3000	;	176.29303
4000	;	3100	;	184.61614
4000	;	3200	;	192.93926
4000	;	3300	;	201.26237
4000	;	3400	;	209.5855
4000	;	3500	;	217.81702
4000	;	3600	;	224.67559
4000	;	3700	;	231.02614
4000	;	3800	;	237.37671
4000	;	3900	;	243.72726
4000	;	4000	;	250
4000	;	4100	;	255.34789
4000	;	4200	;	260.69165
4000	;	4300	;	266.03542
4000	;	4400	;	271.37919
4000	;	4500	;	276.72296
4000	;	4600	;	282.06673
4000	;	4700	;	287.4105
4000	;	4800	;	292.75427
4000	;	4900	;	298.09804
4000	;	5000	;	303.44181
4000	;	5100	;	308.78558
4000	;	5200	;	314.12935
4000	;	5300	;	319.47312
4000	;	5400	;	324.81688
4000	;	5500	;	330.16066
4000	;	5600	;	335.50443
4000	;	5700	;	340.8482
4000	;	5800	;	346.19197
4000	;	5900	;	351.53574
4000	;	6000	;	356.87951
4000	;	6100	;	362.22328
4000	;	6200	;	367.56705
4000	;	6300	;	372.91081
4000	;	6400	;	378.25459
4000	;	6500	;	383.59835
4100	;	1000	;	-2.73086
4100	;	1100	;	5.84603
4100	;	1200	;	14.42291
4100	;	1300	;	22.9998
4100	;	1400	;	31.57669
4100	;	1500	;	40.15358
4100	;	1600	;	48.73046
4100	;	1700	;	57.30735
4100	;	1800	;	65.88424
4100	;	1900	;	74.46112
4100	;	2000	;	83.03801
4100	;	2100	;	91.6149
4100	;	2200	;	100.19179
4100	;	2300	;	108.76867
4100	;	2400	;	117.34556
4100	;	2500	;	125.92245
4100	;	2600	;	134.49933
4100	;	2700	;	143.07622
4100	;	2800	;	151.65311
4100	;	2900	;	160.23
4100	;	3000	;	168.80688
4100	;	3100	;	177.38377
4100	;	3200	;	185.96066
4100	;	3300	;	194.53754
4100	;	3400	;	203.11443
4100	;	3500	;	211.69132
4100	;	3600	;	220.12388
4100	;	3700	;	226.13942
4100	;	3800	;	232.13212
4100	;	3900	;	238.12482
4100	;	4000	;	244.11752
4100	;	4100	;	250
4100	;	4200	;	255.30444
4100	;	4300	;	260.60887
4100	;	4400	;	265.91331
4100	;	4500	;	271.17818
4100	;	4600	;	276.32787
4100	;	4700	;	281.47755
4100	;	4800	;	286.62724
4100	;	4900	;	291.77692
4100	;	5000	;	296.92661
4100	;	5100	;	302.0763
4100	;	5200	;	307.22598
4100	;	5300	;	312.37567
4100	;	5400	;	317.52535
4100	;	5500	;	322.67504
4100	;	5600	;	327.82472
4100	;	5700	;	332.9744
4100	;	5800	;	338.12409
4100	;	5900	;	343.27377
4100	;	6000	;	348.42346
4100	;	6100	;	353.57315
4100	;	6200	;	358.72283
4100	;	6300	;	363.87252
4100	;	6400	;	369.0222
4100	;	6500	;	374.17189
4200	;	1000	;	-8.41899
4200	;	1100	;	0.1518
4200	;	1200	;	8.72257
4200	;	1300	;	17.29335
4200	;	1400	;	25.86414
4200	;	1500	;	34.43491
4200	;	1600	;	43.0057
4200	;	1700	;	51.57648
4200	;	1800	;	60.14726
4200	;	1900	;	68.71804
4200	;	2000	;	77.28882
4200	;	2100	;	85.85961
4200	;	2200	;	94.43038
4200	;	2300	;	103.00117
4200	;	2400	;	111.57195
4200	;	2500	;	120.14273
4200	;	2600	;	128.71351
4200	;	2700	;	137.28429
4200	;	2800	;	145.85507
4200	;	2900	;	154.42585
4200	;	3000	;	162.99663
4200	;	3100	;	171.56741
4200	;	3200	;	180.13819
4200	;	3300	;	188.70898
4200	;	3400	;	197.27976
4200	;	3500	;	205.85054
4200	;	3600	;	213.90992
4200	;	3700	;	220.84605
4200	;	3800	;	227.77836
4200	;	3900	;	233.37665
4200	;	4000	;	238.95053
4200	;	4100	;	244.52348
4200	;	4200	;	250
4200	;	4300	;	255.07523
4200	;	4400	;	260.11798
4200	;	4500	;	265.15412
4200	;	4600	;	270.17104
4200	;	4700	;	275.18796
4200	;	4800	;	280.20488
4200	;	4900	;	285.2218
4200	;	5000	;	290.23871
4200	;	5100	;	295.25563
4200	;	5200	;	300.27254
4200	;	5300	;	305.28946
4200	;	5400	;	310.30637
4200	;	5500	;	315.32329
4200	;	5600	;	320.34021
4200	;	5700	;	325.35712
4200	;	5800	;	330.37404
4200	;	5900	;	335.39095
4200	;	6000	;	340.40787
4200	;	6100	;	345.42479
4200	;	6200	;	350.4417
4200	;	6300	;	355.45862
4200	;	6400	;	360.47554
4200	;	6500	;	365.49246
4300	;	1000	;	2.33652
4300	;	1100	;	10.2074
4300	;	1200	;	18.07829
4300	;	1300	;	25.94917
4300	;	1400	;	33.82006
4300	;	1500	;	41.69094
4300	;	1600	;	49.56183
4300	;	1700	;	57.43271
4300	;	1800	;	65.30359
4300	;	1900	;	73.17448
4300	;	2000	;	81.04536
4300	;	2100	;	88.91625
4300	;	2200	;	96.78713
4300	;	2300	;	104.65802
4300	;	2400	;	112.52891
4300	;	2500	;	120.39979
4300	;	2600	;	128.27068
4300	;	2700	;	136.14156
4300	;	2800	;	144.01245
4300	;	2900	;	151.88333
4300	;	3000	;	159.75422
4300	;	3100	;	167.6251
4300	;	3200	;	175.49599
4300	;	3300	;	183.36687
4300	;	3400	;	191.23776
4300	;	3500	;	199.10864
4300	;	3600	;	206.90296
4300	;	3700	;	214.58806
4300	;	3800	;	222.01738
4300	;	3900	;	228.11961
4300	;	4000	;	234.21818
4300	;	4100	;	239.64442
4300	;	4200	;	244.85225
4300	;	4300	;	250
4300	;	4400	;	254.74296
4300	;	4500	;	259.45254
4300	;	4600	;	264.16212
4300	;	4700	;	268.87171
4300	;	4800	;	273.5813
4300	;	4900	;	278.29088
4300	;	5000	;	283.00047
4300	;	5100	;	287.71005
4300	;	5200	;	292.41964
4300	;	5300	;	297.12922
4300	;	5400	;	301.83881
4300	;	5500	;	306.54839
4300	;	5600	;	311.25798
4300	;	5700	;	315.96757
4300	;	5800	;	320.67715
4300	;	5900	;	325.38674
4300	;	6000	;	330.09632
4300	;	6100	;	334.80591
4300	;	6200	;	339.51549
4300	;	6300	;	344.22508
4300	;	6400	;	348.93467
4300	;	6500	;	353.64425
4400	;	1000	;	3.41057
4400	;	1100	;	11.01499
4400	;	1200	;	18.61941
4400	;	1300	;	26.22383
4400	;	1400	;	33.82824
4400	;	1500	;	41.43267
4400	;	1600	;	49.03709
4400	;	1700	;	56.64151
4400	;	1800	;	64.24593
4400	;	1900	;	71.85035
4400	;	2000	;	79.45477
4400	;	2100	;	87.05919
4400	;	2200	;	94.66361
4400	;	2300	;	102.26803
4400	;	2400	;	109.87245
4400	;	2500	;	117.47687
4400	;	2600	;	125.08129
4400	;	2700	;	132.68571
4400	;	2800	;	140.29013
4400	;	2900	;	147.89455
4400	;	3000	;	155.49897
4400	;	3100	;	163.10339
4400	;	3200	;	170.70782
4400	;	3300	;	178.31223
4400	;	3400	;	185.91665
4400	;	3500	;	193.52107
4400	;	3600	;	201.12549
4400	;	3700	;	208.72992
4400	;	3800	;	216.28887
4400	;	3900	;	222.92538
4400	;	4000	;	228.47341
4400	;	4100	;	233.90195
4400	;	4200	;	239.29166
4400	;	4300	;	244.68137
4400	;	4400	;	250
4400	;	4500	;	254.54191
4400	;	4600	;	259.06503
4400	;	4700	;	263.58815
4400	;	4800	;	268.11128
4400	;	4900	;	272.6344
4400	;	5000	;	277.15752
4400	;	5100	;	281.68065
4400	;	5200	;	286.20377
4400	;	5300	;	290.72689
4400	;	5400	;	295.25001
4400	;	5500	;	299.77314
4400	;	5600	;	304.29627
4400	;	5700	;	308.81938
4400	;	5800	;	313.34251
4400	;	5900	;	317.86563
4400	;	6000	;	322.38875
4400	;	6100	;	326.91187
4400	;	6200	;	331.435
4400	;	6300	;	335.95812
4400	;	6400	;	340.48124
4400	;	6500	;	345.00437
4500	;	1000	;	0.9986
4500	;	1100	;	8.49847
4500	;	1200	;	15.99834
4500	;	1300	;	23.49821
4500	;	1400	;	30.99807
4500	;	1500	;	38.49795
4500	;	1600	;	45.99781
4500	;	1700	;	53.49768
4500	;	1800	;	60.99755
4500	;	1900	;	68.49742
4500	;	2000	;	75.99728
4500	;	2100	;	83.49715
4500	;	2200	;	90.99702
4500	;	2300	;	98.49689
4500	;	2400	;	105.99676
4500	;	2500	;	113.49663
4500	;	2600	;	120.9965
4500	;	2700	;	128.49637
4500	;	2800	;	135.99623
4500	;	2900	;	143.4961
4500	;	3000	;	150.99597
4500	;	3100	;	158.49584
4500	;	3200	;	165.99571
4500	;	3300	;	173.49557
4500	;	3400	;	180.99544
4500	;	3500	;	188.49531
4500	;	3600	;	195.99518
4500	;	3700	;	203.49505
4500	;	3800	;	210.99492
4500	;	3900	;	218.22774
4500	;	4000	;	224.03663
4500	;	4100	;	229.84508
4500	;	4200	;	235.13114
4500	;	4300	;	240.18245
4500	;	4400	;	245.23375
4500	;	4500	;	250
4500	;	4600	;	254.46134
4500	;	4700	;	258.79085
4500	;	4800	;	263.12037
4500	;	4900	;	267.44988
4500	;	5000	;	271.77939
4500	;	5100	;	276.10891
4500	;	5200	;	280.43842
4500	;	5300	;	284.76794
4500	;	5400	;	289.09745
4500	;	5500	;	293.42696
4500	;	5600	;	297.75648
4500	;	5700	;	302.08599
4500	;	5800	;	306.41551
4500	;	5900	;	310.74502
4500	;	6000	;	315.07453
4500	;	6100	;	319.40405
4500	;	6200	;	323.73356
4500	;	6300	;	328.06307
4500	;	6400	;	332.39259
4500	;	6500	;	336.72211
4600	;	1000	;	-6.62045
4600	;	1100	;	0.93186
4600	;	1200	;	8.48416
4600	;	1300	;	16.03646
4600	;	1400	;	23.58877
4600	;	1500	;	31.14107
4600	;	1600	;	38.69337
4600	;	1700	;	46.24568
4600	;	1800	;	53.79798
4600	;	1900	;	61.35028
4600	;	2000	;	68.9026
4600	;	2100	;	76.4549
4600	;	2200	;	84.0072
4600	;	2300	;	91.55951
4600	;	2400	;	99.11181
4600	;	2500	;	106.66411
4600	;	2600	;	114.21642
4600	;	2700	;	121.76872
4600	;	2800	;	129.32102
4600	;	2900	;	136.87333
4600	;	3000	;	144.42563
4600	;	3100	;	151.97793
4600	;	3200	;	159.53024
4600	;	3300	;	167.08254
4600	;	3400	;	174.63484
4600	;	3500	;	182.18715
4600	;	3600	;	189.73946
4600	;	3700	;	197.29176
4600	;	3800	;	204.84406
4600	;	3900	;	212.39637
4600	;	4000	;	218.28956
4600	;	4100	;	224.12271
4600	;	4200	;	229.84552
4600	;	4300	;	234.90559
4600	;	4400	;	239.95804
4600	;	4500	;	245.01049
4600	;	4600	;	250
4600	;	4700	;	254.17398
4600	;	4800	;	258.34085
4600	;	4900	;	262.50772
4600	;	5000	;	266.67458
4600	;	5100	;	270.82891
4600	;	5200	;	274.74704
4600	;	5300	;	278.66517
4600	;	5400	;	282.5833
4600	;	5500	;	286.50144
4600	;	5600	;	290.41957
4600	;	5700	;	294.33771
4600	;	5800	;	298.25583
4600	;	5900	;	302.17397
4600	;	6000	;	306.0921
4600	;	6100	;	310.01024
4600	;	6200	;	313.92837
4600	;	6300	;	317.84649
4600	;	6400	;	321.76463
4600	;	6500	;	325.68276
4700	;	1000	;	-17.41703
4700	;	1100	;	-9.69814
4700	;	1200	;	-1.97926
4700	;	1300	;	5.73963
4700	;	1400	;	13.45852
4700	;	1500	;	21.17741
4700	;	1600	;	28.8963
4700	;	1700	;	36.61519
4700	;	1800	;	44.33407
4700	;	1900	;	52.05296
4700	;	2000	;	59.77185
4700	;	2100	;	67.49074
4700	;	2200	;	75.20963
4700	;	2300	;	82.92852
4700	;	2400	;	90.64741
4700	;	2500	;	98.36629
4700	;	2600	;	106.08519
4700	;	2700	;	113.80407
4700	;	2800	;	121.52296
4700	;	2900	;	129.24185
4700	;	3000	;	136.96073
4700	;	3100	;	144.67963
4700	;	3200	;	152.39851
4700	;	3300	;	160.11741
4700	;	3400	;	167.83629
4700	;	3500	;	175.55519
4700	;	3600	;	183.27407
4700	;	3700	;	190.99295
4700	;	3800	;	198.71185
4700	;	3900	;	206.43073
4700	;	4000	;	213.74462
4700	;	4100	;	219.66899
4700	;	4200	;	225.59335
4700	;	4300	;	231.1479
4700	;	4400	;	235.87451
4700	;	4500	;	240.60111
4700	;	4600	;	245.32771
4700	;	4700	;	250
4700	;	4800	;	253.76541
4700	;	4900	;	257.5308
4700	;	5000	;	261.29621
4700	;	5100	;	265.06145
4700	;	5200	;	268.82364
4700	;	5300	;	272.58583
4700	;	5400	;	276.34802
4700	;	5500	;	280.11021
4700	;	5600	;	283.8724
4700	;	5700	;	287.63459
4700	;	5800	;	291.39678
4700	;	5900	;	295.15897
4700	;	6000	;	298.92116
4700	;	6100	;	302.68336
4700	;	6200	;	306.44554
4700	;	6300	;	310.20773
4700	;	6400	;	313.96992
4700	;	6500	;	317.73211
4800	;	1000	;	4.09205
4800	;	1100	;	10.93248
4800	;	1200	;	17.7729
4800	;	1300	;	24.61333
4800	;	1400	;	31.45376
4800	;	1500	;	38.29419
4800	;	1600	;	45.13462
4800	;	1700	;	51.97504
4800	;	1800	;	58.81547
4800	;	1900	;	65.65589
4800	;	2000	;	72.49633
4800	;	2100	;	79.33676
4800	;	2200	;	86.17718
4800	;	2300	;	93.01761
4800	;	2400	;	99.85804
4800	;	2500	;	106.69847
4800	;	2600	;	113.5389
4800	;	2700	;	120.37932
4800	;	2800	;	127.21975
4800	;	2900	;	134.06018
4800	;	3000	;	140.90061
4800	;	3100	;	147.74104
4800	;	3200	;	154.58146
4800	;	3300	;	161.42189
4800	;	3400	;	168.26232
4800	;	3500	;	175.10275
4800	;	3600	;	181.94318
4800	;	3700	;	188.7836
4800	;	3800	;	195.62403
4800	;	3900	;	202.46446
4800	;	4000	;	209.20906
4800	;	4100	;	215.60922
4800	;	4200	;	222.00937
4800	;	4300	;	227.10936
4800	;	4400	;	231.98812
4800	;	4500	;	236.86688
4800	;	4600	;	241.74563
4800	;	4700	;	245.98831
4800	;	4800	;	250
4800	;	4900	;	253.93992
4800	;	5000	;	257.85686
4800	;	5100	;	261.77379
4800	;	5200	;	265.69072
4800	;	5300	;	269.60765
4800	;	5400	;	273.52459
4800	;	5500	;	277.44152
4800	;	5600	;	281.35845
4800	;	5700	;	285.27539
4800	;	5800	;	289.19232
4800	;	5900	;	293.10925
4800	;	6000	;	297.02618
4800	;	6100	;	300.94312
4800	;	6200	;	304.86005
4800	;	6300	;	308.77699
4800	;	6400	;	312.69392
4800	;	6500	;	316.61085
4900	;	1000	;	8.329
4900	;	1100	;	14.883
4900	;	1200	;	21.437
4900	;	1300	;	27.992
4900	;	1400	;	34.546
4900	;	1500	;	41.101
4900	;	1600	;	47.655
4900	;	1700	;	54.209
4900	;	1800	;	60.764
4900	;	1900	;	67.318
4900	;	2000	;	73.872
4900	;	2100	;	80.427
4900	;	2200	;	86.981
4900	;	2300	;	93.536
4900	;	2400	;	100.09
4900	;	2500	;	106.644
4900	;	2600	;	113.199
4900	;	2700	;	119.753
4900	;	2800	;	126.307
4900	;	2900	;	132.862
4900	;	3000	;	139.416
4900	;	3100	;	145.97
4900	;	3200	;	152.525
4900	;	3300	;	159.079
4900	;	3400	;	165.634
4900	;	3500	;	172.188
4900	;	3600	;	178.742
4900	;	3700	;	185.297
4900	;	3800	;	191.851
4900	;	3900	;	198.405
4900	;	4000	;	204.96
4900	;	4100	;	211.514
4900	;	4200	;	218.069
4900	;	4300	;	223.019
4900	;	4400	;	227.949
4900	;	4500	;	232.878
4900	;	4600	;	237.808
4900	;	4700	;	241.909
4900	;	4800	;	246.002
4900	;	4900	;	250
4900	;	5000	;	253.968
4900	;	5100	;	257.935
4900	;	5200	;	261.903
4900	;	5300	;	265.87
4900	;	5400	;	269.838
4900	;	5500	;	273.806
4900	;	5600	;	277.773
4900	;	5700	;	281.741
4900	;	5800	;	285.708
4900	;	5900	;	289.676
4900	;	6000	;	293.643
4900	;	6100	;	297.611
4900	;	6200	;	301.579
4900	;	6300	;	305.546
4900	;	6400	;	309.514
4900	;	6500	;	313.481
5000	;	1000	;	4.361
5000	;	1100	;	10.915
5000	;	1200	;	17.47
5000	;	1300	;	24.024
5000	;	1400	;	30.579
5000	;	1500	;	37.133
5000	;	1600	;	43.687
5000	;	1700	;	50.242
5000	;	1800	;	56.796
5000	;	1900	;	63.35
5000	;	2000	;	69.905
5000	;	2100	;	76.459
5000	;	2200	;	83.014
5000	;	2300	;	89.568
5000	;	2400	;	96.122
5000	;	2500	;	102.677
5000	;	2600	;	109.231
5000	;	2700	;	115.785
5000	;	2800	;	122.34
5000	;	2900	;	128.894
5000	;	3000	;	135.449
5000	;	3100	;	142.003
5000	;	3200	;	148.557
5000	;	3300	;	155.112
5000	;	3400	;	161.666
5000	;	3500	;	168.22
5000	;	3600	;	174.775
5000	;	3700	;	181.329
5000	;	3800	;	187.883
5000	;	3900	;	194.438
5000	;	4000	;	200.992
5000	;	4100	;	207.547
5000	;	4200	;	214.101
5000	;	4300	;	219.052
5000	;	4400	;	223.981
5000	;	4500	;	228.911
5000	;	4600	;	233.84
5000	;	4700	;	237.941
5000	;	4800	;	242.034
5000	;	4900	;	246.032
5000	;	5000	;	250
5000	;	5100	;	253.968
5000	;	5200	;	257.935
5000	;	5300	;	261.903
5000	;	5400	;	265.87
5000	;	5500	;	269.838
5000	;	5600	;	273.806
5000	;	5700	;	277.773
5000	;	5800	;	281.741
5000	;	5900	;	285.708
5000	;	6000	;	289.676
5000	;	6100	;	293.643
5000	;	6200	;	297.611
5000	;	6300	;	301.579
5000	;	6400	;	305.546
5000	;	6500	;	309.514
5100	;	1000	;	0.394
5100	;	1100	;	6.948
5100	;	1200	;	13.502
5100	;	1300	;	20.057
5100	;	1400	;	26.611
5100	;	1500	;	33.165
5100	;	1600	;	39.72
5100	;	1700	;	46.274
5100	;	1800	;	52.828
5100	;	1900	;	59.383
5100	;	2000	;	65.937
5100	;	2100	;	72.492
5100	;	2200	;	79.046
5100	;	2300	;	85.6
5100	;	2400	;	92.155
5100	;	2500	;	98.709
5100	;	2600	;	105.263
5100	;	2700	;	111.818
5100	;	2800	;	118.372
5100	;	2900	;	124.927
5100	;	3000	;	131.481
5100	;	3100	;	138.035
5100	;	3200	;	144.59
5100	;	3300	;	151.144
5100	;	3400	;	157.698
5100	;	3500	;	164.253
5100	;	3600	;	170.807
5100	;	3700	;	177.362
5100	;	3800	;	183.916
5100	;	3900	;	190.47
5100	;	4000	;	197.025
5100	;	4100	;	203.579
5100	;	4200	;	210.133
5100	;	4300	;	215.084
5100	;	4400	;	220.013
5100	;	4500	;	224.943
5100	;	4600	;	229.872
5100	;	4700	;	233.974
5100	;	4800	;	238.067
5100	;	4900	;	242.065
5100	;	5000	;	246.032
5100	;	5100	;	250
5100	;	5200	;	253.968
5100	;	5300	;	257.935
5100	;	5400	;	261.903
5100	;	5500	;	265.87
5100	;	5600	;	269.838
5100	;	5700	;	273.806
5100	;	5800	;	277.773
5100	;	5900	;	281.741
5100	;	6000	;	285.708
5100	;	6100	;	289.676
5100	;	6200	;	293.643
5100	;	6300	;	297.611
5100	;	6400	;	301.579
5100	;	6500	;	305.546
5200	;	1000	;	-3.574
5200	;	1100	;	2.98
5200	;	1200	;	9.535
5200	;	1300	;	16.089
5200	;	1400	;	22.643
5200	;	1500	;	29.198
5200	;	1600	;	35.752
5200	;	1700	;	42.307
5200	;	1800	;	48.861
5200	;	1900	;	55.415
5200	;	2000	;	61.97
5200	;	2100	;	68.524
5200	;	2200	;	75.078
5200	;	2300	;	81.633
5200	;	2400	;	88.187
5200	;	2500	;	94.741
5200	;	2600	;	101.296
5200	;	2700	;	107.85
5200	;	2800	;	114.405
5200	;	2900	;	120.959
5200	;	3000	;	127.513
5200	;	3100	;	134.068
5200	;	3200	;	140.622
5200	;	3300	;	147.176
5200	;	3400	;	153.731
5200	;	3500	;	160.285
5200	;	3600	;	166.84
5200	;	3700	;	173.394
5200	;	3800	;	179.948
5200	;	3900	;	186.503
5200	;	4000	;	193.057
5200	;	4100	;	199.611
5200	;	4200	;	206.166
5200	;	4300	;	211.116
5200	;	4400	;	216.046
5200	;	4500	;	220.975
5200	;	4600	;	225.905
5200	;	4700	;	230.006
5200	;	4800	;	234.099
5200	;	4900	;	238.097
5200	;	5000	;	242.065
5200	;	5100	;	246.032
5200	;	5200	;	250
5200	;	5300	;	253.968
5200	;	5400	;	257.935
5200	;	5500	;	261.903
5200	;	5600	;	265.87
5200	;	5700	;	269.838
5200	;	5800	;	273.806
5200	;	5900	;	277.773
5200	;	6000	;	281.741
5200	;	6100	;	285.708
5200	;	6200	;	289.676
5200	;	6300	;	293.643
5200	;	6400	;	297.611
5200	;	6500	;	301.579
5300	;	1000	;	-7.542
5300	;	1100	;	-0.987
5300	;	1200	;	5.567
5300	;	1300	;	12.121
5300	;	1400	;	18.676
5300	;	1500	;	25.23
5300	;	1600	;	31.785
5300	;	1700	;	38.339
5300	;	1800	;	44.893
5300	;	1900	;	51.448
5300	;	2000	;	58.002
5300	;	2100	;	64.556
5300	;	2200	;	71.111
5300	;	2300	;	77.665
5300	;	2400	;	84.22
5300	;	2500	;	90.774
5300	;	2600	;	97.328
5300	;	2700	;	103.883
5300	;	2800	;	110.437
5300	;	2900	;	116.991
5300	;	3000	;	123.546
5300	;	3100	;	130.1
5300	;	3200	;	136.655
5300	;	3300	;	143.209
5300	;	3400	;	149.763
5300	;	3500	;	156.318
5300	;	3600	;	162.872
5300	;	3700	;	169.426
5300	;	3800	;	175.981
5300	;	3900	;	182.535
5300	;	4000	;	189.089
5300	;	4100	;	195.644
5300	;	4200	;	202.198
5300	;	4300	;	207.149
5300	;	4400	;	212.078
5300	;	4500	;	217.008
5300	;	4600	;	221.937
5300	;	4700	;	226.038
5300	;	4800	;	230.132
5300	;	4900	;	234.13
5300	;	5000	;	238.097
5300	;	5100	;	242.065
5300	;	5200	;	246.032
5300	;	5300	;	250
5300	;	5400	;	253.968
5300	;	5500	;	257.935
5300	;	5600	;	261.903
5300	;	5700	;	265.87
5300	;	5800	;	269.838
5300	;	5900	;	273.806
5300	;	6000	;	277.773
5300	;	6100	;	281.741
5300	;	6200	;	285.708
5300	;	6300	;	289.676
5300	;	6400	;	293.643
5300	;	6500	;	297.611
5400	;	1000	;	-11.509
5400	;	1100	;	-4.955
5400	;	1200	;	1.599
5400	;	1300	;	8.154
5400	;	1400	;	14.708
5400	;	1500	;	21.263
5400	;	1600	;	27.817
5400	;	1700	;	34.371
5400	;	1800	;	40.926
5400	;	1900	;	47.48
5400	;	2000	;	54.034
5400	;	2100	;	60.589
5400	;	2200	;	67.143
5400	;	2300	;	73.698
5400	;	2400	;	80.252
5400	;	2500	;	86.806
5400	;	2600	;	93.361
5400	;	2700	;	99.915
5400	;	2800	;	106.469
5400	;	2900	;	113.024
5400	;	3000	;	119.578
5400	;	3100	;	126.133
5400	;	3200	;	132.687
5400	;	3300	;	139.241
5400	;	3400	;	145.796
5400	;	3500	;	152.35
5400	;	3600	;	158.904
5400	;	3700	;	165.459
5400	;	3800	;	172.013
5400	;	3900	;	178.568
5400	;	4000	;	185.122
5400	;	4100	;	191.676
5400	;	4200	;	198.231
5400	;	4300	;	203.181
5400	;	4400	;	208.111
5400	;	4500	;	213.04
5400	;	4600	;	217.97
5400	;	4700	;	222.071
5400	;	4800	;	226.164
5400	;	4900	;	230.162
5400	;	5000	;	234.13
5400	;	5100	;	238.097
5400	;	5200	;	242.065
5400	;	5300	;	246.032
5400	;	5400	;	250
5400	;	5500	;	253.968
5400	;	5600	;	257.935
5400	;	5700	;	261.903
5400	;	5800	;	265.87
5400	;	5900	;	269.838
5400	;	6000	;	273.806
5400	;	6100	;	277.773
5400	;	6200	;	281.741
5400	;	6300	;	285.708
5400	;	6400	;	289.676
5400	;	6500	;	293.643
5500	;	1000	;	-15.477
5500	;	1100	;	-8.922
5500	;	1200	;	-2.368
5500	;	1300	;	4.186
5500	;	1400	;	10.741
5500	;	1500	;	17.295
5500	;	1600	;	23.849
5500	;	1700	;	30.404
5500	;	1800	;	36.958
5500	;	1900	;	43.513
5500	;	2000	;	50.067
5500	;	2100	;	56.621
5500	;	2200	;	63.176
5500	;	2300	;	69.73
5500	;	2400	;	76.284
5500	;	2500	;	82.839
5500	;	2600	;	89.393
5500	;	2700	;	95.947
5500	;	2800	;	102.502
5500	;	2900	;	109.056
5500	;	3000	;	115.611
5500	;	3100	;	122.165
5500	;	3200	;	128.719
5500	;	3300	;	135.274
5500	;	3400	;	141.828
5500	;	3500	;	148.382
5500	;	3600	;	154.937
5500	;	3700	;	161.491
5500	;	3800	;	168.046
5500	;	3900	;	174.6
5500	;	4000	;	181.154
5500	;	4100	;	187.709
5500	;	4200	;	194.263
5500	;	4300	;	199.214
5500	;	4400	;	204.143
5500	;	4500	;	209.073
5500	;	4600	;	214.002
5500	;	4700	;	218.103
5500	;	4800	;	222.196
5500	;	4900	;	226.194
5500	;	5000	;	230.162
5500	;	5100	;	234.13
5500	;	5200	;	238.097
5500	;	5300	;	242.065
5500	;	5400	;	246.032
5500	;	5500	;	250
5500	;	5600	;	253.968
5500	;	5700	;	257.935
5500	;	5800	;	261.903
5500	;	5900	;	265.87
5500	;	6000	;	269.838
5500	;	6100	;	273.806
5500	;	6200	;	277.773
5500	;	6300	;	281.741
5500	;	6400	;	285.708
5500	;	6500	;	289.676
5600	;	1000	;	-19.444
5600	;	1100	;	-12.89
5600	;	1200	;	-6.336
5600	;	1300	;	0.219
5600	;	1400	;	6.773
5600	;	1500	;	13.327
5600	;	1600	;	19.882
5600	;	1700	;	26.436
5600	;	1800	;	32.991
5600	;	1900	;	39.545
5600	;	2000	;	46.099
5600	;	2100	;	52.654
5600	;	2200	;	59.208
5600	;	2300	;	65.762
5600	;	2400	;	72.317
5600	;	2500	;	78.871
5600	;	2600	;	85.426
5600	;	2700	;	91.98
5600	;	2800	;	98.534
5600	;	2900	;	105.089
5600	;	3000	;	111.643
5600	;	3100	;	118.197
5600	;	3200	;	124.752
5600	;	3300	;	131.306
5600	;	3400	;	137.861
5600	;	3500	;	144.415
5600	;	3600	;	150.969
5600	;	3700	;	157.524
5600	;	3800	;	164.078
5600	;	3900	;	170.632
5600	;	4000	;	177.187
5600	;	4100	;	183.741
5600	;	4200	;	190.295
5600	;	4300	;	195.246
5600	;	4400	;	200.176
5600	;	4500	;	205.105
5600	;	4600	;	210.035
5600	;	4700	;	214.136
5600	;	4800	;	218.229
5600	;	4900	;	222.227
5600	;	5000	;	226.195
5600	;	5100	;	230.162
5600	;	5200	;	234.13
5600	;	5300	;	238.097
5600	;	5400	;	242.065
5600	;	5500	;	246.032
5600	;	5600	;	250
5600	;	5700	;	253.968
5600	;	5800	;	257.935
5600	;	5900	;	261.903
5600	;	6000	;	265.87
5600	;	6100	;	269.838
5600	;	6200	;	273.806
5600	;	6300	;	277.773
5600	;	6400	;	281.741
5600	;	6500	;	285.708
5700	;	1000	;	-23.412
5700	;	1100	;	-16.858
5700	;	1200	;	-10.303
5700	;	1300	;	-3.749
5700	;	1400	;	2.805
5700	;	1500	;	9.36
5700	;	1600	;	15.914
5700	;	1700	;	22.469
5700	;	1800	;	29.023
5700	;	1900	;	35.577
5700	;	2000	;	42.132
5700	;	2100	;	48.686
5700	;	2200	;	55.24
5700	;	2300	;	61.795
5700	;	2400	;	68.349
5700	;	2500	;	74.904
5700	;	2600	;	81.458
5700	;	2700	;	88.012
5700	;	2800	;	94.567
5700	;	2900	;	101.121
5700	;	3000	;	107.675
5700	;	3100	;	114.23
5700	;	3200	;	120.784
5700	;	3300	;	127.339
5700	;	3400	;	133.893
5700	;	3500	;	140.447
5700	;	3600	;	147.002
5700	;	3700	;	153.556
5700	;	3800	;	160.11
5700	;	3900	;	166.665
5700	;	4000	;	173.219
5700	;	4100	;	179.774
5700	;	4200	;	186.328
5700	;	4300	;	191.278
5700	;	4400	;	196.208
5700	;	4500	;	201.137
5700	;	4600	;	206.067
5700	;	4700	;	210.168
5700	;	4800	;	214.261
5700	;	4900	;	218.259
5700	;	5000	;	222.227
5700	;	5100	;	226.194
5700	;	5200	;	230.162
5700	;	5300	;	234.13
5700	;	5400	;	238.097
5700	;	5500	;	242.065
5700	;	5600	;	246.032
5700	;	5700	;	250
5700	;	5800	;	253.968
5700	;	5900	;	257.935
5700	;	6000	;	261.903
5700	;	6100	;	265.87
5700	;	6200	;	269.838
5700	;	6300	;	273.806
5700	;	6400	;	277.773
5700	;	6500	;	281.741
5800	;	1000	;	-27.38
5800	;	1100	;	-20.825
5800	;	1200	;	-14.271
5800	;	1300	;	-7.716
5800	;	1400	;	-1.162
5800	;	1500	;	5.392
5800	;	1600	;	11.947
5800	;	1700	;	18.501
5800	;	1800	;	25.055
5800	;	1900	;	31.61
5800	;	2000	;	38.164
5800	;	2100	;	44.719
5800	;	2200	;	51.273
5800	;	2300	;	57.827
5800	;	2400	;	64.382
5800	;	2500	;	70.936
5800	;	2600	;	77.49
5800	;	2700	;	84.045
5800	;	2800	;	90.599
5800	;	2900	;	97.153
5800	;	3000	;	103.708
5800	;	3100	;	110.262
5800	;	3200	;	116.817
5800	;	3300	;	123.371
5800	;	3400	;	129.925
5800	;	3500	;	136.48
5800	;	3600	;	143.034
5800	;	3700	;	149.588
5800	;	3800	;	156.143
5800	;	3900	;	162.697
5800	;	4000	;	169.252
5800	;	4100	;	175.806
5800	;	4200	;	182.36
5800	;	4300	;	187.311
5800	;	4400	;	192.24
5800	;	4500	;	197.17
5800	;	4600	;	202.099
5800	;	4700	;	206.201
5800	;	4800	;	210.294
5800	;	4900	;	214.292
5800	;	5000	;	218.259
5800	;	5100	;	222.227
5800	;	5200	;	226.195
5800	;	5300	;	230.162
5800	;	5400	;	234.13
5800	;	5500	;	238.097
5800	;	5600	;	242.065
5800	;	5700	;	246.032
5800	;	5800	;	250
5800	;	5900	;	253.968
5800	;	6000	;	257.935
5800	;	6100	;	261.903
5800	;	6200	;	265.87
5800	;	6300	;	269.838
5800	;	6400	;	273.806
5800	;	6500	;	277.773
5900	;	1000	;	-31.347
5900	;	1100	;	-24.793
5900	;	1200	;	-18.238
5900	;	1300	;	-11.684
5900	;	1400	;	-5.13
5900	;	1500	;	1.425
5900	;	1600	;	7.979
5900	;	1700	;	14.533
5900	;	1800	;	21.088
5900	;	1900	;	27.642
5900	;	2000	;	34.197
5900	;	2100	;	40.751
5900	;	2200	;	47.305
5900	;	2300	;	53.86
5900	;	2400	;	60.414
5900	;	2500	;	66.968
5900	;	2600	;	73.523
5900	;	2700	;	80.077
5900	;	2800	;	86.632
5900	;	2900	;	93.186
5900	;	3000	;	99.74
5900	;	3100	;	106.295
5900	;	3200	;	112.849
5900	;	3300	;	119.403
5900	;	3400	;	125.958
5900	;	3500	;	132.512
5900	;	3600	;	139.066
5900	;	3700	;	145.621
5900	;	3800	;	152.175
5900	;	3900	;	158.73
5900	;	4000	;	165.284
5900	;	4100	;	171.838
5900	;	4200	;	178.393
5900	;	4300	;	183.343
5900	;	4400	;	188.273
5900	;	4500	;	193.202
5900	;	4600	;	198.132
5900	;	4700	;	202.233
5900	;	4800	;	206.326
5900	;	4900	;	210.324
5900	;	5000	;	214.292
5900	;	5100	;	218.259
5900	;	5200	;	222.227
5900	;	5300	;	226.194
5900	;	5400	;	230.162
5900	;	5500	;	234.13
5900	;	5600	;	238.097
5900	;	5700	;	242.065
5900	;	5800	;	246.032
5900	;	5900	;	250
5900	;	6000	;	253.968
5900	;	6100	;	257.935
5900	;	6200	;	261.903
5900	;	6300	;	265.87
5900	;	6400	;	269.838
5900	;	6500	;	273.806
6000	;	1000	;	-35.315
6000	;	1100	;	-28.76
6000	;	1200	;	-22.206
6000	;	1300	;	-15.652
6000	;	1400	;	-9.097
6000	;	1500	;	-2.543
6000	;	1600	;	4.011
6000	;	1700	;	10.566
6000	;	1800	;	17.12
6000	;	1900	;	23.675
6000	;	2000	;	30.229
6000	;	2100	;	36.783
6000	;	2200	;	43.338
6000	;	2300	;	49.892
6000	;	2400	;	56.446
6000	;	2500	;	63.001
6000	;	2600	;	69.555
6000	;	2700	;	76.11
6000	;	2800	;	82.664
6000	;	2900	;	89.218
6000	;	3000	;	95.773
6000	;	3100	;	102.327
6000	;	3200	;	108.881
6000	;	3300	;	115.436
6000	;	3400	;	121.99
6000	;	3500	;	128.545
6000	;	3600	;	135.099
6000	;	3700	;	141.653
6000	;	3800	;	148.208
6000	;	3900	;	154.762
6000	;	4000	;	161.316
6000	;	4100	;	167.871
6000	;	4200	;	174.425
6000	;	4300	;	179.376
6000	;	4400	;	184.305
6000	;	4500	;	189.235
6000	;	4600	;	194.164
6000	;	4700	;	198.265
6000	;	4800	;	202.359
6000	;	4900	;	206.357
6000	;	5000	;	210.324
6000	;	5100	;	214.292
6000	;	5200	;	218.259
6000	;	5300	;	222.227
6000	;	5400	;	226.195
6000	;	5500	;	230.162
6000	;	5600	;	234.13
6000	;	5700	;	238.097
6000	;	5800	;	242.065
6000	;	5900	;	246.032
6000	;	6000	;	250
6000	;	6100	;	253.968
6000	;	6200	;	257.935
6000	;	6300	;	261.903
6000	;	6400	;	265.87
6000	;	6500	;	269.838
6100	;	1000	;	-39.282
6100	;	1100	;	-32.728
6100	;	1200	;	-26.174
6100	;	1300	;	-19.619
6100	;	1400	;	-13.065
6100	;	1500	;	-6.51
6100	;	1600	;	0.044
6100	;	1700	;	6.598
6100	;	1800	;	13.153
6100	;	1900	;	19.707
6100	;	2000	;	26.261
6100	;	2100	;	32.816
6100	;	2200	;	39.37
6100	;	2300	;	45.924
6100	;	2400	;	52.479
6100	;	2500	;	59.033
6100	;	2600	;	65.588
6100	;	2700	;	72.142
6100	;	2800	;	78.696
6100	;	2900	;	85.251
6100	;	3000	;	91.805
6100	;	3100	;	98.359
6100	;	3200	;	104.914
6100	;	3300	;	111.468
6100	;	3400	;	118.023
6100	;	3500	;	124.577
6100	;	3600	;	131.131
6100	;	3700	;	137.686
6100	;	3800	;	144.24
6100	;	3900	;	150.794
6100	;	4000	;	157.349
6100	;	4100	;	163.903
6100	;	4200	;	170.458
6100	;	4300	;	175.408
6100	;	4400	;	180.338
6100	;	4500	;	185.267
6100	;	4600	;	190.197
6100	;	4700	;	194.298
6100	;	4800	;	198.391
6100	;	4900	;	202.389
6100	;	5000	;	206.357
6100	;	5100	;	210.324
6100	;	5200	;	214.292
6100	;	5300	;	218.259
6100	;	5400	;	222.227
6100	;	5500	;	226.194
6100	;	5600	;	230.162
6100	;	5700	;	234.13
6100	;	5800	;	238.097
6100	;	5900	;	242.065
6100	;	6000	;	246.032
6100	;	6100	;	250
6100	;	6200	;	253.968
6100	;	6300	;	257.935
6100	;	6400	;	261.903
6100	;	6500	;	265.87
6200	;	1000	;	-43.25
6200	;	1100	;	-36.696
6200	;	1200	;	-30.141
6200	;	1300	;	-23.587
6200	;	1400	;	-17.032
6200	;	1500	;	-10.478
6200	;	1600	;	-3.924
6200	;	1700	;	2.631
6200	;	1800	;	9.185
6200	;	1900	;	15.739
6200	;	2000	;	22.294
6200	;	2100	;	28.848
6200	;	2200	;	35.403
6200	;	2300	;	41.957
6200	;	2400	;	48.511
6200	;	2500	;	55.066
6200	;	2600	;	61.62
6200	;	2700	;	68.174
6200	;	2800	;	74.729
6200	;	2900	;	81.283
6200	;	3000	;	87.838
6200	;	3100	;	94.392
6200	;	3200	;	100.946
6200	;	3300	;	107.501
6200	;	3400	;	114.055
6200	;	3500	;	120.609
6200	;	3600	;	127.164
6200	;	3700	;	133.718
6200	;	3800	;	140.272
6200	;	3900	;	146.827
6200	;	4000	;	153.381
6200	;	4100	;	159.936
6200	;	4200	;	166.49
6200	;	4300	;	171.441
6200	;	4400	;	176.37
6200	;	4500	;	181.3
6200	;	4600	;	186.229
6200	;	4700	;	190.33
6200	;	4800	;	194.423
6200	;	4900	;	198.421
6200	;	5000	;	202.389
6200	;	5100	;	206.357
6200	;	5200	;	210.324
6200	;	5300	;	214.292
6200	;	5400	;	218.259
6200	;	5500	;	222.227
6200	;	5600	;	226.194
6200	;	5700	;	230.162
6200	;	5800	;	234.13
6200	;	5900	;	238.097
6200	;	6000	;	242.065
6200	;	6100	;	246.032
6200	;	6200	;	250
6200	;	6300	;	253.968
6200	;	6400	;	257.935
6200	;	6500	;	261.903
6300	;	1000	;	-47.218
6300	;	1100	;	-40.663
6300	;	1200	;	-34.109
6300	;	1300	;	-27.554
6300	;	1400	;	-21
6300	;	1500	;	-14.446
6300	;	1600	;	-7.891
6300	;	1700	;	-1.337
6300	;	1800	;	5.217
6300	;	1900	;	11.772
6300	;	2000	;	18.326
6300	;	2100	;	24.881
6300	;	2200	;	31.435
6300	;	2300	;	37.989
6300	;	2400	;	44.544
6300	;	2500	;	51.098
6300	;	2600	;	57.652
6300	;	2700	;	64.207
6300	;	2800	;	70.761
6300	;	2900	;	77.316
6300	;	3000	;	83.87
6300	;	3100	;	90.424
6300	;	3200	;	96.979
6300	;	3300	;	103.533
6300	;	3400	;	110.087
6300	;	3500	;	116.642
6300	;	3600	;	123.196
6300	;	3700	;	129.751
6300	;	3800	;	136.305
6300	;	3900	;	142.859
6300	;	4000	;	149.414
6300	;	4100	;	155.968
6300	;	4200	;	162.522
6300	;	4300	;	167.473
6300	;	4400	;	172.402
6300	;	4500	;	177.332
6300	;	4600	;	182.261
6300	;	4700	;	186.363
6300	;	4800	;	190.456
6300	;	4900	;	194.454
6300	;	5000	;	198.421
6300	;	5100	;	202.389
6300	;	5200	;	206.357
6300	;	5300	;	210.324
6300	;	5400	;	214.292
6300	;	5500	;	218.259
6300	;	5600	;	222.227
6300	;	5700	;	226.194
6300	;	5800	;	230.162
6300	;	5900	;	234.13
6300	;	6000	;	238.097
6300	;	6100	;	242.065
6300	;	6200	;	246.032
6300	;	6300	;	250
6300	;	6400	;	253.968
6300	;	6500	;	257.935
6400	;	1000	;	-51.185
6400	;	1100	;	-44.631
6400	;	1200	;	-38.076
6400	;	1300	;	-31.522
6400	;	1400	;	-24.968
6400	;	1500	;	-18.413
6400	;	1600	;	-11.859
6400	;	1700	;	-5.305
6400	;	1800	;	1.25
6400	;	1900	;	7.804
6400	;	2000	;	14.359
6400	;	2100	;	20.913
6400	;	2200	;	27.467
6400	;	2300	;	34.022
6400	;	2400	;	40.576
6400	;	2500	;	47.13
6400	;	2600	;	53.685
6400	;	2700	;	60.239
6400	;	2800	;	66.794
6400	;	2900	;	73.348
6400	;	3000	;	79.902
6400	;	3100	;	86.457
6400	;	3200	;	93.011
6400	;	3300	;	99.565
6400	;	3400	;	106.12
6400	;	3500	;	112.674
6400	;	3600	;	119.229
6400	;	3700	;	125.783
6400	;	3800	;	132.337
6400	;	3900	;	138.892
6400	;	4000	;	145.446
6400	;	4100	;	152
6400	;	4200	;	158.555
6400	;	4300	;	163.505
6400	;	4400	;	168.435
6400	;	4500	;	173.364
6400	;	4600	;	178.294
6400	;	4700	;	182.395
6400	;	4800	;	186.488
6400	;	4900	;	190.486
6400	;	5000	;	194.454
6400	;	5100	;	198.421
6400	;	5200	;	202.389
6400	;	5300	;	206.357
6400	;	5400	;	210.324
6400	;	5500	;	214.292
6400	;	5600	;	218.259
6400	;	5700	;	222.227
6400	;	5800	;	226.194
6400	;	5900	;	230.162
6400	;	6000	;	234.13
6400	;	6100	;	238.097
6400	;	6200	;	242.065
6400	;	6300	;	246.032
6400	;	6400	;	250
6400	;	6500	;	253.968
6500	;	1000	;	-55.153
6500	;	1100	;	-48.598
6500	;	1200	;	-42.044
6500	;	1300	;	-35.49
6500	;	1400	;	-28.935
6500	;	1500	;	-22.381
6500	;	1600	;	-15.826
6500	;	1700	;	-9.272
6500	;	1800	;	-2.718
6500	;	1900	;	3.837
6500	;	2000	;	10.391
6500	;	2100	;	16.945
6500	;	2200	;	23.5
6500	;	2300	;	30.054
6500	;	2400	;	36.609
6500	;	2500	;	43.163
6500	;	2600	;	49.717
6500	;	2700	;	56.272
6500	;	2800	;	62.826
6500	;	2900	;	69.38
6500	;	3000	;	75.935
6500	;	3100	;	82.489
6500	;	3200	;	89.044
6500	;	3300	;	95.598
6500	;	3400	;	102.152
6500	;	3500	;	108.707
6500	;	3600	;	115.261
6500	;	3700	;	121.815
6500	;	3800	;	128.37
6500	;	3900	;	134.924
6500	;	4000	;	141.478
6500	;	4100	;	148.033
6500	;	4200	;	154.587
6500	;	4300	;	159.538
6500	;	4400	;	164.467
6500	;	4500	;	169.397
6500	;	4600	;	174.326
6500	;	4700	;	178.427
6500	;	4800	;	182.521
6500	;	4900	;	186.519
6500	;	5000	;	190.486
6500	;	5100	;	194.454
6500	;	5200	;	198.421
6500	;	5300	;	202.389
6500	;	5400	;	206.357
6500	;	5500	;	210.324
6500	;	5600	;	214.292
6500	;	5700	;	218.259
6500	;	5800	;	222.227
6500	;	5900	;	226.195
6500	;	6000	;	230.162
6500	;	6100	;	234.13
6500	;	6200	;	238.097
6500	;	6300	;	242.065
6500	;	6400	;	246.032
6500	;	6500	;	250
