-0.6	;	1000	;	1000
-0.6	;	1100	;	1100
-0.6	;	1200	;	1200
-0.6	;	1300	;	1300
-0.6	;	1400	;	1400
-0.6	;	1500	;	1500
-0.6	;	1600	;	1600
-0.6	;	1700	;	1700
-0.6	;	1800	;	1800
-0.6	;	1900	;	1900
-0.6	;	2000	;	2000
-0.6	;	2100	;	2100
-0.6	;	2200	;	2200
-0.6	;	2300	;	2300
-0.6	;	2400	;	2400
-0.6	;	2500	;	2500
-0.6	;	2600	;	2600
-0.6	;	2700	;	2700
-0.6	;	2800	;	2800
-0.6	;	2900	;	2900
-0.6	;	3000	;	3000
-0.6	;	3100	;	3100
-0.6	;	3200	;	3200
-0.6	;	3300	;	3300
-0.6	;	3400	;	3400
-0.6	;	3500	;	3500
-0.6	;	3600	;	3600
-0.6	;	3700	;	3700
-0.6	;	3800	;	3800
-0.6	;	3900	;	3900
-0.6	;	4000	;	4000
-0.6	;	4100	;	4100
-0.6	;	4200	;	4200
-0.6	;	4300	;	4300
-0.6	;	4400	;	4400
-0.6	;	4500	;	4500
-0.6	;	4600	;	4600
-0.6	;	4700	;	4700
-0.6	;	4800	;	4800
-0.6	;	4900	;	4900
-0.6	;	5000	;	5000
-0.6	;	5100	;	5100
-0.6	;	5200	;	5200
-0.6	;	5300	;	5300
-0.6	;	5400	;	5400
-0.6	;	5500	;	5500
-0.575	;	1000	;	1017.177
-0.575	;	1100	;	1117.649
-0.575	;	1200	;	1220.797
-0.575	;	1300	;	1322.847
-0.575	;	1400	;	1421.696
-0.575	;	1500	;	1525.788
-0.575	;	1600	;	1626.25
-0.575	;	1700	;	1731.773
-0.575	;	1800	;	1830.191
-0.575	;	1900	;	1932.868
-0.575	;	2000	;	2031.992
-0.575	;	2100	;	2136.325
-0.575	;	2200	;	2237.73
-0.575	;	2300	;	2340.586
-0.575	;	2400	;	2440.384
-0.575	;	2500	;	2545.028
-0.575	;	2600	;	2646.476
-0.575	;	2700	;	2747.227
-0.575	;	2800	;	2850.1
-0.575	;	2900	;	2950.109
-0.575	;	3000	;	3050.844
-0.575	;	3100	;	3152.312
-0.575	;	3200	;	3253.701
-0.575	;	3300	;	3357.486
-0.575	;	3400	;	3461.04
-0.575	;	3500	;	3564.297
-0.575	;	3600	;	3663
-0.575	;	3700	;	3764.943
-0.575	;	3800	;	3863.971
-0.575	;	3900	;	3966.673
-0.575	;	4000	;	4069.677
-0.575	;	4100	;	4169.821
-0.575	;	4200	;	4272.581
-0.575	;	4300	;	4372.922
-0.575	;	4400	;	4476.935
-0.575	;	4500	;	4577.002
-0.575	;	4600	;	4678.311
-0.575	;	4700	;	4776.995
-0.575	;	4800	;	4873.166
-0.575	;	4900	;	4982.671
-0.575	;	5000	;	5083.808
-0.575	;	5100	;	5182.757
-0.575	;	5200	;	5285.128
-0.575	;	5300	;	5388.142
-0.575	;	5400	;	5492.753
-0.575	;	5500	;	5592.753
-0.55	;	1000	;	1034.354
-0.55	;	1100	;	1135.298
-0.55	;	1200	;	1241.594
-0.55	;	1300	;	1345.693
-0.55	;	1400	;	1443.392
-0.55	;	1500	;	1551.576
-0.55	;	1600	;	1652.5
-0.55	;	1700	;	1763.547
-0.55	;	1800	;	1860.382
-0.55	;	1900	;	1965.736
-0.55	;	2000	;	2063.985
-0.55	;	2100	;	2172.649
-0.55	;	2200	;	2275.459
-0.55	;	2300	;	2381.172
-0.55	;	2400	;	2480.767
-0.55	;	2500	;	2590.057
-0.55	;	2600	;	2692.952
-0.55	;	2700	;	2794.455
-0.55	;	2800	;	2900.2
-0.55	;	2900	;	3000.219
-0.55	;	3000	;	3101.689
-0.55	;	3100	;	3204.624
-0.55	;	3200	;	3307.401
-0.55	;	3300	;	3414.972
-0.55	;	3400	;	3522.079
-0.55	;	3500	;	3628.594
-0.55	;	3600	;	3725.999
-0.55	;	3700	;	3829.886
-0.55	;	3800	;	3927.943
-0.55	;	3900	;	4033.347
-0.55	;	4000	;	4139.355
-0.55	;	4100	;	4239.642
-0.55	;	4200	;	4345.161
-0.55	;	4300	;	4445.844
-0.55	;	4400	;	4553.871
-0.55	;	4500	;	4654.004
-0.55	;	4600	;	4756.621
-0.55	;	4700	;	4853.99
-0.55	;	4800	;	4946.333
-0.55	;	4900	;	5065.342
-0.55	;	5000	;	5167.615
-0.55	;	5100	;	5265.514
-0.55	;	5200	;	5370.257
-0.55	;	5300	;	5473.473
-0.55	;	5400	;	5504.514
-0.55	;	5500	;	5604.514
-0.525	;	1000	;	1051.531
-0.525	;	1100	;	1152.947
-0.525	;	1200	;	1262.391
-0.525	;	1300	;	1368.54
-0.525	;	1400	;	1465.088
-0.525	;	1500	;	1577.364
-0.525	;	1600	;	1678.75
-0.525	;	1700	;	1795.32
-0.525	;	1800	;	1890.573
-0.525	;	1900	;	1998.604
-0.525	;	2000	;	2095.977
-0.525	;	2100	;	2208.974
-0.525	;	2200	;	2313.189
-0.525	;	2300	;	2421.758
-0.525	;	2400	;	2521.151
-0.525	;	2500	;	2635.085
-0.525	;	2600	;	2739.428
-0.525	;	2700	;	2841.682
-0.525	;	2800	;	2950.3
-0.525	;	2900	;	3050.328
-0.525	;	3000	;	3152.533
-0.525	;	3100	;	3256.935
-0.525	;	3200	;	3361.102
-0.525	;	3300	;	3472.459
-0.525	;	3400	;	3583.119
-0.525	;	3500	;	3692.891
-0.525	;	3600	;	3788.999
-0.525	;	3700	;	3894.828
-0.525	;	3800	;	3991.914
-0.525	;	3900	;	4100.02
-0.525	;	4000	;	4209.032
-0.525	;	4100	;	4309.462
-0.525	;	4200	;	4417.742
-0.525	;	4300	;	4518.767
-0.525	;	4400	;	4630.806
-0.525	;	4500	;	4731.006
-0.525	;	4600	;	4834.932
-0.525	;	4700	;	4930.985
-0.525	;	4800	;	5019.499
-0.525	;	4900	;	5148.013
-0.525	;	5000	;	5251.423
-0.525	;	5100	;	5348.271
-0.525	;	5200	;	5454.195
-0.525	;	5300	;	5499.798
-0.525	;	5400	;	5504.514
-0.525	;	5500	;	5604.514
-0.5	;	1000	;	1068.709
-0.5	;	1100	;	1170.71
-0.5	;	1200	;	1284.643
-0.5	;	1300	;	1391.387
-0.5	;	1400	;	1486.784
-0.5	;	1500	;	1603.153
-0.5	;	1600	;	1705
-0.5	;	1700	;	1827.094
-0.5	;	1800	;	1920.764
-0.5	;	1900	;	2031.472
-0.5	;	2000	;	2127.97
-0.5	;	2100	;	2245.299
-0.5	;	2200	;	2350.919
-0.5	;	2300	;	2462.343
-0.5	;	2400	;	2561.535
-0.5	;	2500	;	2680.114
-0.5	;	2600	;	2785.903
-0.5	;	2700	;	2888.91
-0.5	;	2800	;	3000.4
-0.5	;	2900	;	3100.437
-0.5	;	3000	;	3203.378
-0.5	;	3100	;	3309.247
-0.5	;	3200	;	3414.803
-0.5	;	3300	;	3529.945
-0.5	;	3400	;	3644.158
-0.5	;	3500	;	3757.189
-0.5	;	3600	;	3851.999
-0.5	;	3700	;	3959.771
-0.5	;	3800	;	4055.885
-0.5	;	3900	;	4166.694
-0.5	;	4000	;	4278.71
-0.5	;	4100	;	4379.283
-0.5	;	4200	;	4490.323
-0.5	;	4300	;	4591.689
-0.5	;	4400	;	4707.742
-0.5	;	4500	;	4808.008
-0.5	;	4600	;	4913.243
-0.5	;	4700	;	5007.98
-0.5	;	4800	;	5092.666
-0.5	;	4900	;	5236.761
-0.5	;	5000	;	5340.511
-0.5	;	5100	;	5430.778
-0.5	;	5200	;	5500
-0.5	;	5300	;	5499.798
-0.5	;	5400	;	5504.514
-0.5	;	5500	;	5604.514
-0.475	;	1000	;	1107.189
-0.475	;	1100	;	1217.321
-0.475	;	1200	;	1333.412
-0.475	;	1300	;	1441.575
-0.475	;	1400	;	1543.653
-0.475	;	1500	;	1661.995
-0.475	;	1600	;	1770.353
-0.475	;	1700	;	1894.247
-0.475	;	1800	;	1992.06
-0.475	;	1900	;	2106.054
-0.475	;	2000	;	2210.731
-0.475	;	2100	;	2329.433
-0.475	;	2200	;	2433.234
-0.475	;	2300	;	2554.349
-0.475	;	2400	;	2658.302
-0.475	;	2500	;	2777.429
-0.475	;	2600	;	2886.143
-0.475	;	2700	;	2991.575
-0.475	;	2800	;	3003.226
-0.475	;	2900	;	3214.494
-0.475	;	3000	;	3324.013
-0.475	;	3100	;	3435.645
-0.475	;	3200	;	3543.978
-0.475	;	3300	;	3659.754
-0.475	;	3400	;	3776.242
-0.475	;	3500	;	3889.202
-0.475	;	3600	;	3990.236
-0.475	;	3700	;	4099.621
-0.475	;	3800	;	4201.865
-0.475	;	3900	;	4320.312
-0.475	;	4000	;	4435.882
-0.475	;	4100	;	4546.004
-0.475	;	4200	;	4652.984
-0.475	;	4300	;	4765.769
-0.475	;	4400	;	4881.274
-0.475	;	4500	;	4990.012
-0.475	;	4600	;	5097.463
-0.475	;	4700	;	5188.498
-0.475	;	4800	;	5285.43
-0.475	;	4900	;	5424.434
-0.475	;	5000	;	5500
-0.475	;	5100	;	5500
-0.475	;	5200	;	5500
-0.475	;	5300	;	5499.798
-0.475	;	5400	;	5504.514
-0.475	;	5500	;	5604.514
-0.45	;	1000	;	1146.943
-0.45	;	1100	;	1263.932
-0.45	;	1200	;	1382.311
-0.45	;	1300	;	1493.396
-0.45	;	1400	;	1602.625
-0.45	;	1500	;	1722.668
-0.45	;	1600	;	1835.706
-0.45	;	1700	;	1961.613
-0.45	;	1800	;	2065.814
-0.45	;	1900	;	2182.961
-0.45	;	2000	;	2293.491
-0.45	;	2100	;	2413.803
-0.45	;	2200	;	2524.199
-0.45	;	2300	;	2646.711
-0.45	;	2400	;	2758.247
-0.45	;	2500	;	2874.744
-0.45	;	2600	;	2986.485
-0.45	;	2700	;	3097.513
-0.45	;	2800	;	3003.226
-0.45	;	2900	;	3332.319
-0.45	;	3000	;	3444.649
-0.45	;	3100	;	3562.043
-0.45	;	3200	;	3673.154
-0.45	;	3300	;	3793.623
-0.45	;	3400	;	3908.408
-0.45	;	3500	;	4025.263
-0.45	;	3600	;	4132.97
-0.45	;	3700	;	4248.995
-0.45	;	3800	;	4348.736
-0.45	;	3900	;	4473.931
-0.45	;	4000	;	4593.055
-0.45	;	4100	;	4712.724
-0.45	;	4200	;	4815.645
-0.45	;	4300	;	4939.848
-0.45	;	4400	;	5054.807
-0.45	;	4500	;	5172.015
-0.45	;	4600	;	5281.683
-0.45	;	4700	;	5369.016
-0.45	;	4800	;	5478.195
-0.45	;	4900	;	5500
-0.45	;	5000	;	5500
-0.45	;	5100	;	5500
-0.45	;	5200	;	5500
-0.45	;	5300	;	5499.798
-0.45	;	5400	;	5504.514
-0.45	;	5500	;	5604.514
-0.425	;	1000	;	1186.698
-0.425	;	1100	;	1310.543
-0.425	;	1200	;	1431.209
-0.425	;	1300	;	1545.218
-0.425	;	1400	;	1661.597
-0.425	;	1500	;	1783.341
-0.425	;	1600	;	1901.058
-0.425	;	1700	;	2028.978
-0.425	;	1800	;	2139.567
-0.425	;	1900	;	2259.868
-0.425	;	2000	;	2376.252
-0.425	;	2100	;	2498.173
-0.425	;	2200	;	2615.164
-0.425	;	2300	;	2739.072
-0.425	;	2400	;	2858.192
-0.425	;	2500	;	2972.059
-0.425	;	2600	;	3086.827
-0.425	;	2700	;	3203.452
-0.425	;	2800	;	3003.226
-0.425	;	2900	;	3450.145
-0.425	;	3000	;	3565.285
-0.425	;	3100	;	3688.441
-0.425	;	3200	;	3802.33
-0.425	;	3300	;	3927.493
-0.425	;	3400	;	4040.575
-0.425	;	3500	;	4161.324
-0.425	;	3600	;	4275.704
-0.425	;	3700	;	4398.368
-0.425	;	3800	;	4495.608
-0.425	;	3900	;	4627.55
-0.425	;	4000	;	4750.228
-0.425	;	4100	;	4879.444
-0.425	;	4200	;	4978.306
-0.425	;	4300	;	5113.928
-0.425	;	4400	;	5228.339
-0.425	;	4500	;	5354.019
-0.425	;	4600	;	5463.097
-0.425	;	4700	;	5498.405
-0.425	;	4800	;	5500
-0.425	;	4900	;	5500
-0.425	;	5000	;	5500
-0.425	;	5100	;	5500
-0.425	;	5200	;	5500
-0.425	;	5300	;	5499.798
-0.425	;	5400	;	5504.514
-0.425	;	5500	;	5604.514
-0.4	;	1000	;	1226.452
-0.4	;	1100	;	1357.154
-0.4	;	1200	;	1480.108
-0.4	;	1300	;	1597.04
-0.4	;	1400	;	1720.569
-0.4	;	1500	;	1844.014
-0.4	;	1600	;	1966.411
-0.4	;	1700	;	2096.344
-0.4	;	1800	;	2213.321
-0.4	;	1900	;	2336.774
-0.4	;	2000	;	2459.013
-0.4	;	2100	;	2582.543
-0.4	;	2200	;	2706.129
-0.4	;	2300	;	2831.434
-0.4	;	2400	;	2958.136
-0.4	;	2500	;	3069.374
-0.4	;	2600	;	3187.168
-0.4	;	2700	;	3309.391
-0.4	;	2800	;	3003.226
-0.4	;	2900	;	3567.97
-0.4	;	3000	;	3685.92
-0.4	;	3100	;	3814.839
-0.4	;	3200	;	3931.505
-0.4	;	3300	;	4061.362
-0.4	;	3400	;	4172.742
-0.4	;	3500	;	4297.385
-0.4	;	3600	;	4418.438
-0.4	;	3700	;	4547.742
-0.4	;	3800	;	4642.479
-0.4	;	3900	;	4781.169
-0.4	;	4000	;	4907.4
-0.4	;	4100	;	5046.165
-0.4	;	4200	;	5140.968
-0.4	;	4300	;	5288.008
-0.4	;	4400	;	5399.211
-0.4	;	4500	;	5500
-0.4	;	4600	;	5500
-0.4	;	4700	;	5500
-0.4	;	4800	;	5500
-0.4	;	4900	;	5500
-0.4	;	5000	;	5500
-0.4	;	5100	;	5500
-0.4	;	5200	;	5500
-0.4	;	5300	;	5499.798
-0.4	;	5400	;	5504.514
-0.4	;	5500	;	5604.514
