200	;	0.7		;	2530.5
200	;	0.71	;	2530.51
200	;	0.72	;	2530.52
200	;	0.73	;	2530.53
200	;	0.74	;	2530.54
200	;	0.75	;	2530.55
200	;	0.76	;	2530.56
200	;	0.77	;	2530.57
200	;	0.78	;	2531.05
200	;	0.79	;	2609.371
200	;	0.8	;	2707.695
200	;	0.81	;	0
200	;	0.82	;	0
200	;	0.83	;	0
200	;	0.84	;	0
200	;	0.85	;	0
200	;	0.86	;	0.741
200	;	0.87	;	0.75
200	;	0.88	;	0.758
200	;	0.89	;	0.766
200	;	0.9	;	0.777
200	;	0.91	;	0.786
200	;	0.92	;	0.795
200	;	0.93	;	0.803
200	;	0.94	;	0.812
200	;	0.95	;	0.822
200	;	0.96	;	0.832
205	;	0.7	;	1931.566
205	;	0.71	;	1931.576
205	;	0.72	;	1931.586
205	;	0.73	;	1931.596
205	;	0.74	;	1931.606
205	;	0.75	;	1931.616
205	;	0.76	;	1931.626
205	;	0.77	;	1931.636
205	;	0.78	;	1930.167
205	;	0.79	;	1683.746
205	;	0.8	;	907.439
205	;	0.81	;	0
205	;	0.82	;	0
205	;	0.83	;	0
205	;	0.84	;	0
205	;	0.85	;	0
205	;	0.86	;	0.751
205	;	0.87	;	0.76
205	;	0.88	;	0.769
205	;	0.89	;	0.777
205	;	0.9	;	0.788
205	;	0.91	;	0.797
205	;	0.92	;	0.806
205	;	0.93	;	0.814
205	;	0.94	;	0.823
205	;	0.95	;	0.833
205	;	0.96	;	0.843
210	;	0.7	;	1332.631
210	;	0.71	;	1332.641
210	;	0.72	;	1332.651
210	;	0.73	;	1332.661
210	;	0.74	;	1332.671
210	;	0.75	;	1332.681
210	;	0.76	;	1332.691
210	;	0.77	;	1332.701
210	;	0.78	;	1329.284
210	;	0.79	;	758.12
210	;	0.8	;	0.704
210	;	0.81	;	0
210	;	0.82	;	0
210	;	0.83	;	0
210	;	0.84	;	0
210	;	0.85	;	0
210	;	0.86	;	0.761
210	;	0.87	;	0.77
210	;	0.88	;	0.779
210	;	0.89	;	0.789
210	;	0.9	;	0.8
210	;	0.91	;	0.809
210	;	0.92	;	0.816
210	;	0.93	;	0.824
210	;	0.94	;	0.833
210	;	0.95	;	0.843
210	;	0.96	;	0.853
215	;	0.7	;	733.697
215	;	0.71	;	733.707
215	;	0.72	;	733.717
215	;	0.73	;	733.727
215	;	0.74	;	733.737
215	;	0.75	;	733.747
215	;	0.76	;	733.757
215	;	0.77	;	733.767
215	;	0.78	;	729.715
215	;	0.79	;	52.823
215	;	0.8	;	0.711
215	;	0.81	;	0
215	;	0.82	;	0
215	;	0.83	;	0
215	;	0.84	;	0
215	;	0.85	;	0
215	;	0.86	;	0.771
215	;	0.87	;	0.78
215	;	0.88	;	0.79
215	;	0.89	;	0.799
215	;	0.9	;	0.808
215	;	0.91	;	0.818
215	;	0.92	;	0.826
215	;	0.93	;	0.834
215	;	0.94	;	0.843
215	;	0.95	;	0.853
215	;	0.96	;	0.863
220	;	0.7	;	0.777
220	;	0.71	;	0.777
220	;	0.72	;	0.777
220	;	0.73	;	0.777
220	;	0.74	;	0.777
220	;	0.75	;	0.777
220	;	0.76	;	0.777
220	;	0.77	;	0.777
220	;	0.78	;	0.777
220	;	0.79	;	0.777
220	;	0.8	;	0.777
220	;	0.81	;	0.777
220	;	0.82	;	0.777
220	;	0.83	;	0.777
220	;	0.84	;	0.777
220	;	0.85	;	0.777
220	;	0.86	;	0.779
220	;	0.87	;	0.787
220	;	0.88	;	0.798
220	;	0.89	;	0.807
220	;	0.9	;	0.816
220	;	0.91	;	0.826
220	;	0.92	;	0.835
220	;	0.93	;	0.843
220	;	0.94	;	0.853
220	;	0.95	;	0.863
220	;	0.96	;	0.873
225	;	0.7	;	0.624
225	;	0.71	;	0.634
225	;	0.72	;	0.644
225	;	0.73	;	0.654
225	;	0.74	;	0.664
225	;	0.75	;	0.674
225	;	0.76	;	0.684
225	;	0.77	;	0.694
225	;	0.78	;	0.704
225	;	0.79	;	0.714
225	;	0.8	;	0.726
225	;	0.81	;	0.737
225	;	0.82	;	0.746
225	;	0.83	;	0.754
225	;	0.84	;	0.762
225	;	0.85	;	0.774
225	;	0.86	;	0.785
225	;	0.87	;	0.794
225	;	0.88	;	0.805
225	;	0.89	;	0.815
225	;	0.9	;	0.824
225	;	0.91	;	0.834
225	;	0.92	;	0.843
225	;	0.93	;	0.852
225	;	0.94	;	0.863
225	;	0.95	;	0.873
225	;	0.96	;	0.883
230	;	0.7	;	0.63
230	;	0.71	;	0.64
230	;	0.72	;	0.65
230	;	0.73	;	0.66
230	;	0.74	;	0.67
230	;	0.75	;	0.68
230	;	0.76	;	0.69
230	;	0.77	;	0.7
230	;	0.78	;	0.71
230	;	0.79	;	0.721
230	;	0.8	;	0.733
230	;	0.81	;	0.742
230	;	0.82	;	0.752
230	;	0.83	;	0.76
230	;	0.84	;	0.769
230	;	0.85	;	0.781
230	;	0.86	;	0.792
230	;	0.87	;	0.801
230	;	0.88	;	0.812
230	;	0.89	;	0.822
230	;	0.9	;	0.831
230	;	0.91	;	0.841
230	;	0.92	;	0.851
230	;	0.93	;	0.86
230	;	0.94	;	0.869
230	;	0.95	;	0.879
230	;	0.96	;	0.889
235	;	0.7	;	0.636
235	;	0.71	;	0.646
235	;	0.72	;	0.656
235	;	0.73	;	0.666
235	;	0.74	;	0.676
235	;	0.75	;	0.686
235	;	0.76	;	0.696
235	;	0.77	;	0.706
235	;	0.78	;	0.716
235	;	0.79	;	0.728
235	;	0.8	;	0.739
235	;	0.81	;	0.748
235	;	0.82	;	0.758
235	;	0.83	;	0.767
235	;	0.84	;	0.776
235	;	0.85	;	0.787
235	;	0.86	;	0.798
235	;	0.87	;	0.808
235	;	0.88	;	0.82
235	;	0.89	;	0.829
235	;	0.9	;	0.838
235	;	0.91	;	0.848
235	;	0.92	;	0.858
235	;	0.93	;	0.868
235	;	0.94	;	0.875
235	;	0.95	;	0.885
235	;	0.96	;	0.895
240	;	0.7	;	0.642
240	;	0.71	;	0.652
240	;	0.72	;	0.662
240	;	0.73	;	0.672
240	;	0.74	;	0.682
240	;	0.75	;	0.692
240	;	0.76	;	0.702
240	;	0.77	;	0.712
240	;	0.78	;	0.722
240	;	0.79	;	0.733
240	;	0.8	;	0.744
240	;	0.81	;	0.754
240	;	0.82	;	0.764
240	;	0.83	;	0.773
240	;	0.84	;	0.784
240	;	0.85	;	0.794
240	;	0.86	;	0.804
240	;	0.87	;	0.814
240	;	0.88	;	0.826
240	;	0.89	;	0.835
240	;	0.9	;	0.845
240	;	0.91	;	0.854
240	;	0.92	;	0.864
240	;	0.93	;	0.874
240	;	0.94	;	0.882
240	;	0.95	;	0.892
240	;	0.96	;	0.902
245	;	0.7	;	0.648
245	;	0.71	;	0.658
245	;	0.72	;	0.668
245	;	0.73	;	0.678
245	;	0.74	;	0.688
245	;	0.75	;	0.698
245	;	0.76	;	0.708
245	;	0.77	;	0.718
245	;	0.78	;	0.728
245	;	0.79	;	0.739
245	;	0.8	;	0.75
245	;	0.81	;	0.76
245	;	0.82	;	0.77
245	;	0.83	;	0.78
245	;	0.84	;	0.789
245	;	0.85	;	0.8
245	;	0.86	;	0.81
245	;	0.87	;	0.82
245	;	0.88	;	0.831
245	;	0.89	;	0.841
245	;	0.9	;	0.851
245	;	0.91	;	0.861
245	;	0.92	;	0.87
245	;	0.93	;	0.879
245	;	0.94	;	0.888
245	;	0.95	;	0.898
245	;	0.96	;	0.908
250	;	0.7	;	0.654
250	;	0.71	;	0.664
250	;	0.72	;	0.674
250	;	0.73	;	0.684
250	;	0.74	;	0.694
250	;	0.75	;	0.704
250	;	0.76	;	0.714
250	;	0.77	;	0.724
250	;	0.78	;	0.734
250	;	0.79	;	0.744
250	;	0.8	;	0.756
250	;	0.81	;	0.766
250	;	0.82	;	0.776
250	;	0.83	;	0.786
250	;	0.84	;	0.794
250	;	0.85	;	0.807
250	;	0.86	;	0.817
250	;	0.87	;	0.825
250	;	0.88	;	0.837
250	;	0.89	;	0.847
250	;	0.9	;	0.857
250	;	0.91	;	0.867
250	;	0.92	;	0.876
250	;	0.93	;	0.885
250	;	0.94	;	0.894
250	;	0.95	;	0.904
250	;	0.96	;	0.914
255	;	0.7	;	0.659
255	;	0.71	;	0.669
255	;	0.72	;	0.679
255	;	0.73	;	0.689
255	;	0.74	;	0.699
255	;	0.75	;	0.709
255	;	0.76	;	0.719
255	;	0.77	;	0.729
255	;	0.78	;	0.739
255	;	0.79	;	0.75
255	;	0.8	;	0.761
255	;	0.81	;	0.771
255	;	0.82	;	0.782
255	;	0.83	;	0.791
255	;	0.84	;	0.799
255	;	0.85	;	0.812
255	;	0.86	;	0.822
255	;	0.87	;	0.831
255	;	0.88	;	0.843
255	;	0.89	;	0.852
255	;	0.9	;	0.863
255	;	0.91	;	0.872
255	;	0.92	;	0.882
255	;	0.93	;	0.891
255	;	0.94	;	0.9
255	;	0.95	;	0.91
255	;	0.96	;	0.92
260	;	0.7	;	0.664
260	;	0.71	;	0.674
260	;	0.72	;	0.684
260	;	0.73	;	0.694
260	;	0.74	;	0.704
260	;	0.75	;	0.714
260	;	0.76	;	0.724
260	;	0.77	;	0.734
260	;	0.78	;	0.744
260	;	0.79	;	0.755
260	;	0.8	;	0.766
260	;	0.81	;	0.776
260	;	0.82	;	0.787
260	;	0.83	;	0.796
260	;	0.84	;	0.804
260	;	0.85	;	0.817
260	;	0.86	;	0.827
260	;	0.87	;	0.836
260	;	0.88	;	0.848
260	;	0.89	;	0.858
260	;	0.9	;	0.869
260	;	0.91	;	0.878
260	;	0.92	;	0.888
260	;	0.93	;	0.896
260	;	0.94	;	0.906
260	;	0.95	;	0.916
260	;	0.96	;	0.926
265	;	0.7	;	0.669
265	;	0.71	;	0.679
265	;	0.72	;	0.689
265	;	0.73	;	0.699
265	;	0.74	;	0.709
265	;	0.75	;	0.719
265	;	0.76	;	0.729
265	;	0.77	;	0.739
265	;	0.78	;	0.749
265	;	0.79	;	0.761
265	;	0.8	;	0.771
265	;	0.81	;	0.781
265	;	0.82	;	0.791
265	;	0.83	;	0.801
265	;	0.84	;	0.809
265	;	0.85	;	0.822
265	;	0.86	;	0.832
265	;	0.87	;	0.841
265	;	0.88	;	0.853
265	;	0.89	;	0.863
265	;	0.9	;	0.875
265	;	0.91	;	0.883
265	;	0.92	;	0.893
265	;	0.93	;	0.902
265	;	0.94	;	0.912
265	;	0.95	;	0.922
265	;	0.96	;	0.932
270	;	0.7	;	0.674
270	;	0.71	;	0.684
270	;	0.72	;	0.694
270	;	0.73	;	0.704
270	;	0.74	;	0.714
270	;	0.75	;	0.724
270	;	0.76	;	0.734
270	;	0.77	;	0.744
270	;	0.78	;	0.754
270	;	0.79	;	0.765
270	;	0.8	;	0.776
270	;	0.81	;	0.785
270	;	0.82	;	0.795
270	;	0.83	;	0.806
270	;	0.84	;	0.814
270	;	0.85	;	0.826
270	;	0.86	;	0.837
270	;	0.87	;	0.846
270	;	0.88	;	0.857
270	;	0.89	;	0.867
270	;	0.9	;	0.879
270	;	0.91	;	0.887
270	;	0.92	;	0.897
270	;	0.93	;	0.907
270	;	0.94	;	0.917
270	;	0.95	;	0.927
270	;	0.96	;	0.937
275	;	0.7	;	0.679
275	;	0.71	;	0.689
275	;	0.72	;	0.699
275	;	0.73	;	0.709
275	;	0.74	;	0.719
275	;	0.75	;	0.729
275	;	0.76	;	0.739
275	;	0.77	;	0.749
275	;	0.78	;	0.759
275	;	0.79	;	0.769
275	;	0.8	;	0.78
275	;	0.81	;	0.79
275	;	0.82	;	0.8
275	;	0.83	;	0.81
275	;	0.84	;	0.819
275	;	0.85	;	0.831
275	;	0.86	;	0.841
275	;	0.87	;	0.851
275	;	0.88	;	0.861
275	;	0.89	;	0.871
275	;	0.9	;	0.883
275	;	0.91	;	0.892
275	;	0.92	;	0.902
275	;	0.93	;	0.912
275	;	0.94	;	0.922
275	;	0.95	;	0.932
275	;	0.96	;	0.942
280	;	0.7	;	0.684
280	;	0.71	;	0.694
280	;	0.72	;	0.704
280	;	0.73	;	0.714
280	;	0.74	;	0.724
280	;	0.75	;	0.734
280	;	0.76	;	0.744
280	;	0.77	;	0.754
280	;	0.78	;	0.764
280	;	0.79	;	0.774
280	;	0.8	;	0.785
280	;	0.81	;	0.795
280	;	0.82	;	0.804
280	;	0.83	;	0.815
280	;	0.84	;	0.823
280	;	0.85	;	0.835
280	;	0.86	;	0.846
280	;	0.87	;	0.856
280	;	0.88	;	0.866
280	;	0.89	;	0.875
280	;	0.9	;	0.887
280	;	0.91	;	0.896
280	;	0.92	;	0.906
280	;	0.93	;	0.916
280	;	0.94	;	0.927
280	;	0.95	;	0.937
280	;	0.96	;	0.947
285	;	0.7	;	0.688
285	;	0.71	;	0.698
285	;	0.72	;	0.708
285	;	0.73	;	0.718
285	;	0.74	;	0.728
285	;	0.75	;	0.738
285	;	0.76	;	0.748
285	;	0.77	;	0.758
285	;	0.78	;	0.768
285	;	0.79	;	0.778
285	;	0.8	;	0.789
285	;	0.81	;	0.799
285	;	0.82	;	0.809
285	;	0.83	;	0.82
285	;	0.84	;	0.828
285	;	0.85	;	0.84
285	;	0.86	;	0.85
285	;	0.87	;	0.86
285	;	0.88	;	0.869
285	;	0.89	;	0.879
285	;	0.9	;	0.891
285	;	0.91	;	0.9
285	;	0.92	;	0.91
285	;	0.93	;	0.921
285	;	0.94	;	0.933
285	;	0.95	;	0.943
285	;	0.96	;	0.953
290	;	0.7	;	0.692
290	;	0.71	;	0.702
290	;	0.72	;	0.712
290	;	0.73	;	0.722
290	;	0.74	;	0.732
290	;	0.75	;	0.742
290	;	0.76	;	0.752
290	;	0.77	;	0.762
290	;	0.78	;	0.772
290	;	0.79	;	0.782
290	;	0.8	;	0.793
290	;	0.81	;	0.803
290	;	0.82	;	0.813
290	;	0.83	;	0.824
290	;	0.84	;	0.832
290	;	0.85	;	0.844
290	;	0.86	;	0.853
290	;	0.87	;	0.864
290	;	0.88	;	0.873
290	;	0.89	;	0.883
290	;	0.9	;	0.895
290	;	0.91	;	0.904
290	;	0.92	;	0.914
290	;	0.93	;	0.925
290	;	0.94	;	0.935
290	;	0.95	;	0.945
290	;	0.96	;	0.955
295	;	0.7	;	0.696
295	;	0.71	;	0.706
295	;	0.72	;	0.716
295	;	0.73	;	0.726
295	;	0.74	;	0.736
295	;	0.75	;	0.746
295	;	0.76	;	0.756
295	;	0.77	;	0.766
295	;	0.78	;	0.776
295	;	0.79	;	0.786
295	;	0.8	;	0.797
295	;	0.81	;	0.806
295	;	0.82	;	0.817
295	;	0.83	;	0.827
295	;	0.84	;	0.836
295	;	0.85	;	0.847
295	;	0.86	;	0.857
295	;	0.87	;	0.867
295	;	0.88	;	0.877
295	;	0.89	;	0.887
295	;	0.9	;	0.897
295	;	0.91	;	0.907
295	;	0.92	;	0.917
295	;	0.93	;	0.928
295	;	0.94	;	0.938
295	;	0.95	;	0.948
295	;	0.96	;	0.958
300	;	0.7	;	0.7
300	;	0.71	;	0.71
300	;	0.72	;	0.72
300	;	0.73	;	0.73
300	;	0.74	;	0.74
300	;	0.75	;	0.75
300	;	0.76	;	0.76
300	;	0.77	;	0.77
300	;	0.78	;	0.78
300	;	0.79	;	0.79
300	;	0.8	;	0.8
300	;	0.81	;	0.81
300	;	0.82	;	0.82
300	;	0.83	;	0.83
300	;	0.84	;	0.84
300	;	0.85	;	0.85
300	;	0.86	;	0.86
300	;	0.87	;	0.87
300	;	0.88	;	0.88
300	;	0.89	;	0.89
300	;	0.9	;	0.9
300	;	0.91	;	0.91
300	;	0.92	;	0.92
300	;	0.93	;	0.93
300	;	0.94	;	0.94
300	;	0.95	;	0.95
300	;	0.96	;	0.96
305	;	0.7	;	0.704
305	;	0.71	;	0.714
305	;	0.72	;	0.724
305	;	0.73	;	0.734
305	;	0.74	;	0.744
305	;	0.75	;	0.754
305	;	0.76	;	0.764
305	;	0.77	;	0.774
305	;	0.78	;	0.784
305	;	0.79	;	0.794
305	;	0.8	;	0.803
305	;	0.81	;	0.814
305	;	0.82	;	0.823
305	;	0.83	;	0.833
305	;	0.84	;	0.843
305	;	0.85	;	0.853
305	;	0.86	;	0.863
305	;	0.87	;	0.873
305	;	0.88	;	0.883
305	;	0.89	;	0.893
305	;	0.9	;	0.903
305	;	0.91	;	0.913
305	;	0.92	;	0.923
305	;	0.93	;	0.932
305	;	0.94	;	0.942
305	;	0.95	;	0.952
305	;	0.96	;	0.962
310	;	0.7	;	0.708
310	;	0.71	;	0.718
310	;	0.72	;	0.728
310	;	0.73	;	0.738
310	;	0.74	;	0.748
310	;	0.75	;	0.758
310	;	0.76	;	0.768
310	;	0.77	;	0.778
310	;	0.78	;	0.788
310	;	0.79	;	0.797
310	;	0.8	;	0.807
310	;	0.81	;	0.817
310	;	0.82	;	0.826
310	;	0.83	;	0.836
310	;	0.84	;	0.846
310	;	0.85	;	0.856
310	;	0.86	;	0.866
310	;	0.87	;	0.876
310	;	0.88	;	0.886
310	;	0.89	;	0.895
310	;	0.9	;	0.905
310	;	0.91	;	0.916
310	;	0.92	;	0.925
310	;	0.93	;	0.935
310	;	0.94	;	0.944
310	;	0.95	;	0.954
310	;	0.96	;	0.964
315	;	0.7	;	0.712
315	;	0.71	;	0.722
315	;	0.72	;	0.732
315	;	0.73	;	0.742
315	;	0.74	;	0.752
315	;	0.75	;	0.762
315	;	0.76	;	0.772
315	;	0.77	;	0.782
315	;	0.78	;	0.792
315	;	0.79	;	0.8
315	;	0.8	;	0.81
315	;	0.81	;	0.82
315	;	0.82	;	0.83
315	;	0.83	;	0.839
315	;	0.84	;	0.848
315	;	0.85	;	0.858
315	;	0.86	;	0.869
315	;	0.87	;	0.879
315	;	0.88	;	0.889
315	;	0.89	;	0.898
315	;	0.9	;	0.908
315	;	0.91	;	0.918
315	;	0.92	;	0.927
315	;	0.93	;	0.937
315	;	0.94	;	0.947
315	;	0.95	;	0.957
315	;	0.96	;	0.967
320	;	0.7	;	0.714
320	;	0.71	;	0.724
320	;	0.72	;	0.734
320	;	0.73	;	0.744
320	;	0.74	;	0.754
320	;	0.75	;	0.764
320	;	0.76	;	0.774
320	;	0.77	;	0.784
320	;	0.78	;	0.794
320	;	0.79	;	0.803
320	;	0.8	;	0.814
320	;	0.81	;	0.823
320	;	0.82	;	0.833
320	;	0.83	;	0.842
320	;	0.84	;	0.851
320	;	0.85	;	0.861
320	;	0.86	;	0.871
320	;	0.87	;	0.881
320	;	0.88	;	0.891
320	;	0.89	;	0.9
320	;	0.9	;	0.91
320	;	0.91	;	0.92
320	;	0.92	;	0.929
320	;	0.93	;	0.939
320	;	0.94	;	0.949
320	;	0.95	;	0.959
320	;	0.96	;	0.969
325	;	0.7	;	0.717
325	;	0.71	;	0.727
325	;	0.72	;	0.737
325	;	0.73	;	0.747
325	;	0.74	;	0.757
325	;	0.75	;	0.767
325	;	0.76	;	0.777
325	;	0.77	;	0.787
325	;	0.78	;	0.797
325	;	0.79	;	0.805
325	;	0.8	;	0.817
325	;	0.81	;	0.825
325	;	0.82	;	0.836
325	;	0.83	;	0.845
325	;	0.84	;	0.854
325	;	0.85	;	0.863
325	;	0.86	;	0.873
325	;	0.87	;	0.883
325	;	0.88	;	0.893
325	;	0.89	;	0.902
325	;	0.9	;	0.912
325	;	0.91	;	0.922
325	;	0.92	;	0.931
325	;	0.93	;	0.941
325	;	0.94	;	0.95
325	;	0.95	;	0.96
325	;	0.96	;	0.97
330	;	0.7	;	0.719
330	;	0.71	;	0.729
330	;	0.72	;	0.739
330	;	0.73	;	0.749
330	;	0.74	;	0.759
330	;	0.75	;	0.769
330	;	0.76	;	0.779
330	;	0.77	;	0.789
330	;	0.78	;	0.799
330	;	0.79	;	0.808
330	;	0.8	;	0.819
330	;	0.81	;	0.829
330	;	0.82	;	0.838
330	;	0.83	;	0.846
330	;	0.84	;	0.856
330	;	0.85	;	0.866
330	;	0.86	;	0.875
330	;	0.87	;	0.885
330	;	0.88	;	0.895
330	;	0.89	;	0.905
330	;	0.9	;	0.913
330	;	0.91	;	0.923
330	;	0.92	;	0.933
330	;	0.93	;	0.942
330	;	0.94	;	0.951
330	;	0.95	;	0.961
330	;	0.96	;	0.971
335	;	0.7	;	0.722
335	;	0.71	;	0.732
335	;	0.72	;	0.742
335	;	0.73	;	0.752
335	;	0.74	;	0.762
335	;	0.75	;	0.772
335	;	0.76	;	0.782
335	;	0.77	;	0.792
335	;	0.78	;	0.802
335	;	0.79	;	0.811
335	;	0.8	;	0.822
335	;	0.81	;	0.83
335	;	0.82	;	0.84
335	;	0.83	;	0.849
335	;	0.84	;	0.859
335	;	0.85	;	0.868
335	;	0.86	;	0.877
335	;	0.87	;	0.887
335	;	0.88	;	0.897
335	;	0.89	;	0.907
335	;	0.9	;	0.915
335	;	0.91	;	0.925
335	;	0.92	;	0.934
335	;	0.93	;	0.944
335	;	0.94	;	0.952
335	;	0.95	;	0.962
335	;	0.96	;	0.972
340	;	0.7	;	0.724
340	;	0.71	;	0.734
340	;	0.72	;	0.744
340	;	0.73	;	0.754
340	;	0.74	;	0.764
340	;	0.75	;	0.774
340	;	0.76	;	0.784
340	;	0.77	;	0.794
340	;	0.78	;	0.804
340	;	0.79	;	0.814
340	;	0.8	;	0.825
340	;	0.81	;	0.832
340	;	0.82	;	0.841
340	;	0.83	;	0.85
340	;	0.84	;	0.86
340	;	0.85	;	0.87
340	;	0.86	;	0.879
340	;	0.87	;	0.888
340	;	0.88	;	0.899
340	;	0.89	;	0.908
340	;	0.9	;	0.916
340	;	0.91	;	0.927
340	;	0.92	;	0.935
340	;	0.93	;	0.945
340	;	0.94	;	0.954
340	;	0.95	;	0.964
340	;	0.96	;	0.974
345	;	0.7	;	0.727
345	;	0.71	;	0.737
345	;	0.72	;	0.747
345	;	0.73	;	0.757
345	;	0.74	;	0.767
345	;	0.75	;	0.777
345	;	0.76	;	0.787
345	;	0.77	;	0.797
345	;	0.78	;	0.808
345	;	0.79	;	0.818
345	;	0.8	;	0.827
345	;	0.81	;	0.835
345	;	0.82	;	0.844
345	;	0.83	;	0.852
345	;	0.84	;	0.862
345	;	0.85	;	0.871
345	;	0.86	;	0.881
345	;	0.87	;	0.89
345	;	0.88	;	0.9
345	;	0.89	;	0.909
345	;	0.9	;	0.918
345	;	0.91	;	0.928
345	;	0.92	;	0.936
345	;	0.93	;	0.946
345	;	0.94	;	0.955
345	;	0.95	;	0.965
345	;	0.96	;	0.975
350	;	0.7	;	0.777
350	;	0.71	;	0.777
350	;	0.72	;	0.777
350	;	0.73	;	0.777
350	;	0.74	;	0.777
350	;	0.75	;	0.777
350	;	0.76	;	0.777
350	;	0.77	;	0.799
350	;	0.78	;	0.81
350	;	0.79	;	0.819
350	;	0.8	;	0.829
350	;	0.81	;	0.838
350	;	0.82	;	0.846
350	;	0.83	;	0.854
350	;	0.84	;	0.864
350	;	0.85	;	0.872
350	;	0.86	;	0.882
350	;	0.87	;	0.892
350	;	0.88	;	0.902
350	;	0.89	;	0.91
350	;	0.9	;	0.919
350	;	0.91	;	0.929
350	;	0.92	;	0.937
350	;	0.93	;	0.947
350	;	0.94	;	0.955
350	;	0.95	;	0.965
350	;	0.96	;	0.975
355	;	0.7	;	0.777
355	;	0.71	;	0.777
355	;	0.72	;	0.777
355	;	0.73	;	0.777
355	;	0.74	;	0.777
355	;	0.75	;	0.777
355	;	0.76	;	0.777
355	;	0.77	;	0.802
355	;	0.78	;	0.811
355	;	0.79	;	0.821
355	;	0.8	;	0.83
355	;	0.81	;	0.84
355	;	0.82	;	0.849
355	;	0.83	;	0.856
355	;	0.84	;	0.865
355	;	0.85	;	0.875
355	;	0.86	;	0.883
355	;	0.87	;	0.893
355	;	0.88	;	0.903
355	;	0.89	;	0.911
355	;	0.9	;	0.921
355	;	0.91	;	0.93
355	;	0.92	;	0.938
355	;	0.93	;	0.948
355	;	0.94	;	0.956
355	;	0.95	;	0.966
355	;	0.96	;	0.976
360	;	0.7	;	0.777
360	;	0.71	;	0.777
360	;	0.72	;	0.777
360	;	0.73	;	0.777
360	;	0.74	;	0.777
360	;	0.75	;	0.777
360	;	0.76	;	0.777
360	;	0.77	;	0.804
360	;	0.78	;	0.815
360	;	0.79	;	0.823
360	;	0.8	;	0.832
360	;	0.81	;	0.841
360	;	0.82	;	0.85
360	;	0.83	;	0.859
360	;	0.84	;	0.868
360	;	0.85	;	0.877
360	;	0.86	;	0.884
360	;	0.87	;	0.894
360	;	0.88	;	0.904
360	;	0.89	;	0.912
360	;	0.9	;	0.921
360	;	0.91	;	0.931
360	;	0.92	;	0.939
360	;	0.93	;	0.948
360	;	0.94	;	0.956
360	;	0.95	;	0.966
360	;	0.96	;	0.976
365	;	0.7	;	0.777
365	;	0.71	;	0.777
365	;	0.72	;	0.777
365	;	0.73	;	0.777
365	;	0.74	;	0.777
365	;	0.75	;	0.777
365	;	0.76	;	0.777
365	;	0.77	;	0.808
365	;	0.78	;	0.816
365	;	0.79	;	0.825
365	;	0.8	;	0.834
365	;	0.81	;	0.842
365	;	0.82	;	0.851
365	;	0.83	;	0.86
365	;	0.84	;	0.869
365	;	0.85	;	0.878
365	;	0.86	;	0.885
365	;	0.87	;	0.895
365	;	0.88	;	0.904
365	;	0.89	;	0.913
365	;	0.9	;	0.922
365	;	0.91	;	0.932
365	;	0.92	;	0.939
365	;	0.93	;	0.949
365	;	0.94	;	0.957
365	;	0.95	;	0.967
365	;	0.96	;	0.977
370	;	0.7	;	0.777
370	;	0.71	;	0.777
370	;	0.72	;	0.777
370	;	0.73	;	0.777
370	;	0.74	;	0.777
370	;	0.75	;	0.777
370	;	0.76	;	0.777
370	;	0.77	;	0.81
370	;	0.78	;	0.819
370	;	0.79	;	0.828
370	;	0.8	;	0.836
370	;	0.81	;	0.844
370	;	0.82	;	0.852
370	;	0.83	;	0.861
370	;	0.84	;	0.87
370	;	0.85	;	0.878
370	;	0.86	;	0.887
370	;	0.87	;	0.896
370	;	0.88	;	0.905
370	;	0.89	;	0.914
370	;	0.9	;	0.923
370	;	0.91	;	0.932
370	;	0.92	;	0.94
370	;	0.93	;	0.949
370	;	0.94	;	0.957
370	;	0.95	;	0.967
370	;	0.96	;	0.977
375	;	0.7	;	0.777
375	;	0.71	;	0.777
375	;	0.72	;	0.777
375	;	0.73	;	0.777
375	;	0.74	;	0.777
375	;	0.75	;	0.777
375	;	0.76	;	0.777
375	;	0.77	;	0.812
375	;	0.78	;	0.82
375	;	0.79	;	0.829
375	;	0.8	;	0.838
375	;	0.81	;	0.846
375	;	0.82	;	0.854
375	;	0.83	;	0.862
375	;	0.84	;	0.871
375	;	0.85	;	0.879
375	;	0.86	;	0.888
375	;	0.87	;	0.897
375	;	0.88	;	0.906
375	;	0.89	;	0.914
375	;	0.9	;	0.924
375	;	0.91	;	0.933
375	;	0.92	;	0.94
375	;	0.93	;	0.95
375	;	0.94	;	0.958
375	;	0.95	;	0.968
375	;	0.96	;	0.978
380	;	0.7	;	0.777
380	;	0.71	;	0.777
380	;	0.72	;	0.777
380	;	0.73	;	0.777
380	;	0.74	;	0.777
380	;	0.75	;	0.777
380	;	0.76	;	0.777
380	;	0.77	;	0.812
380	;	0.78	;	0.821
380	;	0.79	;	0.83
380	;	0.8	;	0.839
380	;	0.81	;	0.848
380	;	0.82	;	0.855
380	;	0.83	;	0.863
380	;	0.84	;	0.871
380	;	0.85	;	0.88
380	;	0.86	;	0.889
380	;	0.87	;	0.898
380	;	0.88	;	0.907
380	;	0.89	;	0.915
380	;	0.9	;	0.925
380	;	0.91	;	0.934
380	;	0.92	;	0.941
380	;	0.93	;	0.95
380	;	0.94	;	0.958
380	;	0.95	;	0.968
380	;	0.96	;	0.978
385	;	0.7	;	0.777
385	;	0.71	;	0.777
385	;	0.72	;	0.777
385	;	0.73	;	0.777
385	;	0.74	;	0.777
385	;	0.75	;	0.777
385	;	0.76	;	0.777
385	;	0.77	;	0.81
385	;	0.78	;	0.82
385	;	0.79	;	0.828
385	;	0.8	;	0.836
385	;	0.81	;	0.844
385	;	0.82	;	0.852
385	;	0.83	;	0.86
385	;	0.84	;	0.869
385	;	0.85	;	0.877
385	;	0.86	;	0.885
385	;	0.87	;	0.894
385	;	0.88	;	0.903
385	;	0.89	;	0.911
385	;	0.9	;	0.92
385	;	0.91	;	0.929
385	;	0.92	;	0.936
385	;	0.93	;	0.945
385	;	0.94	;	0.953
385	;	0.95	;	0.963
385	;	0.96	;	0.973
390	;	0.7	;	0.777
390	;	0.71	;	0.777
390	;	0.72	;	0.777
390	;	0.73	;	0.777
390	;	0.74	;	0.777
390	;	0.75	;	0.777
390	;	0.76	;	0.777
390	;	0.77	;	0.808
390	;	0.78	;	0.818
390	;	0.79	;	0.824
390	;	0.8	;	0.832
390	;	0.81	;	0.84
390	;	0.82	;	0.849
390	;	0.83	;	0.858
390	;	0.84	;	0.864
390	;	0.85	;	0.872
390	;	0.86	;	0.881
390	;	0.87	;	0.89
390	;	0.88	;	0.899
390	;	0.89	;	0.907
390	;	0.9	;	0.916
390	;	0.91	;	0.925
390	;	0.92	;	0.932
390	;	0.93	;	0.94
390	;	0.94	;	0.949
390	;	0.95	;	0.959
390	;	0.96	;	0.969
395	;	0.7	;	0.777
395	;	0.71	;	0.777
395	;	0.72	;	0.777
395	;	0.73	;	0.777
395	;	0.74	;	0.777
395	;	0.75	;	0.777
395	;	0.76	;	0.777
395	;	0.77	;	0.805
395	;	0.78	;	0.814
395	;	0.79	;	0.821
395	;	0.8	;	0.83
395	;	0.81	;	0.838
395	;	0.82	;	0.846
395	;	0.83	;	0.854
395	;	0.84	;	0.861
395	;	0.85	;	0.869
395	;	0.86	;	0.878
395	;	0.87	;	0.886
395	;	0.88	;	0.895
395	;	0.89	;	0.903
395	;	0.9	;	0.912
395	;	0.91	;	0.92
395	;	0.92	;	0.927
395	;	0.93	;	0.936
395	;	0.94	;	0.944
395	;	0.95	;	0.954
395	;	0.96	;	0.964
400	;	0.7	;	0.777
400	;	0.71	;	0.777
400	;	0.72	;	0.777
400	;	0.73	;	0.777
400	;	0.74	;	0.777
400	;	0.75	;	0.777
400	;	0.76	;	0.777
400	;	0.77	;	0.8
400	;	0.78	;	0.81
400	;	0.79	;	0.82
400	;	0.8	;	0.826
400	;	0.81	;	0.834
400	;	0.82	;	0.842
400	;	0.83	;	0.85
400	;	0.84	;	0.859
400	;	0.85	;	0.865
400	;	0.86	;	0.874
400	;	0.87	;	0.883
400	;	0.88	;	0.891
400	;	0.89	;	0.899
400	;	0.9	;	0.907
400	;	0.91	;	0.916
400	;	0.92	;	0.923
400	;	0.93	;	0.931
400	;	0.94	;	0.939
400	;	0.95	;	0.949
400	;	0.96	;	0.959
405	;	0.7	;	0.777
405	;	0.71	;	0.777
405	;	0.72	;	0.777
405	;	0.73	;	0.777
405	;	0.74	;	0.777
405	;	0.75	;	0.777
405	;	0.76	;	0.777
405	;	0.77	;	0.798
405	;	0.78	;	0.809
405	;	0.79	;	0.816
405	;	0.8	;	0.823
405	;	0.81	;	0.831
405	;	0.82	;	0.84
405	;	0.83	;	0.847
405	;	0.84	;	0.854
405	;	0.85	;	0.862
405	;	0.86	;	0.87
405	;	0.87	;	0.879
405	;	0.88	;	0.888
405	;	0.89	;	0.895
405	;	0.9	;	0.903
405	;	0.91	;	0.911
405	;	0.92	;	0.918
405	;	0.93	;	0.926
405	;	0.94	;	0.934
405	;	0.95	;	0.944
405	;	0.96	;	0.954
410	;	0.7	;	0.777
410	;	0.71	;	0.777
410	;	0.72	;	0.777
410	;	0.73	;	0.777
410	;	0.74	;	0.777
410	;	0.75	;	0.777
410	;	0.76	;	0.777
410	;	0.77	;	0.795
410	;	0.78	;	0.805
410	;	0.79	;	0.813
410	;	0.8	;	0.82
410	;	0.81	;	0.828
410	;	0.82	;	0.836
410	;	0.83	;	0.844
410	;	0.84	;	0.85
410	;	0.85	;	0.858
410	;	0.86	;	0.867
410	;	0.87	;	0.875
410	;	0.88	;	0.884
410	;	0.89	;	0.891
410	;	0.9	;	0.899
410	;	0.91	;	0.907
410	;	0.92	;	0.913
410	;	0.93	;	0.921
410	;	0.94	;	0.929
410	;	0.95	;	0.939
410	;	0.96	;	0.949
415	;	0.7	;	0.777
415	;	0.71	;	0.777
415	;	0.72	;	0.777
415	;	0.73	;	0.777
415	;	0.74	;	0.777
415	;	0.75	;	0.777
415	;	0.76	;	0.777
415	;	0.77	;	0.777
415	;	0.78	;	0.777
415	;	0.79	;	0.777
415	;	0.8	;	0.777
415	;	0.81	;	0.777
415	;	0.82	;	0.777
415	;	0.83	;	0.777
415	;	0.84	;	0.777
415	;	0.85	;	0.777
415	;	0.86	;	0.863
415	;	0.87	;	0.871
415	;	0.88	;	0.88
415	;	0.89	;	0.887
415	;	0.9	;	0.895
415	;	0.91	;	0.903
415	;	0.92	;	0.909
415	;	0.93	;	0.916
415	;	0.94	;	0.925
415	;	0.95	;	0.935
415	;	0.96	;	0.945
420	;	0.7	;	0.777
420	;	0.71	;	0.777
420	;	0.72	;	0.777
420	;	0.73	;	0.777
420	;	0.74	;	10.777
420	;	0.75	;	0.777
420	;	0.76	;	0.777
420	;	0.77	;	0.777
420	;	0.78	;	0.777
420	;	0.79	;	0.777
420	;	0.8	;	0.777
420	;	0.81	;	0.777
420	;	0.82	;	0.777
420	;	0.83	;	0.777
420	;	0.84	;	0.777
420	;	0.85	;	0.777
420	;	0.86	;	0.859
420	;	0.87	;	0.867
420	;	0.88	;	0.876
420	;	0.89	;	0.883
420	;	0.9	;	0.89
420	;	0.91	;	0.898
420	;	0.92	;	0.904
420	;	0.93	;	0.912
420	;	0.94	;	0.92
420	;	0.95	;	0.93
420	;	0.96	;	0.94
425	;	0.7	;	0.777
425	;	0.71	;	0.777
425	;	0.72	;	0.777
425	;	0.73	;	0.777
425	;	0.74	;	0.777
425	;	0.75	;	0.777
425	;	0.76	;	0.777
425	;	0.77	;	0.777
425	;	0.78	;	0.777
425	;	0.79	;	0.777
425	;	0.8	;	0.777
425	;	0.81	;	0.777
425	;	0.82	;	0.777
425	;	0.83	;	0.777
425	;	0.84	;	0.777
425	;	0.85	;	0.777
425	;	0.86	;	0.855
425	;	0.87	;	0.863
425	;	0.88	;	0.872
425	;	0.89	;	0.879
425	;	0.9	;	0.886
425	;	0.91	;	0.894
425	;	0.92	;	0.9
425	;	0.93	;	0.907
425	;	0.94	;	0.915
425	;	0.95	;	0.925
425	;	0.96	;	0.935
430	;	0.7	;	0.777
430	;	0.71	;	0.777
430	;	0.72	;	0.777
430	;	0.73	;	0.777
430	;	0.74	;	0.777
430	;	0.75	;	0.777
430	;	0.76	;	0.777
430	;	0.77	;	0.777
430	;	0.78	;	0.777
430	;	0.79	;	0.777
430	;	0.8	;	0.777
430	;	0.81	;	0.777
430	;	0.82	;	0.777
430	;	0.83	;	0.777
430	;	0.84	;	0.777
430	;	0.85	;	0.777
430	;	0.86	;	0.852
430	;	0.87	;	0.859
430	;	0.88	;	0.868
430	;	0.89	;	0.875
430	;	0.9	;	0.882
430	;	0.91	;	0.889
430	;	0.92	;	0.895
430	;	0.93	;	0.902
430	;	0.94	;	0.91
430	;	0.95	;	0.92
430	;	0.96	;	0.93
435	;	0.7	;	0.777
435	;	0.71	;	0.777
435	;	0.72	;	0.777
435	;	0.73	;	0.777
435	;	0.74	;	0.777
435	;	0.75	;	0.777
435	;	0.76	;	0.777
435	;	0.77	;	0.777
435	;	0.78	;	0.777
435	;	0.79	;	0.777
435	;	0.8	;	0.777
435	;	0.81	;	0.777
435	;	0.82	;	0.777
435	;	0.83	;	0.777
435	;	0.84	;	0.777
435	;	0.85	;	0.777
435	;	0.86	;	0.848
435	;	0.87	;	0.856
435	;	0.88	;	0.864
435	;	0.89	;	0.871
435	;	0.9	;	0.877
435	;	0.91	;	0.885
435	;	0.92	;	0.891
435	;	0.93	;	0.897
435	;	0.94	;	0.906
435	;	0.95	;	0.916
435	;	0.96	;	0.926
440	;	0.7	;	0.777
440	;	0.71	;	0.777
440	;	0.72	;	0.777
440	;	0.73	;	0.777
440	;	0.74	;	0.777
440	;	0.75	;	0.777
440	;	0.76	;	0.777
440	;	0.77	;	0.777
440	;	0.78	;	0.777
440	;	0.79	;	0.777
440	;	0.8	;	0.777
440	;	0.81	;	0.777
440	;	0.82	;	0.777
440	;	0.83	;	0.777
440	;	0.84	;	0.777
440	;	0.85	;	0.777
440	;	0.86	;	0.844
440	;	0.87	;	0.852
440	;	0.88	;	0.86
440	;	0.89	;	0.867
440	;	0.9	;	0.873
440	;	0.91	;	0.88
440	;	0.92	;	0.886
440	;	0.93	;	0.893
440	;	0.94	;	0.901
440	;	0.95	;	0.911
440	;	0.96	;	0.921
445	;	0.7	;	0.777
445	;	0.71	;	0.777
445	;	0.72	;	0.777
445	;	0.73	;	0.777
445	;	0.74	;	0.777
445	;	0.75	;	0.777
445	;	0.76	;	0.777
445	;	0.77	;	0.777
445	;	0.78	;	0.777
445	;	0.79	;	0.777
445	;	0.8	;	0.777
445	;	0.81	;	0.777
445	;	0.82	;	0.777
445	;	0.83	;	0.777
445	;	0.84	;	0.777
445	;	0.85	;	0.777
445	;	0.86	;	0.84
445	;	0.87	;	0.848
445	;	0.88	;	0.856
445	;	0.89	;	0.863
445	;	0.9	;	0.869
445	;	0.91	;	0.876
445	;	0.92	;	0.882
445	;	0.93	;	0.888
445	;	0.94	;	0.896
445	;	0.95	;	0.906
445	;	0.96	;	0.916
450	;	0.7	;	0.703
450	;	0.71	;	0.713
450	;	0.72	;	0.723
450	;	0.73	;	0.733
450	;	0.74	;	0.743
450	;	0.75	;	0.753
450	;	0.76	;	0.763
450	;	0.77	;	0.773
450	;	0.78	;	0.783
450	;	0.79	;	0.79
450	;	0.8	;	0.797
450	;	0.81	;	0.803
450	;	0.82	;	0.81
450	;	0.83	;	0.816
450	;	0.84	;	0.823
450	;	0.85	;	0.831
450	;	0.86	;	0.837
450	;	0.87	;	0.844
450	;	0.88	;	0.852
450	;	0.89	;	0.859
450	;	0.9	;	0.864
450	;	0.91	;	0.871
450	;	0.92	;	0.877
450	;	0.93	;	0.883
450	;	0.94	;	0.891
450	;	0.95	;	0.901
450	;	0.96	;	0.911
