0.3	;	0.7	;	0.7
0.3	;	0.71	;	0.71
0.3	;	0.72	;	0.72
0.3	;	0.73	;	0.73
0.3	;	0.74	;	0.74
0.3	;	0.75	;	0.75
0.3	;	0.76	;	0.76
0.3	;	0.77	;	0.77
0.3	;	0.78	;	0.78
0.3	;	0.79	;	0.79
0.3	;	0.8	;	0.8
0.3	;	0.81	;	0.81
0.3	;	0.82	;	0.82
0.3	;	0.83	;	0.83
0.3	;	0.84	;	0.84
0.3	;	0.85	;	0.85
0.3	;	0.86	;	0.86
0.3	;	0.87	;	0.87
0.3	;	0.88	;	0.88
0.3	;	0.89	;	0.89
0.3	;	0.9	;	0.9
0.3	;	0.91	;	0.91
0.3	;	0.92	;	0.92
0.3	;	0.93	;	0.93
0.3	;	0.94	;	0.94
0.3	;	0.95	;	0.95
0.3	;	0.96	;	0.96
0.35	;	0.7	;	0.697
0.35	;	0.71	;	0.707
0.35	;	0.72	;	0.717
0.35	;	0.73	;	0.727
0.35	;	0.74	;	0.737
0.35	;	0.75	;	0.746
0.35	;	0.76	;	0.756
0.35	;	0.77	;	0.766
0.35	;	0.78	;	0.776
0.35	;	0.79	;	0.785
0.35	;	0.8	;	0.795
0.35	;	0.81	;	0.805
0.35	;	0.82	;	0.814
0.35	;	0.83	;	0.824
0.35	;	0.84	;	0.834
0.35	;	0.85	;	0.844
0.35	;	0.86	;	0.853
0.35	;	0.87	;	0.863
0.35	;	0.88	;	0.873
0.35	;	0.89	;	0.883
0.35	;	0.9	;	0.892
0.35	;	0.91	;	0.902
0.35	;	0.92	;	0.912
0.35	;	0.93	;	0.921
0.35	;	0.94	;	0.932
0.35	;	0.95	;	0.941
0.35	;	0.96	;	0.951
0.4	;	0.7	;	0.695
0.4	;	0.71	;	0.705
0.4	;	0.72	;	0.715
0.4	;	0.73	;	0.724
0.4	;	0.74	;	0.733
0.4	;	0.75	;	0.743
0.4	;	0.76	;	0.753
0.4	;	0.77	;	0.762
0.4	;	0.78	;	0.771
0.4	;	0.79	;	0.781
0.4	;	0.8	;	0.79
0.4	;	0.81	;	0.799
0.4	;	0.82	;	0.809
0.4	;	0.83	;	0.818
0.4	;	0.84	;	0.828
0.4	;	0.85	;	0.837
0.4	;	0.86	;	0.847
0.4	;	0.87	;	0.857
0.4	;	0.88	;	0.866
0.4	;	0.89	;	0.875
0.4	;	0.9	;	0.885
0.4	;	0.91	;	0.894
0.4	;	0.92	;	0.903
0.4	;	0.93	;	0.913
0.4	;	0.94	;	0.923
0.4	;	0.95	;	0.932
0.4	;	0.96	;	0.942
0.45	;	0.7	;	0.692
0.45	;	0.71	;	0.702
0.45	;	0.72	;	0.712
0.45	;	0.73	;	0.722
0.45	;	0.74	;	0.73
0.45	;	0.75	;	0.739
0.45	;	0.76	;	0.749
0.45	;	0.77	;	0.758
0.45	;	0.78	;	0.767
0.45	;	0.79	;	0.776
0.45	;	0.8	;	0.785
0.45	;	0.81	;	0.794
0.45	;	0.82	;	0.803
0.45	;	0.83	;	0.812
0.45	;	0.84	;	0.822
0.45	;	0.85	;	0.831
0.45	;	0.86	;	0.84
0.45	;	0.87	;	0.85
0.45	;	0.88	;	0.859
0.45	;	0.89	;	0.868
0.45	;	0.9	;	0.877
0.45	;	0.91	;	0.886
0.45	;	0.92	;	0.895
0.45	;	0.93	;	0.904
0.45	;	0.94	;	0.915
0.45	;	0.95	;	0.923
0.45	;	0.96	;	0.933
0.5	;	0.7	;	0.69
0.5	;	0.71	;	0.7
0.5	;	0.72	;	0.71
0.5	;	0.73	;	0.719
0.5	;	0.74	;	0.727
0.5	;	0.75	;	0.736
0.5	;	0.76	;	0.745
0.5	;	0.77	;	0.754
0.5	;	0.78	;	0.763
0.5	;	0.79	;	0.771
0.5	;	0.8	;	0.78
0.5	;	0.81	;	0.789
0.5	;	0.82	;	0.797
0.5	;	0.83	;	0.807
0.5	;	0.84	;	0.816
0.5	;	0.85	;	0.824
0.5	;	0.86	;	0.833
0.5	;	0.87	;	0.843
0.5	;	0.88	;	0.852
0.5	;	0.89	;	0.86
0.5	;	0.9	;	0.869
0.5	;	0.91	;	0.878
0.5	;	0.92	;	0.887
0.5	;	0.93	;	0.895
0.5	;	0.94	;	0.906
0.5	;	0.95	;	0.914
0.5	;	0.96	;	0.924
0.55	;	0.7	;	0.687
0.55	;	0.71	;	0.697
0.55	;	0.72	;	0.707
0.55	;	0.73	;	0.716
0.55	;	0.74	;	0.724
0.55	;	0.75	;	0.732
0.55	;	0.76	;	0.741
0.55	;	0.77	;	0.75
0.55	;	0.78	;	0.759
0.55	;	0.79	;	0.766
0.55	;	0.8	;	0.775
0.55	;	0.81	;	0.784
0.55	;	0.82	;	0.792
0.55	;	0.83	;	0.801
0.55	;	0.84	;	0.81
0.55	;	0.85	;	0.818
0.55	;	0.86	;	0.827
0.55	;	0.87	;	0.836
0.55	;	0.88	;	0.845
0.55	;	0.89	;	0.853
0.55	;	0.9	;	0.862
0.55	;	0.91	;	0.869
0.55	;	0.92	;	0.878
0.55	;	0.93	;	0.887
0.55	;	0.94	;	0.898
0.55	;	0.95	;	0.905
0.55	;	0.96	;	0.915
0.6	;	0.7	;	0.685
0.6	;	0.71	;	0.695
0.6	;	0.72	;	0.705
0.6	;	0.73	;	0.713
0.6	;	0.74	;	0.72
0.6	;	0.75	;	0.729
0.6	;	0.76	;	0.738
0.6	;	0.77	;	0.747
0.6	;	0.78	;	0.754
0.6	;	0.79	;	0.762
0.6	;	0.8	;	0.77
0.6	;	0.81	;	0.778
0.6	;	0.82	;	0.786
0.6	;	0.83	;	0.795
0.6	;	0.84	;	0.804
0.6	;	0.85	;	0.811
0.6	;	0.86	;	0.82
0.6	;	0.87	;	0.83
0.6	;	0.88	;	0.838
0.6	;	0.89	;	0.845
0.6	;	0.9	;	0.854
0.6	;	0.91	;	0.861
0.6	;	0.92	;	0.87
0.6	;	0.93	;	0.878
0.6	;	0.94	;	0.889
0.6	;	0.95	;	0.896
0.6	;	0.96	;	0.906
