-70	;	0	;	673.76644
-70	;	100	;	678.7946
-70	;	200	;	683.82275
-70	;	300	;	688.85091
-70	;	400	;	693.87907
-70	;	500	;	698.90723
-70	;	600	;	703.93538
-70	;	700	;	708.96354
-70	;	800	;	713.9917
-70	;	900	;	719.01985
-70	;	1000	;	724.04801
-70	;	1100	;	732.87385
-70	;	1200	;	741.69969
-70	;	1300	;	750.52554
-70	;	1400	;	759.35138
-70	;	1500	;	768.17722
-70	;	1600	;	777.00306
-70	;	1700	;	785.8289
-70	;	1800	;	794.65475
-70	;	1900	;	803.48059
-70	;	2000	;	812.30643
-70	;	2100	;	823.22718
-70	;	2200	;	834.14793
-70	;	2300	;	845.06868
-70	;	2400	;	855.98943
-70	;	2500	;	866.91019
-70	;	2600	;	877.83094
-70	;	2700	;	888.75169
-70	;	2800	;	899.67244
-70	;	2900	;	910.59319
-70	;	3000	;	921.51394
-70	;	3100	;	934.19391
-70	;	3200	;	946.87388
-70	;	3300	;	959.55385
-70	;	3400	;	972.23382
-70	;	3500	;	984.9138
-70	;	3600	;	997.59377
-70	;	3700	;	1010.27374
-70	;	3800	;	1022.95371
-70	;	3900	;	1035.63368
-70	;	4000	;	1048.31365
-65	;	0	;	685.2877
-65	;	100	;	690.79681
-65	;	200	;	696.30592
-65	;	300	;	701.81503
-65	;	400	;	707.32414
-65	;	500	;	712.83325
-65	;	600	;	718.34235
-65	;	700	;	723.85146
-65	;	800	;	729.36057
-65	;	900	;	734.86968
-65	;	1000	;	740.37879
-65	;	1100	;	749.45065
-65	;	1200	;	758.5225
-65	;	1300	;	767.59436
-65	;	1400	;	776.66621
-65	;	1500	;	785.73807
-65	;	1600	;	794.80993
-65	;	1700	;	803.88178
-65	;	1800	;	812.95364
-65	;	1900	;	822.02549
-65	;	2000	;	831.09735
-65	;	2100	;	842.10408
-65	;	2200	;	853.11081
-65	;	2300	;	864.11753
-65	;	2400	;	875.12426
-65	;	2500	;	886.13099
-65	;	2600	;	897.13772
-65	;	2700	;	908.14445
-65	;	2800	;	919.15117
-65	;	2900	;	930.1579
-65	;	3000	;	941.16463
-65	;	3100	;	954.04931
-65	;	3200	;	966.93399
-65	;	3300	;	979.81867
-65	;	3400	;	992.70335
-65	;	3500	;	1005.58803
-65	;	3600	;	1018.47271
-65	;	3700	;	1031.35739
-65	;	3800	;	1044.24207
-65	;	3900	;	1057.12675
-65	;	4000	;	1070.01143
-60	;	0	;	696.80897
-60	;	100	;	702.79903
-60	;	200	;	708.78909
-60	;	300	;	714.77915
-60	;	400	;	720.76921
-60	;	500	;	726.75927
-60	;	600	;	732.74933
-60	;	700	;	738.73939
-60	;	800	;	744.72945
-60	;	900	;	750.71951
-60	;	1000	;	756.70957
-60	;	1100	;	766.02744
-60	;	1200	;	775.34531
-60	;	1300	;	784.66318
-60	;	1400	;	793.98105
-60	;	1500	;	803.29893
-60	;	1600	;	812.6168
-60	;	1700	;	821.93467
-60	;	1800	;	831.25254
-60	;	1900	;	840.57041
-60	;	2000	;	849.88828
-60	;	2100	;	860.98098
-60	;	2200	;	872.07369
-60	;	2300	;	883.16639
-60	;	2400	;	894.25909
-60	;	2500	;	905.3518
-60	;	2600	;	916.4445
-60	;	2700	;	927.5372
-60	;	2800	;	938.6299
-60	;	2900	;	949.72261
-60	;	3000	;	960.81531
-60	;	3100	;	973.9047
-60	;	3200	;	986.99409
-60	;	3300	;	1000.08348
-60	;	3400	;	1013.17287
-60	;	3500	;	1026.26226
-60	;	3600	;	1039.35165
-60	;	3700	;	1052.44104
-60	;	3800	;	1065.53043
-60	;	3900	;	1078.61982
-60	;	4000	;	1091.70921
-55	;	0	;	708.33024
-55	;	100	;	714.80125
-55	;	200	;	721.27226
-55	;	300	;	727.74327
-55	;	400	;	734.21428
-55	;	500	;	740.6853
-55	;	600	;	747.15631
-55	;	700	;	753.62732
-55	;	800	;	760.09833
-55	;	900	;	766.56934
-55	;	1000	;	773.04035
-55	;	1100	;	782.60424
-55	;	1200	;	792.16812
-55	;	1300	;	801.73201
-55	;	1400	;	811.29589
-55	;	1500	;	820.85978
-55	;	1600	;	830.42367
-55	;	1700	;	839.98755
-55	;	1800	;	849.55144
-55	;	1900	;	859.11532
-55	;	2000	;	868.67921
-55	;	2100	;	879.85789
-55	;	2200	;	891.03657
-55	;	2300	;	902.21524
-55	;	2400	;	913.39392
-55	;	2500	;	924.5726
-55	;	2600	;	935.75128
-55	;	2700	;	946.92996
-55	;	2800	;	958.10863
-55	;	2900	;	969.28731
-55	;	3000	;	980.46599
-55	;	3100	;	993.76009
-55	;	3200	;	1007.05419
-55	;	3300	;	1020.34829
-55	;	3400	;	1033.64239
-55	;	3500	;	1046.93649
-55	;	3600	;	1060.23059
-55	;	3700	;	1073.52469
-55	;	3800	;	1086.81879
-55	;	3900	;	1100.11289
-55	;	4000	;	1113.40699
-50	;	0	;	719.8515
-50	;	100	;	726.80346
-50	;	200	;	733.75543
-50	;	300	;	740.70739
-50	;	400	;	747.65935
-50	;	500	;	754.61132
-50	;	600	;	761.56328
-50	;	700	;	768.51524
-50	;	800	;	775.4672
-50	;	900	;	782.41917
-50	;	1000	;	789.37113
-50	;	1100	;	799.18103
-50	;	1200	;	808.99093
-50	;	1300	;	818.80083
-50	;	1400	;	828.61073
-50	;	1500	;	838.42063
-50	;	1600	;	848.23053
-50	;	1700	;	858.04043
-50	;	1800	;	867.85033
-50	;	1900	;	877.66023
-50	;	2000	;	887.47013
-50	;	2100	;	898.73479
-50	;	2200	;	909.99944
-50	;	2300	;	921.2641
-50	;	2400	;	932.52875
-50	;	2500	;	943.79341
-50	;	2600	;	955.05806
-50	;	2700	;	966.32272
-50	;	2800	;	977.58737
-50	;	2900	;	988.85203
-50	;	3000	;	1000.11668
-50	;	3100	;	1013.61549
-50	;	3200	;	1027.1143
-50	;	3300	;	1040.61311
-50	;	3400	;	1054.11192
-50	;	3500	;	1067.61073
-50	;	3600	;	1081.10953
-50	;	3700	;	1094.60834
-50	;	3800	;	1108.10715
-50	;	3900	;	1121.60596
-50	;	4000	;	1135.10477
-45	;	0	;	731.37277
-45	;	100	;	738.82308
-45	;	200	;	746.27339
-45	;	300	;	753.72369
-45	;	400	;	761.174
-45	;	500	;	768.62431
-45	;	600	;	776.07462
-45	;	700	;	783.52493
-45	;	800	;	790.97523
-45	;	900	;	798.42554
-45	;	1000	;	805.87585
-45	;	1100	;	815.91437
-45	;	1200	;	825.95289
-45	;	1300	;	835.99141
-45	;	1400	;	846.02993
-45	;	1500	;	856.06846
-45	;	1600	;	866.10698
-45	;	1700	;	876.1455
-45	;	1800	;	886.18402
-45	;	1900	;	896.22254
-45	;	2000	;	906.26106
-45	;	2100	;	917.61169
-45	;	2200	;	928.96232
-45	;	2300	;	940.31295
-45	;	2400	;	951.66358
-45	;	2500	;	963.01421
-45	;	2600	;	974.36484
-45	;	2700	;	985.71547
-45	;	2800	;	997.0661
-45	;	2900	;	1008.41673
-45	;	3000	;	1019.76736
-45	;	3100	;	1033.47088
-45	;	3200	;	1047.1744
-45	;	3300	;	1060.87791
-45	;	3400	;	1074.58143
-45	;	3500	;	1088.28495
-45	;	3600	;	1101.98847
-45	;	3700	;	1115.69199
-45	;	3800	;	1129.3955
-45	;	3900	;	1143.09902
-45	;	4000	;	1156.80254
-40	;	0	;	744.88812
-40	;	100	;	752.64516
-40	;	200	;	760.4022
-40	;	300	;	768.15923
-40	;	400	;	775.91627
-40	;	500	;	783.67331
-40	;	600	;	791.43035
-40	;	700	;	799.18739
-40	;	800	;	806.94442
-40	;	900	;	814.70146
-40	;	1000	;	822.4585
-40	;	1100	;	832.71785
-40	;	1200	;	842.9772
-40	;	1300	;	853.23654
-40	;	1400	;	863.49589
-40	;	1500	;	873.75524
-40	;	1600	;	884.01459
-40	;	1700	;	894.27394
-40	;	1800	;	904.53328
-40	;	1900	;	914.79263
-40	;	2000	;	925.05198
-40	;	2100	;	936.48859
-40	;	2200	;	947.92519
-40	;	2300	;	959.3618
-40	;	2400	;	970.7984
-40	;	2500	;	982.23501
-40	;	2600	;	993.67162
-40	;	2700	;	1005.10822
-40	;	2800	;	1016.54483
-40	;	2900	;	1027.98143
-40	;	3000	;	1039.41804
-40	;	3100	;	1053.32627
-40	;	3200	;	1067.2345
-40	;	3300	;	1081.14272
-40	;	3400	;	1095.05095
-40	;	3500	;	1108.95918
-40	;	3600	;	1122.86741
-40	;	3700	;	1136.77564
-40	;	3800	;	1150.68386
-40	;	3900	;	1164.59209
-40	;	4000	;	1178.50032
-35	;	0	;	758.57915
-35	;	100	;	766.6268
-35	;	200	;	774.67445
-35	;	300	;	782.7221
-35	;	400	;	790.76975
-35	;	500	;	798.81741
-35	;	600	;	806.86506
-35	;	700	;	814.91271
-35	;	800	;	822.96036
-35	;	900	;	831.00801
-35	;	1000	;	839.05566
-35	;	1100	;	849.52356
-35	;	1200	;	859.99146
-35	;	1300	;	870.45937
-35	;	1400	;	880.92727
-35	;	1500	;	891.39517
-35	;	1600	;	901.86307
-35	;	1700	;	912.33097
-35	;	1800	;	922.79888
-35	;	1900	;	933.26678
-35	;	2000	;	943.73468
-35	;	2100	;	955.26809
-35	;	2200	;	966.80149
-35	;	2300	;	978.3349
-35	;	2400	;	989.8683
-35	;	2500	;	1001.40171
-35	;	2600	;	1012.93511
-35	;	2700	;	1024.46852
-35	;	2800	;	1036.00192
-35	;	2900	;	1047.53533
-35	;	3000	;	1059.06873
-35	;	3100	;	1073.18167
-35	;	3200	;	1087.2946
-35	;	3300	;	1101.40754
-35	;	3400	;	1115.52048
-35	;	3500	;	1129.63342
-35	;	3600	;	1143.74635
-35	;	3700	;	1157.85929
-35	;	3800	;	1171.97223
-35	;	3900	;	1186.08516
-35	;	4000	;	1200.1981
-30	;	0	;	772.27018
-30	;	100	;	780.61048
-30	;	200	;	788.95078
-30	;	300	;	797.29107
-30	;	400	;	805.63137
-30	;	500	;	813.97167
-30	;	600	;	822.31197
-30	;	700	;	830.65227
-30	;	800	;	838.99256
-30	;	900	;	847.33286
-30	;	1000	;	855.67316
-30	;	1100	;	866.33104
-30	;	1200	;	876.98892
-30	;	1300	;	887.6468
-30	;	1400	;	898.30468
-30	;	1500	;	908.96256
-30	;	1600	;	919.62044
-30	;	1700	;	930.27832
-30	;	1800	;	940.9362
-30	;	1900	;	951.59408
-30	;	2000	;	962.25196
-30	;	2100	;	973.89871
-30	;	2200	;	985.54545
-30	;	2300	;	997.1922
-30	;	2400	;	1008.83894
-30	;	2500	;	1020.48569
-30	;	2600	;	1032.13243
-30	;	2700	;	1043.77918
-30	;	2800	;	1055.42592
-30	;	2900	;	1067.07267
-30	;	3000	;	1078.71941
-30	;	3100	;	1093.11479
-30	;	3200	;	1107.51016
-30	;	3300	;	1121.90554
-30	;	3400	;	1136.30091
-30	;	3500	;	1150.69629
-30	;	3600	;	1165.09166
-30	;	3700	;	1179.48704
-30	;	3800	;	1193.88241
-30	;	3900	;	1208.27779
-30	;	4000	;	1222.67316
-25	;	0	;	785.96121
-25	;	100	;	794.59599
-25	;	200	;	803.23077
-25	;	300	;	811.86556
-25	;	400	;	820.50034
-25	;	500	;	829.13512
-25	;	600	;	837.7699
-25	;	700	;	846.40468
-25	;	800	;	855.03947
-25	;	900	;	863.67425
-25	;	1000	;	872.30903
-25	;	1100	;	883.15505
-25	;	1200	;	894.00107
-25	;	1300	;	904.84709
-25	;	1400	;	915.69311
-25	;	1500	;	926.53913
-25	;	1600	;	937.38515
-25	;	1700	;	948.23117
-25	;	1800	;	959.07719
-25	;	1900	;	969.92321
-25	;	2000	;	980.76923
-25	;	2100	;	992.52932
-25	;	2200	;	1004.2894
-25	;	2300	;	1016.04949
-25	;	2400	;	1027.80957
-25	;	2500	;	1039.56966
-25	;	2600	;	1051.32975
-25	;	2700	;	1063.08983
-25	;	2800	;	1074.84992
-25	;	2900	;	1086.61
-25	;	3000	;	1098.37009
-25	;	3100	;	1113.42234
-25	;	3200	;	1128.4746
-25	;	3300	;	1143.52685
-25	;	3400	;	1158.5791
-25	;	3500	;	1173.63136
-25	;	3600	;	1188.68361
-25	;	3700	;	1203.73586
-25	;	3800	;	1218.78811
-25	;	3900	;	1233.84037
-25	;	4000	;	1248.89262
-20	;	0	;	799.65224
-20	;	100	;	808.72026
-20	;	200	;	817.78829
-20	;	300	;	826.85631
-20	;	400	;	835.92434
-20	;	500	;	844.99236
-20	;	600	;	854.06038
-20	;	700	;	863.12841
-20	;	800	;	872.19643
-20	;	900	;	881.26446
-20	;	1000	;	890.33248
-20	;	1100	;	901.21772
-20	;	1200	;	912.10297
-20	;	1300	;	922.98821
-20	;	1400	;	933.87346
-20	;	1500	;	944.7587
-20	;	1600	;	955.64394
-20	;	1700	;	966.52919
-20	;	1800	;	977.41443
-20	;	1900	;	988.29968
-20	;	2000	;	999.18492
-20	;	2100	;	1011.06851
-20	;	2200	;	1022.95209
-20	;	2300	;	1034.83568
-20	;	2400	;	1046.71926
-20	;	2500	;	1058.60285
-20	;	2600	;	1070.48644
-20	;	2700	;	1082.37002
-20	;	2800	;	1094.25361
-20	;	2900	;	1106.13719
-20	;	3000	;	1118.02078
-20	;	3100	;	1133.72991
-20	;	3200	;	1149.43904
-20	;	3300	;	1165.14817
-20	;	3400	;	1180.8573
-20	;	3500	;	1196.56643
-20	;	3600	;	1212.27556
-20	;	3700	;	1227.98469
-20	;	3800	;	1243.69382
-20	;	3900	;	1259.40295
-20	;	4000	;	1275.11208
-15	;	0	;	813.34328
-15	;	100	;	822.84455
-15	;	200	;	832.34581
-15	;	300	;	841.84708
-15	;	400	;	851.34834
-15	;	500	;	860.84961
-15	;	600	;	870.35088
-15	;	700	;	879.85214
-15	;	800	;	889.35341
-15	;	900	;	898.85467
-15	;	1000	;	908.35594
-15	;	1100	;	919.27103
-15	;	1200	;	930.18612
-15	;	1300	;	941.10122
-15	;	1400	;	952.01631
-15	;	1500	;	962.9314
-15	;	1600	;	973.84649
-15	;	1700	;	984.76158
-15	;	1800	;	995.67668
-15	;	1900	;	1006.59177
-15	;	2000	;	1017.50686
-15	;	2100	;	1029.69413
-15	;	2200	;	1041.8814
-15	;	2300	;	1054.06867
-15	;	2400	;	1066.25594
-15	;	2500	;	1078.44322
-15	;	2600	;	1090.63049
-15	;	2700	;	1102.81776
-15	;	2800	;	1115.00503
-15	;	2900	;	1127.1923
-15	;	3000	;	1139.37957
-15	;	3100	;	1155.57477
-15	;	3200	;	1171.76996
-15	;	3300	;	1187.96516
-15	;	3400	;	1204.16036
-15	;	3500	;	1220.35556
-15	;	3600	;	1236.55075
-15	;	3700	;	1252.74595
-15	;	3800	;	1268.94115
-15	;	3900	;	1285.13634
-15	;	4000	;	1301.33154
-10	;	0	;	827.03431
-10	;	100	;	836.98059
-10	;	200	;	846.92687
-10	;	300	;	856.87314
-10	;	400	;	866.81942
-10	;	500	;	876.7657
-10	;	600	;	886.71198
-10	;	700	;	896.65826
-10	;	800	;	906.60453
-10	;	900	;	916.55081
-10	;	1000	;	926.49709
-10	;	1100	;	937.43026
-10	;	1200	;	948.36343
-10	;	1300	;	959.2966
-10	;	1400	;	970.22977
-10	;	1500	;	981.16295
-10	;	1600	;	992.09612
-10	;	1700	;	1003.02929
-10	;	1800	;	1013.96246
-10	;	1900	;	1024.89563
-10	;	2000	;	1035.8288
-10	;	2100	;	1048.46967
-10	;	2200	;	1061.11054
-10	;	2300	;	1073.75141
-10	;	2400	;	1086.39228
-10	;	2500	;	1099.03315
-10	;	2600	;	1111.67401
-10	;	2700	;	1124.31488
-10	;	2800	;	1136.95575
-10	;	2900	;	1149.59662
-10	;	3000	;	1162.23749
-10	;	3100	;	1178.76884
-10	;	3200	;	1195.30019
-10	;	3300	;	1211.83154
-10	;	3400	;	1228.36289
-10	;	3500	;	1244.89425
-10	;	3600	;	1261.4256
-10	;	3700	;	1277.95695
-10	;	3800	;	1294.4883
-10	;	3900	;	1311.01965
-10	;	4000	;	1327.551
-5	;	0	;	840.72534
-5	;	100	;	851.12232
-5	;	200	;	861.51929
-5	;	300	;	871.91627
-5	;	400	;	882.31324
-5	;	500	;	892.71022
-5	;	600	;	903.1072
-5	;	700	;	913.50417
-5	;	800	;	923.90115
-5	;	900	;	934.29812
-5	;	1000	;	944.6951
-5	;	1100	;	955.66127
-5	;	1200	;	966.62745
-5	;	1300	;	977.59362
-5	;	1400	;	988.5598
-5	;	1500	;	999.52597
-5	;	1600	;	1010.49214
-5	;	1700	;	1021.45832
-5	;	1800	;	1032.42449
-5	;	1900	;	1043.39067
-5	;	2000	;	1054.35684
-5	;	2100	;	1067.4307
-5	;	2200	;	1080.50455
-5	;	2300	;	1093.57841
-5	;	2400	;	1106.65226
-5	;	2500	;	1119.72612
-5	;	2600	;	1132.79998
-5	;	2700	;	1145.87383
-5	;	2800	;	1158.94769
-5	;	2900	;	1172.02154
-5	;	3000	;	1185.0954
-5	;	3100	;	1201.96291
-5	;	3200	;	1218.83041
-5	;	3300	;	1235.69792
-5	;	3400	;	1252.56542
-5	;	3500	;	1269.43293
-5	;	3600	;	1286.30044
-5	;	3700	;	1303.16794
-5	;	3800	;	1320.03545
-5	;	3900	;	1336.90295
-5	;	4000	;	1353.77046
0	;	0	;	857.01382
0	;	100	;	867.60175
0	;	200	;	878.18968
0	;	300	;	888.77761
0	;	400	;	899.36554
0	;	500	;	909.95347
0	;	600	;	920.54139
0	;	700	;	931.12932
0	;	800	;	941.71725
0	;	900	;	952.30518
0	;	1000	;	962.89311
0	;	1100	;	974.03066
0	;	1200	;	985.16821
0	;	1300	;	996.30577
0	;	1400	;	1007.44332
0	;	1500	;	1018.58087
0	;	1600	;	1029.71842
0	;	1700	;	1040.85597
0	;	1800	;	1051.99353
0	;	1900	;	1063.13108
0	;	2000	;	1074.26863
0	;	2100	;	1087.6371
0	;	2200	;	1101.00557
0	;	2300	;	1114.37404
0	;	2400	;	1127.74251
0	;	2500	;	1141.11098
0	;	2600	;	1154.47944
0	;	2700	;	1167.84791
0	;	2800	;	1181.21638
0	;	2900	;	1194.58485
0	;	3000	;	1207.95332
0	;	3100	;	1225.15698
0	;	3200	;	1242.36064
0	;	3300	;	1259.5643
0	;	3400	;	1276.76796
0	;	3500	;	1293.97163
0	;	3600	;	1311.17529
0	;	3700	;	1328.37895
0	;	3800	;	1345.58261
0	;	3900	;	1362.78627
0	;	4000	;	1379.98993
5	;	0	;	873.35826
5	;	100	;	884.06999
5	;	200	;	894.78171
5	;	300	;	905.49344
5	;	400	;	916.20517
5	;	500	;	926.9169
5	;	600	;	937.62862
5	;	700	;	948.34035
5	;	800	;	959.05208
5	;	900	;	969.7638
5	;	1000	;	980.47553
5	;	1100	;	991.84602
5	;	1200	;	1003.21651
5	;	1300	;	1014.587
5	;	1400	;	1025.95749
5	;	1500	;	1037.32798
5	;	1600	;	1048.69846
5	;	1700	;	1060.06895
5	;	1800	;	1071.43944
5	;	1900	;	1082.80993
5	;	2000	;	1094.18042
5	;	2100	;	1107.8435
5	;	2200	;	1121.50658
5	;	2300	;	1135.16966
5	;	2400	;	1148.83274
5	;	2500	;	1162.49583
5	;	2600	;	1176.15891
5	;	2700	;	1189.82199
5	;	2800	;	1203.48507
5	;	2900	;	1217.14815
5	;	3000	;	1230.81123
5	;	3100	;	1248.35105
5	;	3200	;	1265.89086
5	;	3300	;	1283.43068
5	;	3400	;	1300.97049
5	;	3500	;	1318.51031
5	;	3600	;	1336.05013
5	;	3700	;	1353.58994
5	;	3800	;	1371.12976
5	;	3900	;	1388.66957
5	;	4000	;	1406.20939
10	;	0	;	889.7027
10	;	100	;	900.53775
10	;	200	;	911.37279
10	;	300	;	922.20784
10	;	400	;	933.04288
10	;	500	;	943.87793
10	;	600	;	954.71298
10	;	700	;	965.54802
10	;	800	;	976.38307
10	;	900	;	987.21811
10	;	1000	;	998.05316
10	;	1100	;	1009.64373
10	;	1200	;	1021.23429
10	;	1300	;	1032.82486
10	;	1400	;	1044.41543
10	;	1500	;	1056.006
10	;	1600	;	1067.59656
10	;	1700	;	1079.18713
10	;	1800	;	1090.7777
10	;	1900	;	1102.36826
10	;	2000	;	1113.95883
10	;	2100	;	1127.92986
10	;	2200	;	1141.90089
10	;	2300	;	1155.87192
10	;	2400	;	1169.84295
10	;	2500	;	1183.81399
10	;	2600	;	1197.78502
10	;	2700	;	1211.75605
10	;	2800	;	1225.72708
10	;	2900	;	1239.69811
10	;	3000	;	1253.66914
10	;	3100	;	1271.75906
10	;	3200	;	1289.84897
10	;	3300	;	1307.93889
10	;	3400	;	1326.02881
10	;	3500	;	1344.11873
10	;	3600	;	1362.20864
10	;	3700	;	1380.29856
10	;	3800	;	1398.38848
10	;	3900	;	1416.47839
10	;	4000	;	1434.56831
15	;	0	;	906.04714
15	;	100	;	916.97632
15	;	200	;	927.90551
15	;	300	;	938.83469
15	;	400	;	949.76388
15	;	500	;	960.69306
15	;	600	;	971.62224
15	;	700	;	982.55143
15	;	800	;	993.48061
15	;	900	;	1004.4098
15	;	1000	;	1015.33898
15	;	1100	;	1027.13484
15	;	1200	;	1038.93071
15	;	1300	;	1050.72657
15	;	1400	;	1062.52243
15	;	1500	;	1074.3183
15	;	1600	;	1086.11416
15	;	1700	;	1097.91002
15	;	1800	;	1109.70588
15	;	1900	;	1121.50175
15	;	2000	;	1133.29761
15	;	2100	;	1147.7001
15	;	2200	;	1162.10259
15	;	2300	;	1176.50508
15	;	2400	;	1190.90757
15	;	2500	;	1205.31006
15	;	2600	;	1219.71254
15	;	2700	;	1234.11503
15	;	2800	;	1248.51752
15	;	2900	;	1262.92001
15	;	3000	;	1277.3225
15	;	3100	;	1295.96378
15	;	3200	;	1314.60506
15	;	3300	;	1333.24635
15	;	3400	;	1351.88763
15	;	3500	;	1370.52891
15	;	3600	;	1389.17019
15	;	3700	;	1407.81147
15	;	3800	;	1426.45276
15	;	3900	;	1445.09404
15	;	4000	;	1463.73532
20	;	0	;	922.39159
20	;	100	;	933.40963
20	;	200	;	944.42766
20	;	300	;	955.4457
20	;	400	;	966.46373
20	;	500	;	977.48177
20	;	600	;	988.49981
20	;	700	;	999.51784
20	;	800	;	1010.53588
20	;	900	;	1021.55391
20	;	1000	;	1032.57195
20	;	1100	;	1044.57839
20	;	1200	;	1056.58484
20	;	1300	;	1068.59128
20	;	1400	;	1080.59773
20	;	1500	;	1092.60417
20	;	1600	;	1104.61061
20	;	1700	;	1116.61706
20	;	1800	;	1128.6235
20	;	1900	;	1140.62995
20	;	2000	;	1152.63639
20	;	2100	;	1167.74619
20	;	2200	;	1182.85598
20	;	2300	;	1197.96578
20	;	2400	;	1213.07558
20	;	2500	;	1228.18538
20	;	2600	;	1243.29517
20	;	2700	;	1258.40497
20	;	2800	;	1273.51477
20	;	2900	;	1288.62456
20	;	3000	;	1303.73436
20	;	3100	;	1322.65116
20	;	3200	;	1341.56795
20	;	3300	;	1360.48475
20	;	3400	;	1379.40154
20	;	3500	;	1398.31834
20	;	3600	;	1417.23514
20	;	3700	;	1436.15193
20	;	3800	;	1455.06873
20	;	3900	;	1473.98552
20	;	4000	;	1492.90232
25	;	0	;	938.86588
25	;	100	;	950.15199
25	;	200	;	961.4381
25	;	300	;	972.7242
25	;	400	;	984.01031
25	;	500	;	995.29642
25	;	600	;	1006.58253
25	;	700	;	1017.86864
25	;	800	;	1029.15474
25	;	900	;	1040.44085
25	;	1000	;	1051.72696
25	;	1100	;	1063.83995
25	;	1200	;	1075.95293
25	;	1300	;	1088.06592
25	;	1400	;	1100.1789
25	;	1500	;	1112.29189
25	;	1600	;	1124.40487
25	;	1700	;	1136.51786
25	;	1800	;	1148.63084
25	;	1900	;	1160.74383
25	;	2000	;	1172.85681
25	;	2100	;	1188.58575
25	;	2200	;	1204.31469
25	;	2300	;	1220.04363
25	;	2400	;	1235.77257
25	;	2500	;	1251.50152
25	;	2600	;	1267.23046
25	;	2700	;	1282.9594
25	;	2800	;	1298.68834
25	;	2900	;	1314.41728
25	;	3000	;	1330.14622
25	;	3100	;	1349.33853
25	;	3200	;	1368.53084
25	;	3300	;	1387.72315
25	;	3400	;	1406.91546
25	;	3500	;	1426.10778
25	;	3600	;	1445.30009
25	;	3700	;	1464.4924
25	;	3800	;	1483.68471
25	;	3900	;	1502.87702
25	;	4000	;	1522.06933
30	;	0	;	956.1233
30	;	100	;	967.77007
30	;	200	;	979.41683
30	;	300	;	991.0636
30	;	400	;	1002.71036
30	;	500	;	1014.35713
30	;	600	;	1026.00389
30	;	700	;	1037.65066
30	;	800	;	1049.29742
30	;	900	;	1060.94419
30	;	1000	;	1072.59095
30	;	1100	;	1084.90401
30	;	1200	;	1097.21706
30	;	1300	;	1109.53012
30	;	1400	;	1121.84317
30	;	1500	;	1134.15623
30	;	1600	;	1146.46928
30	;	1700	;	1158.78234
30	;	1800	;	1171.09539
30	;	1900	;	1183.40845
30	;	2000	;	1195.7215
30	;	2100	;	1211.80516
30	;	2200	;	1227.88881
30	;	2300	;	1243.97247
30	;	2400	;	1260.05613
30	;	2500	;	1276.13979
30	;	2600	;	1292.22344
30	;	2700	;	1308.3071
30	;	2800	;	1324.39076
30	;	2900	;	1340.47441
30	;	3000	;	1356.55807
30	;	3100	;	1376.66206
30	;	3200	;	1396.76604
30	;	3300	;	1416.87003
30	;	3400	;	1436.97401
30	;	3500	;	1457.078
30	;	3600	;	1477.18198
30	;	3700	;	1497.28597
30	;	3800	;	1517.38995
30	;	3900	;	1537.49394
30	;	4000	;	1557.59792
35	;	0	;	973.38073
35	;	100	;	985.38815
35	;	200	;	997.39557
35	;	300	;	1009.40299
35	;	400	;	1021.41041
35	;	500	;	1033.41783
35	;	600	;	1045.42525
35	;	700	;	1057.43267
35	;	800	;	1069.44009
35	;	900	;	1081.44751
35	;	1000	;	1093.45493
35	;	1100	;	1105.97061
35	;	1200	;	1118.48629
35	;	1300	;	1131.00198
35	;	1400	;	1143.51766
35	;	1500	;	1156.03334
35	;	1600	;	1168.54902
35	;	1700	;	1181.0647
35	;	1800	;	1193.58039
35	;	1900	;	1206.09607
35	;	2000	;	1218.61175
35	;	2100	;	1235.04757
35	;	2200	;	1251.48339
35	;	2300	;	1267.9192
35	;	2400	;	1284.35502
35	;	2500	;	1300.79084
35	;	2600	;	1317.22666
35	;	2700	;	1333.66248
35	;	2800	;	1350.09829
35	;	2900	;	1366.53411
35	;	3000	;	1382.96993
35	;	3100	;	1404.0513
35	;	3200	;	1425.13268
35	;	3300	;	1446.21405
35	;	3400	;	1467.29543
35	;	3500	;	1488.3768
35	;	3600	;	1509.45817
35	;	3700	;	1530.53955
35	;	3800	;	1551.62092
35	;	3900	;	1572.7023
35	;	4000	;	1593.78367
40	;	0	;	990.63815
40	;	100	;	1003.00623
40	;	200	;	1015.3743
40	;	300	;	1027.74238
40	;	400	;	1040.11046
40	;	500	;	1052.47854
40	;	600	;	1064.84661
40	;	700	;	1077.21469
40	;	800	;	1089.58277
40	;	900	;	1101.95084
40	;	1000	;	1114.31892
40	;	1100	;	1127.17374
40	;	1200	;	1140.02856
40	;	1300	;	1152.88338
40	;	1400	;	1165.7382
40	;	1500	;	1178.59302
40	;	1600	;	1191.44784
40	;	1700	;	1204.30266
40	;	1800	;	1217.15748
40	;	1900	;	1230.0123
40	;	2000	;	1242.86712
40	;	2100	;	1259.51859
40	;	2200	;	1276.17005
40	;	2300	;	1292.82152
40	;	2400	;	1309.47299
40	;	2500	;	1326.12446
40	;	2600	;	1342.77592
40	;	2700	;	1359.42739
40	;	2800	;	1376.07886
40	;	2900	;	1392.73032
40	;	3000	;	1409.38179
40	;	3100	;	1431.44055
40	;	3200	;	1453.49931
40	;	3300	;	1475.55808
40	;	3400	;	1497.61684
40	;	3500	;	1519.6756
40	;	3600	;	1541.73436
40	;	3700	;	1563.79312
40	;	3800	;	1585.85189
40	;	3900	;	1607.91065
40	;	4000	;	1629.96941
45	;	0	;	1007.89557
45	;	100	;	1020.6243
45	;	200	;	1033.35304
45	;	300	;	1046.08177
45	;	400	;	1058.8105
45	;	500	;	1071.53924
45	;	600	;	1084.26797
45	;	700	;	1096.9967
45	;	800	;	1109.72543
45	;	900	;	1122.45417
45	;	1000	;	1135.1829
45	;	1100	;	1148.37686
45	;	1200	;	1161.57082
45	;	1300	;	1174.76478
45	;	1400	;	1187.95874
45	;	1500	;	1201.1527
45	;	1600	;	1214.34666
45	;	1700	;	1227.54062
45	;	1800	;	1240.73458
45	;	1900	;	1253.92854
45	;	2000	;	1267.1225
45	;	2100	;	1283.98961
45	;	2200	;	1300.85673
45	;	2300	;	1317.72384
45	;	2400	;	1334.59096
45	;	2500	;	1351.45807
45	;	2600	;	1368.32518
45	;	2700	;	1385.1923
45	;	2800	;	1402.05941
45	;	2900	;	1418.92653
45	;	3000	;	1435.79364
45	;	3100	;	1458.82979
45	;	3200	;	1481.86594
45	;	3300	;	1504.9021
45	;	3400	;	1527.93825
45	;	3500	;	1550.9744
45	;	3600	;	1574.01055
45	;	3700	;	1597.0467
45	;	3800	;	1620.08286
45	;	3900	;	1643.11901
45	;	4000	;	1666.15516
50	;	0	;	1025.15299
50	;	100	;	1038.24238
50	;	200	;	1051.33177
50	;	300	;	1064.42116
50	;	400	;	1077.51055
50	;	500	;	1090.59994
50	;	600	;	1103.68933
50	;	700	;	1116.77872
50	;	800	;	1129.86811
50	;	900	;	1142.9575
50	;	1000	;	1156.04689
50	;	1100	;	1169.57999
50	;	1200	;	1183.11309
50	;	1300	;	1196.64618
50	;	1400	;	1210.17928
50	;	1500	;	1223.71238
50	;	1600	;	1237.24548
50	;	1700	;	1250.77858
50	;	1800	;	1264.31167
50	;	1900	;	1277.84477
50	;	2000	;	1291.37787
50	;	2100	;	1308.46063
50	;	2200	;	1325.5434
50	;	2300	;	1342.62616
50	;	2400	;	1359.70892
50	;	2500	;	1376.79169
50	;	2600	;	1393.87445
50	;	2700	;	1410.95721
50	;	2800	;	1428.03997
50	;	2900	;	1445.12274
50	;	3000	;	1462.2055
50	;	3100	;	1486.21904
50	;	3200	;	1510.23258
50	;	3300	;	1534.24612
50	;	3400	;	1558.25966
50	;	3500	;	1582.27321
50	;	3600	;	1606.28675
50	;	3700	;	1630.30029
50	;	3800	;	1654.31383
50	;	3900	;	1678.32737
50	;	4000	;	1702.34091
