-15	;	400	;	-131.892
-15	;	500	;	-31.892
-15	;	600	;	68.108
-15	;	700	;	168.108
-15	;	800	;	268.108
-15	;	900	;	368.108
-15	;	1000	;	468.108
-15	;	1100	;	568.108
-15	;	1200	;	668.108
-15	;	1300	;	768.108
-15	;	1400	;	868.108
-15	;	1500	;	942.932
-15	;	1600	;	999.402
-15	;	1700	;	1055.873
-15	;	1800	;	1112.343
-15	;	1900	;	1154.434
-15	;	2000	;	1194.974
-15	;	2100	;	1235.515
-15	;	2200	;	1276.056
-15	;	2300	;	1316.431
-15	;	2400	;	1355.37
-15	;	2500	;	1394.308
-15	;	2600	;	1433.246
-15	;	2700	;	1472.184
-15	;	2800	;	1519.442
-15	;	2900	;	1596.861
-15	;	3000	;	1674.281
-15	;	3100	;	1743.092
-15	;	3200	;	1804.425
-15	;	3300	;	1865.759
-15	;	3400	;	1952.179
-15	;	3500	;	2289.73
-15	;	3600	;	2389.73
-10	;	400	;	45.405
-10	;	500	;	145.405
-10	;	600	;	245.405
-10	;	700	;	345.405
-10	;	800	;	445.405
-10	;	900	;	545.405
-10	;	1000	;	645.405
-10	;	1100	;	745.405
-10	;	1200	;	845.405
-10	;	1300	;	933.479
-10	;	1400	;	999.534
-10	;	1500	;	1065.589
-10	;	1600	;	1128.406
-10	;	1700	;	1178.968
-10	;	1800	;	1229.529
-10	;	1900	;	1280.091
-10	;	2000	;	1330.05
-10	;	2100	;	1378.939
-10	;	2200	;	1427.828
-10	;	2300	;	1476.717
-10	;	2400	;	1541.923
-10	;	2500	;	1625.644
-10	;	2600	;	1709.365
-10	;	2700	;	1779.917
-10	;	2800	;	1850.325
-10	;	2900	;	1919.83
-10	;	3000	;	1984.725
-10	;	3100	;	2049.621
-10	;	3200	;	2128.019
-10	;	3300	;	2251.112
-10	;	3400	;	2374.205
-10	;	3500	;	2289.73
-10	;	3600	;	2389.73
-5	;	400	;	222.703
-5	;	500	;	322.703
-5	;	600	;	422.703
-5	;	700	;	522.703
-5	;	800	;	622.703
-5	;	900	;	722.703
-5	;	1000	;	822.703
-5	;	1100	;	920.161
-5	;	1200	;	999.719
-5	;	1300	;	1079.277
-5	;	1400	;	1152.449
-5	;	1500	;	1219.613
-5	;	1600	;	1286.777
-5	;	1700	;	1353.019
-5	;	1800	;	1418.69
-5	;	1900	;	1484.362
-5	;	2000	;	1568.389
-5	;	2100	;	1659.528
-5	;	2200	;	1746.898
-5	;	2300	;	1829.532
-5	;	2400	;	1912.026
-5	;	2500	;	1990.737
-5	;	2600	;	2069.448
-5	;	2700	;	2145.313
-5	;	2800	;	2219.424
-5	;	2900	;	2294.382
-5	;	3000	;	2384.975
-5	;	3100	;	2475.567
-5	;	3200	;	2533.139
-5	;	3300	;	2580.291
-5	;	3400	;	2627.443
-5	;	3500	;	3500
-5	;	3600	;	3600
0	;	400	;	400
0	;	500	;	500
0	;	600	;	600
0	;	700	;	700
0	;	800	;	800
0	;	900	;	900
0	;	1000	;	1000
0	;	1100	;	1100
0	;	1200	;	1200
0	;	1300	;	1300
0	;	1400	;	1400
0	;	1500	;	1500
0	;	1600	;	1600
0	;	1700	;	1700
0	;	1800	;	1800
0	;	1900	;	1900
0	;	2000	;	2000
0	;	2100	;	2100
0	;	2200	;	2200
0	;	2300	;	2300
0	;	2400	;	2400
0	;	2500	;	2500
0	;	2600	;	2600
0	;	2700	;	2700
0	;	2800	;	2800
0	;	2900	;	2900
0	;	3000	;	3000
0	;	3100	;	3100
0	;	3200	;	3200
0	;	3300	;	3300
0	;	3400	;	3400
0	;	3500	;	3500
0	;	3600	;	3600
5	;	400	;	446.847
5	;	500	;	546.847
5	;	600	;	646.847
5	;	700	;	746.847
5	;	800	;	846.847
5	;	900	;	948.437
5	;	1000	;	1052.785
5	;	1100	;	1156.498
5	;	1200	;	1259.159
5	;	1300	;	1362.238
5	;	1400	;	1465.768
5	;	1500	;	1570.561
5	;	1600	;	1676.056
5	;	1700	;	1784.865
5	;	1800	;	1895.265
5	;	1900	;	2006.123
5	;	2000	;	2116.475
5	;	2100	;	2223.793
5	;	2200	;	2329.965
5	;	2300	;	2434.313
5	;	2400	;	2537.928
5	;	2500	;	2640.428
5	;	2600	;	2745.827
5	;	2700	;	2852.677
5	;	2800	;	2957.282
5	;	2900	;	3060.139
5	;	3000	;	3165.115
5	;	3100	;	3270.632
5	;	3200	;	3374.606
5	;	3300	;	3477.937
5	;	3400	;	3578.649
5	;	3500	;	3678.649
5	;	3600	;	3778.649
10	;	400	;	493.694
10	;	500	;	593.694
10	;	600	;	693.694
10	;	700	;	793.694
10	;	800	;	893.694
10	;	900	;	1001.278
10	;	1000	;	1110.369
10	;	1100	;	1216.085
10	;	1200	;	1321.714
10	;	1300	;	1429.031
10	;	1400	;	1537.7
10	;	1500	;	1649.327
10	;	1600	;	1766.216
10	;	1700	;	1889.43
10	;	1800	;	2013.748
10	;	1900	;	2135.552
10	;	2000	;	2251.342
10	;	2100	;	2362.654
10	;	2200	;	2471.744
10	;	2300	;	2577.801
10	;	2400	;	2683.688
10	;	2500	;	2798.394
10	;	2600	;	2912.051
10	;	2700	;	3017.933
10	;	2800	;	3126.155
10	;	2900	;	3237.834
10	;	3000	;	3347.461
10	;	3100	;	3454.354
10	;	3200	;	3557.297
10	;	3300	;	3657.297
10	;	3400	;	3757.297
10	;	3500	;	3857.297
10	;	3600	;	3957.297
15	;	400	;	540.541
15	;	500	;	640.541
15	;	600	;	740.541
15	;	700	;	840.541
15	;	800	;	944.865
15	;	900	;	1059.151
15	;	1000	;	1170.589
15	;	1100	;	1279.023
15	;	1200	;	1389.504
15	;	1300	;	1500.896
15	;	1400	;	1619.299
15	;	1500	;	1742.67
15	;	1600	;	1882.064
15	;	1700	;	2023.505
15	;	1800	;	2157.9
15	;	1900	;	2283.614
15	;	2000	;	2398.456
15	;	2100	;	2511.878
15	;	2200	;	2619.772
15	;	2300	;	2735.495
15	;	2400	;	2859.305
15	;	2500	;	2973.17
15	;	2600	;	3082.363
15	;	2700	;	3200.968
15	;	2800	;	3318.378
15	;	2900	;	3429.086
15	;	3000	;	3535.946
15	;	3100	;	3635.946
15	;	3200	;	3735.946
15	;	3300	;	3835.946
15	;	3400	;	3935.946
15	;	3500	;	4035.946
15	;	3600	;	4135.946
20	;	400	;	587.387
20	;	500	;	687.387
20	;	600	;	787.387
20	;	700	;	887.387
20	;	800	;	1002.811
20	;	900	;	1122.461
20	;	1000	;	1234.032
20	;	1100	;	1346.856
20	;	1200	;	1462.646
20	;	1300	;	1585.32
20	;	1400	;	1712.005
20	;	1500	;	1872.47
20	;	1600	;	2036.432
20	;	1700	;	2184.437
20	;	1800	;	2317.838
20	;	1900	;	2437.838
20	;	2000	;	2553.202
20	;	2100	;	2664.013
20	;	2200	;	2796.235
20	;	2300	;	2925.608
20	;	2400	;	3038.108
20	;	2500	;	3159.227
20	;	2600	;	3285.673
20	;	2700	;	3401.949
20	;	2800	;	3514.595
20	;	2900	;	3614.595
20	;	3000	;	3714.595
20	;	3100	;	3814.595
20	;	3200	;	3914.595
20	;	3300	;	4014.595
20	;	3400	;	4114.595
20	;	3500	;	4214.595
20	;	3600	;	4314.595
25	;	400	;	634.234
25	;	500	;	734.234
25	;	600	;	834.234
25	;	700	;	940.541
25	;	800	;	1066.856
25	;	900	;	1186.36
25	;	1000	;	1301.254
25	;	1100	;	1421.251
25	;	1200	;	1546.555
25	;	1300	;	1681.766
25	;	1400	;	1859.459
25	;	1500	;	2054.377
25	;	1600	;	2216.465
25	;	1700	;	2355.05
25	;	1800	;	2481.366
25	;	1900	;	2596.822
25	;	2000	;	2721.265
25	;	2100	;	2868.434
25	;	2200	;	2991.107
25	;	2300	;	3111.576
25	;	2400	;	3246.974
25	;	2500	;	3372.724
25	;	2600	;	3491.945
25	;	2700	;	3593.243
25	;	2800	;	3693.243
25	;	2900	;	3793.243
25	;	3000	;	3893.243
25	;	3100	;	3993.243
25	;	3200	;	4093.243
25	;	3300	;	4193.243
25	;	3400	;	4293.243
25	;	3500	;	4393.243
25	;	3600	;	4493.243
30	;	400	;	681.081
30	;	500	;	781.081
30	;	600	;	881.081
30	;	700	;	1004.685
30	;	800	;	1135.761
30	;	900	;	1254.182
30	;	1000	;	1376.309
30	;	1100	;	1502.023
30	;	1200	;	1647.371
30	;	1300	;	1840.811
30	;	1400	;	2080.961
30	;	1500	;	2255.884
30	;	1600	;	2396.396
30	;	1700	;	2525.792
30	;	1800	;	2642.934
30	;	1900	;	2793.176
30	;	2000	;	2940.973
30	;	2100	;	3060.973
30	;	2200	;	3202.378
30	;	2300	;	3341.163
30	;	2400	;	3465.15
30	;	2500	;	3571.892
30	;	2600	;	3671.892
30	;	2700	;	3771.892
30	;	2800	;	3871.892
30	;	2900	;	3971.892
30	;	3000	;	4071.892
30	;	3100	;	4171.892
30	;	3200	;	4271.892
30	;	3300	;	4371.892
30	;	3400	;	4471.892
30	;	3500	;	4571.892
30	;	3600	;	4671.892
