-15	;	400	;	931.892
-15	;	450	;	981.892
-15	;	500	;	1031.892
-15	;	550	;	1081.892
-15	;	600	;	1131.892
-15	;	650	;	1181.892
-15	;	700	;	1231.892
-15	;	750	;	1281.892
-15	;	800	;	1331.892
-15	;	850	;	1381.892
-15	;	900	;	1431.892
-15	;	950	;	1512.51689
-15	;	1000	;	1601.05856
-15	;	1050	;	1689.60022
-15	;	1100	;	1778.14189
-15	;	1150	;	1889.06306
-15	;	1200	;	2012.3964
-15	;	1250	;	2135.72973
-15	;	1300	;	2259.06307
-15	;	1350	;	2386.21008
-15	;	1400	;	2514.61917
-15	;	1450	;	2643.02826
-15	;	1500	;	2771.43735
-15	;	1550	;	2839.47073
-15	;	1600	;	2904.05406
-15	;	1650	;	2968.63739
-15	;	1700	;	3033.22072
-15	;	1750	;	3111.26322
-15	;	1800	;	3192.78496
-15	;	1850	;	3274.3067
-15	;	1900	;	3355.82844
-15	;	1950	;	3444.73581
-15	;	2000	;	3535.30618
-15	;	2050	;	3625.87655
-15	;	2100	;	3716.57479
-15	;	2150	;	3818.97317
-15	;	2200	;	3921.37155
-15	;	2250	;	4023.76994
-15	;	2300	;	4118.60484
-15	;	2350	;	4184.18101
-15	;	2400	;	4249.75718
-15	;	2450	;	4315.33335
-15	;	2500	;	4389.15518
-15	;	2550	;	4607.27639
-15	;	2600	;	4825.39759
-15	;	2650	;	5043.51879
-15	;	2700	;	5187.23513
-15	;	2750	;	5258.92125
-15	;	2800	;	5330.60737
-15	;	2850	;	5402.29349
-15	;	2900	;	5475.43608
-15	;	2950	;	5681.84552
-15	;	3000	;	5888.25497
-15	;	3050	;	6094.66441
-15	;	3100	;	6227.63316
-15	;	3150	;	6239.94934
-15	;	3200	;	6252.26552
-15	;	3250	;	6264.5817
-15	;	3300	;	6276.89788
-15	;	3350	;	5730.70072
-15	;	3400	;	5165.78246
-15	;	3450	;	4600.86421
-15	;	3500	;	4035.94595
-10	;	400	;	754.595
-10	;	450	;	804.595
-10	;	500	;	854.595
-10	;	550	;	904.595
-10	;	600	;	954.595
-10	;	650	;	1004.595
-10	;	700	;	1054.595
-10	;	750	;	1104.595
-10	;	800	;	1154.595
-10	;	850	;	1204.595
-10	;	900	;	1254.595
-10	;	950	;	1325.01126
-10	;	1000	;	1400.7057
-10	;	1050	;	1476.40015
-10	;	1100	;	1552.09459
-10	;	1150	;	1642.70871
-10	;	1200	;	1741.5976
-10	;	1250	;	1840.48649
-10	;	1300	;	1939.37538
-10	;	1350	;	2040.80672
-10	;	1400	;	2143.07944
-10	;	1450	;	2245.35217
-10	;	1500	;	2347.6249
-10	;	1550	;	2409.64715
-10	;	1600	;	2469.36937
-10	;	1650	;	2529.09159
-10	;	1700	;	2588.81381
-10	;	1750	;	2657.50881
-10	;	1800	;	2728.5233
-10	;	1850	;	2799.5378
-10	;	1900	;	2870.55229
-10	;	1950	;	2946.49054
-10	;	2000	;	3023.53745
-10	;	2050	;	3100.58437
-10	;	2100	;	3177.71653
-10	;	2150	;	3262.64878
-10	;	2200	;	3347.58103
-10	;	2250	;	3432.51329
-10	;	2300	;	3512.40322
-10	;	2350	;	3572.78734
-10	;	2400	;	3633.17145
-10	;	2450	;	3693.55557
-10	;	2500	;	3759.4368
-10	;	2550	;	3921.51759
-10	;	2600	;	4083.59839
-10	;	2650	;	4245.67919
-10	;	2700	;	4358.15675
-10	;	2750	;	4422.61416
-10	;	2800	;	4487.07158
-10	;	2850	;	4551.52899
-10	;	2900	;	4616.95738
-10	;	2950	;	4771.23035
-10	;	3000	;	4925.50331
-10	;	3050	;	5079.77627
-10	;	3100	;	5185.08877
-10	;	3150	;	5209.96622
-10	;	3200	;	5234.84368
-10	;	3250	;	5259.72113
-10	;	3300	;	5284.59858
-10	;	3350	;	4937.13381
-10	;	3400	;	4577.18831
-10	;	3450	;	4217.2428
-10	;	3500	;	3857.2973
-5	;	400	;	577.297
-5	;	450	;	627.297
-5	;	500	;	677.297
-5	;	550	;	727.297
-5	;	600	;	777.297
-5	;	650	;	827.297
-5	;	700	;	877.297
-5	;	750	;	927.297
-5	;	800	;	977.297
-5	;	850	;	1027.297
-5	;	900	;	1077.297
-5	;	950	;	1137.50563
-5	;	1000	;	1200.35285
-5	;	1050	;	1263.20008
-5	;	1100	;	1326.0473
-5	;	1150	;	1396.35435
-5	;	1200	;	1470.7988
-5	;	1250	;	1545.24325
-5	;	1300	;	1619.68769
-5	;	1350	;	1695.40336
-5	;	1400	;	1771.53973
-5	;	1450	;	1847.67609
-5	;	1500	;	1923.81245
-5	;	1550	;	1979.82358
-5	;	1600	;	2034.68469
-5	;	1650	;	2089.5458
-5	;	1700	;	2144.40691
-5	;	1750	;	2203.75441
-5	;	1800	;	2264.26166
-5	;	1850	;	2324.7689
-5	;	1900	;	2385.27615
-5	;	1950	;	2448.24527
-5	;	2000	;	2511.76873
-5	;	2050	;	2575.29218
-5	;	2100	;	2638.85826
-5	;	2150	;	2706.32439
-5	;	2200	;	2773.79052
-5	;	2250	;	2841.25665
-5	;	2300	;	2906.20162
-5	;	2350	;	2961.39367
-5	;	2400	;	3016.58573
-5	;	2450	;	3071.77779
-5	;	2500	;	3129.7184
-5	;	2550	;	3235.7588
-5	;	2600	;	3341.7992
-5	;	2650	;	3447.8396
-5	;	2700	;	3529.07838
-5	;	2750	;	3586.30708
-5	;	2800	;	3643.53579
-5	;	2850	;	3700.7645
-5	;	2900	;	3758.4787
-5	;	2950	;	3860.61518
-5	;	3000	;	3962.75166
-5	;	3050	;	4064.88814
-5	;	3100	;	4142.54439
-5	;	3150	;	4179.98311
-5	;	3200	;	4217.42184
-5	;	3250	;	4254.86057
-5	;	3300	;	4292.29929
-5	;	3350	;	4143.56691
-5	;	3400	;	3988.59415
-5	;	3450	;	3833.6214
-5	;	3500	;	3678.64865
0	;	400	;	400
0	;	450	;	450
0	;	500	;	500
0	;	550	;	550
0	;	600	;	600
0	;	650	;	650
0	;	700	;	700
0	;	750	;	750
0	;	800	;	800
0	;	850	;	850
0	;	900	;	900
0	;	950	;	950
0	;	1000	;	1000
0	;	1050	;	1050
0	;	1100	;	1100
0	;	1150	;	1150
0	;	1200	;	1200
0	;	1250	;	1250
0	;	1300	;	1300
0	;	1350	;	1350
0	;	1400	;	1400
0	;	1450	;	1450
0	;	1500	;	1500
0	;	1550	;	1550
0	;	1600	;	1600
0	;	1650	;	1650
0	;	1700	;	1700
0	;	1750	;	1750
0	;	1800	;	1800
0	;	1850	;	1850
0	;	1900	;	1900
0	;	1950	;	1950
0	;	2000	;	2000
0	;	2050	;	2050
0	;	2100	;	2100
0	;	2150	;	2150
0	;	2200	;	2200
0	;	2250	;	2250
0	;	2300	;	2300
0	;	2350	;	2350
0	;	2400	;	2400
0	;	2450	;	2450
0	;	2500	;	2500
0	;	2550	;	2550
0	;	2600	;	2600
0	;	2650	;	2650
0	;	2700	;	2700
0	;	2750	;	2750
0	;	2800	;	2800
0	;	2850	;	2850
0	;	2900	;	2900
0	;	2950	;	2950
0	;	3000	;	3000
0	;	3050	;	3050
0	;	3100	;	3100
0	;	3150	;	3150
0	;	3200	;	3200
0	;	3250	;	3250
0	;	3300	;	3300
0	;	3350	;	3350
0	;	3400	;	3400
0	;	3450	;	3450
0	;	3500	;	3500
5	;	400	;	353.153
5	;	450	;	403.153
5	;	500	;	453.153
5	;	550	;	503.153
5	;	600	;	553.153
5	;	650	;	603.153
5	;	700	;	653.153
5	;	750	;	703.153
5	;	800	;	753.153
5	;	850	;	803.153
5	;	900	;	853.153
5	;	950	;	901.49774
5	;	1000	;	949.41441
5	;	1050	;	997.33108
5	;	1100	;	1045.24774
5	;	1150	;	1093.67067
5	;	1200	;	1142.37437
5	;	1250	;	1191.07808
5	;	1300	;	1239.78178
5	;	1350	;	1288.17875
5	;	1400	;	1336.4742
5	;	1450	;	1384.76965
5	;	1500	;	1433.06511
5	;	1550	;	1480.50957
5	;	1600	;	1527.9054
5	;	1650	;	1575.30124
5	;	1700	;	1622.69707
5	;	1750	;	1668.4195
5	;	1800	;	1713.70936
5	;	1850	;	1758.99921
5	;	1900	;	1804.28907
5	;	1950	;	1849.40418
5	;	2000	;	1894.47994
5	;	2050	;	1939.5557
5	;	2100	;	1984.64783
5	;	2150	;	2031.23874
5	;	2200	;	2077.82965
5	;	2250	;	2124.42056
5	;	2300	;	2171.28378
5	;	2350	;	2219.20045
5	;	2400	;	2267.11711
5	;	2450	;	2315.03378
5	;	2500	;	2362.99714
5	;	2550	;	2411.77763
5	;	2600	;	2460.55812
5	;	2650	;	2509.33861
5	;	2700	;	2557.11019
5	;	2750	;	2603.90506
5	;	2800	;	2650.69993
5	;	2850	;	2697.49481
5	;	2900	;	2744.30931
5	;	2950	;	2792.92042
5	;	3000	;	2841.53153
5	;	3050	;	2890.14264
5	;	3100	;	2938.29006
5	;	3150	;	2985.67568
5	;	3200	;	3033.0613
5	;	3250	;	3080.44692
5	;	3300	;	3127.83254
5	;	3350	;	3176.18786
5	;	3400	;	3224.57569
5	;	3450	;	3272.96352
5	;	3500	;	3321.35135
10	;	400	;	306.306
10	;	450	;	356.306
10	;	500	;	406.306
10	;	550	;	456.306
10	;	600	;	506.306
10	;	650	;	556.306
10	;	700	;	606.306
10	;	750	;	656.306
10	;	800	;	706.306
10	;	850	;	756.306
10	;	900	;	806.306
10	;	950	;	852.9955
10	;	1000	;	898.82883
10	;	1050	;	944.66216
10	;	1100	;	990.4955
10	;	1150	;	1037.34134
10	;	1200	;	1084.74875
10	;	1250	;	1132.15616
10	;	1300	;	1179.56356
10	;	1350	;	1226.3575
10	;	1400	;	1272.94841
10	;	1450	;	1319.53932
10	;	1500	;	1366.13022
10	;	1550	;	1411.01915
10	;	1600	;	1455.81081
10	;	1650	;	1500.60248
10	;	1700	;	1545.39414
10	;	1750	;	1586.83901
10	;	1800	;	1627.41872
10	;	1850	;	1667.99843
10	;	1900	;	1708.57815
10	;	1950	;	1748.80836
10	;	2000	;	1788.95987
10	;	2050	;	1829.11139
10	;	2100	;	1869.29566
10	;	2150	;	1912.47748
10	;	2200	;	1955.65929
10	;	2250	;	1998.84111
10	;	2300	;	2042.56756
10	;	2350	;	2088.4009
10	;	2400	;	2134.23423
10	;	2450	;	2180.06757
10	;	2500	;	2225.99429
10	;	2550	;	2273.55527
10	;	2600	;	2321.11624
10	;	2650	;	2368.67722
10	;	2700	;	2414.22038
10	;	2750	;	2457.81012
10	;	2800	;	2501.39986
10	;	2850	;	2544.98961
10	;	2900	;	2588.61862
10	;	2950	;	2635.84084
10	;	3000	;	2683.06306
10	;	3050	;	2730.28529
10	;	3100	;	2776.58011
10	;	3150	;	2821.35135
10	;	3200	;	2866.1226
10	;	3250	;	2910.89384
10	;	3300	;	2955.66508
10	;	3350	;	3002.37573
10	;	3400	;	3049.15139
10	;	3450	;	3095.92704
10	;	3500	;	3142.7027
15	;	400	;	259.459
15	;	450	;	309.459
15	;	500	;	359.459
15	;	550	;	409.459
15	;	600	;	459.459
15	;	650	;	509.459
15	;	700	;	559.459
15	;	750	;	609.459
15	;	800	;	659.459
15	;	850	;	709.459
15	;	900	;	759.459
15	;	950	;	804.49324
15	;	1000	;	848.24324
15	;	1050	;	891.99324
15	;	1100	;	935.74324
15	;	1150	;	981.01201
15	;	1200	;	1027.12312
15	;	1250	;	1073.23423
15	;	1300	;	1119.34535
15	;	1350	;	1164.53624
15	;	1400	;	1209.42261
15	;	1450	;	1254.30897
15	;	1500	;	1299.19533
15	;	1550	;	1341.52872
15	;	1600	;	1383.71622
15	;	1650	;	1425.90372
15	;	1700	;	1468.09122
15	;	1750	;	1505.25852
15	;	1800	;	1541.12809
15	;	1850	;	1576.99765
15	;	1900	;	1612.86722
15	;	1950	;	1648.21253
15	;	2000	;	1683.43981
15	;	2050	;	1718.66708
15	;	2100	;	1753.94349
15	;	2150	;	1793.71622
15	;	2200	;	1833.48895
15	;	2250	;	1873.26168
15	;	2300	;	1913.85136
15	;	2350	;	1957.60136
15	;	2400	;	2001.35135
15	;	2450	;	2045.10135
15	;	2500	;	2088.99143
15	;	2550	;	2135.3329
15	;	2600	;	2181.67436
15	;	2650	;	2228.01582
15	;	2700	;	2271.33056
15	;	2750	;	2311.71518
15	;	2800	;	2352.0998
15	;	2850	;	2392.48441
15	;	2900	;	2432.92793
15	;	2950	;	2478.76127
15	;	3000	;	2524.5946
15	;	3050	;	2570.42793
15	;	3100	;	2614.87017
15	;	3150	;	2657.02703
15	;	3200	;	2699.18389
15	;	3250	;	2741.34076
15	;	3300	;	2783.49762
15	;	3350	;	2828.5636
15	;	3400	;	2873.72708
15	;	3450	;	2918.89057
15	;	3500	;	2964.05406
20	;	400	;	212.613
20	;	450	;	262.613
20	;	500	;	312.613
20	;	550	;	362.613
20	;	600	;	412.613
20	;	650	;	462.613
20	;	700	;	512.613
20	;	750	;	562.613
20	;	800	;	612.613
20	;	850	;	662.613
20	;	900	;	712.613
20	;	950	;	755.99099
20	;	1000	;	797.65765
20	;	1050	;	839.32432
20	;	1100	;	880.99098
20	;	1150	;	924.68268
20	;	1200	;	969.49749
20	;	1250	;	1014.31231
20	;	1300	;	1059.12713
20	;	1350	;	1102.71499
20	;	1400	;	1145.89681
20	;	1450	;	1189.07862
20	;	1500	;	1232.26044
20	;	1550	;	1272.03829
20	;	1600	;	1311.62162
20	;	1650	;	1351.20496
20	;	1700	;	1390.78829
20	;	1750	;	1423.67803
20	;	1800	;	1454.83745
20	;	1850	;	1485.99686
20	;	1900	;	1517.15628
20	;	1950	;	1547.61671
20	;	2000	;	1577.91974
20	;	2050	;	1608.22277
20	;	2100	;	1638.59132
20	;	2150	;	1674.95496
20	;	2200	;	1711.31859
20	;	2250	;	1747.68223
20	;	2300	;	1785.13514
20	;	2350	;	1826.8018
20	;	2400	;	1868.46847
20	;	2450	;	1910.13513
20	;	2500	;	1951.98857
20	;	2550	;	1997.11053
20	;	2600	;	2042.23248
20	;	2650	;	2087.35443
20	;	2700	;	2128.44075
20	;	2750	;	2165.62024
20	;	2800	;	2202.79973
20	;	2850	;	2239.97921
20	;	2900	;	2277.23724
20	;	2950	;	2321.68168
20	;	3000	;	2366.12613
20	;	3050	;	2410.57057
20	;	3100	;	2453.16022
20	;	3150	;	2492.7027
20	;	3200	;	2532.24519
20	;	3250	;	2571.78767
20	;	3300	;	2611.33015
20	;	3350	;	2654.75145
20	;	3400	;	2698.30277
20	;	3450	;	2741.85409
20	;	3500	;	2785.40541
25	;	400	;	165.766
25	;	450	;	215.766
25	;	500	;	265.766
25	;	550	;	315.766
25	;	600	;	365.766
25	;	650	;	415.766
25	;	700	;	465.766
25	;	750	;	515.766
25	;	800	;	565.766
25	;	850	;	615.766
25	;	900	;	665.766
25	;	950	;	707.48874
25	;	1000	;	747.07207
25	;	1050	;	786.65541
25	;	1100	;	826.23874
25	;	1150	;	868.35335
25	;	1200	;	911.87187
25	;	1250	;	955.39039
25	;	1300	;	998.90891
25	;	1350	;	1040.89374
25	;	1400	;	1082.37101
25	;	1450	;	1123.84828
25	;	1500	;	1165.32556
25	;	1550	;	1202.54786
25	;	1600	;	1239.52703
25	;	1650	;	1276.50619
25	;	1700	;	1313.48536
25	;	1750	;	1342.09753
25	;	1800	;	1368.54681
25	;	1850	;	1394.99609
25	;	1900	;	1421.44536
25	;	1950	;	1447.02089
25	;	2000	;	1472.39968
25	;	2050	;	1497.77847
25	;	2100	;	1523.23915
25	;	2150	;	1556.1937
25	;	2200	;	1589.14824
25	;	2250	;	1622.10279
25	;	2300	;	1656.41892
25	;	2350	;	1696.00225
25	;	2400	;	1735.58559
25	;	2450	;	1775.16892
25	;	2500	;	1814.98572
25	;	2550	;	1858.88816
25	;	2600	;	1902.7906
25	;	2650	;	1946.69304
25	;	2700	;	1985.55094
25	;	2750	;	2019.5253
25	;	2800	;	2053.49966
25	;	2850	;	2087.47402
25	;	2900	;	2121.54655
25	;	2950	;	2164.60211
25	;	3000	;	2207.65766
25	;	3050	;	2250.71322
25	;	3100	;	2291.45028
25	;	3150	;	2328.37838
25	;	3200	;	2365.30648
25	;	3250	;	2402.23459
25	;	3300	;	2439.16269
25	;	3350	;	2480.93932
25	;	3400	;	2522.87847
25	;	3450	;	2564.81761
25	;	3500	;	2606.75676
30	;	400	;	118.919
30	;	450	;	168.919
30	;	500	;	218.919
30	;	550	;	268.919
30	;	600	;	318.919
30	;	650	;	368.919
30	;	700	;	418.919
30	;	750	;	468.919
30	;	800	;	518.919
30	;	850	;	568.919
30	;	900	;	618.919
30	;	950	;	658.98649
30	;	1000	;	696.48648
30	;	1050	;	733.98648
30	;	1100	;	771.48648
30	;	1150	;	812.02402
30	;	1200	;	854.24624
30	;	1250	;	896.46847
30	;	1300	;	938.69069
30	;	1350	;	979.07248
30	;	1400	;	1018.84521
30	;	1450	;	1058.61794
30	;	1500	;	1098.39067
30	;	1550	;	1133.05743
30	;	1600	;	1167.43243
30	;	1650	;	1201.80743
30	;	1700	;	1236.18243
30	;	1750	;	1260.51704
30	;	1800	;	1282.25617
30	;	1850	;	1303.9953
30	;	1900	;	1325.73443
30	;	1950	;	1346.42506
30	;	2000	;	1366.87961
30	;	2050	;	1387.33415
30	;	2100	;	1407.88698
30	;	2150	;	1437.43243
30	;	2200	;	1466.97789
30	;	2250	;	1496.52334
30	;	2300	;	1527.7027
30	;	2350	;	1565.2027
30	;	2400	;	1602.7027
30	;	2450	;	1640.2027
30	;	2500	;	1677.98286
30	;	2550	;	1720.66579
30	;	2600	;	1763.34872
30	;	2650	;	1806.03165
30	;	2700	;	1842.66113
30	;	2750	;	1873.43036
30	;	2800	;	1904.19959
30	;	2850	;	1934.96882
30	;	2900	;	1965.85586
30	;	2950	;	2007.52253
30	;	3000	;	2049.18919
30	;	3050	;	2090.85586
30	;	3100	;	2129.74033
30	;	3150	;	2164.05406
30	;	3200	;	2198.36778
30	;	3250	;	2232.68151
30	;	3300	;	2266.99523
30	;	3350	;	2307.12718
30	;	3400	;	2347.45416
30	;	3450	;	2387.78113
30	;	3500	;	2428.10811
