-15	;	0	;	0.325
-15	;	0.5	;	0.825
-15	;	1	;	1.325
-15	;	1.5	;	1.825
-15	;	2	;	2.42244
-15	;	2.5	;	3.08351
-15	;	3	;	3.83419
-15	;	3.5	;	4.57496
-15	;	4	;	5.2367
-15	;	4.5	;	5.7949
-15	;	5	;	6.47487
-15	;	5.5	;	7.22952
-15	;	6	;	7.99337
-15	;	6.5	;	8.65445
-15	;	7	;	9.35763
-15	;	7.5	;	10.0979
-15	;	8	;	10.77796
-15	;	8.5	;	11.49683
-15	;	9	;	12.18205
-15	;	9.5	;	12.75473
-15	;	10	;	13.44825
-15	;	10.5	;	14.22631
-15	;	11	;	14.99021
-15	;	11.5	;	15.65126
-15	;	12	;	16.31844
-15	;	12.5	;	16.99399
-15	;	13	;	17.82989
-15	;	13.5	;	18.49459
-15	;	14	;	19.12637
-15	;	14.5	;	19.8067
-15	;	15	;	20.43902
-15	;	15.5	;	21.09769
-15	;	16	;	22.08507
-15	;	16.5	;	22.48534
-15	;	17	;	22.95893
-15	;	17.5	;	23.45792
-15	;	18	;	23.958
-15	;	18.5	;	24.458
-15	;	19	;	24.958
-15	;	19.5	;	25.458
-15	;	20	;	25.958
-15	;	20.5	;	26.458
-15	;	21	;	26.958
-15	;	21.5	;	27.458
-15	;	22	;	27.958
-10	;	0	;	0.217
-10	;	0.5	;	0.717
-10	;	1	;	1.217
-10	;	1.5	;	1.717
-10	;	2	;	2.25605
-10	;	2.5	;	2.84687
-10	;	3	;	3.47649
-10	;	3.5	;	4.11852
-10	;	4	;	4.75544
-10	;	4.5	;	5.33102
-10	;	5	;	5.86838
-10	;	5.5	;	6.48565
-10	;	6	;	7.13013
-10	;	6.5	;	7.77971
-10	;	7	;	8.3942
-10	;	7.5	;	8.99068
-10	;	8	;	9.63301
-10	;	8.5	;	10.26066
-10	;	9	;	10.86784
-10	;	9.5	;	11.49818
-10	;	10	;	12.11576
-10	;	10.5	;	12.66197
-10	;	11	;	13.25125
-10	;	11.5	;	13.91047
-10	;	12	;	14.56137
-10	;	12.5	;	15.19364
-10	;	13	;	15.78988
-10	;	13.5	;	16.39164
-10	;	14	;	16.99641
-10	;	14.5	;	17.67954
-10	;	15	;	18.30517
-10	;	15.5	;	18.87965
-10	;	16	;	19.48009
-10	;	16.5	;	20.08206
-10	;	17	;	20.65227
-10	;	17.5	;	21.31252
-10	;	18	;	22.06076
-10	;	18.5	;	22.48953
-10	;	19	;	22.9726
-10	;	19.5	;	23.47193
-10	;	20	;	23.972
-10	;	20.5	;	24.472
-10	;	21	;	24.972
-10	;	21.5	;	25.472
-10	;	22	;	25.972
-5	;	0	;	0.108
-5	;	0.5	;	0.608
-5	;	1	;	1.108
-5	;	1.5	;	1.608
-5	;	2	;	2.11736
-5	;	2.5	;	2.659
-5	;	3	;	3.20841
-5	;	3.5	;	3.77103
-5	;	4	;	4.33223
-5	;	4.5	;	4.89245
-5	;	5	;	5.41855
-5	;	5.5	;	5.93656
-5	;	6	;	6.49372
-5	;	6.5	;	7.0566
-5	;	7	;	7.62166
-5	;	7.5	;	8.17976
-5	;	8	;	8.72376
-5	;	8.5	;	9.2769
-5	;	9	;	9.83947
-5	;	9.5	;	10.39192
-5	;	10	;	10.94031
-5	;	10.5	;	11.49919
-5	;	11	;	12.05532
-5	;	11.5	;	12.57741
-5	;	12	;	13.10838
-5	;	12.5	;	13.67704
-5	;	13	;	14.24416
-5	;	13.5	;	14.80923
-5	;	14	;	15.36027
-5	;	14.5	;	15.90417
-5	;	15	;	16.45096
-5	;	15.5	;	16.99838
-5	;	16	;	17.57585
-5	;	16.5	;	18.14201
-5	;	17	;	18.67666
-5	;	17.5	;	19.21677
-5	;	18	;	19.76524
-5	;	18.5	;	20.30474
-5	;	19	;	20.83754
-5	;	19.5	;	21.42794
-5	;	20	;	22.0327
-5	;	20.5	;	22.49436
-5	;	21	;	22.98629
-5	;	21.5	;	23.48595
-5	;	22	;	23.986
0	;	0	;	0
0	;	0.5	;	0.5
0	;	1	;	1
0	;	1.5	;	1.5
0	;	2	;	2
0	;	2.5	;	2.5
0	;	3	;	3
0	;	3.5	;	3.5
0	;	4	;	4
0	;	4.5	;	4.5
0	;	5	;	5
0	;	5.5	;	5.5
0	;	6	;	6
0	;	6.5	;	6.5
0	;	7	;	7
0	;	7.5	;	7.5
0	;	8	;	8
0	;	8.5	;	8.5
0	;	9	;	9
0	;	9.5	;	9.5
0	;	10	;	10
0	;	10.5	;	10.5
0	;	11	;	11
0	;	11.5	;	11.5
0	;	12	;	12
0	;	12.5	;	12.5
0	;	13	;	13
0	;	13.5	;	13.5
0	;	14	;	14
0	;	14.5	;	14.5
0	;	15	;	15
0	;	15.5	;	15.5
0	;	16	;	16
0	;	16.5	;	16.5
0	;	17	;	17
0	;	17.5	;	17.5
0	;	18	;	18
0	;	18.5	;	18.5
0	;	19	;	19
0	;	19.5	;	19.5
0	;	20	;	20
0	;	20.5	;	20.5
0	;	21	;	21
0	;	21.5	;	21.5
0	;	22	;	22
5	;	0	;	-0.007
5	;	0.5	;	0.493
5	;	1	;	0.993
5	;	1.5	;	1.493
5	;	2	;	1.993
5	;	2.5	;	2.48925
5	;	3	;	2.98553
5	;	3.5	;	3.45913
5	;	4	;	3.93205
5	;	4.5	;	4.41017
5	;	5	;	4.88915
5	;	5.5	;	5.36086
5	;	6	;	5.83037
5	;	6.5	;	6.30992
5	;	7	;	6.79513
5	;	7.5	;	7.27079
5	;	8	;	7.73947
5	;	8.5	;	8.21387
5	;	9	;	8.69543
5	;	9.5	;	9.17411
5	;	10	;	9.64785
5	;	10.5	;	10.12293
5	;	11	;	10.60188
5	;	11.5	;	11.08113
5	;	12	;	11.56184
5	;	12.5	;	12.04209
5	;	13	;	12.51755
5	;	13.5	;	12.99302
5	;	14	;	13.47343
5	;	14.5	;	13.95391
5	;	15	;	14.43226
5	;	15.5	;	14.91037
5	;	16	;	15.38991
5	;	16.5	;	15.86978
5	;	17	;	16.3513
5	;	17.5	;	16.83342
5	;	18	;	17.30692
5	;	18.5	;	17.77585
5	;	19	;	18.25097
5	;	19.5	;	18.73175
5	;	20	;	19.2106
5	;	20.5	;	19.687
5	;	21	;	20.16598
5	;	21.5	;	20.64988
5	;	22	;	21.06359
10	;	0	;	-0.014
10	;	0.5	;	0.486
10	;	1	;	0.986
10	;	1.5	;	1.486
10	;	2	;	1.986
10	;	2.5	;	2.47867
10	;	3	;	2.97127
10	;	3.5	;	3.42246
10	;	4	;	3.87108
10	;	4.5	;	4.32757
10	;	5	;	4.78724
10	;	5.5	;	5.23771
10	;	6	;	5.68025
10	;	6.5	;	6.13076
10	;	7	;	6.60204
10	;	7.5	;	7.06862
10	;	8	;	7.50966
10	;	8.5	;	7.95071
10	;	9	;	8.41252
10	;	9.5	;	8.87695
10	;	10	;	9.33085
10	;	10.5	;	9.78095
10	;	11	;	10.23592
10	;	11.5	;	10.69553
10	;	12	;	11.15623
10	;	12.5	;	11.61909
10	;	13	;	12.08025
10	;	13.5	;	12.53347
10	;	14	;	12.98669
10	;	14.5	;	13.44886
10	;	15	;	13.91129
10	;	15.5	;	14.37019
10	;	16	;	14.82826
10	;	16.5	;	15.28835
10	;	17	;	15.74964
10	;	17.5	;	16.21286
10	;	18	;	16.67835
10	;	18.5	;	17.13642
10	;	19	;	17.57792
10	;	19.5	;	18.02037
10	;	20	;	18.48336
10	;	20.5	;	18.94635
10	;	21	;	19.40222
10	;	21.5	;	19.85716
10	;	22	;	20.3216
15	;	0	;	-0.021
15	;	0.5	;	0.479
15	;	1	;	0.979
15	;	1.5	;	1.479
15	;	2	;	1.979
15	;	2.5	;	2.46823
15	;	3	;	2.95722
15	;	3.5	;	3.38937
15	;	4	;	3.81607
15	;	4.5	;	4.25139
15	;	5	;	4.69323
15	;	5.5	;	5.12794
15	;	6	;	5.54643
15	;	6.5	;	5.96492
15	;	7	;	6.41972
15	;	7.5	;	6.87785
15	;	8	;	7.30544
15	;	8.5	;	7.72193
15	;	9	;	8.14905
15	;	9.5	;	8.59753
15	;	10	;	9.04398
15	;	10.5	;	9.47268
15	;	11	;	9.90139
15	;	11.5	;	10.34015
15	;	12	;	10.7819
15	;	12.5	;	11.22595
15	;	13	;	11.67224
15	;	13.5	;	12.11499
15	;	14	;	12.54796
15	;	14.5	;	12.98092
15	;	15	;	13.42606
15	;	15.5	;	13.87175
15	;	16	;	14.31312
15	;	16.5	;	14.75275
15	;	17	;	15.19434
15	;	17.5	;	15.63846
15	;	18	;	16.08366
15	;	18.5	;	16.53361
15	;	19	;	16.98357
15	;	19.5	;	17.40187
15	;	20	;	17.81898
15	;	20.5	;	18.2527
15	;	21	;	18.69916
15	;	21.5	;	19.14199
15	;	22	;	19.57731
20	;	0	;	-0.028
20	;	0.5	;	0.472
20	;	1	;	0.972
20	;	1.5	;	1.472
20	;	2	;	1.972
20	;	2.5	;	2.45796
20	;	3	;	2.94339
20	;	3.5	;	3.35937
20	;	4	;	3.76619
20	;	4.5	;	4.18089
20	;	5	;	4.60625
20	;	5.5	;	5.02949
20	;	6	;	5.42641
20	;	6.5	;	5.82334
20	;	7	;	6.24732
20	;	7.5	;	6.693
20	;	8	;	7.12276
20	;	8.5	;	7.51728
20	;	9	;	7.91181
20	;	9.5	;	8.33666
20	;	10	;	8.77025
20	;	10.5	;	9.1924
20	;	11	;	9.60165
20	;	11.5	;	10.01133
20	;	12	;	10.43657
20	;	12.5	;	10.86182
20	;	13	;	11.29086
20	;	13.5	;	11.72172
20	;	14	;	12.14676
20	;	14.5	;	12.56121
20	;	15	;	12.97566
20	;	15.5	;	13.40486
20	;	16	;	13.83498
20	;	16.5	;	14.26048
20	;	17	;	14.6831
20	;	17.5	;	15.1071
20	;	18	;	15.53526
20	;	18.5	;	15.96343
20	;	19	;	16.39823
20	;	19.5	;	16.83366
20	;	20	;	17.24426
20	;	20.5	;	17.63952
20	;	21	;	18.03793
20	;	21.5	;	18.46901
20	;	22	;	18.90009
25	;	0	;	-0.035
25	;	0.5	;	0.465
25	;	1	;	0.965
25	;	1.5	;	1.465
25	;	2	;	1.965
25	;	2.5	;	2.44782
25	;	3	;	2.92975
25	;	3.5	;	3.33204
25	;	4	;	3.72074
25	;	4.5	;	4.11545
25	;	5	;	4.52551
25	;	5.5	;	4.93556
25	;	6	;	5.31815
25	;	6.5	;	5.69562
25	;	7	;	6.08402
25	;	7.5	;	6.51792
25	;	8	;	6.95181
25	;	8.5	;	7.33314
25	;	9	;	7.7079
25	;	9.5	;	8.09257
25	;	10	;	8.51222
25	;	10.5	;	8.93187
25	;	11	;	9.32793
25	;	11.5	;	9.71942
25	;	12	;	10.11613
25	;	12.5	;	10.52606
25	;	13	;	10.93599
25	;	13.5	;	11.35142
25	;	14	;	11.76788
25	;	14.5	;	12.17593
25	;	15	;	12.57337
25	;	15.5	;	12.97082
25	;	16	;	13.38509
25	;	16.5	;	13.80069
25	;	17	;	14.21175
25	;	17.5	;	14.61863
25	;	18	;	15.02591
25	;	18.5	;	15.43922
25	;	19	;	15.85254
25	;	19.5	;	16.27132
25	;	20	;	16.69313
25	;	20.5	;	17.10234
25	;	21	;	17.47793
25	;	21.5	;	17.85352
25	;	22	;	18.2542
30	;	0	;	-0.042
30	;	0.5	;	0.458
30	;	1	;	0.958
30	;	1.5	;	1.458
30	;	2	;	1.958
30	;	2.5	;	2.43784
30	;	3	;	2.9163
30	;	3.5	;	3.30704
30	;	4	;	3.67917
30	;	4.5	;	4.05457
30	;	5	;	4.45039
30	;	5.5	;	4.8462
30	;	6	;	5.22002
30	;	6.5	;	5.57985
30	;	7	;	5.93968
30	;	7.5	;	6.35186
30	;	8	;	6.77458
30	;	8.5	;	7.16657
30	;	9	;	7.52345
30	;	9.5	;	7.88034
30	;	10	;	8.27026
30	;	10.5	;	8.67684
30	;	11	;	9.07698
30	;	11.5	;	9.45219
30	;	12	;	9.82739
30	;	12.5	;	10.21365
30	;	13	;	10.60932
30	;	13.5	;	11.00508
30	;	14	;	11.40807
30	;	14.5	;	11.81107
30	;	15	;	12.2028
30	;	15.5	;	12.58458
30	;	16	;	12.96636
30	;	16.5	;	13.36661
30	;	17	;	13.76863
30	;	17.5	;	14.16652
30	;	18	;	14.55879
30	;	18.5	;	14.95105
30	;	19	;	15.34962
30	;	19.5	;	15.74908
30	;	20	;	16.1521
30	;	20.5	;	16.56112
30	;	21	;	16.97013
30	;	21.5	;	17.33166
30	;	22	;	17.68944
