0	;	0	;	250
0	;	0.5	;	230.088
0	;	1	;	214.186
0	;	1.5	;	201.935
0	;	2	;	190.226
0	;	2.5	;	179.708
0	;	3	;	169.92
0	;	3.5	;	160.462
0	;	4	;	151.672
0	;	4.5	;	143.218
0	;	5	;	135.134
0	;	5.5	;	128.246
0	;	6	;	121.15
0	;	6.5	;	114.099
0	;	7	;	107.211
0	;	7.5	;	100.967
0	;	8	;	94.948
0	;	8.5	;	89.313
0	;	9	;	83.853
0	;	9.5	;	78.539
0	;	10	;	73.504
0	;	10.5	;	68.61
0	;	11	;	63.716
0	;	11.5	;	58.822
0	;	12	;	53.927
0	;	12.5	;	49.033
0	;	13	;	44.139
0	;	13.5	;	39.245
0	;	14	;	34.35
0	;	14.5	;	29.456
0	;	15	;	24.562
0	;	15.5	;	19.667
0	;	16	;	14.773
0	;	16.5	;	9.879
0	;	17	;	4.985
0	;	17.5	;	0.09
0	;	18	;	-4.804
0	;	18.5	;	-9.698
0	;	19	;	-14.593
0	;	19.5	;	-19.487
0	;	20	;	-24.381
0	;	20.5	;	-29.275
0	;	21	;	-34.17
0	;	21.5	;	-39.064
0	;	22	;	-43.958
0.5	;	0	;	269.912
0.5	;	0.5	;	250
0.5	;	1	;	234.097
0.5	;	1.5	;	221.847
0.5	;	2	;	210.138
0.5	;	2.5	;	199.62
0.5	;	3	;	189.831
0.5	;	3.5	;	180.374
0.5	;	4	;	171.584
0.5	;	4.5	;	163.13
0.5	;	5	;	155.046
0.5	;	5.5	;	148.158
0.5	;	6	;	141.062
0.5	;	6.5	;	134.011
0.5	;	7	;	127.123
0.5	;	7.5	;	120.878
0.5	;	8	;	114.86
0.5	;	8.5	;	109.224
0.5	;	9	;	103.764
0.5	;	9.5	;	98.451
0.5	;	10	;	93.416
0.5	;	10.5	;	88.522
0.5	;	11	;	83.627
0.5	;	11.5	;	78.733
0.5	;	12	;	73.839
0.5	;	12.5	;	68.945
0.5	;	13	;	64.05
0.5	;	13.5	;	59.156
0.5	;	14	;	54.262
0.5	;	14.5	;	49.368
0.5	;	15	;	44.473
0.5	;	15.5	;	39.579
0.5	;	16	;	34.685
0.5	;	16.5	;	29.79
0.5	;	17	;	24.896
0.5	;	17.5	;	20.002
0.5	;	18	;	15.108
0.5	;	18.5	;	10.213
0.5	;	19	;	5.319
0.5	;	19.5	;	0.425
0.5	;	20	;	-4.47
0.5	;	20.5	;	-9.364
0.5	;	21	;	-14.258
0.5	;	21.5	;	-19.152
0.5	;	22	;	-24.047
1	;	0	;	285.814
1	;	0.5	;	265.903
1	;	1	;	250
1	;	1.5	;	237.749
1	;	2	;	226.041
1	;	2.5	;	215.522
1	;	3	;	205.734
1	;	3.5	;	196.277
1	;	4	;	187.486
1	;	4.5	;	179.033
1	;	5	;	170.949
1	;	5.5	;	164.06
1	;	6	;	156.964
1	;	6.5	;	149.913
1	;	7	;	143.025
1	;	7.5	;	136.781
1	;	8	;	130.763
1	;	8.5	;	125.127
1	;	9	;	119.667
1	;	9.5	;	114.353
1	;	10	;	109.319
1	;	10.5	;	104.424
1	;	11	;	99.53
1	;	11.5	;	94.636
1	;	12	;	89.742
1	;	12.5	;	84.847
1	;	13	;	79.953
1	;	13.5	;	75.059
1	;	14	;	70.164
1	;	14.5	;	65.27
1	;	15	;	60.376
1	;	15.5	;	55.482
1	;	16	;	50.587
1	;	16.5	;	45.693
1	;	17	;	40.799
1	;	17.5	;	35.905
1	;	18	;	31.01
1	;	18.5	;	26.116
1	;	19	;	21.222
1	;	19.5	;	16.327
1	;	20	;	11.433
1	;	20.5	;	6.539
1	;	21	;	1.645
1	;	21.5	;	-3.25
1	;	22	;	-8.144
1.5	;	0	;	298.065
1.5	;	0.5	;	278.153
1.5	;	1	;	262.251
1.5	;	1.5	;	250
1.5	;	2	;	238.291
1.5	;	2.5	;	227.773
1.5	;	3	;	217.984
1.5	;	3.5	;	208.527
1.5	;	4	;	199.737
1.5	;	4.5	;	191.283
1.5	;	5	;	183.199
1.5	;	5.5	;	176.311
1.5	;	6	;	169.215
1.5	;	6.5	;	162.164
1.5	;	7	;	155.276
1.5	;	7.5	;	149.031
1.5	;	8	;	143.013
1.5	;	8.5	;	137.377
1.5	;	9	;	131.918
1.5	;	9.5	;	126.604
1.5	;	10	;	121.569
1.5	;	10.5	;	116.675
1.5	;	11	;	111.781
1.5	;	11.5	;	106.886
1.5	;	12	;	101.992
1.5	;	12.5	;	97.098
1.5	;	13	;	92.204
1.5	;	13.5	;	87.309
1.5	;	14	;	82.415
1.5	;	14.5	;	77.521
1.5	;	15	;	72.626
1.5	;	15.5	;	67.732
1.5	;	16	;	62.838
1.5	;	16.5	;	57.944
1.5	;	17	;	53.049
1.5	;	17.5	;	48.155
1.5	;	18	;	43.261
1.5	;	18.5	;	38.366
1.5	;	19	;	33.472
1.5	;	19.5	;	28.578
1.5	;	20	;	23.684
1.5	;	20.5	;	18.789
1.5	;	21	;	13.895
1.5	;	21.5	;	9.001
1.5	;	22	;	4.106
2	;	0	;	309.774
2	;	0.5	;	289.862
2	;	1	;	273.959
2	;	1.5	;	261.709
2	;	2	;	250
2	;	2.5	;	239.482
2	;	3	;	229.693
2	;	3.5	;	220.236
2	;	4	;	211.446
2	;	4.5	;	202.992
2	;	5	;	194.908
2	;	5.5	;	188.02
2	;	6	;	180.924
2	;	6.5	;	173.873
2	;	7	;	166.985
2	;	7.5	;	160.74
2	;	8	;	154.722
2	;	8.5	;	149.086
2	;	9	;	143.627
2	;	9.5	;	138.313
2	;	10	;	133.278
2	;	10.5	;	128.384
2	;	11	;	123.49
2	;	11.5	;	118.595
2	;	12	;	113.701
2	;	12.5	;	108.807
2	;	13	;	103.913
2	;	13.5	;	99.018
2	;	14	;	94.124
2	;	14.5	;	89.23
2	;	15	;	84.335
2	;	15.5	;	79.441
2	;	16	;	74.547
2	;	16.5	;	69.653
2	;	17	;	64.758
2	;	17.5	;	59.864
2	;	18	;	54.97
2	;	18.5	;	50.075
2	;	19	;	45.181
2	;	19.5	;	40.287
2	;	20	;	35.393
2	;	20.5	;	30.498
2	;	21	;	25.604
2	;	21.5	;	20.71
2	;	22	;	15.815
2.5	;	0	;	320.292
2.5	;	0.5	;	300.38
2.5	;	1	;	284.478
2.5	;	1.5	;	272.227
2.5	;	2	;	260.518
2.5	;	2.5	;	250
2.5	;	3	;	240.211
2.5	;	3.5	;	230.754
2.5	;	4	;	221.964
2.5	;	4.5	;	213.51
2.5	;	5	;	205.426
2.5	;	5.5	;	198.538
2.5	;	6	;	191.442
2.5	;	6.5	;	184.391
2.5	;	7	;	177.503
2.5	;	7.5	;	171.258
2.5	;	8	;	165.24
2.5	;	8.5	;	159.604
2.5	;	9	;	154.145
2.5	;	9.5	;	148.831
2.5	;	10	;	143.796
2.5	;	10.5	;	138.902
2.5	;	11	;	134.008
2.5	;	11.5	;	129.114
2.5	;	12	;	124.219
2.5	;	12.5	;	119.325
2.5	;	13	;	114.431
2.5	;	13.5	;	109.536
2.5	;	14	;	104.642
2.5	;	14.5	;	99.748
2.5	;	15	;	94.854
2.5	;	15.5	;	89.959
2.5	;	16	;	85.065
2.5	;	16.5	;	80.171
2.5	;	17	;	75.276
2.5	;	17.5	;	70.382
2.5	;	18	;	65.488
2.5	;	18.5	;	60.594
2.5	;	19	;	55.699
2.5	;	19.5	;	50.805
2.5	;	20	;	45.911
2.5	;	20.5	;	41.016
2.5	;	21	;	36.122
2.5	;	21.5	;	31.228
2.5	;	22	;	26.334
3	;	0	;	330.08
3	;	0.5	;	310.169
3	;	1	;	294.266
3	;	1.5	;	282.016
3	;	2	;	270.307
3	;	2.5	;	259.789
3	;	3	;	250
3	;	3.5	;	240.543
3	;	4	;	231.753
3	;	4.5	;	223.299
3	;	5	;	215.215
3	;	5.5	;	208.326
3	;	6	;	201.23
3	;	6.5	;	194.18
3	;	7	;	187.291
3	;	7.5	;	181.047
3	;	8	;	175.029
3	;	8.5	;	169.393
3	;	9	;	163.933
3	;	9.5	;	158.619
3	;	10	;	153.585
3	;	10.5	;	148.691
3	;	11	;	143.796
3	;	11.5	;	138.902
3	;	12	;	134.008
3	;	12.5	;	129.113
3	;	13	;	124.219
3	;	13.5	;	119.325
3	;	14	;	114.431
3	;	14.5	;	109.536
3	;	15	;	104.642
3	;	15.5	;	99.748
3	;	16	;	94.853
3	;	16.5	;	89.959
3	;	17	;	85.065
3	;	17.5	;	80.171
3	;	18	;	75.276
3	;	18.5	;	70.382
3	;	19	;	65.488
3	;	19.5	;	60.593
3	;	20	;	55.699
3	;	20.5	;	50.805
3	;	21	;	45.911
3	;	21.5	;	41.016
3	;	22	;	36.122
3.5	;	0	;	339.538
3.5	;	0.5	;	319.626
3.5	;	1	;	303.723
3.5	;	1.5	;	291.473
3.5	;	2	;	279.764
3.5	;	2.5	;	269.246
3.5	;	3	;	259.457
3.5	;	3.5	;	250
3.5	;	4	;	241.21
3.5	;	4.5	;	232.756
3.5	;	5	;	224.672
3.5	;	5.5	;	217.784
3.5	;	6	;	210.688
3.5	;	6.5	;	203.637
3.5	;	7	;	196.749
3.5	;	7.5	;	190.504
3.5	;	8	;	184.486
3.5	;	8.5	;	178.85
3.5	;	9	;	173.39
3.5	;	9.5	;	168.077
3.5	;	10	;	163.042
3.5	;	10.5	;	158.148
3.5	;	11	;	153.253
3.5	;	11.5	;	148.359
3.5	;	12	;	143.465
3.5	;	12.5	;	138.571
3.5	;	13	;	133.676
3.5	;	13.5	;	128.782
3.5	;	14	;	123.888
3.5	;	14.5	;	118.993
3.5	;	15	;	114.099
3.5	;	15.5	;	109.205
3.5	;	16	;	104.311
3.5	;	16.5	;	99.416
3.5	;	17	;	94.522
3.5	;	17.5	;	89.628
3.5	;	18	;	84.733
3.5	;	18.5	;	79.839
3.5	;	19	;	74.945
3.5	;	19.5	;	70.051
3.5	;	20	;	65.156
3.5	;	20.5	;	60.262
3.5	;	21	;	55.368
3.5	;	21.5	;	50.474
3.5	;	22	;	45.579
4	;	0	;	348.328
4	;	0.5	;	328.416
4	;	1	;	312.514
4	;	1.5	;	300.263
4	;	2	;	288.554
4	;	2.5	;	278.036
4	;	3	;	268.247
4	;	3.5	;	258.79
4	;	4	;	250
4	;	4.5	;	241.546
4	;	5	;	233.462
4	;	5.5	;	226.574
4	;	6	;	219.478
4	;	6.5	;	212.427
4	;	7	;	205.539
4	;	7.5	;	199.294
4	;	8	;	193.276
4	;	8.5	;	187.64
4	;	9	;	182.181
4	;	9.5	;	176.867
4	;	10	;	171.832
4	;	10.5	;	166.938
4	;	11	;	162.044
4	;	11.5	;	157.149
4	;	12	;	152.255
4	;	12.5	;	147.361
4	;	13	;	142.467
4	;	13.5	;	137.572
4	;	14	;	132.678
4	;	14.5	;	127.784
4	;	15	;	122.889
4	;	15.5	;	117.995
4	;	16	;	113.101
4	;	16.5	;	108.207
4	;	17	;	103.312
4	;	17.5	;	98.418
4	;	18	;	93.524
4	;	18.5	;	88.63
4	;	19	;	83.735
4	;	19.5	;	78.841
4	;	20	;	73.947
4	;	20.5	;	69.052
4	;	21	;	64.158
4	;	21.5	;	59.264
4	;	22	;	54.37
4.5	;	0	;	356.782
4.5	;	0.5	;	336.87
4.5	;	1	;	320.967
4.5	;	1.5	;	308.717
4.5	;	2	;	297.008
4.5	;	2.5	;	286.49
4.5	;	3	;	276.701
4.5	;	3.5	;	267.244
4.5	;	4	;	258.454
4.5	;	4.5	;	250
4.5	;	5	;	241.916
4.5	;	5.5	;	235.028
4.5	;	6	;	227.932
4.5	;	6.5	;	220.881
4.5	;	7	;	213.993
4.5	;	7.5	;	207.748
4.5	;	8	;	201.73
4.5	;	8.5	;	196.094
4.5	;	9	;	190.634
4.5	;	9.5	;	185.321
4.5	;	10	;	180.286
4.5	;	10.5	;	175.392
4.5	;	11	;	170.497
4.5	;	11.5	;	165.603
4.5	;	12	;	160.709
4.5	;	12.5	;	155.815
4.5	;	13	;	150.92
4.5	;	13.5	;	146.026
4.5	;	14	;	141.132
4.5	;	14.5	;	136.237
4.5	;	15	;	131.343
4.5	;	15.5	;	126.449
4.5	;	16	;	121.555
4.5	;	16.5	;	116.66
4.5	;	17	;	111.766
4.5	;	17.5	;	106.872
4.5	;	18	;	101.977
4.5	;	18.5	;	97.083
4.5	;	19	;	92.189
4.5	;	19.5	;	87.295
4.5	;	20	;	82.4
4.5	;	20.5	;	77.506
4.5	;	21	;	72.612
4.5	;	21.5	;	67.718
4.5	;	22	;	62.823
5	;	0	;	364.866
5	;	0.5	;	344.954
5	;	1	;	329.052
5	;	1.5	;	316.801
5	;	2	;	305.092
5	;	2.5	;	294.574
5	;	3	;	284.785
5	;	3.5	;	275.328
5	;	4	;	266.538
5	;	4.5	;	258.084
5	;	5	;	250
5	;	5.5	;	243.112
5	;	6	;	236.016
5	;	6.5	;	228.965
5	;	7	;	222.077
5	;	7.5	;	215.832
5	;	8	;	209.814
5	;	8.5	;	204.178
5	;	9	;	198.719
5	;	9.5	;	193.405
5	;	10	;	188.37
5	;	10.5	;	183.476
5	;	11	;	178.582
5	;	11.5	;	173.687
5	;	12	;	168.793
5	;	12.5	;	163.899
5	;	13	;	159.005
5	;	13.5	;	154.11
5	;	14	;	149.216
5	;	14.5	;	144.322
5	;	15	;	139.427
5	;	15.5	;	134.533
5	;	16	;	129.639
5	;	16.5	;	124.745
5	;	17	;	119.85
5	;	17.5	;	114.956
5	;	18	;	110.062
5	;	18.5	;	105.167
5	;	19	;	100.273
5	;	19.5	;	95.379
5	;	20	;	90.485
5	;	20.5	;	85.59
5	;	21	;	80.696
5	;	21.5	;	75.802
5	;	22	;	70.907
5.5	;	0	;	371.754
5.5	;	0.5	;	351.842
5.5	;	1	;	335.94
5.5	;	1.5	;	323.689
5.5	;	2	;	311.98
5.5	;	2.5	;	301.462
5.5	;	3	;	291.674
5.5	;	3.5	;	282.216
5.5	;	4	;	273.426
5.5	;	4.5	;	264.972
5.5	;	5	;	256.888
5.5	;	5.5	;	250
5.5	;	6	;	242.904
5.5	;	6.5	;	235.853
5.5	;	7	;	228.965
5.5	;	7.5	;	222.721
5.5	;	8	;	216.702
5.5	;	8.5	;	211.066
5.5	;	9	;	205.607
5.5	;	9.5	;	200.293
5.5	;	10	;	195.258
5.5	;	10.5	;	190.364
5.5	;	11	;	185.47
5.5	;	11.5	;	180.576
5.5	;	12	;	175.681
5.5	;	12.5	;	170.787
5.5	;	13	;	165.893
5.5	;	13.5	;	160.998
5.5	;	14	;	156.104
5.5	;	14.5	;	151.21
5.5	;	15	;	146.316
5.5	;	15.5	;	141.421
5.5	;	16	;	136.527
5.5	;	16.5	;	131.633
5.5	;	17	;	126.738
5.5	;	17.5	;	121.844
5.5	;	18	;	116.95
5.5	;	18.5	;	112.056
5.5	;	19	;	107.161
5.5	;	19.5	;	102.267
5.5	;	20	;	97.373
5.5	;	20.5	;	92.478
5.5	;	21	;	87.584
5.5	;	21.5	;	82.69
5.5	;	22	;	77.796
6	;	0	;	378.85
6	;	0.5	;	358.938
6	;	1	;	343.036
6	;	1.5	;	330.785
6	;	2	;	319.076
6	;	2.5	;	308.558
6	;	3	;	298.77
6	;	3.5	;	289.312
6	;	4	;	280.522
6	;	4.5	;	272.068
6	;	5	;	263.984
6	;	5.5	;	257.096
6	;	6	;	250
6	;	6.5	;	242.949
6	;	7	;	236.061
6	;	7.5	;	229.817
6	;	8	;	223.798
6	;	8.5	;	218.162
6	;	9	;	212.703
6	;	9.5	;	207.389
6	;	10	;	202.354
6	;	10.5	;	197.46
6	;	11	;	192.566
6	;	11.5	;	187.672
6	;	12	;	182.777
6	;	12.5	;	177.883
6	;	13	;	172.989
6	;	13.5	;	168.094
6	;	14	;	163.2
6	;	14.5	;	158.306
6	;	15	;	153.412
6	;	15.5	;	148.517
6	;	16	;	143.623
6	;	16.5	;	138.729
6	;	17	;	133.835
6	;	17.5	;	128.94
6	;	18	;	124.046
6	;	18.5	;	119.152
6	;	19	;	114.257
6	;	19.5	;	109.363
6	;	20	;	104.469
6	;	20.5	;	99.575
6	;	21	;	94.68
6	;	21.5	;	89.786
6	;	22	;	84.892
6.5	;	0	;	385.901
6.5	;	0.5	;	365.989
6.5	;	1	;	350.087
6.5	;	1.5	;	337.836
6.5	;	2	;	326.127
6.5	;	2.5	;	315.609
6.5	;	3	;	305.82
6.5	;	3.5	;	296.363
6.5	;	4	;	287.573
6.5	;	4.5	;	279.119
6.5	;	5	;	271.035
6.5	;	5.5	;	264.147
6.5	;	6	;	257.051
6.5	;	6.5	;	250
6.5	;	7	;	243.112
6.5	;	7.5	;	236.867
6.5	;	8	;	230.849
6.5	;	8.5	;	225.213
6.5	;	9	;	219.754
6.5	;	9.5	;	214.44
6.5	;	10	;	209.405
6.5	;	10.5	;	204.511
6.5	;	11	;	199.617
6.5	;	11.5	;	194.722
6.5	;	12	;	189.828
6.5	;	12.5	;	184.934
6.5	;	13	;	180.04
6.5	;	13.5	;	175.145
6.5	;	14	;	170.251
6.5	;	14.5	;	165.357
6.5	;	15	;	160.462
6.5	;	15.5	;	155.568
6.5	;	16	;	150.674
6.5	;	16.5	;	145.78
6.5	;	17	;	140.885
6.5	;	17.5	;	135.991
6.5	;	18	;	131.097
6.5	;	18.5	;	126.202
6.5	;	19	;	121.308
6.5	;	19.5	;	116.414
6.5	;	20	;	111.52
6.5	;	20.5	;	106.625
6.5	;	21	;	101.731
6.5	;	21.5	;	96.837
6.5	;	22	;	91.942
7	;	0	;	392.789
7	;	0.5	;	372.877
7	;	1	;	356.975
7	;	1.5	;	344.724
7	;	2	;	333.015
7	;	2.5	;	322.497
7	;	3	;	312.709
7	;	3.5	;	303.251
7	;	4	;	294.461
7	;	4.5	;	286.007
7	;	5	;	277.923
7	;	5.5	;	271.035
7	;	6	;	263.939
7	;	6.5	;	256.888
7	;	7	;	250
7	;	7.5	;	243.756
7	;	8	;	237.737
7	;	8.5	;	232.101
7	;	9	;	226.642
7	;	9.5	;	221.328
7	;	10	;	216.293
7	;	10.5	;	211.399
7	;	11	;	206.505
7	;	11.5	;	201.611
7	;	12	;	196.716
7	;	12.5	;	191.822
7	;	13	;	186.928
7	;	13.5	;	182.033
7	;	14	;	177.139
7	;	14.5	;	172.245
7	;	15	;	167.351
7	;	15.5	;	162.456
7	;	16	;	157.562
7	;	16.5	;	152.668
7	;	17	;	147.774
7	;	17.5	;	142.879
7	;	18	;	137.985
7	;	18.5	;	133.091
7	;	19	;	128.196
7	;	19.5	;	123.302
7	;	20	;	118.408
7	;	20.5	;	113.514
7	;	21	;	108.619
7	;	21.5	;	103.725
7	;	22	;	98.831
7.5	;	0	;	403.76911
7.5	;	0.5	;	383.91772
7.5	;	1	;	367.0186
7.5	;	1.5	;	353.93557
7.5	;	2	;	340.27929
7.5	;	2.5	;	329.48842
7.5	;	3	;	319.28027
7.5	;	3.5	;	309.76888
7.5	;	4	;	300.96563
7.5	;	4.5	;	292.50868
7.5	;	5	;	284.85784
7.5	;	5.5	;	277.49564
7.5	;	6	;	270.03954
7.5	;	6.5	;	262.96293
7.5	;	7	;	256.20761
7.5	;	7.5	;	250
7.5	;	8	;	244.10597
7.5	;	8.5	;	238.28645
7.5	;	9	;	232.56703
7.5	;	9.5	;	227.21723
7.5	;	10	;	222.06
7.5	;	10.5	;	217.07971
7.5	;	11	;	212.17316
7.5	;	11.5	;	207.42726
7.5	;	12	;	202.6747
7.5	;	12.5	;	197.87485
7.5	;	13	;	193.07499
7.5	;	13.5	;	188.27514
7.5	;	14	;	183.47528
7.5	;	14.5	;	178.67542
7.5	;	15	;	173.87557
7.5	;	15.5	;	169.07571
7.5	;	16	;	164.27585
7.5	;	16.5	;	159.476
7.5	;	17	;	154.67615
7.5	;	17.5	;	149.87628
7.5	;	18	;	145.07643
7.5	;	18.5	;	140.27657
7.5	;	19	;	135.47671
7.5	;	19.5	;	130.67686
7.5	;	20	;	125.87701
7.5	;	20.5	;	121.07714
7.5	;	21	;	116.27729
7.5	;	21.5	;	111.47743
7.5	;	22	;	106.67758
8	;	0	;	414.25604
8	;	0.5	;	394.46457
8	;	1	;	376.57303
8	;	1.5	;	362.66086
8	;	2	;	347.0651
8	;	2.5	;	336.00259
8	;	3	;	325.37648
8	;	3.5	;	315.8111
8	;	4	;	306.99492
8	;	4.5	;	298.53476
8	;	5	;	291.31556
8	;	5.5	;	283.48126
8	;	6	;	275.66653
8	;	6.5	;	268.56423
8	;	7	;	261.94124
8	;	7.5	;	255.77034
8	;	8	;	250
8	;	8.5	;	243.99753
8	;	9	;	238.01935
8	;	9.5	;	232.63369
8	;	10	;	227.35441
8	;	10.5	;	222.28841
8	;	11	;	217.36962
8	;	11.5	;	212.77152
8	;	12	;	208.1601
8	;	12.5	;	203.45429
8	;	13	;	198.74848
8	;	13.5	;	194.04268
8	;	14	;	189.33687
8	;	14.5	;	184.63105
8	;	15	;	179.92524
8	;	15.5	;	175.21943
8	;	16	;	170.51362
8	;	16.5	;	165.80781
8	;	17	;	161.10201
8	;	17.5	;	156.39619
8	;	18	;	151.69038
8	;	18.5	;	146.98457
8	;	19	;	142.27876
8	;	19.5	;	137.57295
8	;	20	;	132.86715
8	;	20.5	;	128.16133
8	;	21	;	123.45552
8	;	21.5	;	118.74971
8	;	22	;	114.0439
8.5	;	0	;	419.9434
8.5	;	0.5	;	402.67396
8.5	;	1	;	386.37912
8.5	;	1.5	;	372.22353
8.5	;	2	;	356.78797
8.5	;	2.5	;	345.00792
8.5	;	3	;	333.9738
8.5	;	3.5	;	323.86737
8.5	;	4	;	314.60212
8.5	;	4.5	;	305.88861
8.5	;	5	;	298.20356
8.5	;	5.5	;	290.19971
8.5	;	6	;	282.23206
8.5	;	6.5	;	274.99667
8.5	;	7	;	268.29722
8.5	;	7.5	;	261.97383
8.5	;	8	;	255.97833
8.5	;	8.5	;	250
8.5	;	9	;	244.15818
8.5	;	9.5	;	238.57284
8.5	;	10	;	233.05328
8.5	;	10.5	;	228.02581
8.5	;	11	;	223.07815
8.5	;	11.5	;	218.17195
8.5	;	12	;	213.3882
8.5	;	12.5	;	208.96731
8.5	;	13	;	204.54641
8.5	;	13.5	;	200.09587
8.5	;	14	;	195.63618
8.5	;	14.5	;	191.17648
8.5	;	15	;	186.71679
8.5	;	15.5	;	182.2571
8.5	;	16	;	177.79741
8.5	;	16.5	;	173.33772
8.5	;	17	;	168.87803
8.5	;	17.5	;	164.41833
8.5	;	18	;	159.95864
8.5	;	18.5	;	155.49895
8.5	;	19	;	151.03926
8.5	;	19.5	;	146.57957
8.5	;	20	;	142.11988
8.5	;	20.5	;	137.66018
8.5	;	21	;	133.20049
8.5	;	21.5	;	128.7408
8.5	;	22	;	124.28111
9	;	0	;	423.86154
9	;	0.5	;	409.59134
9	;	1	;	395.47851
9	;	1.5	;	381.25976
9	;	2	;	366.54885
9	;	2.5	;	353.98547
9	;	3	;	342.57834
9	;	3.5	;	331.83982
9	;	4	;	322.04113
9	;	4.5	;	313.02558
9	;	5	;	304.66483
9	;	5.5	;	296.588
9	;	6	;	288.53608
9	;	6.5	;	281.14862
9	;	7	;	274.32138
9	;	7.5	;	267.80554
9	;	8	;	261.50682
9	;	8.5	;	255.60764
9	;	9	;	250
9	;	9.5	;	244.18575
9	;	10	;	238.41242
9	;	10.5	;	233.45459
9	;	11	;	228.47576
9	;	11.5	;	223.16055
9	;	12	;	218.13193
9	;	12.5	;	214.02586
9	;	13	;	209.9198
9	;	13.5	;	205.74865
9	;	14	;	201.5574
9	;	14.5	;	197.36615
9	;	15	;	193.17491
9	;	15.5	;	188.98366
9	;	16	;	184.79241
9	;	16.5	;	180.60116
9	;	17	;	176.40992
9	;	17.5	;	172.21867
9	;	18	;	168.02742
9	;	18.5	;	163.83617
9	;	19	;	159.64493
9	;	19.5	;	155.45368
9	;	20	;	151.26243
9	;	20.5	;	147.07118
9	;	21	;	142.87994
9	;	21.5	;	138.68869
9	;	22	;	134.49744
9.5	;	0	;	431.80294
9.5	;	0.5	;	418.11047
9.5	;	1	;	404.418
9.5	;	1.5	;	390.41586
9.5	;	2	;	376.21786
9.5	;	2.5	;	363.29828
9.5	;	3	;	351.55356
9.5	;	3.5	;	340.03605
9.5	;	4	;	329.92615
9.5	;	4.5	;	320.58041
9.5	;	5	;	312.09578
9.5	;	5.5	;	303.48363
9.5	;	6	;	295.4697
9.5	;	6.5	;	287.82873
9.5	;	7	;	280.59425
9.5	;	7.5	;	273.80052
9.5	;	8	;	267.4252
9.5	;	8.5	;	261.40703
9.5	;	9	;	255.68699
9.5	;	9.5	;	250
9.5	;	10	;	244.42707
9.5	;	10.5	;	239.30689
9.5	;	11	;	234.14832
9.5	;	11.5	;	228.87495
9.5	;	12	;	223.79494
9.5	;	12.5	;	219.56556
9.5	;	13	;	215.34831
9.5	;	13.5	;	211.18302
9.5	;	14	;	207.04346
9.5	;	14.5	;	202.91559
9.5	;	15	;	198.81601
9.5	;	15.5	;	194.71643
9.5	;	16	;	190.61684
9.5	;	16.5	;	186.51726
9.5	;	17	;	182.41768
9.5	;	17.5	;	178.3181
9.5	;	18	;	174.21852
9.5	;	18.5	;	170.11893
9.5	;	19	;	166.01935
9.5	;	19.5	;	161.91977
9.5	;	20	;	157.82018
9.5	;	20.5	;	153.72061
9.5	;	21	;	149.62103
9.5	;	21.5	;	145.52144
9.5	;	22	;	141.42186
10	;	0	;	439.84126
10	;	0.5	;	426.14897
10	;	1	;	412.45668
10	;	1.5	;	398.71041
10	;	2	;	384.93001
10	;	2.5	;	371.78074
10	;	3	;	359.73877
10	;	3.5	;	347.48614
10	;	4	;	337.14307
10	;	4.5	;	327.49306
10	;	5	;	319.01542
10	;	5.5	;	309.82024
10	;	6	;	301.86696
10	;	6.5	;	293.9752
10	;	7	;	286.31277
10	;	7.5	;	279.24966
10	;	8	;	272.85399
10	;	8.5	;	266.68567
10	;	9	;	260.78948
10	;	9.5	;	255.29413
10	;	10	;	250
10	;	10.5	;	244.68323
10	;	11	;	239.33034
10	;	11.5	;	234.19187
10	;	12	;	229.10712
10	;	12.5	;	224.67201
10	;	13	;	220.26259
10	;	13.5	;	216.04367
10	;	14	;	211.90411
10	;	14.5	;	207.78931
10	;	15	;	203.73443
10	;	15.5	;	199.67955
10	;	16	;	195.62467
10	;	16.5	;	191.5698
10	;	17	;	187.51492
10	;	17.5	;	183.46005
10	;	18	;	179.40517
10	;	18.5	;	175.3503
10	;	19	;	171.29542
10	;	19.5	;	167.24054
10	;	20	;	163.18566
10	;	20.5	;	159.1308
10	;	21	;	155.07592
10	;	21.5	;	151.02104
10	;	22	;	146.96616
10.5	;	0	;	447.71412
10.5	;	0.5	;	434.02186
10.5	;	1	;	420.32961
10.5	;	1.5	;	406.63736
10.5	;	2	;	392.94511
10.5	;	2.5	;	379.63119
10.5	;	3	;	367.5303
10.5	;	3.5	;	355.30771
10.5	;	4	;	344.77473
10.5	;	4.5	;	334.90379
10.5	;	5	;	325.86052
10.5	;	5.5	;	316.65729
10.5	;	6	;	308.50175
10.5	;	6.5	;	300.4168
10.5	;	7	;	292.66951
10.5	;	7.5	;	285.53837
10.5	;	8	;	278.84937
10.5	;	8.5	;	272.34963
10.5	;	9	;	266.41625
10.5	;	9.5	;	260.80468
10.5	;	10	;	255.36602
10.5	;	10.5	;	250
10.5	;	11	;	244.66977
10.5	;	11.5	;	239.55805
10.5	;	12	;	234.4723
10.5	;	12.5	;	229.84301
10.5	;	13	;	225.24819
10.5	;	13.5	;	220.96054
10.5	;	14	;	216.78142
10.5	;	14.5	;	212.65005
10.5	;	15	;	208.60461
10.5	;	15.5	;	204.55917
10.5	;	16	;	200.69546
10.5	;	16.5	;	196.84489
10.5	;	17	;	192.99432
10.5	;	17.5	;	189.14375
10.5	;	18	;	185.29318
10.5	;	18.5	;	181.44261
10.5	;	19	;	177.59204
10.5	;	19.5	;	173.74147
10.5	;	20	;	169.8909
10.5	;	20.5	;	166.04033
10.5	;	21	;	162.18976
10.5	;	21.5	;	158.33918
10.5	;	22	;	154.48861
11	;	0	;	455.46804
11	;	0.5	;	441.77578
11	;	1	;	428.08353
11	;	1.5	;	414.39128
11	;	2	;	400.69903
11	;	2.5	;	387.23927
11	;	3	;	375.14318
11	;	3.5	;	363.15315
11	;	4	;	352.44355
11	;	4.5	;	342.37586
11	;	5	;	332.62059
11	;	5.5	;	323.56178
11	;	6	;	315.13622
11	;	6.5	;	306.87519
11	;	7	;	299.1348
11	;	7.5	;	291.98964
11	;	8	;	284.93775
11	;	8.5	;	278.06169
11	;	9	;	272.12831
11	;	9.5	;	266.32005
11	;	10	;	260.62603
11	;	10.5	;	255.25028
11	;	11	;	250
11	;	11.5	;	244.8861
11	;	12	;	239.80036
11	;	12.5	;	234.98182
11	;	13	;	230.20514
11	;	13.5	;	225.84542
11	;	14	;	221.61663
11	;	14.5	;	217.461
11	;	15	;	213.41556
11	;	15.5	;	209.37012
11	;	16	;	205.73458
11	;	16.5	;	202.12867
11	;	17	;	198.52275
11	;	17.5	;	194.91684
11	;	18	;	191.31093
11	;	18.5	;	187.70502
11	;	19	;	184.09911
11	;	19.5	;	180.49319
11	;	20	;	176.88728
11	;	20.5	;	173.28136
11	;	21	;	169.67545
11	;	21.5	;	166.06954
11	;	22	;	162.46363
11.5	;	0	;	466.59271
11.5	;	0.5	;	452.439
11.5	;	1	;	438.28529
11.5	;	1.5	;	424.13158
11.5	;	2	;	409.97787
11.5	;	2.5	;	395.94633
11.5	;	3	;	382.74379
11.5	;	3.5	;	370.94424
11.5	;	4	;	360.04683
11.5	;	4.5	;	349.61944
11.5	;	5	;	339.69094
11.5	;	5.5	;	330.21293
11.5	;	6	;	321.58074
11.5	;	6.5	;	313.21297
11.5	;	7	;	305.3176
11.5	;	7.5	;	298.05311
11.5	;	8	;	290.99065
11.5	;	8.5	;	284.1872
11.5	;	9	;	277.82663
11.5	;	9.5	;	271.63303
11.5	;	10	;	265.81371
11.5	;	10.5	;	260.39852
11.5	;	11	;	255.16325
11.5	;	11.5	;	250
11.5	;	12	;	244.85376
11.5	;	12.5	;	240.03335
11.5	;	13	;	235.27375
11.5	;	13.5	;	230.77475
11.5	;	14	;	226.35621
11.5	;	14.5	;	222.17289
11.5	;	15	;	218.19859
11.5	;	15.5	;	214.22428
11.5	;	16	;	210.51958
11.5	;	16.5	;	206.83437
11.5	;	17	;	203.16264
11.5	;	17.5	;	199.51074
11.5	;	18	;	195.85884
11.5	;	18.5	;	192.20694
11.5	;	19	;	188.55504
11.5	;	19.5	;	184.90315
11.5	;	20	;	181.25125
11.5	;	20.5	;	177.59934
11.5	;	21	;	173.94744
11.5	;	21.5	;	170.29554
11.5	;	22	;	166.64364
12	;	0	;	478.86861
12	;	0.5	;	464.12907
12	;	1	;	449.38955
12	;	1.5	;	434.65001
12	;	2	;	419.91049
12	;	2.5	;	405.18781
12	;	3	;	390.57949
12	;	3.5	;	378.96636
12	;	4	;	367.8726
12	;	4.5	;	357.03544
12	;	5	;	347.05661
12	;	5.5	;	337.01202
12	;	6	;	328.18182
12	;	6.5	;	319.72049
12	;	7	;	311.62672
12	;	7.5	;	304.2141
12	;	8	;	297.22466
12	;	8.5	;	290.603
12	;	9	;	283.70011
12	;	9.5	;	277.0642
12	;	10	;	271.14661
12	;	10.5	;	265.68368
12	;	11	;	260.44841
12	;	11.5	;	255.22304
12	;	12	;	250
12	;	12.5	;	245.22228
12	;	13	;	240.52769
12	;	13.5	;	235.86902
12	;	14	;	231.22143
12	;	14.5	;	227.00874
12	;	15	;	223.12474
12	;	15.5	;	219.24074
12	;	16	;	215.3939
12	;	16.5	;	211.54976
12	;	17	;	207.73619
12	;	17.5	;	203.96764
12	;	18	;	200.19909
12	;	18.5	;	196.43053
12	;	19	;	192.66198
12	;	19.5	;	188.89344
12	;	20	;	185.12489
12	;	20.5	;	181.35633
12	;	21	;	177.58778
12	;	21.5	;	173.81923
12	;	22	;	170.05067
12.5	;	0	;	475.66536
12.5	;	0.5	;	462.62168
12.5	;	1	;	449.57799
12.5	;	1.5	;	436.53431
12.5	;	2	;	423.49062
12.5	;	2.5	;	410.44694
12.5	;	3	;	397.40325
12.5	;	3.5	;	386.2764
12.5	;	4	;	374.93366
12.5	;	4.5	;	363.97033
12.5	;	5	;	353.97272
12.5	;	5.5	;	344.10406
12.5	;	6	;	334.71438
12.5	;	6.5	;	326.15484
12.5	;	7	;	318.11809
12.5	;	7.5	;	310.52514
12.5	;	8	;	303.09078
12.5	;	8.5	;	296.2774
12.5	;	9	;	289.46962
12.5	;	9.5	;	282.99621
12.5	;	10	;	276.70152
12.5	;	10.5	;	270.92701
12.5	;	11	;	265.55752
12.5	;	11.5	;	260.18799
12.5	;	12	;	254.81844
12.5	;	12.5	;	250
12.5	;	13	;	245.26387
12.5	;	13.5	;	240.57032
12.5	;	14	;	235.88608
12.5	;	14.5	;	231.63033
12.5	;	15	;	227.65005
12.5	;	15.5	;	223.68016
12.5	;	16	;	219.73843
12.5	;	16.5	;	215.7967
12.5	;	17	;	212.05633
12.5	;	17.5	;	208.39096
12.5	;	18	;	204.72558
12.5	;	18.5	;	201.03349
12.5	;	19	;	197.33947
12.5	;	19.5	;	193.64546
12.5	;	20	;	189.95144
12.5	;	20.5	;	186.25742
12.5	;	21	;	182.5634
12.5	;	21.5	;	178.86939
12.5	;	22	;	175.17537
13	;	0	;	469.38243
13	;	0.5	;	458.51456
13	;	1	;	447.64667
13	;	1.5	;	436.7788
13	;	2	;	425.91092
13	;	2.5	;	415.04304
13	;	3	;	404.17517
13	;	3.5	;	393.60327
13	;	4	;	381.99602
13	;	4.5	;	370.95902
13	;	5	;	360.94837
13	;	5.5	;	351.40384
13	;	6	;	341.37246
13	;	6.5	;	332.71172
13	;	7	;	324.78289
13	;	7.5	;	316.99951
13	;	8	;	309.01001
13	;	8.5	;	301.92816
13	;	9	;	295.34153
13	;	9.5	;	289.15175
13	;	10	;	282.41769
13	;	10.5	;	276.27365
13	;	11	;	270.74097
13	;	11.5	;	265.20825
13	;	12	;	259.67551
13	;	12.5	;	254.79927
13	;	13	;	250
13	;	13.5	;	245.29509
13	;	14	;	240.61085
13	;	14.5	;	236.30848
13	;	15	;	232.19355
13	;	15.5	;	228.10167
13	;	16	;	224.07222
13	;	16.5	;	220.04277
13	;	17	;	216.41899
13	;	17.5	;	212.90176
13	;	18	;	209.38452
13	;	18.5	;	205.80809
13	;	19	;	202.22739
13	;	19.5	;	198.64669
13	;	20	;	195.06599
13	;	20.5	;	191.48528
13	;	21	;	187.90458
13	;	21.5	;	184.32388
13	;	22	;	180.74317
13.5	;	0	;	477.90511
13.5	;	0.5	;	466.86649
13.5	;	1	;	455.82786
13.5	;	1.5	;	444.78924
13.5	;	2	;	433.75061
13.5	;	2.5	;	422.71199
13.5	;	3	;	411.67337
13.5	;	3.5	;	400.63474
13.5	;	4	;	388.8933
13.5	;	4.5	;	377.83627
13.5	;	5	;	367.87377
13.5	;	5.5	;	358.13381
13.5	;	6	;	348.04569
13.5	;	6.5	;	339.08599
13.5	;	7	;	330.73494
13.5	;	7.5	;	322.82801
13.5	;	8	;	315.1322
13.5	;	8.5	;	307.64609
13.5	;	9	;	300.57495
13.5	;	9.5	;	294.06994
13.5	;	10	;	287.61413
13.5	;	10.5	;	281.51581
13.5	;	11	;	275.80244
13.5	;	11.5	;	270.08902
13.5	;	12	;	264.3801
13.5	;	12.5	;	259.46985
13.5	;	13	;	254.60468
13.5	;	13.5	;	250
13.5	;	14	;	245.41106
13.5	;	14.5	;	241.04357
13.5	;	15	;	236.77773
13.5	;	15.5	;	232.64368
13.5	;	16	;	228.66978
13.5	;	16.5	;	224.69588
13.5	;	17	;	220.88474
13.5	;	17.5	;	217.13034
13.5	;	18	;	213.50655
13.5	;	18.5	;	209.97774
13.5	;	19	;	206.44613
13.5	;	19.5	;	203.02238
13.5	;	20	;	199.66219
13.5	;	20.5	;	196.30199
13.5	;	21	;	192.9418
13.5	;	21.5	;	189.58161
13.5	;	22	;	186.22141
14	;	0	;	489.17527
14	;	0.5	;	477.47457
14	;	1	;	465.77386
14	;	1.5	;	454.07316
14	;	2	;	442.37245
14	;	2.5	;	430.67175
14	;	3	;	418.97104
14	;	3.5	;	407.27034
14	;	4	;	395.4288
14	;	4.5	;	384.36411
14	;	5	;	374.4605
14	;	5.5	;	364.42379
14	;	6	;	354.4061
14	;	6.5	;	345.11952
14	;	7	;	336.25342
14	;	7.5	;	328.24302
14	;	8	;	321.00766
14	;	8.5	;	313.10754
14	;	9	;	305.42463
14	;	9.5	;	298.49186
14	;	10	;	292.45385
14	;	10.5	;	286.48748
14	;	11	;	280.59824
14	;	11.5	;	274.70895
14	;	12	;	268.82943
14	;	12.5	;	263.89186
14	;	13	;	258.96332
14	;	13.5	;	254.47786
14	;	14	;	250
14	;	14.5	;	245.56654
14	;	15	;	241.15346
14	;	15.5	;	236.99623
14	;	16	;	233.10574
14	;	16.5	;	229.21526
14	;	17	;	225.16094
14	;	17.5	;	221.09859
14	;	18	;	217.3191
14	;	18.5	;	213.82116
14	;	19	;	210.32266
14	;	19.5	;	207.05771
14	;	20	;	203.9304
14	;	20.5	;	200.80309
14	;	21	;	197.67577
14	;	21.5	;	194.54846
14	;	22	;	191.42116
14.5	;	0	;	494.82389
14.5	;	0.5	;	483.2413
14.5	;	1	;	471.65871
14.5	;	1.5	;	460.07612
14.5	;	2	;	448.49353
14.5	;	2.5	;	436.91094
14.5	;	3	;	425.32835
14.5	;	3.5	;	413.74576
14.5	;	4	;	402.16317
14.5	;	4.5	;	391.07422
14.5	;	5	;	380.75422
14.5	;	5.5	;	370.63389
14.5	;	6	;	361.00107
14.5	;	6.5	;	351.29155
14.5	;	7	;	342.33633
14.5	;	7.5	;	334.27911
14.5	;	8	;	326.78732
14.5	;	8.5	;	318.88936
14.5	;	9	;	311.25552
14.5	;	9.5	;	304.2898
14.5	;	10	;	297.93032
14.5	;	10.5	;	291.73691
14.5	;	11	;	285.94562
14.5	;	11.5	;	279.99357
14.5	;	12	;	273.90474
14.5	;	12.5	;	268.88434
14.5	;	13	;	263.88581
14.5	;	13.5	;	259.13226
14.5	;	14	;	254.40842
14.5	;	14.5	;	250
14.5	;	15	;	245.59158
14.5	;	15.5	;	241.42016
14.5	;	16	;	237.4472
14.5	;	16.5	;	233.52274
14.5	;	17	;	229.53311
14.5	;	17.5	;	225.52851
14.5	;	18	;	221.7437
14.5	;	18.5	;	218.16996
14.5	;	19	;	214.60027
14.5	;	19.5	;	211.37084
14.5	;	20	;	208.23778
14.5	;	20.5	;	205.10472
14.5	;	21	;	202.1165
14.5	;	21.5	;	199.13875
14.5	;	22	;	196.16101
15	;	0	;	498.54996
15	;	0.5	;	487.34207
15	;	1	;	476.13419
15	;	1.5	;	464.92631
15	;	2	;	453.71843
15	;	2.5	;	442.51055
15	;	3	;	431.30267
15	;	3.5	;	420.09479
15	;	4	;	408.88691
15	;	4.5	;	397.76848
15	;	5	;	386.87969
15	;	5.5	;	376.74714
15	;	6	;	367.59878
15	;	6.5	;	357.43938
15	;	7	;	348.53685
15	;	7.5	;	340.45207
15	;	8	;	332.46975
15	;	8.5	;	324.71152
15	;	9	;	317.34468
15	;	9.5	;	310.47689
15	;	10	;	303.55518
15	;	10.5	;	297.01864
15	;	11	;	291.4147
15	;	11.5	;	285.438
15	;	12	;	279.12943
15	;	12.5	;	274.00879
15	;	13	;	268.93888
15	;	13.5	;	263.79224
15	;	14	;	258.70716
15	;	14.5	;	254.35358
15	;	15	;	250
15	;	15.5	;	245.81753
15	;	16	;	241.70816
15	;	16.5	;	237.71131
15	;	17	;	233.88741
15	;	17.5	;	230.0608
15	;	18	;	226.32046
15	;	18.5	;	222.63651
15	;	19	;	218.96198
15	;	19.5	;	215.72688
15	;	20	;	212.50925
15	;	20.5	;	209.29161
15	;	21	;	206.4099
15	;	21.5	;	203.55248
15	;	22	;	200.69507
15.5	;	0	;	502.14148
15.5	;	0.5	;	491.29478
15.5	;	1	;	480.44807
15.5	;	1.5	;	469.60137
15.5	;	2	;	458.75467
15.5	;	2.5	;	447.90797
15.5	;	3	;	437.06126
15.5	;	3.5	;	426.21456
15.5	;	4	;	415.36786
15.5	;	4.5	;	404.52116
15.5	;	5	;	393.73785
15.5	;	5.5	;	383.46003
15.5	;	6	;	374.04177
15.5	;	6.5	;	364.144
15.5	;	7	;	354.86111
15.5	;	7.5	;	346.51192
15.5	;	8	;	338.25723
15.5	;	8.5	;	330.42914
15.5	;	9	;	323.1223
15.5	;	9.5	;	316.38399
15.5	;	10	;	309.31418
15.5	;	10.5	;	302.45426
15.5	;	11	;	296.45379
15.5	;	11.5	;	290.42309
15.5	;	12	;	284.2461
15.5	;	12.5	;	278.76716
15.5	;	13	;	273.40909
15.5	;	13.5	;	268.10839
15.5	;	14	;	262.96022
15.5	;	14.5	;	258.38686
15.5	;	15	;	254.03104
15.5	;	15.5	;	250
15.5	;	16	;	245.99504
15.5	;	16.5	;	242.04577
15.5	;	17	;	238.22353
15.5	;	17.5	;	234.4466
15.5	;	18	;	230.81827
15.5	;	18.5	;	227.20268
15.5	;	19	;	223.62747
15.5	;	19.5	;	220.36564
15.5	;	20	;	217.1038
15.5	;	20.5	;	213.89711
15.5	;	21	;	210.99702
15.5	;	21.5	;	208.11264
15.5	;	22	;	205.22827
16	;	0	;	505.45539
16	;	0.5	;	494.94195
16	;	1	;	484.42851
16	;	1.5	;	473.91507
16	;	2	;	463.40163
16	;	2.5	;	452.88818
16	;	3	;	442.37475
16	;	3.5	;	431.8613
16	;	4	;	421.34786
16	;	4.5	;	410.83442
16	;	5	;	400.32821
16	;	5.5	;	389.87963
16	;	6	;	380.00971
16	;	6.5	;	370.54454
16	;	7	;	360.79212
16	;	7.5	;	352.13356
16	;	8	;	343.68267
16	;	8.5	;	335.73388
16	;	9	;	328.42813
16	;	9.5	;	321.81894
16	;	10	;	314.72077
16	;	10.5	;	307.5645
16	;	11	;	301.03945
16	;	11.5	;	294.9506
16	;	12	;	288.98945
16	;	12.5	;	283.10795
16	;	13	;	277.42366
16	;	13.5	;	272.04264
16	;	14	;	266.91465
16	;	14.5	;	262.06353
16	;	15	;	257.69049
16	;	15.5	;	253.84376
16	;	16	;	250
16	;	16.5	;	246.1269
16	;	17	;	242.26271
16	;	17.5	;	238.49812
16	;	18	;	234.99216
16	;	18.5	;	231.48766
16	;	19	;	228.05918
16	;	19.5	;	224.76683
16	;	20	;	221.47448
16	;	20.5	;	218.3033
16	;	21	;	215.35296
16	;	21.5	;	212.4044
16	;	22	;	209.45585
16.5	;	0	;	522.56915
16.5	;	0.5	;	511.14147
16.5	;	1	;	499.71378
16.5	;	1.5	;	488.28611
16.5	;	2	;	476.85842
16.5	;	2.5	;	465.43073
16.5	;	3	;	454.00305
16.5	;	3.5	;	442.57536
16.5	;	4	;	431.14767
16.5	;	4.5	;	419.71999
16.5	;	5	;	408.2923
16.5	;	5.5	;	396.86462
16.5	;	6	;	385.748
16.5	;	6.5	;	376.39126
16.5	;	7	;	367.03485
16.5	;	7.5	;	358.25048
16.5	;	8	;	349.72539
16.5	;	8.5	;	341.68306
16.5	;	9	;	333.87805
16.5	;	9.5	;	326.48195
16.5	;	10	;	319.50484
16.5	;	10.5	;	312.64616
16.5	;	11	;	306.05359
16.5	;	11.5	;	299.6702
16.5	;	12	;	293.4936
16.5	;	12.5	;	287.79039
16.5	;	13	;	282.17842
16.5	;	13.5	;	276.71406
16.5	;	14	;	271.39698
16.5	;	14.5	;	266.21295
16.5	;	15	;	261.74686
16.5	;	15.5	;	257.70809
16.5	;	16	;	253.7972
16.5	;	16.5	;	250
16.5	;	17	;	246.1992
16.5	;	17.5	;	242.37657
16.5	;	18	;	238.68786
16.5	;	18.5	;	235.05785
16.5	;	19	;	231.6425
16.5	;	19.5	;	228.29212
16.5	;	20	;	225.01437
16.5	;	20.5	;	221.95381
16.5	;	21	;	219.01353
16.5	;	21.5	;	216.07326
16.5	;	22	;	213.27298
17	;	0	;	541.13289
17	;	0.5	;	528.64044
17	;	1	;	516.14798
17	;	1.5	;	503.65553
17	;	2	;	491.16306
17	;	2.5	;	478.67061
17	;	3	;	466.17815
17	;	3.5	;	453.6857
17	;	4	;	441.19324
17	;	4.5	;	428.70079
17	;	5	;	416.20833
17	;	5.5	;	403.71588
17	;	6	;	391.27704
17	;	6.5	;	381.97898
17	;	7	;	373.13034
17	;	7.5	;	364.25031
17	;	8	;	355.67077
17	;	8.5	;	347.54167
17	;	9	;	339.18109
17	;	9.5	;	330.89111
17	;	10	;	324.05273
17	;	10.5	;	317.56755
17	;	11	;	310.97498
17	;	11.5	;	304.27224
17	;	12	;	297.82506
17	;	12.5	;	292.37782
17	;	13	;	286.89302
17	;	13.5	;	281.34746
17	;	14	;	275.81714
17	;	14.5	;	270.30252
17	;	15	;	265.73539
17	;	15.5	;	261.4566
17	;	16	;	257.44794
17	;	16.5	;	253.72428
17	;	17	;	250
17	;	17.5	;	246.11104
17	;	18	;	242.2015
17	;	18.5	;	238.41596
17	;	19	;	234.9942
17	;	19.5	;	231.58365
17	;	20	;	228.32651
17	;	20.5	;	225.3839
17	;	21	;	222.46203
17	;	21.5	;	219.54016
17	;	22	;	216.91402
17.5	;	0	;	533.22614
17.5	;	0.5	;	521.88525
17.5	;	1	;	510.54434
17.5	;	1.5	;	499.20344
17.5	;	2	;	487.86254
17.5	;	2.5	;	476.52164
17.5	;	3	;	465.18073
17.5	;	3.5	;	453.83983
17.5	;	4	;	442.49893
17.5	;	4.5	;	431.15803
17.5	;	5	;	419.81712
17.5	;	5.5	;	408.47623
17.5	;	6	;	397.13532
17.5	;	6.5	;	387.81553
17.5	;	7	;	378.91524
17.5	;	7.5	;	370.14589
17.5	;	8	;	361.73537
17.5	;	8.5	;	353.45316
17.5	;	9	;	345.52105
17.5	;	9.5	;	337.18287
17.5	;	10	;	329.94096
17.5	;	10.5	;	323.45757
17.5	;	11	;	316.9551
17.5	;	11.5	;	310.32025
17.5	;	12	;	303.78016
17.5	;	12.5	;	298.05149
17.5	;	13	;	292.33215
17.5	;	13.5	;	286.61745
17.5	;	14	;	280.937
17.5	;	14.5	;	275.28847
17.5	;	15	;	270.43856
17.5	;	15.5	;	265.79908
17.5	;	16	;	261.62168
17.5	;	16.5	;	257.69587
17.5	;	17	;	253.85533
17.5	;	17.5	;	250
17.5	;	18	;	246.11355
17.5	;	18.5	;	242.33478
17.5	;	19	;	238.79459
17.5	;	19.5	;	235.28949
17.5	;	20	;	232.13348
17.5	;	20.5	;	229.17485
17.5	;	21	;	226.21622
17.5	;	21.5	;	223.3876
17.5	;	22	;	220.78316
18	;	0	;	518.83822
18	;	0.5	;	509.17565
18	;	1	;	499.51306
18	;	1.5	;	489.85047
18	;	2	;	480.18789
18	;	2.5	;	470.5253
18	;	3	;	460.86272
18	;	3.5	;	451.20013
18	;	4	;	441.53755
18	;	4.5	;	431.87496
18	;	5	;	422.21237
18	;	5.5	;	412.54979
18	;	6	;	402.8872
18	;	6.5	;	393.52592
18	;	7	;	384.43325
18	;	7.5	;	375.82351
18	;	8	;	367.63342
18	;	8.5	;	359.18617
18	;	9	;	351.91911
18	;	9.5	;	343.74954
18	;	10	;	335.9792
18	;	10.5	;	329.4029
18	;	11	;	323.01054
18	;	11.5	;	316.53995
18	;	12	;	309.9552
18	;	12.5	;	303.81745
18	;	13	;	297.7791
18	;	13.5	;	291.87838
18	;	14	;	286.06875
18	;	14.5	;	280.3407
18	;	15	;	275.17093
18	;	15.5	;	270.15176
18	;	16	;	265.79303
18	;	16.5	;	261.60147
18	;	17	;	257.59938
18	;	17.5	;	253.80201
18	;	18	;	250
18	;	18.5	;	246.26909
18	;	19	;	242.5858
18	;	19.5	;	238.98048
18	;	20	;	235.94281
18	;	20.5	;	232.93456
18	;	21	;	229.92632
18	;	21.5	;	227.207
18	;	22	;	224.58475
18.5	;	0	;	515.88705
18.5	;	0.5	;	506.87425
18.5	;	1	;	497.86144
18.5	;	1.5	;	488.84864
18.5	;	2	;	479.83584
18.5	;	2.5	;	470.82304
18.5	;	3	;	461.81024
18.5	;	3.5	;	452.79743
18.5	;	4	;	443.78463
18.5	;	4.5	;	434.77183
18.5	;	5	;	425.75902
18.5	;	5.5	;	416.74622
18.5	;	6	;	407.73342
18.5	;	6.5	;	398.72062
18.5	;	7	;	389.85346
18.5	;	7.5	;	381.23386
18.5	;	8	;	372.69943
18.5	;	8.5	;	364.51709
18.5	;	9	;	356.87766
18.5	;	9.5	;	348.70889
18.5	;	10	;	340.92905
18.5	;	10.5	;	334.12623
18.5	;	11	;	327.45541
18.5	;	11.5	;	320.87787
18.5	;	12	;	314.31776
18.5	;	12.5	;	308.21841
18.5	;	13	;	302.18833
18.5	;	13.5	;	296.25502
18.5	;	14	;	290.54433
18.5	;	14.5	;	284.94108
18.5	;	15	;	279.64826
18.5	;	15.5	;	274.45456
18.5	;	16	;	269.99484
18.5	;	16.5	;	265.62677
18.5	;	17	;	261.4594
18.5	;	17.5	;	257.45124
18.5	;	18	;	253.62991
18.5	;	18.5	;	250
18.5	;	19	;	246.37861
18.5	;	19.5	;	242.86161
18.5	;	20	;	239.73331
18.5	;	20.5	;	236.60501
18.5	;	21	;	233.65857
18.5	;	21.5	;	230.99981
18.5	;	22	;	228.38605
19	;	0	;	515.38869
19	;	0.5	;	506.78768
19	;	1	;	498.18666
19	;	1.5	;	489.58566
19	;	2	;	480.98464
19	;	2.5	;	472.38362
19	;	3	;	463.78262
19	;	3.5	;	455.1816
19	;	4	;	446.58058
19	;	4.5	;	437.97958
19	;	5	;	429.37856
19	;	5.5	;	420.77755
19	;	6	;	412.17654
19	;	6.5	;	403.57552
19	;	7	;	395.00839
19	;	7.5	;	386.34502
19	;	8	;	377.36732
19	;	8.5	;	369.52509
19	;	9	;	361.31977
19	;	9.5	;	353.11773
19	;	10	;	345.43406
19	;	10.5	;	338.38788
19	;	11	;	331.37241
19	;	11.5	;	324.63778
19	;	12	;	318.11523
19	;	12.5	;	312.14329
19	;	13	;	306.18747
19	;	13.5	;	300.25416
19	;	14	;	294.68419
19	;	14.5	;	289.24153
19	;	15	;	283.87113
19	;	15.5	;	278.55241
19	;	16	;	274.01257
19	;	16.5	;	269.49406
19	;	17	;	265.16816
19	;	17.5	;	260.90425
19	;	18	;	257.04344
19	;	18.5	;	253.52073
19	;	19	;	250
19	;	19.5	;	246.60555
19	;	20	;	243.34835
19	;	20.5	;	240.09115
19	;	21	;	237.22631
19	;	21.5	;	234.6155
19	;	22	;	232.01516
19.5	;	0	;	517.497
19.5	;	0.5	;	509.021
19.5	;	1	;	500.545
19.5	;	1.5	;	492.068
19.5	;	2	;	483.592
19.5	;	2.5	;	475.116
19.5	;	3	;	466.64
19.5	;	3.5	;	458.164
19.5	;	4	;	449.688
19.5	;	4.5	;	441.211
19.5	;	5	;	432.735
19.5	;	5.5	;	424.259
19.5	;	6	;	415.783
19.5	;	6.5	;	407.307
19.5	;	7	;	398.831
19.5	;	7.5	;	390.154
19.5	;	8	;	381.042
19.5	;	8.5	;	373.303
19.5	;	9	;	364.926
19.5	;	9.5	;	356.714
19.5	;	10	;	349.059
19.5	;	10.5	;	341.939
19.5	;	11	;	334.819
19.5	;	11.5	;	328.037
19.5	;	12	;	321.526
19.5	;	12.5	;	315.593
19.5	;	13	;	309.659
19.5	;	13.5	;	303.726
19.5	;	14	;	298.199
19.5	;	14.5	;	292.805
19.5	;	15	;	287.411
19.5	;	15.5	;	282.054
19.5	;	16	;	277.49
19.5	;	16.5	;	272.926
19.5	;	17	;	268.552
19.5	;	17.5	;	264.21
19.5	;	18	;	260.338
19.5	;	18.5	;	256.848
19.5	;	19	;	253.357
19.5	;	19.5	;	250
19.5	;	20	;	246.704
19.5	;	20.5	;	243.407
19.5	;	21	;	240.567
19.5	;	21.5	;	237.971
19.5	;	22	;	235.375
20	;	0	;	520.793
20	;	0.5	;	512.317
20	;	1	;	503.841
20	;	1.5	;	495.365
20	;	2	;	486.889
20	;	2.5	;	478.412
20	;	3	;	469.936
20	;	3.5	;	461.46
20	;	4	;	452.984
20	;	4.5	;	444.508
20	;	5	;	436.032
20	;	5.5	;	427.555
20	;	6	;	419.079
20	;	6.5	;	410.603
20	;	7	;	402.127
20	;	7.5	;	393.45
20	;	8	;	384.338
20	;	8.5	;	376.599
20	;	9	;	368.222
20	;	9.5	;	360.01
20	;	10	;	352.356
20	;	10.5	;	345.236
20	;	11	;	338.116
20	;	11.5	;	331.333
20	;	12	;	324.822
20	;	12.5	;	318.889
20	;	13	;	312.956
20	;	13.5	;	307.022
20	;	14	;	301.495
20	;	14.5	;	296.101
20	;	15	;	290.707
20	;	15.5	;	285.35
20	;	16	;	280.786
20	;	16.5	;	276.222
20	;	17	;	271.848
20	;	17.5	;	267.507
20	;	18	;	263.634
20	;	18.5	;	260.144
20	;	19	;	256.654
20	;	19.5	;	253.296
20	;	20	;	250
20	;	20.5	;	246.704
20	;	21	;	243.864
20	;	21.5	;	241.267
20	;	22	;	238.671
20.5	;	0	;	524.089
20.5	;	0.5	;	515.613
20.5	;	1	;	507.137
20.5	;	1.5	;	498.661
20.5	;	2	;	490.185
20.5	;	2.5	;	481.709
20.5	;	3	;	473.232
20.5	;	3.5	;	464.756
20.5	;	4	;	456.28
20.5	;	4.5	;	447.804
20.5	;	5	;	439.328
20.5	;	5.5	;	430.852
20.5	;	6	;	422.376
20.5	;	6.5	;	413.899
20.5	;	7	;	405.423
20.5	;	7.5	;	396.747
20.5	;	8	;	387.634
20.5	;	8.5	;	379.895
20.5	;	9	;	371.518
20.5	;	9.5	;	363.306
20.5	;	10	;	355.652
20.5	;	10.5	;	348.532
20.5	;	11	;	341.412
20.5	;	11.5	;	334.63
20.5	;	12	;	328.118
20.5	;	12.5	;	322.185
20.5	;	13	;	316.252
20.5	;	13.5	;	310.319
20.5	;	14	;	304.791
20.5	;	14.5	;	299.397
20.5	;	15	;	294.003
20.5	;	15.5	;	288.647
20.5	;	16	;	284.083
20.5	;	16.5	;	279.518
20.5	;	17	;	275.145
20.5	;	17.5	;	270.803
20.5	;	18	;	266.93
20.5	;	18.5	;	263.44
20.5	;	19	;	259.95
20.5	;	19.5	;	256.593
20.5	;	20	;	253.296
20.5	;	20.5	;	250
20.5	;	21	;	247.16
20.5	;	21.5	;	244.564
20.5	;	22	;	241.967
21	;	0	;	526.93
21	;	0.5	;	518.453
21	;	1	;	509.977
21	;	1.5	;	501.501
21	;	2	;	493.025
21	;	2.5	;	484.549
21	;	3	;	476.073
21	;	3.5	;	467.596
21	;	4	;	459.12
21	;	4.5	;	450.644
21	;	5	;	442.168
21	;	5.5	;	433.692
21	;	6	;	425.216
21	;	6.5	;	416.739
21	;	7	;	408.263
21	;	7.5	;	399.587
21	;	8	;	390.475
21	;	8.5	;	382.735
21	;	9	;	374.359
21	;	9.5	;	366.146
21	;	10	;	358.492
21	;	10.5	;	351.372
21	;	11	;	344.252
21	;	11.5	;	337.47
21	;	12	;	330.959
21	;	12.5	;	325.025
21	;	13	;	319.092
21	;	13.5	;	313.159
21	;	14	;	307.631
21	;	14.5	;	302.237
21	;	15	;	296.843
21	;	15.5	;	291.487
21	;	16	;	286.923
21	;	16.5	;	282.359
21	;	17	;	277.985
21	;	17.5	;	273.643
21	;	18	;	269.77
21	;	18.5	;	266.28
21	;	19	;	262.79
21	;	19.5	;	259.433
21	;	20	;	256.136
21	;	20.5	;	252.84
21	;	21	;	250
21	;	21.5	;	247.404
21	;	22	;	244.807
21.5	;	0	;	529.526
21.5	;	0.5	;	521.05
21.5	;	1	;	512.573
21.5	;	1.5	;	504.097
21.5	;	2	;	495.621
21.5	;	2.5	;	487.145
21.5	;	3	;	478.669
21.5	;	3.5	;	470.193
21.5	;	4	;	461.717
21.5	;	4.5	;	453.24
21.5	;	5	;	444.764
21.5	;	5.5	;	436.288
21.5	;	6	;	427.812
21.5	;	6.5	;	419.336
21.5	;	7	;	410.86
21.5	;	7.5	;	402.183
21.5	;	8	;	393.071
21.5	;	8.5	;	385.332
21.5	;	9	;	376.955
21.5	;	9.5	;	368.743
21.5	;	10	;	361.088
21.5	;	10.5	;	353.968
21.5	;	11	;	346.848
21.5	;	11.5	;	340.066
21.5	;	12	;	333.555
21.5	;	12.5	;	327.622
21.5	;	13	;	321.688
21.5	;	13.5	;	315.755
21.5	;	14	;	310.228
21.5	;	14.5	;	304.834
21.5	;	15	;	299.44
21.5	;	15.5	;	294.083
21.5	;	16	;	289.519
21.5	;	16.5	;	284.955
21.5	;	17	;	280.581
21.5	;	17.5	;	276.239
21.5	;	18	;	272.367
21.5	;	18.5	;	268.876
21.5	;	19	;	265.386
21.5	;	19.5	;	262.029
21.5	;	20	;	258.733
21.5	;	20.5	;	255.436
21.5	;	21	;	252.596
21.5	;	21.5	;	250
21.5	;	22	;	247.404
22	;	0	;	532.122
22	;	0.5	;	523.646
22	;	1	;	515.17
22	;	1.5	;	506.694
22	;	2	;	498.217
22	;	2.5	;	489.741
22	;	3	;	481.265
22	;	3.5	;	472.789
22	;	4	;	464.313
22	;	4.5	;	455.837
22	;	5	;	447.361
22	;	5.5	;	438.884
22	;	6	;	430.408
22	;	6.5	;	421.932
22	;	7	;	413.456
22	;	7.5	;	404.779
22	;	8	;	395.667
22	;	8.5	;	387.928
22	;	9	;	379.551
22	;	9.5	;	371.339
22	;	10	;	363.684
22	;	10.5	;	356.565
22	;	11	;	349.445
22	;	11.5	;	342.662
22	;	12	;	336.151
22	;	12.5	;	330.218
22	;	13	;	324.285
22	;	13.5	;	318.351
22	;	14	;	312.824
22	;	14.5	;	307.43
22	;	15	;	302.036
22	;	15.5	;	296.679
22	;	16	;	292.115
22	;	16.5	;	287.551
22	;	17	;	283.177
22	;	17.5	;	278.836
22	;	18	;	274.963
22	;	18.5	;	271.473
22	;	19	;	267.983
22	;	19.5	;	264.625
22	;	20	;	261.329
22	;	20.5	;	258.033
22	;	21	;	255.193
22	;	21.5	;	252.596
22	;	22	;	250
