-60	;	0	;	18.88998
-60	;	100	;	18.74126
-60	;	200	;	18.59253
-60	;	300	;	18.44381
-60	;	400	;	18.29508
-60	;	500	;	18.14636
-60	;	600	;	17.99764
-60	;	700	;	17.84891
-60	;	800	;	17.70019
-60	;	900	;	17.55146
-60	;	1000	;	17.40274
-60	;	1100	;	17.21256
-60	;	1200	;	17.02239
-60	;	1300	;	16.83221
-60	;	1400	;	16.64204
-60	;	1500	;	16.45186
-60	;	1600	;	16.26168
-60	;	1700	;	16.07151
-60	;	1800	;	15.88133
-60	;	1900	;	15.69116
-60	;	2000	;	15.50098
-60	;	2100	;	15.2888
-60	;	2200	;	15.07662
-60	;	2300	;	14.86444
-60	;	2400	;	14.65226
-60	;	2500	;	14.44008
-60	;	2600	;	14.22789
-60	;	2700	;	14.01571
-60	;	2800	;	13.80353
-60	;	2900	;	13.59135
-60	;	3000	;	13.37917
-60	;	3100	;	13.18111
-60	;	3200	;	12.98305
-60	;	3300	;	12.78499
-60	;	3400	;	12.58693
-60	;	3500	;	12.38888
-60	;	3600	;	12.19082
-60	;	3700	;	11.99276
-60	;	3800	;	11.7947
-60	;	3900	;	11.59664
-60	;	4000	;	11.39858
-55	;	0	;	18.88998
-55	;	100	;	18.74033
-55	;	200	;	18.59068
-55	;	300	;	18.44104
-55	;	400	;	18.29139
-55	;	500	;	18.14174
-55	;	600	;	17.99209
-55	;	700	;	17.84244
-55	;	800	;	17.6928
-55	;	900	;	17.54315
-55	;	1000	;	17.3935
-55	;	1100	;	17.20425
-55	;	1200	;	17.015
-55	;	1300	;	16.82574
-55	;	1400	;	16.63649
-55	;	1500	;	16.44724
-55	;	1600	;	16.25799
-55	;	1700	;	16.06874
-55	;	1800	;	15.87948
-55	;	1900	;	15.69023
-55	;	2000	;	15.50098
-55	;	2100	;	15.2888
-55	;	2200	;	15.07662
-55	;	2300	;	14.86444
-55	;	2400	;	14.65226
-55	;	2500	;	14.44008
-55	;	2600	;	14.22789
-55	;	2700	;	14.01571
-55	;	2800	;	13.80353
-55	;	2900	;	13.59135
-55	;	3000	;	13.37917
-55	;	3100	;	13.18081
-55	;	3200	;	12.98246
-55	;	3300	;	12.7841
-55	;	3400	;	12.58574
-55	;	3500	;	12.38739
-55	;	3600	;	12.18903
-55	;	3700	;	11.99067
-55	;	3800	;	11.79231
-55	;	3900	;	11.59396
-55	;	4000	;	11.3956
-50	;	0	;	18.88998
-50	;	100	;	18.73941
-50	;	200	;	18.58883
-50	;	300	;	18.43826
-50	;	400	;	18.28769
-50	;	500	;	18.13712
-50	;	600	;	17.98654
-50	;	700	;	17.83597
-50	;	800	;	17.6854
-50	;	900	;	17.53482
-50	;	1000	;	17.38425
-50	;	1100	;	17.19592
-50	;	1200	;	17.0076
-50	;	1300	;	16.81927
-50	;	1400	;	16.63094
-50	;	1500	;	16.44262
-50	;	1600	;	16.25429
-50	;	1700	;	16.06596
-50	;	1800	;	15.87763
-50	;	1900	;	15.68931
-50	;	2000	;	15.50098
-50	;	2100	;	15.2888
-50	;	2200	;	15.07662
-50	;	2300	;	14.86444
-50	;	2400	;	14.65226
-50	;	2500	;	14.44008
-50	;	2600	;	14.22789
-50	;	2700	;	14.01571
-50	;	2800	;	13.80353
-50	;	2900	;	13.59135
-50	;	3000	;	13.37917
-50	;	3100	;	13.18052
-50	;	3200	;	12.98186
-50	;	3300	;	12.78321
-50	;	3400	;	12.58455
-50	;	3500	;	12.3859
-50	;	3600	;	12.18725
-50	;	3700	;	11.98859
-50	;	3800	;	11.78994
-50	;	3900	;	11.59128
-50	;	4000	;	11.39263
-45	;	0	;	18.88998
-45	;	100	;	18.73848
-45	;	200	;	18.58699
-45	;	300	;	18.43549
-45	;	400	;	18.28399
-45	;	500	;	18.1325
-45	;	600	;	17.981
-45	;	700	;	17.8295
-45	;	800	;	17.678
-45	;	900	;	17.52651
-45	;	1000	;	17.37501
-45	;	1100	;	17.18761
-45	;	1200	;	17.0002
-45	;	1300	;	16.8128
-45	;	1400	;	16.6254
-45	;	1500	;	16.438
-45	;	1600	;	16.25059
-45	;	1700	;	16.06319
-45	;	1800	;	15.87579
-45	;	1900	;	15.68838
-45	;	2000	;	15.50098
-45	;	2100	;	15.2888
-45	;	2200	;	15.07662
-45	;	2300	;	14.86444
-45	;	2400	;	14.65226
-45	;	2500	;	14.44008
-45	;	2600	;	14.22789
-45	;	2700	;	14.01571
-45	;	2800	;	13.80353
-45	;	2900	;	13.59135
-45	;	3000	;	13.37917
-45	;	3100	;	13.18022
-45	;	3200	;	12.98127
-45	;	3300	;	12.78231
-45	;	3400	;	12.58336
-45	;	3500	;	12.38441
-45	;	3600	;	12.18546
-45	;	3700	;	11.98651
-45	;	3800	;	11.78755
-45	;	3900	;	11.5886
-45	;	4000	;	11.38965
-40	;	0	;	18.88998
-40	;	100	;	18.73756
-40	;	200	;	18.58514
-40	;	300	;	18.43272
-40	;	400	;	18.2803
-40	;	500	;	18.12788
-40	;	600	;	17.97545
-40	;	700	;	17.82303
-40	;	800	;	17.67061
-40	;	900	;	17.51819
-40	;	1000	;	17.36577
-40	;	1100	;	17.17929
-40	;	1200	;	16.99281
-40	;	1300	;	16.80633
-40	;	1400	;	16.61985
-40	;	1500	;	16.43338
-40	;	1600	;	16.2469
-40	;	1700	;	16.06042
-40	;	1800	;	15.87394
-40	;	1900	;	15.68746
-40	;	2000	;	15.50098
-40	;	2100	;	15.2888
-40	;	2200	;	15.07662
-40	;	2300	;	14.86444
-40	;	2400	;	14.65226
-40	;	2500	;	14.44008
-40	;	2600	;	14.22789
-40	;	2700	;	14.01571
-40	;	2800	;	13.80353
-40	;	2900	;	13.59135
-40	;	3000	;	13.37917
-40	;	3100	;	13.17992
-40	;	3200	;	12.98067
-40	;	3300	;	12.78142
-40	;	3400	;	12.58217
-40	;	3500	;	12.38293
-40	;	3600	;	12.18368
-40	;	3700	;	11.98443
-40	;	3800	;	11.78518
-40	;	3900	;	11.58593
-40	;	4000	;	11.38668
-35	;	0	;	18.88998
-35	;	100	;	18.73663
-35	;	200	;	18.58329
-35	;	300	;	18.42994
-35	;	400	;	18.2766
-35	;	500	;	18.12325
-35	;	600	;	17.9699
-35	;	700	;	17.81656
-35	;	800	;	17.66321
-35	;	900	;	17.50987
-35	;	1000	;	17.35652
-35	;	1100	;	17.17097
-35	;	1200	;	16.98541
-35	;	1300	;	16.79986
-35	;	1400	;	16.6143
-35	;	1500	;	16.42875
-35	;	1600	;	16.2432
-35	;	1700	;	16.05764
-35	;	1800	;	15.87209
-35	;	1900	;	15.68653
-35	;	2000	;	15.50098
-35	;	2100	;	15.2888
-35	;	2200	;	15.07662
-35	;	2300	;	14.86444
-35	;	2400	;	14.65226
-35	;	2500	;	14.44008
-35	;	2600	;	14.22789
-35	;	2700	;	14.01571
-35	;	2800	;	13.80353
-35	;	2900	;	13.59135
-35	;	3000	;	13.37917
-35	;	3100	;	13.17962
-35	;	3200	;	12.98008
-35	;	3300	;	12.78053
-35	;	3400	;	12.58099
-35	;	3500	;	12.38144
-35	;	3600	;	12.18189
-35	;	3700	;	11.98235
-35	;	3800	;	11.7828
-35	;	3900	;	11.58326
-35	;	4000	;	11.38371
-30	;	0	;	18.88998
-30	;	100	;	18.73571
-30	;	200	;	18.58144
-30	;	300	;	18.42717
-30	;	400	;	18.2729
-30	;	500	;	18.11863
-30	;	600	;	17.96436
-30	;	700	;	17.81009
-30	;	800	;	17.65582
-30	;	900	;	17.50155
-30	;	1000	;	17.34728
-30	;	1100	;	17.16265
-30	;	1200	;	16.97802
-30	;	1300	;	16.79339
-30	;	1400	;	16.60876
-30	;	1500	;	16.42413
-30	;	1600	;	16.2395
-30	;	1700	;	16.05487
-30	;	1800	;	15.87024
-30	;	1900	;	15.68561
-30	;	2000	;	15.50098
-30	;	2100	;	15.2888
-30	;	2200	;	15.07662
-30	;	2300	;	14.86444
-30	;	2400	;	14.65226
-30	;	2500	;	14.44008
-30	;	2600	;	14.22789
-30	;	2700	;	14.01571
-30	;	2800	;	13.80353
-30	;	2900	;	13.59135
-30	;	3000	;	13.37917
-30	;	3100	;	13.17933
-30	;	3200	;	12.97948
-30	;	3300	;	12.77964
-30	;	3400	;	12.57979
-30	;	3500	;	12.37995
-30	;	3600	;	12.18011
-30	;	3700	;	11.98026
-30	;	3800	;	11.78042
-30	;	3900	;	11.58057
-30	;	4000	;	11.38073
-25	;	0	;	18.88998
-25	;	100	;	18.73479
-25	;	200	;	18.57959
-25	;	300	;	18.4244
-25	;	400	;	18.2692
-25	;	500	;	18.11401
-25	;	600	;	17.95881
-25	;	700	;	17.80362
-25	;	800	;	17.64842
-25	;	900	;	17.49323
-25	;	1000	;	17.33803
-25	;	1100	;	17.15433
-25	;	1200	;	16.97062
-25	;	1300	;	16.78692
-25	;	1400	;	16.60321
-25	;	1500	;	16.41951
-25	;	1600	;	16.2358
-25	;	1700	;	16.0521
-25	;	1800	;	15.86839
-25	;	1900	;	15.68469
-25	;	2000	;	15.50098
-25	;	2100	;	15.2888
-25	;	2200	;	15.07662
-25	;	2300	;	14.86444
-25	;	2400	;	14.65226
-25	;	2500	;	14.44008
-25	;	2600	;	14.22789
-25	;	2700	;	14.01571
-25	;	2800	;	13.80353
-25	;	2900	;	13.59135
-25	;	3000	;	13.37917
-25	;	3100	;	13.17903
-25	;	3200	;	12.97889
-25	;	3300	;	12.77875
-25	;	3400	;	12.57861
-25	;	3500	;	12.37847
-25	;	3600	;	12.17832
-25	;	3700	;	11.97818
-25	;	3800	;	11.77804
-25	;	3900	;	11.5779
-25	;	4000	;	11.37776
-20	;	0	;	18.88998
-20	;	100	;	18.73386
-20	;	200	;	18.57774
-20	;	300	;	18.42162
-20	;	400	;	18.2655
-20	;	500	;	18.10939
-20	;	600	;	17.95327
-20	;	700	;	17.79715
-20	;	800	;	17.64103
-20	;	900	;	17.48491
-20	;	1000	;	17.32879
-20	;	1100	;	17.14601
-20	;	1200	;	16.96323
-20	;	1300	;	16.78045
-20	;	1400	;	16.59767
-20	;	1500	;	16.41489
-20	;	1600	;	16.2321
-20	;	1700	;	16.04932
-20	;	1800	;	15.86654
-20	;	1900	;	15.68376
-20	;	2000	;	15.50098
-20	;	2100	;	15.2888
-20	;	2200	;	15.07662
-20	;	2300	;	14.86444
-20	;	2400	;	14.65226
-20	;	2500	;	14.44008
-20	;	2600	;	14.22789
-20	;	2700	;	14.01571
-20	;	2800	;	13.80353
-20	;	2900	;	13.59135
-20	;	3000	;	13.37917
-20	;	3100	;	13.17167
-20	;	3200	;	12.96416
-20	;	3300	;	12.75666
-20	;	3400	;	12.54915
-20	;	3500	;	12.34165
-20	;	3600	;	12.13415
-20	;	3700	;	11.92664
-20	;	3800	;	11.71914
-20	;	3900	;	11.51163
-20	;	4000	;	11.30413
-15	;	0	;	18.88998
-15	;	100	;	18.73294
-15	;	200	;	18.57589
-15	;	300	;	18.41885
-15	;	400	;	18.2618
-15	;	500	;	18.10476
-15	;	600	;	17.94772
-15	;	700	;	17.79067
-15	;	800	;	17.63363
-15	;	900	;	17.47658
-15	;	1000	;	17.31954
-15	;	1100	;	17.13768
-15	;	1200	;	16.95583
-15	;	1300	;	16.77397
-15	;	1400	;	16.59212
-15	;	1500	;	16.41026
-15	;	1600	;	16.2284
-15	;	1700	;	16.04655
-15	;	1800	;	15.86469
-15	;	1900	;	15.68284
-15	;	2000	;	15.50098
-15	;	2100	;	15.28327
-15	;	2200	;	15.06557
-15	;	2300	;	14.84786
-15	;	2400	;	14.63015
-15	;	2500	;	14.41245
-15	;	2600	;	14.19474
-15	;	2700	;	13.97703
-15	;	2800	;	13.75932
-15	;	2900	;	13.54162
-15	;	3000	;	13.32391
-15	;	3100	;	13.07639
-15	;	3200	;	12.82886
-15	;	3300	;	12.58134
-15	;	3400	;	12.33382
-15	;	3500	;	12.0863
-15	;	3600	;	11.83877
-15	;	3700	;	11.59125
-15	;	3800	;	11.34373
-15	;	3900	;	11.0962
-15	;	4000	;	10.84868
-10	;	0	;	18.88998
-10	;	100	;	18.73201
-10	;	200	;	18.57404
-10	;	300	;	18.41608
-10	;	400	;	18.25811
-10	;	500	;	18.10014
-10	;	600	;	17.94217
-10	;	700	;	17.7842
-10	;	800	;	17.62624
-10	;	900	;	17.46827
-10	;	1000	;	17.3103
-10	;	1100	;	17.12937
-10	;	1200	;	16.94844
-10	;	1300	;	16.7675
-10	;	1400	;	16.58657
-10	;	1500	;	16.40564
-10	;	1600	;	16.22471
-10	;	1700	;	16.04378
-10	;	1800	;	15.86284
-10	;	1900	;	15.68191
-10	;	2000	;	15.50098
-10	;	2100	;	15.25938
-10	;	2200	;	15.01777
-10	;	2300	;	14.77617
-10	;	2400	;	14.53457
-10	;	2500	;	14.29297
-10	;	2600	;	14.05136
-10	;	2700	;	13.80976
-10	;	2800	;	13.56816
-10	;	2900	;	13.32655
-10	;	3000	;	13.08495
-10	;	3100	;	12.81578
-10	;	3200	;	12.5466
-10	;	3300	;	12.27743
-10	;	3400	;	12.00826
-10	;	3500	;	11.73909
-10	;	3600	;	11.46991
-10	;	3700	;	11.20074
-10	;	3800	;	10.93157
-10	;	3900	;	10.66239
-10	;	4000	;	10.39322
-5	;	0	;	18.88998
-5	;	100	;	18.73109
-5	;	200	;	18.5722
-5	;	300	;	18.4133
-5	;	400	;	18.25441
-5	;	500	;	18.09552
-5	;	600	;	17.93663
-5	;	700	;	17.77774
-5	;	800	;	17.61884
-5	;	900	;	17.45995
-5	;	1000	;	17.30106
-5	;	1100	;	17.12105
-5	;	1200	;	16.94104
-5	;	1300	;	16.76104
-5	;	1400	;	16.58103
-5	;	1500	;	16.40102
-5	;	1600	;	16.22101
-5	;	1700	;	16.041
-5	;	1800	;	15.861
-5	;	1900	;	15.68099
-5	;	2000	;	15.50098
-5	;	2100	;	15.22652
-5	;	2200	;	14.95206
-5	;	2300	;	14.6776
-5	;	2400	;	14.40314
-5	;	2500	;	14.12868
-5	;	2600	;	13.85422
-5	;	2700	;	13.57976
-5	;	2800	;	13.3053
-5	;	2900	;	13.03084
-5	;	3000	;	12.75638
-5	;	3100	;	12.47452
-5	;	3200	;	12.19266
-5	;	3300	;	11.9108
-5	;	3400	;	11.62894
-5	;	3500	;	11.34708
-5	;	3600	;	11.06521
-5	;	3700	;	10.78335
-5	;	3800	;	10.50149
-5	;	3900	;	10.21963
-5	;	4000	;	9.93777
0	;	0	;	18.88998
0	;	100	;	18.73016
0	;	200	;	18.57035
0	;	300	;	18.41053
0	;	400	;	18.25071
0	;	500	;	18.0909
0	;	600	;	17.93108
0	;	700	;	17.77126
0	;	800	;	17.61144
0	;	900	;	17.45163
0	;	1000	;	17.29181
0	;	1100	;	17.10628
0	;	1200	;	16.92075
0	;	1300	;	16.73521
0	;	1400	;	16.54968
0	;	1500	;	16.36415
0	;	1600	;	16.17862
0	;	1700	;	15.99309
0	;	1800	;	15.80755
0	;	1900	;	15.62202
0	;	2000	;	15.43649
0	;	2100	;	15.12109
0	;	2200	;	14.80568
0	;	2300	;	14.49028
0	;	2400	;	14.17487
0	;	2500	;	13.85947
0	;	2600	;	13.54406
0	;	2700	;	13.22866
0	;	2800	;	12.91325
0	;	2900	;	12.59785
0	;	3000	;	12.28244
0	;	3100	;	12.00243
0	;	3200	;	11.72242
0	;	3300	;	11.4424
0	;	3400	;	11.16239
0	;	3500	;	10.88238
0	;	3600	;	10.60237
0	;	3700	;	10.32236
0	;	3800	;	10.04234
0	;	3900	;	9.76233
0	;	4000	;	9.48232
5	;	0	;	18.88998
5	;	100	;	18.72924
5	;	200	;	18.5685
5	;	300	;	18.40776
5	;	400	;	18.24702
5	;	500	;	18.08628
5	;	600	;	17.92553
5	;	700	;	17.76479
5	;	800	;	17.60405
5	;	900	;	17.44331
5	;	1000	;	17.28257
5	;	1100	;	17.08144
5	;	1200	;	16.88031
5	;	1300	;	16.67918
5	;	1400	;	16.47805
5	;	1500	;	16.27693
5	;	1600	;	16.0758
5	;	1700	;	15.87467
5	;	1800	;	15.67354
5	;	1900	;	15.47241
5	;	2000	;	15.27128
5	;	2100	;	14.925
5	;	2200	;	14.57872
5	;	2300	;	14.23245
5	;	2400	;	13.88617
5	;	2500	;	13.53989
5	;	2600	;	13.19361
5	;	2700	;	12.84733
5	;	2800	;	12.50106
5	;	2900	;	12.15478
5	;	3000	;	11.8085
5	;	3100	;	11.53034
5	;	3200	;	11.25217
5	;	3300	;	10.97401
5	;	3400	;	10.69584
5	;	3500	;	10.41768
5	;	3600	;	10.13952
5	;	3700	;	9.86135
5	;	3800	;	9.58319
5	;	3900	;	9.30502
5	;	4000	;	9.02686
10	;	0	;	18.88998
10	;	100	;	18.72831
10	;	200	;	18.56665
10	;	300	;	18.40498
10	;	400	;	18.24332
10	;	500	;	18.08165
10	;	600	;	17.91998
10	;	700	;	17.75832
10	;	800	;	17.59665
10	;	900	;	17.43499
10	;	1000	;	17.27332
10	;	1100	;	17.02821
10	;	1200	;	16.7831
10	;	1300	;	16.538
10	;	1400	;	16.29289
10	;	1500	;	16.04778
10	;	1600	;	15.80267
10	;	1700	;	15.55756
10	;	1800	;	15.31246
10	;	1900	;	15.06735
10	;	2000	;	14.82224
10	;	2100	;	14.47347
10	;	2200	;	14.1247
10	;	2300	;	13.77593
10	;	2400	;	13.42716
10	;	2500	;	13.0784
10	;	2600	;	12.72963
10	;	2700	;	12.38086
10	;	2800	;	12.03209
10	;	2900	;	11.68332
10	;	3000	;	11.33455
10	;	3100	;	11.05824
10	;	3200	;	10.78192
10	;	3300	;	10.50561
10	;	3400	;	10.22929
10	;	3500	;	9.95298
10	;	3600	;	9.67667
10	;	3700	;	9.40035
10	;	3800	;	9.12404
10	;	3900	;	8.84772
10	;	4000	;	8.57141
15	;	0	;	18.88998
15	;	100	;	18.715
15	;	200	;	18.54001
15	;	300	;	18.36503
15	;	400	;	18.19004
15	;	500	;	18.01506
15	;	600	;	17.84008
15	;	700	;	17.66509
15	;	800	;	17.49011
15	;	900	;	17.31512
15	;	1000	;	17.14014
15	;	1100	;	16.84504
15	;	1200	;	16.54994
15	;	1300	;	16.25483
15	;	1400	;	15.95973
15	;	1500	;	15.66463
15	;	1600	;	15.36953
15	;	1700	;	15.07443
15	;	1800	;	14.77932
15	;	1900	;	14.48422
15	;	2000	;	14.18912
15	;	2100	;	13.84858
15	;	2200	;	13.50805
15	;	2300	;	13.16751
15	;	2400	;	12.82698
15	;	2500	;	12.48644
15	;	2600	;	12.1459
15	;	2700	;	11.80537
15	;	2800	;	11.46483
15	;	2900	;	11.1243
15	;	3000	;	10.78376
15	;	3100	;	10.50309
15	;	3200	;	10.22242
15	;	3300	;	9.94174
15	;	3400	;	9.66107
15	;	3500	;	9.3804
15	;	3600	;	9.09973
15	;	3700	;	8.81906
15	;	3800	;	8.53838
15	;	3900	;	8.25771
15	;	4000	;	7.97704
20	;	0	;	18.88194
20	;	100	;	18.65292
20	;	200	;	18.42391
20	;	300	;	18.19489
20	;	400	;	17.96587
20	;	500	;	17.73686
20	;	600	;	17.50784
20	;	700	;	17.27882
20	;	800	;	17.0498
20	;	900	;	16.82079
20	;	1000	;	16.59177
20	;	1100	;	16.25576
20	;	1200	;	15.91976
20	;	1300	;	15.58375
20	;	1400	;	15.24775
20	;	1500	;	14.91174
20	;	1600	;	14.57573
20	;	1700	;	14.23973
20	;	1800	;	13.90372
20	;	1900	;	13.56772
20	;	2000	;	13.23171
20	;	2100	;	12.88934
20	;	2200	;	12.54697
20	;	2300	;	12.2046
20	;	2400	;	11.86223
20	;	2500	;	11.51986
20	;	2600	;	11.17748
20	;	2700	;	10.83511
20	;	2800	;	10.49274
20	;	2900	;	10.15037
20	;	3000	;	9.808
20	;	3100	;	9.56357
20	;	3200	;	9.31914
20	;	3300	;	9.07471
20	;	3400	;	8.83028
20	;	3500	;	8.58585
20	;	3600	;	8.34142
20	;	3700	;	8.09699
20	;	3800	;	7.85256
20	;	3900	;	7.60813
20	;	4000	;	7.3637
25	;	0	;	18.57131
25	;	100	;	18.24332
25	;	200	;	17.91532
25	;	300	;	17.58733
25	;	400	;	17.25934
25	;	500	;	16.93135
25	;	600	;	16.60335
25	;	700	;	16.27536
25	;	800	;	15.94737
25	;	900	;	15.61937
25	;	1000	;	15.29138
25	;	1100	;	14.96404
25	;	1200	;	14.6367
25	;	1300	;	14.30937
25	;	1400	;	13.98203
25	;	1500	;	13.65469
25	;	1600	;	13.32735
25	;	1700	;	13.00001
25	;	1800	;	12.67268
25	;	1900	;	12.34534
25	;	2000	;	12.018
25	;	2100	;	11.69942
25	;	2200	;	11.38085
25	;	2300	;	11.06227
25	;	2400	;	10.7437
25	;	2500	;	10.42512
25	;	2600	;	10.10654
25	;	2700	;	9.78797
25	;	2800	;	9.46939
25	;	2900	;	9.15082
25	;	3000	;	8.83224
25	;	3100	;	8.62405
25	;	3200	;	8.41586
25	;	3300	;	8.20768
25	;	3400	;	7.99949
25	;	3500	;	7.7913
25	;	3600	;	7.58311
25	;	3700	;	7.37492
25	;	3800	;	7.16674
25	;	3900	;	6.95855
25	;	4000	;	6.75036
30	;	0	;	17.20236
30	;	100	;	16.88122
30	;	200	;	16.56009
30	;	300	;	16.23895
30	;	400	;	15.91782
30	;	500	;	15.59668
30	;	600	;	15.27554
30	;	700	;	14.95441
30	;	800	;	14.63327
30	;	900	;	14.31214
30	;	1000	;	13.991
30	;	1100	;	13.67233
30	;	1200	;	13.35366
30	;	1300	;	13.03499
30	;	1400	;	12.71632
30	;	1500	;	12.39765
30	;	1600	;	12.07898
30	;	1700	;	11.76031
30	;	1800	;	11.44164
30	;	1900	;	11.12297
30	;	2000	;	10.8043
30	;	2100	;	10.50952
30	;	2200	;	10.21474
30	;	2300	;	9.91995
30	;	2400	;	9.62517
30	;	2500	;	9.33039
30	;	2600	;	9.03561
30	;	2700	;	8.74083
30	;	2800	;	8.44604
30	;	2900	;	8.15126
30	;	3000	;	7.85648
30	;	3100	;	7.68453
30	;	3200	;	7.51259
30	;	3300	;	7.34064
30	;	3400	;	7.1687
30	;	3500	;	6.99675
30	;	3600	;	6.8248
30	;	3700	;	6.65286
30	;	3800	;	6.48091
30	;	3900	;	6.30897
30	;	4000	;	6.13702
35	;	0	;	15.83341
35	;	100	;	15.51913
35	;	200	;	15.20485
35	;	300	;	14.89057
35	;	400	;	14.57629
35	;	500	;	14.26202
35	;	600	;	13.94774
35	;	700	;	13.63346
35	;	800	;	13.31918
35	;	900	;	13.0049
35	;	1000	;	12.69062
35	;	1100	;	12.38062
35	;	1200	;	12.07061
35	;	1300	;	11.76061
35	;	1400	;	11.45061
35	;	1500	;	11.14061
35	;	1600	;	10.8306
35	;	1700	;	10.5206
35	;	1800	;	10.2106
35	;	1900	;	9.90059
35	;	2000	;	9.59059
35	;	2100	;	9.3196
35	;	2200	;	9.04861
35	;	2300	;	8.77763
35	;	2400	;	8.50664
35	;	2500	;	8.23565
35	;	2600	;	7.96466
35	;	2700	;	7.69367
35	;	2800	;	7.42269
35	;	2900	;	7.1517
35	;	3000	;	6.88071
35	;	3100	;	6.74501
35	;	3200	;	6.6093
35	;	3300	;	6.4736
35	;	3400	;	6.3379
35	;	3500	;	6.2022
35	;	3600	;	6.06649
35	;	3700	;	5.93079
35	;	3800	;	5.79509
35	;	3900	;	5.65938
35	;	4000	;	5.52368
40	;	0	;	14.46446
40	;	100	;	14.15704
40	;	200	;	13.84961
40	;	300	;	13.54219
40	;	400	;	13.23477
40	;	500	;	12.92735
40	;	600	;	12.61992
40	;	700	;	12.3125
40	;	800	;	12.00508
40	;	900	;	11.69765
40	;	1000	;	11.39023
40	;	1100	;	11.0889
40	;	1200	;	10.78756
40	;	1300	;	10.48623
40	;	1400	;	10.18489
40	;	1500	;	9.88356
40	;	1600	;	9.58223
40	;	1700	;	9.28089
40	;	1800	;	8.97956
40	;	1900	;	8.67822
40	;	2000	;	8.37689
40	;	2100	;	8.1297
40	;	2200	;	7.8825
40	;	2300	;	7.63531
40	;	2400	;	7.38811
40	;	2500	;	7.14092
40	;	2600	;	6.89373
40	;	2700	;	6.64653
40	;	2800	;	6.39934
40	;	2900	;	6.15214
40	;	3000	;	5.90495
40	;	3100	;	5.80549
40	;	3200	;	5.70603
40	;	3300	;	5.60657
40	;	3400	;	5.50711
40	;	3500	;	5.40765
40	;	3600	;	5.30819
40	;	3700	;	5.20873
40	;	3800	;	5.10927
40	;	3900	;	5.00981
40	;	4000	;	4.91035
45	;	0	;	13.09551
45	;	100	;	12.79494
45	;	200	;	12.49438
45	;	300	;	12.19381
45	;	400	;	11.89325
45	;	500	;	11.59268
45	;	600	;	11.29211
45	;	700	;	10.99155
45	;	800	;	10.69098
45	;	900	;	10.39042
45	;	1000	;	10.08985
45	;	1100	;	9.79718
45	;	1200	;	9.50452
45	;	1300	;	9.21185
45	;	1400	;	8.91918
45	;	1500	;	8.62652
45	;	1600	;	8.33385
45	;	1700	;	8.04118
45	;	1800	;	7.74851
45	;	1900	;	7.45585
45	;	2000	;	7.16318
45	;	2100	;	6.93978
45	;	2200	;	6.71638
45	;	2300	;	6.49298
45	;	2400	;	6.26958
45	;	2500	;	6.04619
45	;	2600	;	5.82279
45	;	2700	;	5.59939
45	;	2800	;	5.37599
45	;	2900	;	5.15259
45	;	3000	;	4.92919
45	;	3100	;	4.86597
45	;	3200	;	4.80275
45	;	3300	;	4.73954
45	;	3400	;	4.67632
45	;	3500	;	4.6131
45	;	3600	;	4.54988
45	;	3700	;	4.48666
45	;	3800	;	4.42345
45	;	3900	;	4.36023
45	;	4000	;	4.29701
50	;	0	;	11.72656
50	;	100	;	11.43285
50	;	200	;	11.13914
50	;	300	;	10.84543
50	;	400	;	10.55172
50	;	500	;	10.25802
50	;	600	;	9.96431
50	;	700	;	9.6706
50	;	800	;	9.37689
50	;	900	;	9.08318
50	;	1000	;	8.78947
50	;	1100	;	8.50547
50	;	1200	;	8.22147
50	;	1300	;	7.93747
50	;	1400	;	7.65347
50	;	1500	;	7.36948
50	;	1600	;	7.08548
50	;	1700	;	6.80148
50	;	1800	;	6.51748
50	;	1900	;	6.23348
50	;	2000	;	5.94948
50	;	2100	;	5.74988
50	;	2200	;	5.55027
50	;	2300	;	5.35067
50	;	2400	;	5.15106
50	;	2500	;	4.95146
50	;	2600	;	4.75185
50	;	2700	;	4.55225
50	;	2800	;	4.35264
50	;	2900	;	4.15304
50	;	3000	;	3.95343
50	;	3100	;	3.92645
50	;	3200	;	3.89948
50	;	3300	;	3.8725
50	;	3400	;	3.84553
50	;	3500	;	3.81855
50	;	3600	;	3.79157
50	;	3700	;	3.7646
50	;	3800	;	3.73762
50	;	3900	;	3.71065
50	;	4000	;	3.68367
